playerID,playerName,W,L,G,GS,CG,SHO,SV,IPouts,H,ER,HR,BB,SO,IBB,WP,HBP,BK,BFP,GF,R,SH,SF,GIDP
aasedo01,Don Aase,8,9,35,20,5,1,2,454,162,70,13,60,71,4,3,1,1,655,6,75,8,6,15
abbotgl01,Glenn Abbott,9,12,35,25,5,1,1,536,197,84,22,48,61,5,2,3,1,764,5,96,9,6,18
alexado01,Doyle Alexander,10,10,37,26,5,1,1,558,185,85,14,70,87,5,4,3,0,797,6,94,9,6,16
allarbr01,Brian Allard,2,3,14,6,1,0,1,154,51,23,4,22,27,2,1,1,0,220,4,26,2,2,5
allenne01,Neil Allen,5,7,38,5,1,0,9,260,83,36,6,36,65,7,3,1,1,368,22,40,5,4,7
anderri01,Rick Anderson,2,2,13,5,1,0,1,133,42,19,4,22,26,2,1,1,0,190,4,21,2,1,4
andujjo01,Joaquin Andujar,6,7,33,14,3,0,2,358,113,49,7,50,60,4,3,1,1,511,8,55,7,4,9
apontlu01,Luis Aponte,2,2,9,3,1,0,1,86,28,12,2,10,4,1,1,0,0,122,3,13,2,1,3
armstmi01,Mike Armstrong,2,2,11,3,1,0,1,98,33,14,3,16,29,2,1,1,0,140,3,16,1,1,3
arroyfe01,Fernando Arroyo,5,5,25,10,2,1,1,272,96,43,8,31,28,3,3,2,1,389,7,49,3,4,9
augusje01,Jerry Augustine,5,4,25,6,1,0,2,208,76,31,5,26,24,3,2,1,0,302,10,34,4,3,8
babcobo01,Bob Babcock,2,2,14,3,1,0,1,111,35,17,3,14,25,1,1,1,0,158,5,19,2,2,4
bacsimi01,Mike Bacsik,2,2,15,3,1,0,1,129,43,19,3,18,19,2,1,1,0,185,6,22,2,2,4
bahnsst01,Stan Bahnsen,4,4,36,4,1,0,3,235,71,30,7,31,48,3,3,1,0,329,12,34,4,2,5
bairdo01,Doug Bair,5,5,40,4,1,0,7,229,75,34,6,33,62,6,3,1,0,332,23,35,5,3,5
bannifl01,Floyd Bannister,9,12,37,27,6,1,1,571,185,79,21,69,134,6,5,3,1,815,5,90,8,5,13
barkele01,Len Barker,13,10,42,26,5,1,2,601,200,94,14,82,146,4,11,3,1,864,8,104,7,7,18
barlomi01,Mike Barlow,3,2,25,4,1,0,2,184,68,28,5,22,22,3,3,2,0,263,10,32,3,2,8
barrifr01,Francisco Barrios,5,4,18,11,2,0,1,234,75,34,7,31,26,2,1,2,1,335,3,38,3,3,6
barrji01,Jim Barr,4,5,22,11,2,0,1,264,100,42,9,25,28,3,2,2,1,376,5,44,3,4,10
baumgro01,Ross Baumgarten,7,9,31,21,3,1,1,445,140,60,12,59,66,2,5,2,1,629,5,67,8,6,11
beardda01,Dave Beard,2,2,12,3,1,0,1,103,32,14,2,13,27,1,1,1,0,145,5,16,2,1,3
beattji01,Jim Beattie,6,11,34,23,3,1,1,477,168,79,14,75,62,6,4,3,1,695,6,87,8,6,19
beckwjo01,Joe Beckwith,3,3,24,4,1,0,1,179,61,22,4,22,41,3,2,1,0,256,9,25,4,2,5
berenbr01,Bruce Berenyi,4,4,20,10,1,0,1,224,80,37,5,39,47,2,3,1,0,324,6,41,4,2,7
berenju01,Juan Berenguer,2,2,10,4,1,0,1,99,33,14,3,16,24,1,1,1,0,142,3,17,1,1,3
bibbyji01,Jim Bibby,14,7,40,24,5,1,1,562,165,71,15,68,122,5,5,4,1,781,7,79,7,4,14
billija01,Jack Billingham,4,4,17,9,2,0,1,213,79,34,7,25,22,3,2,3,0,307,4,37,3,2,9
birddo01,Doug Bird,3,2,21,4,1,0,1,173,61,25,5,17,26,2,2,1,0,245,7,28,3,3,6
blairde01,Dennis Blair,2,2,11,4,1,0,1,118,42,18,4,12,30,1,1,1,0,168,3,20,2,1,3
bluevi01,Vida Blue,12,10,34,26,7,2,1,582,186,80,14,64,117,7,4,1,1,814,4,86,10,7,14
blylebe01,Bert Blyleven,9,9,35,27,5,1,1,568,187,78,16,59,143,5,4,3,1,800,4,85,10,4,13
boddimi01,Mike Boddicker,3,4,18,7,1,0,1,197,64,29,6,26,33,2,2,1,0,280,5,32,3,2,6
boggsto01,Tommy Boggs,9,9,34,20,3,2,1,461,155,64,12,43,64,3,4,3,1,650,6,72,10,5,14
boitada01,Dan Boitano,2,2,12,3,1,0,1,104,38,16,4,12,20,1,2,1,0,150,3,18,2,1,3
bombama01,Mark Bomback,8,7,33,18,2,1,1,394,149,58,13,41,54,4,3,3,0,567,6,64,6,5,11
bonhabi01,Bill Bonham,5,4,19,12,1,0,1,258,87,37,7,29,44,3,3,2,1,366,3,40,4,2,7
borbope01,Pedro Borbon,2,2,16,3,1,0,1,115,40,17,4,13,15,2,1,1,0,164,6,20,2,2,3
bordiri01,Rich Bordi,1,1,8,3,1,0,1,81,28,12,2,9,0,1,1,0,0,116,2,13,1,1,2
bordlbi01,Bill Bordley,4,4,19,9,1,0,1,207,71,30,6,33,23,3,2,1,0,298,5,35,4,2,6
bottira01,Ralph Botting,4,4,22,9,1,0,1,233,96,40,7,32,40,2,4,1,1,343,7,44,4,3,6
bradfla01,Larry Bradford,3,3,28,4,1,0,2,162,48,20,4,21,32,4,2,1,1,229,11,23,4,2,4
breinfr01,Fred Breining,2,2,9,3,1,0,1,87,30,12,2,11,12,1,1,1,0,123,3,14,2,1,3
brettke01,Ken Brett,2,2,13,3,1,0,1,108,36,14,3,13,13,1,1,1,0,153,4,16,2,1,3
brusswa01,Warren Brusstar,3,2,20,3,1,0,1,137,48,20,3,16,26,2,1,1,0,193,7,21,3,1,6
burgmto01,Tom Burgmeier,4,3,36,4,1,0,8,243,80,28,6,20,46,3,1,2,0,337,18,33,5,2,10
burnsbr01,Britt Burns,11,10,38,23,7,1,2,555,174,67,14,52,104,4,2,3,2,769,6,76,11,5,13
burnssh01,Sheldon Burnside,2,2,10,3,1,0,1,89,33,13,3,10,17,1,1,1,0,127,3,15,2,1,3
burrira01,Ray Burris,6,10,32,22,2,0,1,439,153,65,14,51,70,6,4,4,1,627,5,74,7,5,12
busbyst01,Steve Busby,4,4,20,9,2,0,1,222,73,35,6,38,29,2,2,1,0,322,5,39,4,3,6
busketo01,Tom Buskey,4,4,26,4,1,0,2,196,65,28,7,23,35,4,2,1,0,276,12,31,4,2,7
butchjo01,John Butcher,5,5,21,10,2,0,2,240,79,34,6,28,61,2,2,1,0,341,6,39,4,2,6
bystrma01,Marty Bystrom,5,3,19,9,2,1,1,224,67,28,5,23,46,2,2,1,0,313,6,31,3,2,6
caldwmi01,Mike Caldwell,12,8,33,25,10,2,1,580,202,79,18,42,72,3,4,3,1,803,4,85,7,5,22
camacer01,Ernie Camacho,2,2,9,3,1,0,1,94,35,14,3,11,20,1,1,1,0,136,3,16,1,1,3
campbbi02,Bill Campbell,3,3,21,3,1,0,2,152,53,23,4,21,27,2,3,1,0,217,10,26,3,2,5
campri01,Rick Camp,4,4,38,5,1,0,7,239,77,27,5,26,25,5,2,2,0,335,17,31,6,3,9
candejo01,John Candelaria,11,11,37,27,6,0,2,593,202,82,16,46,90,5,2,3,1,824,5,89,9,8,19
capildo01,Doug Capilla,3,6,30,9,1,0,1,244,76,35,6,41,47,3,3,2,2,350,8,40,4,3,7
carltst01,Steve Carlton,16,9,38,29,10,2,1,694,194,77,18,71,202,9,9,3,6,949,4,86,10,6,13
castibo01,Bobby Castillo,5,4,35,5,1,0,4,234,65,28,5,39,54,4,2,1,0,328,16,31,4,4,6
castrbi01,Bill Castro,4,4,36,4,1,0,5,215,72,26,4,19,25,4,3,2,0,301,20,31,3,3,9
caudibi01,Bill Caudill,4,6,40,8,1,0,1,304,89,38,10,45,97,6,2,2,2,430,13,44,6,5,7
chambcr01,Craig Chamberlain,2,2,10,4,1,0,1,113,38,17,4,12,16,1,1,1,0,160,3,18,2,2,3
chrisga01,Gary Christenson,3,2,16,4,1,0,1,126,43,19,4,17,19,1,1,1,0,182,5,22,2,2,3
chrisla01,Larry Christenson,6,6,23,16,2,1,1,324,105,47,8,30,64,4,3,2,3,453,4,51,6,3,8
clancji01,Jim Clancy,10,13,36,26,9,1,1,585,181,80,15,94,114,4,7,2,0,838,5,92,8,6,17
clayke01,Ken Clay,4,6,27,10,1,0,2,271,96,43,8,36,34,3,6,3,0,394,10,47,5,3,8
clearma01,Mark Clear,7,6,38,4,1,0,6,274,75,37,5,51,86,5,4,3,0,394,22,43,6,3,6
clevere01,Reggie Cleveland,7,7,40,10,3,1,5,349,120,52,9,39,46,4,3,3,1,500,16,59,5,7,10
collido01,Don Collins,2,1,8,3,1,0,1,84,29,12,2,12,0,1,1,0,0,121,3,14,1,1,3
combege01,Geoff Combe,2,2,9,3,1,0,1,87,30,13,2,11,40,1,1,0,0,124,2,15,2,1,3
comerst01,Steve Comer,7,6,23,15,2,1,1,310,106,48,9,38,38,2,2,3,0,444,5,53,6,2,10
contrna01,Nardi Contreras,2,2,10,3,1,0,1,95,34,14,3,12,17,2,1,1,0,136,4,16,2,1,3
corbedo01,Doug Corbett,5,5,38,5,1,0,9,280,77,30,6,30,64,4,2,1,0,380,25,33,5,2,10
crawfst01,Steve Crawford,4,3,18,8,2,0,1,200,74,28,6,20,20,3,1,1,0,286,5,31,3,2,8
cruzvi01,Victor Cruz,5,6,39,4,1,0,7,234,67,33,7,34,76,5,3,2,1,331,24,35,5,5,6
curtijo01,John Curtis,10,8,39,20,4,1,1,480,158,67,11,59,77,10,8,2,1,680,9,76,10,4,15
dacqujo01,John D'Acquisto,3,3,17,4,1,0,2,146,45,21,4,27,40,2,2,1,0,209,6,24,3,2,4
darwida01,Danny Darwin,7,4,32,7,1,0,3,272,77,34,5,37,81,4,2,2,0,382,15,38,4,5,7
davisma01,Mark Davis,3,3,14,5,1,0,1,145,45,20,4,19,34,2,1,1,0,205,4,22,2,2,4
davisro02,Ron Davis,8,4,38,5,1,0,5,302,97,37,7,29,50,4,3,2,1,424,17,42,6,4,9
dennyjo01,John Denny,8,7,25,18,4,1,1,405,133,63,10,55,66,4,4,3,1,573,4,65,6,4,18
devinad01,Adrian Devine,2,2,17,3,1,0,1,137,57,20,4,16,14,2,1,1,0,202,5,24,2,2,5
dorseji01,Jim Dorsey,4,4,19,9,1,0,1,207,78,33,6,26,31,2,2,2,0,299,5,37,3,3,6
dotsori01,Richard Dotson,10,8,36,24,6,1,2,501,160,76,15,69,91,3,5,4,1,722,6,85,11,6,13
dragodi01,Dick Drago,7,6,38,7,1,0,5,311,100,44,10,34,57,5,2,3,0,439,18,48,5,3,10
dressro01,Rob Dressler,5,7,30,13,3,0,1,384,144,58,12,31,43,5,2,2,1,543,9,65,5,5,14
duesha01,Hal Dues,2,2,11,4,1,0,1,112,37,16,3,15,12,2,1,1,0,159,3,17,2,1,4
eastwra01,Rawly Eastwick,2,2,18,3,1,0,1,132,49,21,4,15,19,2,2,1,0,191,7,23,2,1,4
eckerde01,Dennis Eckersley,12,10,32,25,9,1,1,557,178,77,21,46,114,6,2,3,1,774,4,82,7,6,10
eicheju01,Juan Eichelberger,5,4,24,13,2,0,1,307,89,43,8,55,51,4,3,1,2,434,5,48,5,3,10
erickro01,Roger Erickson,7,11,33,23,5,0,1,499,178,72,14,52,78,2,5,3,2,713,5,83,6,6,14
espinni01,Nino Espinosa,7,7,24,17,3,1,1,360,122,51,12,38,41,5,2,2,1,507,3,58,4,3,11
falcope01,Pete Falcone,6,10,34,21,2,0,1,434,152,68,15,59,90,7,7,2,1,627,6,76,8,6,11
farmeed01,Ed Farmer,5,6,37,5,1,0,12,247,74,31,5,39,45,6,4,1,0,354,24,35,4,2,9
feltote01,Terry Felton,3,4,18,8,1,0,1,192,64,30,5,24,46,3,2,1,0,274,5,34,4,3,5
ferribo01,Bob Ferris,3,3,16,6,1,0,1,166,60,24,5,22,14,2,2,1,0,238,5,28,3,2,5
fidryma01,Mark Fidrych,4,5,22,12,2,0,1,254,96,42,8,33,29,4,3,2,0,373,5,48,5,2,6
figueed01,Ed Figueroa,5,6,19,12,3,1,1,268,96,41,8,28,31,2,3,1,1,379,3,43,4,3,7
fingero01,Rollie Fingers,7,7,41,4,1,0,12,250,82,33,5,28,59,7,3,1,1,353,26,36,4,4,5
flanami01,Mike Flanagan,15,10,37,29,10,2,1,635,215,88,19,61,125,3,7,2,1,885,4,96,8,7,23
flinnjo01,John Flinn,3,2,17,4,1,0,1,138,44,20,4,21,18,2,1,1,0,199,6,23,2,2,4
fordda02,Dave Ford,3,3,21,6,1,0,2,206,65,29,7,17,22,2,2,1,0,284,7,31,3,2,6
forscbo01,Bob Forsch,10,10,34,26,6,1,1,564,188,79,13,49,81,5,6,3,1,779,4,89,7,8,21
forscke01,Ken Forsch,11,9,38,23,6,2,2,557,183,69,13,41,72,4,2,3,2,769,8,76,8,5,15
forstte01,Terry Forster,2,2,13,3,1,0,2,97,31,14,2,12,17,2,1,0,0,138,7,15,1,1,3
frazige01,George Frazier,2,3,17,3,1,0,1,121,41,17,3,13,18,2,1,1,0,172,7,20,2,1,4
frostda01,Dave Frost,7,7,25,17,4,1,1,369,125,55,10,38,51,3,3,3,0,522,4,61,5,4,12
frymawo01,Woodie Fryman,4,4,32,5,1,0,6,205,61,24,4,26,48,4,2,2,0,287,17,28,4,2,5
fulghjo01,John Fulgham,7,6,25,15,5,1,1,353,102,44,9,35,65,3,2,2,1,481,5,48,4,3,10
galeri01,Rich Gale,10,9,35,25,4,1,1,513,164,81,14,79,88,4,5,3,0,737,4,89,8,5,15
garbege01,Gene Garber,4,6,40,4,1,0,8,227,81,33,7,20,47,4,1,2,0,323,22,38,3,2,7
garlawa01,Wayne Garland,6,9,30,18,3,1,1,410,154,67,15,47,52,3,4,4,0,598,5,78,8,6,12
garvije01,Jerry Garvin,3,5,28,6,1,0,3,210,70,26,6,23,39,3,1,1,0,296,9,31,4,2,6
gleatje01,Jerry Don Gleaton,2,2,10,3,1,0,1,91,31,13,2,11,7,1,1,1,0,130,3,14,2,1,3
glynned01,Ed Glynn,3,3,27,4,1,0,2,173,54,24,5,26,33,4,1,1,0,248,9,26,3,2,5
goltzda01,Dave Goltz,9,9,32,22,5,1,1,484,177,72,12,51,85,3,3,1,1,686,4,77,7,5,18
gossari01,Rich Gossage,5,4,37,4,1,0,14,240,64,27,6,31,77,3,3,1,0,331,27,30,5,3,6
griffmi02,Mike Griffin,4,5,22,10,1,0,2,237,85,36,7,30,37,3,3,1,0,344,6,42,3,3,6
griffto02,Tom Griffin,5,4,35,6,1,0,1,272,78,35,8,41,69,5,3,4,1,386,9,40,6,3,6
grimsro02,Ross Grimsley,7,6,23,15,3,0,1,313,121,55,10,30,29,2,2,2,1,452,4,60,5,4,11
guidrro01,Ron Guidry,14,7,34,23,7,2,2,554,165,68,14,59,153,2,5,1,0,762,6,73,8,6,16
gullibi01,Bill Gullickson,8,6,29,16,4,1,2,385,120,49,8,45,110,3,4,2,0,543,6,55,5,4,9
gurala01,Larry Gura,14,9,39,28,9,2,1,665,210,86,19,64,86,5,3,5,1,926,5,98,11,9,18
haasmo01,Moose Haas,13,12,38,28,9,2,1,629,213,86,23,55,122,5,6,1,1,873,5,97,5,7,17
haliced01,Ed Halicki,4,4,19,10,2,1,1,227,75,34,6,23,42,3,2,2,1,325,4,39,3,2,4
hamilda01,Dave Hamilton,2,3,19,4,1,0,1,148,51,26,4,26,31,2,1,1,0,219,6,29,3,2,4
hannapr01,Preston Hanna,3,3,21,7,1,0,1,210,63,29,5,39,37,3,3,2,0,303,4,33,4,3,6
hargeal01,Alan Hargesheimer,5,6,24,12,1,0,1,282,99,42,6,37,50,3,3,1,1,402,6,46,5,3,7
hartzpa01,Paul Hartzell,2,3,13,6,1,0,1,151,57,25,5,15,15,2,1,1,0,216,4,27,2,2,6
hasslan01,Andy Hassler,4,3,27,6,1,0,4,223,68,28,6,33,60,5,3,1,1,318,12,31,3,2,5
hausmto01,Tom Hausman,5,5,32,9,1,0,2,291,96,40,9,23,41,4,2,2,0,407,9,45,6,3,9
heaveda01,Dave Heaverlo,4,5,37,4,1,0,4,217,75,31,7,29,37,7,1,3,1,315,21,34,4,3,7
hernawi01,Willie Hernandez,4,6,42,7,1,0,1,278,96,44,8,41,62,6,4,2,1,404,13,48,6,4,7
hillejo01,John Hiller,3,3,18,3,1,0,3,141,46,21,5,22,30,2,2,0,0,204,9,22,3,2,4
hoffmgu01,Guy Hoffman,2,3,20,4,1,0,1,149,49,21,3,23,30,3,2,1,0,213,7,23,2,1,4
holdsfr01,Fred Holdsworth,2,2,11,3,1,0,1,104,38,15,3,14,18,1,1,1,0,151,3,18,1,1,3
hollaal01,Al Holland,4,3,28,5,1,0,3,201,60,22,4,27,54,4,1,1,1,284,13,26,4,3,5
holmasc01,Scott Holman,2,2,9,3,1,0,1,89,29,12,2,10,14,1,1,0,0,125,3,14,1,1,3
honeyri01,Rick Honeycutt,9,13,36,26,7,1,1,550,195,81,19,59,73,7,4,4,1,788,5,92,10,6,19
hooddo01,Don Hood,4,4,26,9,1,0,1,242,83,33,5,35,33,3,3,2,1,348,6,38,5,3,8
hootobu01,Burt Hooton,11,8,33,25,6,1,1,547,167,70,15,54,102,3,4,1,1,757,4,77,10,6,12
houghch01,Charlie Hough,4,3,23,6,1,0,1,223,69,34,6,36,46,2,4,3,0,320,8,37,4,2,6
howelja01,Jay Howell,1,1,8,3,1,0,1,81,30,12,2,9,6,1,1,1,0,116,3,14,1,1,3
howest01,Steve Howe,5,5,31,5,1,0,6,209,69,26,4,20,32,5,1,1,0,296,15,31,5,2,5
hoytla01,LaMarr Hoyt,7,4,26,11,2,1,1,307,108,47,8,36,48,3,3,2,0,441,7,53,6,5,9
hraboal01,Al Hrabosky,5,3,32,4,1,0,5,182,55,25,5,30,37,4,3,1,0,262,18,28,3,3,5
humeto01,Tom Hume,7,7,42,8,1,0,10,331,109,39,7,30,56,7,2,2,0,460,25,44,6,3,9
hurstbr01,Bruce Hurst,4,4,19,8,1,0,1,189,68,33,6,26,30,2,3,2,1,274,5,37,3,2,5
jacksda01,Darrell Jackson,8,8,36,19,2,0,2,446,150,65,13,61,81,3,6,2,1,635,8,72,6,4,16
jacksgr01,Grant Jackson,5,4,39,4,1,0,5,200,65,25,5,24,32,3,2,1,0,280,15,28,4,4,6
jacksro03,Roy Lee Jackson,3,5,23,8,1,0,1,224,79,32,6,24,58,3,3,1,1,315,5,36,4,3,7
jeffeje01,Jesse Jefferson,3,5,19,8,2,0,1,223,82,35,9,29,31,2,2,1,0,318,5,39,3,2,7
jenkife01,Fergie Jenkins,11,10,32,24,8,1,1,538,173,76,20,46,116,5,4,3,0,749,4,82,7,5,15
johnsjo04,John Henry Johnson,3,3,17,6,1,0,1,161,48,23,5,22,36,2,2,1,0,228,6,25,3,2,4
johnto01,Tommy John,16,8,36,28,11,3,1,643,217,81,11,50,81,3,6,4,1,887,5,93,10,4,27
jonesje01,Jeff Jones,2,3,20,4,1,0,2,145,41,19,3,23,37,2,2,1,0,206,7,23,3,2,3
jonesmi02,Mike Jones,2,2,12,5,1,0,1,122,41,18,3,17,15,2,1,1,0,174,4,21,2,1,3
jonesra01,Randy Jones,7,10,30,23,4,1,1,487,166,67,11,39,59,7,2,1,0,678,4,74,11,4,17
kaatji01,Jim Kaat,6,5,35,11,3,1,2,304,108,43,7,26,32,6,3,2,1,428,12,48,6,4,11
kainedo01,Don Kainer,3,3,17,7,1,0,1,187,64,25,4,23,29,2,1,2,0,267,5,29,4,2,6
keetori01,Rickey Keeton,4,4,20,9,1,0,2,229,83,34,7,25,21,2,2,1,0,328,6,37,4,3,7
keougma02,Matt Keough,10,13,37,27,11,1,1,613,202,82,18,82,104,4,10,5,1,872,5,95,9,6,15
kernji01,Jim Kern,5,5,31,4,1,0,6,214,60,27,4,37,60,5,3,1,0,304,17,30,6,3,7
kerrijo01,Joe Kerrigan,1,1,8,3,1,0,1,79,27,11,2,11,14,1,1,0,0,114,3,13,1,1,2
kingmbr01,Brian Kingman,9,13,35,24,7,1,1,531,176,77,16,64,95,5,7,3,0,758,5,87,6,4,12
kinnede01,Dennis Kinney,3,4,29,4,1,0,1,204,65,30,5,28,33,6,2,1,0,292,10,34,4,2,6
kinnumi01,Mike Kinnunen,2,2,14,4,1,0,1,116,41,17,3,13,12,1,1,1,0,166,5,20,2,2,3
kisonbr01,Bruce Kison,7,6,26,15,2,1,1,340,107,48,8,40,61,3,3,3,1,478,5,54,7,4,11
knappch01,Chris Knapp,5,7,29,17,2,0,1,348,123,64,13,44,54,3,3,4,1,509,5,69,6,5,8
kneppbo01,Bob Knepper,9,12,36,27,7,2,1,566,201,85,16,61,100,8,4,4,1,816,4,93,9,5,15
knowlda01,Darold Knowles,2,2,14,2,0,0,1,89,30,13,3,11,14,2,1,0,0,127,5,14,1,1,2
kobelke01,Kevin Kobel,3,3,15,7,1,0,1,169,59,25,5,18,23,3,1,1,0,239,4,27,3,2,5
koosmje01,Jerry Koosman,12,11,36,26,6,1,2,595,201,83,17,62,123,5,3,4,1,833,5,91,12,5,21
kraveke01,Ken Kravec,6,7,24,16,3,1,1,350,110,58,12,53,66,3,3,5,1,507,4,64,6,5,9
krukomi01,Mike Krukow,10,11,36,27,3,0,1,537,177,83,13,73,116,7,4,5,1,770,5,93,9,8,14
kucekja01,Jack Kucek,4,6,24,10,1,0,2,234,83,41,8,38,39,3,2,1,0,345,6,45,5,2,7
laceybo01,Bob Lacey,3,4,34,4,1,0,3,212,72,29,6,23,40,5,3,1,0,302,16,33,4,3,6
lacorfr01,Frank LaCorte,5,4,29,5,1,0,4,207,56,27,5,31,56,3,2,1,0,290,16,30,3,3,6
lacosmi01,Mike LaCoss,10,10,35,24,4,1,1,492,178,74,10,65,56,7,3,2,2,711,5,85,8,5,18
lagrole01,Lerrin LaGrow,3,2,21,3,1,0,3,143,48,20,4,20,25,2,2,1,1,205,9,23,2,2,4
lampde01,Dennis Lamp,9,11,38,28,4,1,1,534,204,84,14,56,70,7,5,3,1,772,6,92,11,4,16
langfri01,Rick Langford,13,12,39,27,15,1,1,675,223,91,21,58,92,6,8,3,1,933,6,102,8,9,17
lapoida01,Dave LaPoint,3,3,16,7,1,0,2,167,56,25,5,26,16,2,1,1,1,241,5,29,3,2,5
larocda01,Dave LaRoche,5,7,42,7,1,0,6,307,103,47,10,37,72,4,1,2,1,435,18,51,7,4,7
larsoda01,Dan Larson,3,5,19,9,1,0,1,213,70,29,6,31,28,4,2,1,1,305,5,35,5,2,6
lavelga01,Gary Lavelle,6,6,42,4,1,0,8,252,83,32,5,33,59,7,2,1,2,359,22,36,6,4,7
leach01,Charlie Lea,7,6,28,16,1,0,2,334,110,47,7,52,59,4,3,2,0,480,6,54,5,4,8
leallu01,Luis Leal,5,5,22,11,2,0,1,253,93,38,7,37,35,3,2,1,0,365,6,43,5,3,8
leebi03,Bill Lee,7,7,27,18,3,1,1,390,147,56,13,32,35,2,1,2,0,557,5,64,5,4,12
leema01,Mark Lee,2,2,15,3,1,0,1,104,37,15,2,14,13,2,1,1,0,150,5,16,3,1,3
leibrch01,Charlie Leibrandt,8,8,35,19,4,1,2,426,157,63,12,45,50,4,2,2,3,610,7,68,8,3,13
lemanda01,Dave Lemanczyk,4,5,18,8,3,1,1,227,81,34,7,29,29,2,3,2,1,327,5,40,4,2,7
leonade01,Dennis Leonard,15,11,37,29,9,3,1,669,216,95,24,61,126,5,8,3,1,930,4,103,10,6,16
lerchra01,Randy Lerch,7,10,32,21,3,0,1,446,162,70,13,51,63,4,4,1,1,639,5,78,8,8,12
lewalde01,Dennis Lewallyn,1,2,9,3,1,0,1,88,32,13,2,11,3,2,1,1,0,126,3,15,1,1,2
littema01,Mark Littell,2,2,19,3,1,0,3,116,33,16,3,19,38,3,2,1,0,165,11,17,2,1,3
littlje01,Jeff Little,2,2,13,5,1,0,1,135,44,19,3,17,40,1,1,1,0,191,4,21,2,1,4
littljo01,John Littlefield,4,4,26,4,1,0,4,176,62,24,4,19,20,4,1,1,1,249,12,28,2,3,6
lockwsk01,Skip Lockwood,3,4,22,4,1,0,4,158,54,22,5,18,32,3,1,1,0,224,12,25,2,2,5
lollati01,Tim Lollar,2,2,14,4,1,0,1,134,45,19,4,21,17,2,2,1,1,192,4,21,3,2,4
lopezau01,Aurelio Lopez,8,5,42,5,1,0,10,297,89,39,10,39,78,3,4,2,1,419,28,42,5,3,7
lucasga01,Gary Lucas,5,6,34,13,1,0,3,345,109,45,8,35,66,8,4,1,1,480,10,50,8,5,11
lylesp01,Sparky Lyle,2,2,18,2,1,0,3,122,38,16,3,13,17,2,1,1,0,170,10,18,3,2,3
lynched01,Ed Lynch,4,4,18,8,1,0,1,193,69,28,5,20,29,2,2,1,0,275,5,32,3,2,5
lysanri01,Rick Lysander,2,2,9,3,1,0,1,96,37,15,3,10,10,1,1,1,0,138,3,17,1,1,3
macwhke01,Keith MacWhorter,2,3,15,5,1,0,1,156,54,24,4,20,25,2,1,1,0,224,5,27,3,2,5
mahlemi01,Mickey Mahler,2,3,10,5,1,0,0,106,38,19,4,16,24,2,1,1,0,157,2,21,2,2,3
mahleri01,Rick Mahler,1,1,10,3,1,0,1,88,30,13,3,10,14,1,1,0,0,125,3,14,1,1,3
marshmi01,Mike Marshall,3,4,24,3,1,0,6,162,53,22,3,19,29,1,2,1,0,228,17,24,4,2,6
martial02,Freddie Martinez,7,8,31,17,3,1,2,391,130,61,11,50,49,3,4,2,0,560,7,66,5,4,10
martide01,Dennis Martinez,7,6,24,15,5,1,1,367,119,51,11,41,57,3,3,1,1,513,5,55,4,4,13
martijo05,John Martin,4,4,18,8,2,0,1,201,66,29,4,19,38,2,2,1,0,282,5,32,3,2,6
martire01,Renie Martin,7,8,36,14,2,0,4,363,117,56,12,56,63,4,4,2,0,522,11,66,5,4,13
martisi01,Silvio Martinez,8,8,29,19,4,1,1,408,134,59,10,54,54,4,3,2,2,580,4,69,5,5,12
martiti01,Tippy Martinez,5,4,33,4,1,0,4,218,65,28,4,31,60,3,4,1,0,306,14,32,3,2,8
martzra01,Randy Martz,4,4,21,10,1,0,2,231,75,30,6,27,13,3,2,1,0,328,6,36,4,3,6
matlajo01,Jon Matlack,9,9,34,24,7,1,2,551,198,75,14,39,106,3,6,2,0,769,5,84,7,5,17
matulri01,Rick Matula,9,10,35,24,3,1,1,490,179,77,14,57,59,8,3,2,2,704,5,86,7,7,19
mayru01,Rudy May,10,6,35,14,3,1,2,400,120,44,10,36,97,3,4,2,2,548,10,52,7,3,11
mccatst01,Steve McCatty,11,11,37,24,8,1,1,569,188,83,19,81,94,5,4,7,0,827,7,95,7,8,11
mcclubo01,Bob McClure,5,5,36,6,1,0,5,236,74,31,7,33,47,2,2,2,1,339,15,36,3,3,5
mcgloly01,Lynn McGlothen,10,11,40,20,3,1,2,482,178,76,18,54,108,6,3,2,1,694,8,82,8,6,12
mcgratu01,Tug McGraw,4,4,39,4,1,0,9,233,67,28,5,23,60,5,2,1,0,320,25,32,4,3,6
mcgresc01,Scott McGregor,15,8,37,27,8,3,1,618,203,79,16,44,95,3,3,2,2,849,5,87,9,7,18
mclauby01,Byron McLaughlin,4,5,31,7,1,0,4,262,93,46,10,40,49,6,4,2,0,386,12,50,6,3,8
mclaujo01,Joey McLaughlin,6,6,40,9,1,0,4,326,114,48,10,43,57,6,3,2,0,468,16,54,7,4,14
mcwilla01,Larry McWilliams,9,9,33,23,3,1,1,451,160,75,18,43,69,4,4,5,1,647,5,80,8,3,9
medicdo01,Doc Medich,11,9,35,23,5,1,1,519,184,75,12,52,74,3,5,3,1,740,5,86,8,4,17
milledy01,Dyar Miller,2,2,19,3,1,0,1,140,48,19,3,17,25,2,1,1,0,199,7,21,2,2,4
minetcr01,Craig Minetto,2,3,14,5,1,0,1,139,49,23,5,20,24,2,1,1,0,203,4,27,2,2,4
mintogr01,Greg Minton,4,4,38,4,1,0,7,235,70,27,3,29,35,4,4,1,1,327,17,31,6,2,8
mirabpa01,Paul Mirabella,6,9,33,16,2,1,1,349,127,55,10,56,48,4,4,2,1,515,6,63,7,4,11
mitchpa01,Paul Mitchell,5,6,23,12,2,1,1,297,103,45,10,30,38,3,2,2,0,418,6,50,5,4,10
moffira01,Randy Moffitt,2,2,17,3,1,0,2,109,40,18,3,13,20,3,1,1,0,157,7,19,2,1,3
mongesi01,Sid Monge,5,5,42,4,1,0,8,255,70,32,7,39,61,5,3,1,1,360,24,35,4,3,5
montajo01,John Montague,4,3,24,4,1,0,3,188,72,30,6,22,19,2,2,1,0,272,11,34,3,3,7
montejo01,John Montefusco,5,7,25,17,1,0,1,365,125,54,13,40,84,5,3,2,1,521,4,59,5,4,8
mooreba02,Balor Moore,3,4,23,8,2,0,1,223,78,37,7,33,29,2,2,3,0,324,7,42,4,3,9
mooredo01,Donnie Moore,2,2,18,3,1,0,1,131,50,21,4,14,22,3,1,1,0,189,6,23,2,2,4
morrija02,Jack Morris,14,11,39,27,8,1,1,625,204,90,18,73,101,5,6,4,1,884,6,98,8,9,20
moskapa01,Paul Moskau,7,6,31,17,2,1,2,399,130,58,12,46,80,3,5,1,3,563,6,62,8,5,10
munnisc01,Scott Munninghoff,2,2,9,3,1,0,1,87,30,12,2,12,8,1,1,0,0,124,2,14,1,1,2
murast01,Steve Mura,7,7,41,17,2,1,3,423,126,58,10,68,96,4,3,2,1,600,10,64,10,6,14
murrada01,Dale Murray,2,2,16,3,1,0,1,122,44,19,3,15,18,3,1,1,0,176,6,21,2,2,4
nastuph01,Phil Nastu,2,2,11,5,1,0,1,116,41,17,4,15,17,2,1,1,0,167,3,20,2,1,4
niekrjo01,Joe Niekro,15,10,37,28,8,2,1,625,199,80,13,73,100,3,10,5,0,882,5,93,7,7,18
niekrph01,Phil Niekro,13,13,36,28,11,2,1,663,203,87,22,70,145,4,8,5,2,924,4,98,10,5,17
niemara01,Randy Niemann,2,2,18,5,1,0,1,152,53,23,3,17,22,2,1,1,1,217,4,25,3,2,4
nolesdi01,Dickie Noles,3,4,27,8,1,0,3,236,75,33,6,35,47,5,2,1,1,340,9,38,5,3,5
normafr01,Fred Norman,5,5,28,12,2,0,2,289,95,41,8,36,53,3,1,1,1,412,5,46,5,3,7
norrimi01,Mike Norris,14,10,40,26,12,1,1,662,187,81,15,87,143,6,8,6,2,924,6,92,9,8,16
ojedabo01,Bob Ojeda,4,4,21,10,1,0,2,226,88,36,6,31,32,3,2,1,0,325,6,39,3,2,8
olmstal01,Al Olmsted,4,4,20,9,1,0,2,239,77,32,6,30,32,3,2,2,0,339,6,36,4,2,7
ottenji01,Jim Otten,2,4,21,6,1,0,1,171,65,27,4,23,37,4,1,1,1,248,6,30,3,3,6
owchibo01,Bob Owchinko,5,8,30,15,2,1,1,348,122,54,11,45,58,4,4,2,1,500,5,59,7,4,9
paceljo01,John Pacella,4,5,28,12,1,0,1,261,88,42,6,48,67,3,3,2,1,382,7,46,6,2,7
palmeda01,David Palmer,8,6,34,16,3,1,2,401,127,48,11,34,78,4,2,2,1,555,8,56,7,3,12
palmeji01,Jim Palmer,12,8,33,24,6,1,1,548,178,75,17,59,86,2,3,2,0,767,4,81,8,5,14
parromi01,Mike Parrott,5,9,29,16,4,1,2,351,134,61,12,45,63,8,2,2,1,513,7,67,6,3,12
pastofr01,Frank Pastore,11,8,37,21,6,1,3,500,158,67,13,42,103,5,2,1,1,692,8,73,7,5,10
pattima01,Marty Pattin,4,2,26,5,1,0,3,230,82,33,7,21,33,4,2,1,0,326,11,37,3,3,7
paxtomi01,Mike Paxton,2,2,11,6,1,0,1,135,52,24,4,15,21,1,1,1,0,198,2,26,2,2,3
perezpa01,Pascual Perez,3,4,19,8,1,0,2,204,72,29,5,21,40,2,2,2,0,289,6,32,4,3,6
perryga01,Gaylord Perry,6,5,19,13,3,0,1,292,98,38,5,28,58,3,3,2,0,409,3,43,5,3,9
petryda01,Dan Petry,9,8,32,21,4,2,1,465,147,67,12,68,79,9,5,3,2,661,6,75,8,5,17
pladsgo01,Gordie Pladson,3,4,19,8,1,0,1,195,65,29,5,24,21,2,1,1,0,278,5,32,3,2,6
pricejo02,Joe Price,6,4,26,12,2,0,1,306,93,42,9,35,42,2,2,1,1,424,6,45,6,2,10
prolymi01,Mike Proly,5,7,39,7,1,0,5,325,104,42,7,40,40,6,3,2,1,459,18,50,5,5,11
quiseda01,Dan Quisenberry,7,5,43,5,1,0,13,281,96,36,6,22,28,7,2,1,0,392,30,39,5,4,12
rainech01,Chuck Rainey,8,5,25,14,3,1,1,326,108,50,8,45,49,3,4,2,0,466,5,54,4,3,15
rajsida01,Dave Rajsich,3,3,20,5,1,0,1,167,60,26,6,22,37,1,2,1,0,241,6,29,2,2,4
rasmuer01,Eric Rasmussen,5,8,32,14,2,1,2,326,112,46,9,32,44,5,1,2,2,461,9,51,7,4,9
ratzest01,Steve Ratzer,3,3,18,7,1,0,1,187,68,28,5,22,0,2,2,1,0,268,5,31,3,2,5
rawlesh01,Shane Rawley,5,6,39,5,1,0,7,276,89,37,5,44,54,7,3,2,1,393,21,41,7,3,10
reardje01,Jeff Reardon,5,5,36,5,1,0,3,251,73,30,7,34,73,7,2,1,0,356,17,34,5,3,5
redfepe01,Pete Redfern,7,6,32,13,2,0,2,342,119,51,10,38,82,3,3,1,1,487,9,56,5,4,9
reedro01,Ron Reed,6,5,37,4,1,0,5,235,77,34,5,24,50,5,3,1,0,331,18,37,4,3,7
remmewi01,Win Remmerswaal,3,2,14,4,1,0,1,136,49,21,4,16,28,2,1,1,0,193,5,23,2,2,4
renkost01,Steve Renko,8,8,31,20,2,1,1,439,152,66,14,52,82,4,3,2,1,626,5,73,6,4,10
reuscri01,Rick Reuschel,12,11,37,29,5,1,1,631,222,83,13,60,111,8,5,5,1,894,4,92,13,8,20
reussje01,Jerry Reuss,11,9,40,23,6,3,3,544,175,64,10,46,91,7,5,2,1,756,10,78,11,4,17
rhoderi01,Rick Rhoden,7,6,27,16,3,1,1,368,125,53,9,39,65,4,5,2,0,521,5,58,5,4,12
richajr01,J. R. Richard,10,6,25,19,7,2,1,436,106,46,7,58,158,3,6,1,1,590,3,53,7,4,10
rileyge01,George Riley,2,3,16,4,1,0,1,136,48,22,3,20,21,3,1,1,0,197,5,25,3,1,5
rincoan01,Andy Rincon,5,4,20,9,2,0,2,236,72,32,6,24,62,3,2,1,1,327,6,35,4,2,8
ripleal01,Allen Ripley,7,7,29,15,2,0,1,355,129,55,12,39,62,6,4,3,1,512,7,63,6,4,11
robbibr01,Bruce Robbins,4,4,20,9,1,0,1,217,76,36,8,32,32,2,3,1,0,314,4,39,3,3,6
roberbe01,Bert Roberge,3,2,16,3,1,0,1,123,37,18,3,17,16,1,2,1,0,172,5,19,2,1,4
roberda05,Dave Roberts,4,4,25,7,1,0,2,213,77,32,6,25,34,5,2,1,0,308,7,37,4,4,8
robinde01,Dewey Robinson,2,2,15,4,1,0,1,134,39,19,3,19,33,2,1,1,0,188,5,21,2,2,3
robindo01,Don Robinson,8,8,32,21,4,1,2,464,153,66,13,45,96,5,6,4,2,651,5,71,7,4,11
rogerst01,Steve Rogers,12,10,38,29,10,3,1,670,202,78,14,69,123,6,6,3,0,922,4,86,15,6,16
romoen01,Enrique Romo,6,5,48,4,1,0,5,295,93,38,8,30,69,4,2,2,2,410,21,43,6,3,6
rookeji01,Jim Rooker,4,5,18,11,1,0,1,231,76,35,6,34,34,3,2,1,0,330,3,39,4,3,8
rowlami01,Mike Rowland,2,2,14,4,1,0,1,116,35,15,3,13,12,2,1,1,0,163,6,17,2,1,3
rozemda01,Dave Rozema,6,7,29,14,3,1,2,362,124,50,10,35,39,6,4,3,0,513,8,57,8,4,12
ruhleve01,Vern Ruhle,8,6,31,18,4,2,1,415,131,48,9,30,53,3,2,3,1,569,5,55,8,4,14
ruthvdi01,Dick Ruthven,13,8,34,25,5,1,1,550,189,76,12,55,78,7,4,3,2,772,5,82,8,5,19
ryanno01,Nolan Ryan,11,10,35,27,8,2,1,588,163,78,11,96,186,3,8,3,1,829,4,89,7,8,15
sambijo01,Joe Sambito,6,5,41,4,1,0,10,238,68,26,5,23,73,3,2,2,0,327,25,29,4,2,7
sandesc01,Scott Sanderson,12,10,38,26,5,2,2,561,177,70,16,56,128,4,5,3,1,780,6,75,9,6,11
sarmima01,Manny Sarmiento,2,2,14,3,1,0,1,111,37,16,3,14,24,2,1,1,0,158,5,18,2,2,3
saucike01,Kevin Saucier,4,3,25,4,1,0,1,173,60,24,4,24,25,4,1,2,0,246,6,27,3,3,5
scarbra02,Randy Scarbery,2,3,18,4,1,0,2,148,48,22,4,16,25,2,2,1,0,210,6,25,3,2,4
schatda01,Dan Schatzeder,10,9,35,21,5,1,1,504,149,68,17,60,90,6,6,2,1,700,6,72,7,4,13
schroke01,Ken Schrom,2,2,14,4,1,0,1,123,41,19,3,19,16,2,1,1,0,176,4,20,2,1,3
schulda01,Dave Schuler,2,2,10,3,1,0,1,95,32,14,3,9,16,1,1,0,0,135,3,15,2,2,3
scottmi03,Mike Scott,4,4,23,11,2,1,1,244,92,37,6,27,33,3,2,1,1,351,5,41,5,3,8
scurrro01,Rod Scurry,2,2,15,4,1,0,1,135,37,17,3,18,35,2,1,1,0,189,4,20,3,1,4
seamaki01,Kim Seaman,2,2,15,4,1,0,2,114,33,16,3,16,18,1,1,1,0,162,5,17,2,1,3
seaveto01,Tom Seaver,10,7,30,22,5,2,1,485,140,63,16,54,110,5,4,1,0,668,4,69,6,6,12
shirlbo01,Bob Shirley,7,9,39,13,2,0,3,368,122,49,10,43,67,8,2,2,1,517,15,55,7,4,9
slatoji01,Jim Slaton,6,4,18,12,4,1,1,267,93,38,8,28,33,1,3,2,0,377,3,42,3,3,8
smithda02,Dave Smith,5,4,31,5,1,0,4,233,72,26,4,25,66,4,2,2,1,326,15,29,4,2,6
smithle02,Lee Smith,2,2,13,4,1,0,1,111,36,15,3,16,28,2,1,1,0,158,4,17,2,1,3
solomed01,Eddie Solomon,6,6,27,14,2,0,1,329,107,44,10,39,51,5,2,3,1,467,5,53,5,3,9
sorenla01,Lary Sorensen,11,9,33,24,8,2,1,536,198,75,15,38,49,4,3,3,0,750,5,82,7,6,19
sosael01,Elias Sosa,6,5,41,4,1,0,7,243,79,29,5,26,49,5,2,1,1,341,24,31,5,2,6
sotoma01,Mario Soto,8,6,42,10,2,1,3,405,101,53,9,64,128,7,4,2,2,565,10,59,7,5,7
souzama01,Mark Souza,2,2,9,3,1,0,1,87,30,13,2,11,7,1,1,0,0,124,2,14,1,1,2
spillda01,Dan Spillner,11,8,44,20,4,1,2,505,179,87,17,64,95,4,6,3,0,732,11,92,6,6,11
splitpa01,Paul Splittorff,12,11,34,26,6,0,1,545,192,81,16,47,52,2,2,2,0,767,4,91,8,7,19
sprowbo01,Bobby Sprowl,1,2,8,3,1,0,1,80,25,11,2,11,27,1,1,0,0,113,2,13,1,1,2
stablge01,George Stablein,3,3,14,6,1,0,1,149,54,21,4,16,17,2,2,1,0,212,4,23,3,2,4
stanhdo01,Don Stanhouse,3,3,21,3,1,0,6,134,39,19,3,26,19,3,1,1,0,192,13,20,2,3,5
stanlbo01,Bob Stanley,10,7,39,16,4,1,6,442,160,60,10,39,49,5,1,4,0,621,16,67,6,5,22
stantmi01,Mike Stanton,3,3,27,5,1,0,3,204,73,33,5,31,57,2,2,2,0,295,12,37,4,2,8
stembje01,Jeff Stember,3,3,18,7,1,0,1,191,62,27,6,23,0,2,2,1,1,272,5,31,3,2,6
stewasa01,Sammy Stewart,6,5,28,6,2,0,2,301,88,41,8,50,65,5,4,2,0,427,11,44,4,3,9
stiebda01,Dave Stieb,11,12,36,25,9,2,1,594,197,85,13,69,87,6,5,5,2,834,5,93,9,7,23
stoddti01,Tim Stoddard,4,3,34,4,1,0,9,223,66,26,4,30,58,2,3,1,0,309,21,29,3,2,9
stonest01,Steve Stone,15,8,37,29,6,1,1,603,185,79,21,79,114,3,5,3,0,845,4,92,8,3,15
sutclri01,Rick Sutcliffe,6,7,30,13,2,1,2,346,113,53,9,49,58,3,4,1,3,494,9,58,6,4,8
suttebr01,Bruce Sutter,5,6,41,4,1,0,16,260,72,30,5,29,80,5,4,1,1,361,27,34,7,3,7
suttodo01,Don Sutton,11,8,33,25,5,1,2,551,160,64,18,45,116,5,3,2,1,750,4,73,9,5,10
swancr01,Craig Swan,7,8,28,20,5,1,1,445,138,58,14,38,90,5,2,1,1,609,4,63,9,5,10
sykesbo01,Bob Sykes,7,8,29,16,3,2,1,362,132,60,13,50,55,3,3,1,1,523,5,64,5,3,11
tananfr01,Frank Tanana,10,10,34,24,5,1,1,513,180,76,16,43,94,3,4,5,2,727,5,84,6,5,15
tekulke01,Kent Tekulve,6,6,48,4,1,0,13,251,77,31,5,33,45,9,2,1,0,355,31,34,5,2,9
tellmto01,Tom Tellmann,3,2,14,5,2,0,1,146,51,20,4,17,19,2,1,1,0,208,4,22,2,1,5
thomaro02,Roy Thomas,3,4,23,7,1,0,1,204,65,29,5,27,33,4,2,1,0,289,7,33,3,3,6
tiantlu01,Luis Tiant,9,7,28,21,4,1,1,427,139,66,14,44,81,3,2,2,0,602,4,70,6,5,9
tidrodi01,Dick Tidrow,6,5,42,6,1,0,3,276,83,33,7,35,61,7,2,2,0,389,16,39,5,3,6
tobikda01,Dave Tobik,3,3,21,4,1,0,1,194,62,28,7,23,41,3,2,1,0,273,8,30,2,3,6
toddja01,Jackson Todd,5,4,26,12,3,0,1,316,113,47,13,35,53,3,4,2,0,450,7,53,4,3,11
tomlida01,Dave Tomlin,3,2,23,3,1,0,1,130,50,19,3,16,18,3,1,1,0,189,8,23,3,1,4
torremi01,Mike Torrez,10,11,34,25,7,1,1,545,200,91,15,73,86,7,6,2,2,794,4,99,9,8,19
travebi01,Bill Travers,10,7,31,21,6,1,1,453,152,66,19,45,60,2,4,4,0,639,5,74,5,4,12
troutst01,Steve Trout,10,12,38,23,6,2,2,535,195,75,13,54,82,5,4,6,1,770,9,88,10,4,19
tudorjo01,John Tudor,7,6,25,13,4,0,1,311,102,43,7,35,49,3,2,2,0,439,5,48,5,4,9
twittje01,Jeff Twitty,2,2,12,4,1,0,1,112,43,17,4,12,14,2,1,1,0,160,3,19,2,1,4
ujdurje01,Jerry Ujdur,2,2,14,5,1,0,1,134,53,21,5,17,15,2,1,1,0,195,4,24,2,2,4
underpa01,Pat Underwood,5,5,32,10,1,0,3,304,107,44,11,30,60,4,2,2,0,430,12,49,5,2,9
underto01,Tom Underwood,9,10,34,23,5,1,2,501,156,70,15,65,103,4,5,4,0,705,5,80,8,4,14
urreajo01,John Urrea,3,3,20,5,1,0,2,182,59,26,4,31,34,4,2,2,1,264,5,31,3,2,6
valenfe01,Fernando Valenzuela,2,2,11,4,1,0,1,106,31,13,3,12,36,1,1,1,0,149,4,15,2,1,3
verhojo01,John Verhoeven,3,4,26,5,1,0,1,224,80,32,7,23,31,3,2,2,1,319,8,37,4,4,8
veselbo01,Bob Veselic,1,1,8,3,1,0,1,82,27,12,2,9,16,1,1,0,0,117,2,13,1,1,2
vuckope01,Pete Vuckovich,11,9,36,25,6,1,2,577,183,75,15,58,122,5,5,2,2,797,6,84,9,5,15
waitsri01,Rick Waits,12,12,35,27,7,2,1,586,194,92,17,73,87,4,5,2,0,828,4,98,8,5,21
walkbo01,Bob Walk,9,7,32,20,2,0,2,417,146,65,9,61,84,3,5,2,2,605,6,71,6,5,11
weavero01,Roger Weaver,4,4,20,7,1,0,1,206,64,30,6,32,46,3,2,1,0,291,6,33,3,3,7
welchbo01,Bob Welch,11,9,39,24,3,1,3,537,165,70,13,63,121,6,5,3,3,750,8,76,9,7,12
wheelga01,Gary Wheelock,3,3,17,7,1,0,1,184,63,26,5,21,20,2,2,1,1,261,5,29,3,2,6
whitsed01,Ed Whitson,10,11,40,25,4,1,2,537,181,69,9,58,91,7,3,4,1,764,7,79,9,7,11
wihtosa01,Sandy Wihtol,2,2,15,4,1,0,1,134,44,19,3,16,25,2,1,1,0,191,5,21,2,1,4
wilcomi01,Milt Wilcox,11,10,34,24,9,1,1,530,178,83,18,61,94,5,4,6,0,758,5,91,8,6,14
willial03,Albert Williams,5,4,22,9,2,0,2,246,80,34,8,31,38,2,3,1,1,346,7,38,3,2,7
willimi01,Mike Willis,2,2,16,3,1,0,2,122,42,18,4,16,19,2,2,1,0,175,6,20,2,2,4
wirthal01,Alan Wirth,2,2,8,3,1,0,1,84,28,12,2,11,12,1,1,1,0,119,2,13,1,1,2
wiseri01,Rick Wise,8,9,30,23,4,1,1,471,164,66,15,43,69,7,2,1,1,665,4,75,6,5,10
worthri01,Rich Wortham,6,6,28,13,2,0,1,302,101,53,8,50,52,3,6,2,1,441,6,60,5,5,9
zachrpa01,Pat Zachry,8,8,30,20,5,2,1,432,132,54,12,56,76,5,3,3,2,607,5,62,8,4,10
zahnge01,Geoff Zahn,12,11,35,26,7,2,1,559,206,83,14,54,74,3,3,2,1,789,4,94,9,7,26
