playerID,playerName,G,AB,R,H,2B,3B,HR,RBI,BB,SO,SB,CS,HBP,SH,SF
adducji01,Jim Adduci,56,185,25,49,9,1,5,22,18,30,4,2,1,2,1
aguaylu01,Luis Aguayo,117,260,38,68,12,2,8,32,25,48,4,2,5,2,3
aldremi01,Mike Aldrete,99,286,37,77,19,3,4,35,40,45,4,4,2,4,2
allanan01,Andy Allanson,110,335,39,83,12,3,3,37,19,43,10,2,2,8,4
almonbi01,Bill Almon,122,297,40,75,16,1,9,35,32,60,11,7,1,2,4
amelued01,Ed Amelung,70,188,25,48,8,1,4,22,14,34,5,3,1,2,1
anderda02,Dave Anderson,107,306,40,77,13,1,4,28,37,53,9,4,1,4,2
armasto01,Tony Armas,117,431,56,113,20,4,20,68,24,88,2,2,2,1,4
asadora01,Randy Asadoor,63,213,30,58,11,1,4,27,17,43,5,4,1,3,1
ashbyal01,Alan Ashby,120,344,34,92,16,1,9,44,41,56,3,1,1,2,5
backmwa01,Wally Backman,128,427,66,121,19,3,2,33,39,48,21,8,1,10,3
bailema01,Mark Bailey,94,284,33,71,13,1,8,33,49,66,2,2,1,1,2
baineha01,Harold Baines,139,534,69,155,25,4,21,85,39,79,3,2,1,1,7
bakerdo01,Doug Baker,71,200,26,49,9,1,3,22,15,42,4,2,1,4,1
bakerdu01,Dusty Baker,108,319,40,85,13,1,8,39,42,46,3,2,0,1,3
balbost01,Steve Balboni,137,494,59,121,24,2,28,78,44,139,2,1,3,1,4
bandoch01,Chris Bando,112,317,38,81,13,1,6,38,34,55,3,2,1,6,4
barfije01,Jesse Barfield,153,529,90,149,30,4,30,86,62,131,13,7,5,1,4
barrema02,Marty Barrett,152,545,72,152,29,2,5,56,55,35,10,5,2,11,4
basske01,Kevin Bass,156,539,71,150,28,5,15,67,32,69,17,9,5,3,3
bathebi01,Bill Bathe,78,239,28,59,10,1,9,29,11,44,4,2,2,6,1
baylodo01,Don Baylor,143,503,78,126,24,1,25,84,51,90,3,4,24,1,6
beanebi01,Billy Beane,106,282,34,69,12,1,6,30,19,76,5,4,1,1,1
bellbu01,Buddy Bell,131,474,70,131,26,3,14,65,59,45,3,4,3,2,5
bellge02,George Bell,148,569,84,162,31,5,26,88,36,68,12,6,5,1,5
bellira01,Rafael Belliard,129,343,40,86,10,2,2,37,28,59,12,3,3,8,2
bellja01,Jay Bell,59,192,27,52,10,1,6,26,21,33,4,2,1,1,2
benedbr01,Bruce Benedict,93,276,25,67,12,1,3,27,28,22,3,2,2,4,3
beniqju01,Juan Beniquez,122,385,55,113,16,2,8,42,36,51,4,3,4,5,4
bergmda01,Dave Bergman,104,249,30,64,10,2,5,27,32,33,3,2,1,2,3
bernato01,Tony Bernazard,146,504,71,137,24,4,12,60,54,72,17,9,3,6,6
berrada01,Dale Berra,82,244,23,60,11,1,5,28,19,39,2,2,1,3,3
biancbu01,Buddy Biancalana,132,291,39,71,11,3,4,22,25,74,6,4,1,6,1
bilarda01,Dann Bilardello,106,288,27,67,10,1,6,28,23,48,3,2,1,6,1
bochtbr01,Bruce Bochte,129,413,53,112,17,1,8,50,55,63,4,3,0,1,3
bochybr01,Bruce Bochy,99,254,33,66,12,1,12,36,22,50,3,2,1,2,1
boggswa01,Wade Boggs,137,530,90,176,33,2,7,61,84,44,3,3,1,4,3
bondsba01,Barry Bonds,111,393,63,99,24,3,14,47,59,92,26,6,2,2,2
bonilbo01,Bobby Bonilla,87,278,39,73,11,2,4,30,38,53,6,4,2,3,1
bonilju01,Juan Bonilla,109,322,39,82,13,2,3,29,28,29,3,2,3,4,1
bonneba01,Barry Bonnell,71,217,25,55,10,1,4,26,14,38,3,2,1,2,1
boonebo01,Bob Boone,138,434,42,104,16,1,6,47,37,35,3,2,1,10,5
bosleth01,Thad Bosley,128,252,35,71,9,3,6,31,32,46,7,2,1,1,2
bostoda01,Daryl Boston,106,315,38,80,16,3,6,31,27,55,12,6,1,3,2
bradlph01,Phil Bradley,144,509,80,150,25,5,13,57,60,115,20,9,7,4,2
bradlsc01,Scott Bradley,96,292,32,77,12,3,7,36,19,19,4,2,3,2,2
bragggl01,Glenn Braggs,85,298,33,75,13,2,6,31,18,62,4,2,2,2,3
brantmi01,Mickey Brantley,68,234,30,59,10,3,7,25,23,45,5,3,1,2,1
breamsi01,Sid Bream,137,452,61,121,29,3,13,64,52,65,10,6,1,2,6
brenlbo01,Bob Brenly,137,452,56,117,23,1,17,61,60,77,7,6,3,4,3
brettge01,George Brett,125,441,70,131,27,4,18,77,73,45,5,2,3,1,6
brewemi01,Mike Brewer,62,188,23,49,9,1,5,22,20,39,4,3,1,1,1
brockgr01,Greg Brock,122,381,48,95,16,0,18,55,46,65,6,3,0,2,3
brookhu01,Hubie Brooks,107,395,50,112,20,4,12,62,29,64,5,4,2,0,4
brookto01,Tom Brookens,128,366,48,93,20,4,6,38,25,56,11,7,1,7,2
browebo01,Bob Brower,72,187,27,49,9,1,5,23,16,35,5,4,1,1,2
brownch02,Chris Brown,128,438,55,124,19,3,11,56,37,58,9,6,8,1,3
brownje01,Jerry Browne,65,202,29,54,10,1,5,26,17,33,4,4,1,1,2
brownmi02,Mike Brown,106,322,37,86,16,2,8,42,34,44,4,4,1,2,3
brunato01,Tom Brunansky,147,536,67,137,25,2,24,75,55,87,8,4,1,1,7
bryanra01,Ralph Bryant,73,223,33,58,11,3,11,31,18,59,4,3,2,1,2
bucknbi01,Bill Buckner,140,552,68,151,32,2,15,86,32,30,9,4,3,1,7
buechst01,Steve Buechele,142,443,52,110,18,3,16,51,34,90,7,6,4,6,3
bulloer01,Eric Bullock,66,198,24,50,9,1,4,23,14,31,6,3,1,1,1
burleri01,Rick Burleson,99,305,40,84,15,1,6,35,36,38,4,3,1,5,2
bushra01,Randy Bush,136,378,51,97,20,5,11,50,40,64,5,3,5,1,4
butersa01,Sal Butera,98,237,29,62,10,1,6,30,33,25,3,1,1,3,2
butlebr01,Brett Butler,143,527,87,148,21,10,4,48,63,54,34,15,3,10,4
cabelen01,Enos Cabell,108,334,38,91,14,1,4,37,20,36,9,5,1,3,2
caldeiv01,Ivan Calderon,71,222,32,60,13,3,7,27,21,43,5,2,1,1,1
candaca01,Casey Candaele,71,239,28,61,11,2,3,25,16,37,6,6,1,1,2
cangejo01,John Cangelosi,124,402,58,104,17,3,4,36,62,56,34,12,5,5,3
cansejo01,Jose Canseco,139,507,72,129,24,1,26,88,52,143,12,6,5,1,6
cartega01,Gary Carter,130,474,70,130,18,1,23,87,57,53,3,1,5,0,7
cartejo01,Joe Carter,154,574,84,158,28,4,23,89,30,86,22,7,3,2,6
castica01,Carmelo Castillo,112,303,46,79,12,1,13,44,20,64,4,2,3,1,2
castiju01,Juan Castillo,71,210,27,54,8,2,4,25,20,40,5,3,2,3,1
cedence01,Cesar Cedeno,74,224,31,61,11,2,6,30,17,33,8,2,1,2,1
ceronri01,Rick Cerone,100,313,29,78,15,1,6,31,27,38,3,3,2,3,4
ceyro01,Ron Cey,107,344,48,88,19,1,16,50,46,77,2,1,3,1,3
chambch01,Chris Chambliss,112,245,29,66,11,0,5,29,31,39,2,2,1,1,3
chrisst01,Steve Christmas,60,185,24,48,9,1,5,25,15,29,4,2,1,1,1
clarkda05,Dave Clark,64,211,30,57,9,1,8,28,23,37,5,2,1,3,2
clarkja01,Jack Clark,93,324,49,90,17,2,14,51,60,70,3,3,1,1,3
clarkwi02,Will Clark,112,397,61,109,23,2,11,44,34,73,6,6,3,7,4
cochrda01,Dave Cochrane,66,217,26,56,10,1,5,23,20,58,4,2,1,2,1
colemvi01,Vince Coleman,143,556,88,140,17,7,2,37,51,93,84,15,1,4,3
colesda01,Darnell Coles,134,454,58,118,24,2,15,63,43,76,7,3,5,5,6
collida02,Dave Collins,124,420,52,114,19,5,3,36,38,47,32,10,3,6,3
conceda01,Dave Concepcion,109,378,43,97,16,2,5,38,34,51,13,5,1,4,4
coopece01,Cecil Cooper,129,508,56,137,25,3,12,69,32,71,6,3,2,1,5
cottohe01,Henry Cotto,104,233,31,60,9,1,4,23,14,44,8,3,1,2,2
cowenal01,Al Cowens,75,266,32,69,16,2,7,37,16,42,3,2,1,1,2
craigro02,Rod Craig,61,181,26,49,8,1,5,22,21,30,4,2,1,1,1
cruzjo01,Jose Cruz,127,457,58,130,23,5,9,67,48,71,11,5,0,1,4
cruzju01,Julio Cruz,106,300,40,73,8,2,3,29,44,43,9,4,1,2,3
danieka01,Kal Daniels,97,275,44,78,14,4,9,35,32,45,14,3,2,2,2
daultda01,Darren Daulton,83,253,34,67,11,1,11,33,51,67,6,3,1,2,2
davidan01,Andre David,65,179,23,48,8,1,5,22,19,34,4,2,2,1,2
davidma01,Mark Davidson,77,217,26,54,11,1,4,22,20,55,6,4,1,4,1
davisal01,Alvin Davis,131,473,65,132,24,2,18,73,74,65,3,3,3,1,4
davisch01,Chili Davis,143,497,68,140,25,3,15,66,66,84,14,9,1,2,5
daviser01,Eric Davis,134,405,81,109,17,4,24,64,57,97,51,8,1,2,3
davisgl01,Glenn Davis,145,510,76,135,25,2,26,85,51,72,4,2,7,2,6
davisjo02,Jody Davis,141,489,54,123,26,2,18,69,43,96,3,2,1,3,6
davismi02,Mike Davis,144,482,73,128,27,2,18,62,39,88,21,7,2,3,4
davistr01,Trench Davis,66,197,26,50,8,1,4,23,14,32,5,2,1,1,2
dawsoan01,Andre Dawson,128,479,62,126,25,3,18,76,34,77,14,7,4,1,6
dayetbr01,Brian Dayett,83,217,26,56,11,1,8,32,17,32,3,2,2,1,3
decindo01,Doug DeCinces,129,464,61,120,21,2,21,78,48,70,3,3,2,3,6
deerro01,Rob Deer,139,426,64,105,17,3,27,68,64,157,6,3,3,2,3
dempsri01,Rick Dempsey,127,364,48,90,17,1,13,42,48,80,2,2,2,6,2
dernibo01,Bob Dernier,111,384,52,98,17,2,4,25,34,45,26,7,2,6,1
diazbo01,Bo Diaz,126,426,45,113,20,1,9,50,37,50,3,2,1,3,4
diazed01,Edgar Diaz,59,192,24,51,9,1,5,23,19,34,4,2,1,1,2
diazmi01,Mike Diaz,110,287,34,76,13,1,14,43,27,57,4,2,2,1,3
distebe01,Benny Distefano,85,206,26,51,8,2,6,26,14,32,4,2,1,2,3
doddto01,Tom Dodd,59,183,24,49,8,1,6,24,20,29,4,2,2,1,1
dodsopa01,Pat Dodson,59,182,26,50,10,1,6,24,23,32,4,2,1,1,1
doranbi02,Bill Doran,136,510,80,140,24,5,8,45,67,58,26,13,1,4,4
downibr01,Brian Downing,138,471,71,128,24,2,18,79,73,68,4,4,11,3,6
driesda01,Dan Driessen,66,204,27,53,10,1,7,28,22,24,2,1,1,1,2
duncama01,Mariano Duncan,122,454,57,112,16,3,8,37,33,88,35,9,2,7,3
dunstsh01,Shawon Dunston,142,515,66,130,29,4,14,57,25,99,14,8,2,3,3
durhale01,Leon Durham,137,471,64,128,24,4,19,70,62,90,9,6,1,1,4
dwyerji01,Jim Dwyer,116,268,36,71,15,2,9,41,38,44,2,3,2,3,4
dykstle01,Lenny Dykstra,142,426,70,118,23,5,7,45,55,54,25,6,1,6,3
easlemi01,Mike Easler,133,470,62,134,24,3,15,68,46,93,3,2,2,1,4
elsteke01,Kevin Elster,69,200,26,52,9,1,4,22,20,40,4,2,1,1,1
engleda01,Dave Engle,79,239,32,63,13,1,5,26,21,29,2,2,0,1,2
esaskni01,Nick Esasky,121,385,47,95,19,2,15,53,49,105,3,3,2,2,4
espinal01,Alvaro Espinoza,91,215,26,55,9,1,4,25,12,41,4,3,1,4,1
espinju01,Juan Espino,76,200,23,51,9,1,4,25,16,38,4,2,1,1,2
evansda01,Darrell Evans,139,458,70,116,16,1,26,75,79,87,3,3,1,1,3
evansdw01,Dwight Evans,133,487,83,133,27,3,23,75,84,96,5,2,4,1,5
feldemi01,Mike Felder,78,267,38,68,9,4,4,26,24,31,16,3,1,2,4
fernato01,Tony Fernandez,163,596,77,170,27,8,7,58,33,47,17,9,3,5,3
fieldbr01,Bruce Fields,65,206,26,54,9,2,4,27,14,32,5,3,1,2,3
fieldce01,Cecil Fielder,82,237,27,60,10,1,10,35,20,60,4,2,2,1,2
fimplja01,Jack Fimple,63,180,24,48,9,1,4,23,27,38,4,2,1,1,3
fischmi01,Mike Fischlin,129,233,30,58,10,2,3,21,20,49,3,3,1,7,1
fiskca01,Carlton Fisk,126,445,58,107,18,1,21,68,31,81,8,5,8,1,5
fitzgmi02,Mike Fitzgerald,105,316,29,81,14,1,6,40,35,55,5,2,2,3,4
flannti01,Tim Flannery,143,393,53,109,14,3,4,38,55,58,5,5,6,3,2
fletcsc01,Scott Fletcher,148,470,63,129,22,3,4,46,46,56,10,7,4,10,3
foleyto02,Tom Foley,97,300,32,78,15,2,5,32,28,39,7,4,1,2,3
fordcu01,Curt Ford,104,288,40,76,18,2,4,39,32,40,13,5,1,2,3
fostege01,George Foster,69,245,30,64,11,1,10,37,20,48,2,1,2,0,2
francju01,Julio Franco,138,542,74,154,25,4,7,70,37,62,12,7,3,1,6
francte01,Terry Francona,110,279,27,75,14,1,4,29,13,20,4,3,1,2,2
gaettga01,Gary Gaetti,149,537,70,143,29,2,21,75,43,90,12,8,5,2,4
gagnegr01,Greg Gagne,154,455,60,114,22,5,10,49,31,99,13,8,5,8,4
gainety01,Ty Gainey,72,209,28,55,9,2,5,24,21,55,6,2,2,2,1
galaran01,Andres Galarraga,113,355,45,93,14,1,11,43,32,83,7,5,3,2,2
gallemi01,Mike Gallego,96,205,27,54,11,1,4,25,20,34,4,3,1,3,2
gantnji01,Jim Gantner,131,478,56,128,20,2,6,43,27,46,10,6,4,5,6
garcida01,Damaso Garcia,121,460,58,125,21,2,6,47,14,36,20,9,4,3,3
garneph01,Phil Garner,118,371,53,99,17,5,7,45,34,57,7,4,2,2,4
garvest01,Steve Garvey,138,513,60,137,23,2,14,69,24,62,2,2,2,1,5
gedmari01,Rich Gedman,137,465,56,125,27,3,18,69,39,67,3,1,3,2,4
gerhake01,Ken Gerhart,66,220,25,57,9,1,5,26,17,48,4,3,1,1,3
gibbojo02,John Gibbons,60,191,25,51,11,1,5,22,22,39,4,2,1,1,1
gibsoki01,Kirk Gibson,125,453,77,126,20,4,24,77,60,102,25,5,5,2,5
gilesbr01,Brian Giles,72,192,24,50,8,1,5,21,19,38,5,2,1,1,1
gladdda01,Dan Gladden,114,404,61,111,17,3,6,37,39,62,26,12,5,7,1
gonzajo02,Jose Gonzalez,105,236,36,60,13,2,6,25,20,61,8,5,1,3,1
gonzare01,Rene Gonzales,70,195,25,50,8,1,4,21,18,38,4,3,1,1,1
greenga01,Gary Green,64,203,25,52,9,1,4,24,15,47,4,2,1,2,1
greenmi01,Mike Greenwell,81,203,29,56,9,1,7,28,23,35,5,2,1,1,1
grichbo01,Bobby Grich,112,364,54,96,17,1,12,43,53,62,3,4,3,7,2
griffal01,Alfredo Griffin,155,546,69,146,18,5,4,52,25,48,23,10,1,9,6
griffke01,Ken Griffey,105,361,48,100,19,3,10,49,29,46,8,5,1,1,4
grossgr01,Greg Gross,121,235,28,65,10,1,2,23,38,22,3,1,1,2,2
grubbjo01,Johnny Grubb,112,282,39,80,14,1,13,47,41,43,3,2,2,1,4
grubeke01,Kelly Gruber,116,265,35,64,10,2,8,31,13,50,5,5,1,3,3
guerrpe01,Pedro Guerrero,75,252,42,73,12,1,12,38,31,46,5,3,2,1,3
guilloz01,Ozzie Guillen,158,530,66,136,21,6,3,46,15,50,9,4,1,9,3
guldebr01,Brad Gulden,66,187,22,47,7,1,3,22,20,28,3,2,1,2,1
gutieja01,Jackie Gutierrez,102,289,33,70,8,2,2,22,12,43,8,3,1,6,2
gwynnto01,Tony Gwynn,147,571,87,178,25,6,9,55,47,32,24,10,2,3,2
hairsje01,Jerry Hairston,131,291,39,78,17,1,6,34,42,37,3,1,2,1,3
hallal02,Albert Hall,95,208,29,54,9,2,3,19,22,31,10,5,1,3,1
hallme01,Mel Hall,129,409,61,113,24,2,14,62,37,65,6,3,2,1,4
hamilje01,Jeff Hamilton,102,270,38,67,11,1,8,35,10,72,4,2,1,1,3
harpebr01,Brian Harper,84,207,21,53,10,1,4,25,15,23,3,1,1,2,2
harpete01,Terry Harper,118,360,40,93,14,1,11,46,34,55,7,6,2,1,2
harrato01,Toby Harrah,108,336,49,86,17,2,7,41,65,55,6,4,3,2,4
hassero01,Ron Hassey,91,275,36,80,15,1,9,38,33,25,2,1,2,1,1
hatchbi01,Billy Hatcher,129,414,56,106,19,3,7,38,24,51,25,11,5,5,2
hatchmi01,Mickey Hatcher,114,385,44,106,20,2,4,44,22,29,2,1,1,1,4
hayesvo01,Von Hayes,146,542,83,153,32,3,15,74,61,77,25,10,1,1,3
hearned02,Ed Hearn,81,250,32,66,11,1,7,27,23,37,4,3,1,3,2
hearrje01,Jeff Hearron,64,194,25,51,9,1,4,25,20,40,4,2,1,1,1
heathmi02,Mike Heath,83,272,36,69,12,3,8,35,20,42,5,3,1,3,2
heepda01,Danny Heep,115,299,38,81,15,2,7,40,38,41,4,3,1,1,4
hendeda01,Dave Henderson,82,258,35,66,15,1,8,32,21,52,4,2,1,1,1
henderi01,Rickey Henderson,141,526,116,149,27,4,22,65,83,72,66,13,3,1,3
hendest01,Steve Henderson,74,208,27,55,9,2,5,27,20,38,2,2,1,1,1
hendrge01,George Hendrick,101,319,45,85,16,1,11,48,28,49,3,2,1,2,3
hengeda01,Dave Hengel,68,220,25,55,9,1,5,26,12,42,4,2,2,2,1
hernake01,Keith Hernandez,138,499,77,150,28,2,11,76,78,63,3,2,2,0,6
hernale01,Leo Hernandez,63,197,24,50,10,1,6,24,15,43,4,2,1,1,1
herndla01,Larry Herndon,118,363,43,94,14,4,9,40,31,57,4,2,1,1,3
herrto01,Tom Herr,139,513,63,140,27,3,5,66,63,61,19,6,3,6,6
hilldo01,Donnie Hill,128,395,46,106,16,2,5,42,25,42,7,3,1,8,3
hillma01,Marc Hill,77,192,21,48,9,1,4,20,17,28,2,1,2,5,1
hoffmgl01,Glenn Hoffman,83,217,29,57,12,1,4,25,19,32,3,2,2,4,2
hornebo01,Bob Horner,134,484,64,130,23,2,24,80,50,66,3,3,2,1,7
housepa02,Paul Householder,81,250,31,64,12,1,7,33,23,48,3,3,1,2,2
howelja02,Jack Howell,92,269,40,70,16,2,8,35,32,51,5,2,1,4,3
hrbekke01,Kent Hrbek,142,519,74,144,26,2,23,85,62,77,3,2,4,1,5
hubbagl01,Glenn Hubbard,137,421,50,104,21,1,6,42,60,68,5,3,4,5,4
huletti01,Tim Hulett,152,488,57,121,19,4,13,47,27,89,7,3,3,5,4
huntra01,Randy Hunt,73,208,25,53,8,1,6,25,19,51,4,2,1,2,1
hurdlcl01,Clint Hurdle,105,256,31,65,12,2,7,28,39,57,3,2,2,2,2
incavpe01,Pete Incaviglia,134,464,68,120,19,2,24,71,47,152,5,3,3,1,5
iorgda01,Dane Iorg,110,245,26,61,13,2,5,32,13,36,2,2,1,1,3
iorgga01,Garth Iorg,154,373,40,98,21,2,5,47,23,47,5,4,1,2,2
jacksbo01,Bo Jackson,68,226,29,58,9,2,6,28,21,71,6,3,2,1,1
jacksre01,Reggie Jackson,126,418,59,106,18,1,20,64,72,112,4,2,2,1,2
jacobbr01,Brook Jacoby,148,536,72,147,25,3,15,70,47,115,4,2,1,2,4
jamesch02,Chris James,66,211,27,55,10,1,6,26,14,47,4,2,1,2,1
javiest01,Stan Javier,93,241,31,62,14,1,3,25,30,51,10,2,2,1,1
jeffest01,Stan Jefferson,65,195,29,51,9,1,6,25,19,42,4,2,2,1,1
jeltzst01,Steve Jeltz,145,415,44,100,13,4,2,38,58,91,6,3,1,4,3
johnscl01,Cliff Johnson,110,338,45,92,15,1,14,52,48,57,2,2,3,1,3
johnsho01,Howard Johnson,112,331,40,84,17,2,12,46,37,76,8,4,1,2,2
johnsro05,Rondin Johnson,61,199,24,51,8,2,4,24,13,28,4,2,1,1,1
johnswa03,Wallace Johnson,93,243,30,64,9,2,4,27,19,25,8,4,1,1,1
jonesbo02,Bob Jones,85,199,23,50,7,1,6,29,17,37,3,1,1,1,2
jonesly01,Lynn Jones,121,217,22,54,11,1,3,20,17,25,3,2,2,3,2
jonesri02,Ricky Jones,62,191,24,51,10,1,4,24,25,36,4,2,1,1,1
jonesro01,Ross Jones,69,193,24,49,9,1,4,22,17,35,4,3,1,1,1
jonesru01,Ruppert Jones,131,407,66,103,21,3,19,59,59,86,9,4,2,6,3
jonestr01,Tracy Jones,83,225,34,62,9,1,6,28,23,22,9,3,1,1,2
joynewa01,Wally Joyner,132,486,67,136,22,3,17,77,47,50,6,3,2,7,8
karkoro01,Ron Karkovice,77,234,31,61,13,1,8,30,22,71,5,2,2,2,2
kearnbo01,Bob Kearney,107,316,32,78,16,1,7,34,16,55,4,3,2,7,2
kempst01,Steve Kemp,70,205,23,55,9,1,4,23,25,41,3,1,1,1,2
kennete02,Terry Kennedy,133,453,49,116,21,1,11,58,33,81,2,2,1,2,2
khalisa01,Sam Khalifa,96,292,29,72,14,2,3,26,33,52,4,3,1,6,2
kingemi01,Mike Kingery,88,293,37,76,12,4,6,28,20,44,9,4,1,1,3
kingmda01,Dave Kingman,134,501,61,121,18,1,28,84,39,107,4,2,3,1,7
kittlro01,Ron Kittle,79,257,35,62,9,0,15,38,24,66,3,3,3,0,2
kniceal01,Alan Knicely,75,229,26,59,11,1,5,30,31,49,3,2,1,1,3
knighra01,Ray Knight,133,445,48,120,21,2,10,62,34,58,4,2,3,2,6
kommibr01,Brad Komminsk,70,214,31,53,9,1,5,22,24,49,8,5,1,1,1
krencwa01,Wayne Krenchicki,130,299,32,80,13,2,6,37,34,42,3,3,1,2,3
krukjo01,John Kruk,120,317,40,91,17,2,6,42,48,63,5,4,1,2,2
kunkeje01,Jeff Kunkel,65,197,25,49,7,2,6,21,10,40,5,3,1,2,2
kutchra01,Randy Kutcher,95,278,40,71,13,2,9,30,19,58,8,5,1,5,1
lacyle01,Lee Lacy,125,462,67,132,20,2,10,52,35,71,10,6,1,5,4
lagami01,Mike Laga,68,210,28,54,11,1,8,29,18,55,4,2,2,1,1
lakest01,Steve Lake,86,221,22,53,9,1,6,28,11,33,3,1,2,3,2
lanceri01,Rick Lancellotti,65,189,25,49,8,1,8,27,15,42,4,2,1,1,1
landrke01,Ken Landreaux,117,368,46,96,16,3,8,40,27,41,11,5,1,2,5
landrti01,Tito Landrum,132,295,37,75,13,2,5,35,28,55,5,4,1,2,3
lansfca01,Carney Lansford,134,517,67,144,20,3,15,63,33,47,10,5,4,2,5
larkiba01,Barry Larkin,77,272,41,72,10,3,6,34,19,39,10,2,1,1,2
laudnti01,Tim Laudner,106,294,34,73,15,1,12,39,29,79,3,1,2,3,2
lavalmi01,Mike LaValliere,113,333,30,85,13,2,5,38,40,42,3,2,1,7,3
lawleto01,Tom Lawless,103,205,27,53,9,1,3,24,16,33,10,3,1,3,2
lawru01,Rudy Law,110,372,53,96,20,5,4,38,31,33,20,8,2,4,1
lawva01,Vance Law,121,403,51,103,20,3,9,47,48,72,5,4,1,4,3
leachri01,Rick Leach,129,308,41,84,15,2,6,41,21,37,3,1,1,1,5
leema02,Manuel Lee,109,235,32,59,8,2,5,25,16,36,4,5,1,3,2
lefebjo01,Joe Lefebvre,61,182,23,48,9,1,4,21,23,37,3,2,1,1,2
legggr01,Greg Legg,63,194,26,52,9,1,5,23,15,31,4,2,1,1,1
lemonch01,Chet Lemon,126,429,56,114,24,4,14,58,41,65,3,3,7,2,3
leonaje01,Jeffrey Leonard,108,402,51,107,17,2,12,54,25,81,13,5,2,1,3
lindeji01,Jim Lindeman,67,215,29,56,9,1,5,26,15,38,5,3,1,1,2
littlbr01,Bryan Little,71,214,30,55,10,1,2,20,25,26,2,2,2,3,2
lombaph01,Phil Lombardi,68,201,28,54,11,1,7,27,21,35,4,2,2,1,1
lombast01,Steve Lombardozzi,141,412,52,105,20,4,8,38,47,68,6,3,1,8,2
lopesda01,Davey Lopes,84,238,37,65,10,1,7,33,35,30,23,3,1,2,2
lowrydw01,Dwight Lowry,90,251,35,69,10,1,6,32,26,35,3,2,3,4,1
lynnfr01,Fred Lynn,116,410,62,112,16,2,20,63,54,71,5,3,2,1,4
lyonsst01,Steve Lyons,95,283,36,72,10,2,4,26,23,51,8,6,1,3,3
maddoga01,Garry Maddox,76,203,24,53,9,1,4,22,15,27,4,2,1,1,2
madlobi01,Bill Madlock,107,375,43,102,16,1,8,51,29,41,6,3,4,1,4
magadda01,Dave Magadan,61,190,26,52,8,1,5,25,22,25,4,2,1,1,1
maldoca01,Candy Maldonado,159,411,47,104,24,2,14,63,27,74,4,4,2,2,4
manniri01,Rick Manning,109,302,40,76,12,3,8,33,26,31,5,4,1,2,2
manrifr01,Fred Manrique,71,194,27,51,9,2,7,23,17,28,5,2,1,1,1
marshmi02,Mike Marshall,115,404,56,106,19,1,20,63,32,99,5,5,3,1,2
martibu01,Buck Martinez,104,256,28,61,13,1,6,31,30,42,2,2,1,3,5
martica01,Carmelo Martinez,116,348,44,90,18,1,12,45,52,60,2,3,2,1,4
martida01,Dave Martinez,90,245,32,59,9,2,5,26,18,47,7,3,2,1,2
martimi01,Mike Martin,59,183,24,48,9,1,5,22,20,35,4,2,1,1,1
matthga01,Gary Matthews,117,370,58,100,16,1,16,51,65,66,7,3,2,1,4
mattido01,Don Mattingly,149,594,96,190,41,2,27,108,47,36,3,2,1,3,10
matusle01,Len Matuszek,111,275,38,72,13,1,12,41,33,60,4,3,2,1,3
mazzile01,Lee Mazzilli,97,209,31,57,11,1,4,21,36,34,6,2,2,1,1
mcdowod01,Oddibe McDowell,143,517,86,135,21,6,18,51,55,101,27,11,2,4,3
mcgeewi01,Willie McGee,128,497,75,142,20,9,8,55,32,77,31,12,1,1,4
mcgrifr01,Fred McGriff,58,187,25,49,9,1,5,23,18,34,5,2,1,1,2
mcgwima01,Mark McGwire,66,212,31,55,9,1,8,29,19,54,4,3,2,1,1
mcraeha01,Hal McRae,117,332,36,89,17,1,9,52,33,48,2,2,1,1,4
mcreyke01,Kevin McReynolds,147,524,71,140,26,5,20,78,50,76,6,4,2,3,7
meachbo01,Bob Meacham,95,305,44,76,12,2,2,28,32,65,11,5,3,10,3
meadolo01,Louie Meadows,60,186,25,49,8,1,5,23,17,27,5,2,1,1,2
melenfr01,Francisco Melendez,70,192,23,50,8,1,5,23,16,34,4,2,1,1,1
melvibo01,Bob Melvin,113,332,37,81,17,3,6,34,20,81,5,3,1,4,3
mercaor01,Orlando Mercado,84,237,25,60,9,2,4,24,17,34,4,2,2,2,2
milleda01,Darrell Miller,96,216,29,56,9,2,4,24,16,36,3,2,1,1,2
milneed01,Eddie Milner,140,425,67,109,19,5,10,42,48,52,23,11,1,2,3
mitchke01,Kevin Mitchell,113,351,51,95,20,2,12,45,35,64,5,4,1,2,2
mizerjo01,John Mizerock,80,216,28,58,10,2,4,25,40,38,4,2,2,1,2
molitpa01,Paul Molitor,115,453,66,126,22,4,9,49,42,77,17,5,1,4,3
moorebi03,Bill Moore,59,189,24,49,8,1,5,23,16,37,4,2,1,1,2
moorech02,Charlie Moore,106,329,35,83,15,3,4,40,27,51,5,4,1,5,2
morelke01,Keith Moreland,145,525,65,146,25,2,13,80,50,52,6,4,1,2,8
morenom01,Omar Moreno,118,364,45,91,16,6,5,37,22,69,15,11,1,4,2
mormaru01,Russ Morman,80,264,33,69,11,1,7,31,27,55,4,2,2,2,3
morriji01,Jim Morrison,146,468,51,126,25,3,17,66,36,78,7,5,3,1,5
morrijo07,John Morris,78,235,28,61,8,2,5,31,19,37,8,3,1,1,2
mosebll01,Lloyd Moseby,141,529,81,140,25,7,17,73,63,102,29,10,5,2,6
mosesjo01,John Moses,116,386,51,100,15,3,4,37,32,62,20,12,1,4,3
motleda01,Darryl Motley,70,232,29,59,12,2,8,30,13,34,4,4,1,1,2
mullifr01,Fran Mullins,80,201,23,51,12,1,4,24,16,45,4,2,1,2,2
mullira01,Rance Mulliniks,130,384,53,108,24,2,10,52,48,61,3,2,1,1,3
mumphje01,Jerry Mumphrey,115,371,46,104,16,2,7,49,34,54,7,5,0,1,4
murphda05,Dale Murphy,144,539,86,150,27,5,28,83,70,121,10,5,2,1,3
murphdw01,Dwayne Murphy,112,387,59,100,15,2,15,50,59,86,4,3,3,4,4
murraed02,Eddie Murray,131,473,73,139,25,2,20,85,73,55,6,2,1,0,6
narroje01,Jerry Narron,104,241,23,61,9,1,6,27,20,32,3,1,1,2,2
nelsori01,Ricky Nelson,64,187,25,49,8,1,5,23,17,38,5,2,1,1,1
nelsoro03,Rob Nelson,59,189,25,50,9,1,5,23,19,38,4,2,1,1,2
nettlgr01,Graig Nettles,122,375,49,93,15,1,16,55,51,59,2,1,2,1,4
newmaal01,Al Newman,117,276,37,69,10,1,4,23,30,33,12,9,1,4,2
nichore01,Reid Nichols,111,257,31,67,11,1,4,32,25,40,8,6,2,2,3
nietoto01,Tom Nieto,85,239,22,60,11,2,4,31,23,49,2,2,2,3,1
nixonot01,Otis Nixon,140,245,49,62,9,1,3,21,23,35,26,10,1,4,1
nokesma01,Matt Nokes,64,207,24,53,9,1,7,24,14,28,4,2,2,1,1
oberkke01,Ken Oberkfell,143,465,52,126,22,3,5,44,66,41,6,4,3,3,4
obriepe03,Pete O'Brien,144,510,68,143,25,3,20,79,68,57,5,6,1,2,5
oestero01,Ron Oester,142,493,53,131,23,2,5,40,46,76,7,2,1,4,3
oglivbe01,Ben Oglivie,110,375,41,102,18,2,8,56,36,44,2,3,1,2,6
omallto01,Tom O'Malley,89,276,32,71,13,1,4,32,25,36,4,2,1,2,2
oquenjo01,Jose Oquendo,104,255,34,68,9,1,2,25,25,37,7,3,1,3,3
orsuljo01,Joe Orsulak,142,432,62,115,18,6,3,29,30,41,22,10,2,7,3
ortajo01,Jorge Orta,119,370,43,101,19,3,9,50,27,39,2,2,1,1,3
ortizju01,Junior Ortiz,88,246,26,66,11,1,3,29,19,37,4,2,1,2,3
ouellph01,Phil Ouellette,61,192,24,51,8,1,5,22,21,29,4,2,1,1,1
owensp01,Spike Owen,88,283,37,71,10,4,4,28,29,28,8,4,1,4,2
pacioto01,Tom Paciorek,101,291,31,77,12,1,5,30,14,53,4,2,3,1,2
paglimi01,Mike Pagliarulo,151,473,65,118,24,3,23,70,50,109,4,1,4,2,3
palmera01,Rafael Palmeiro,68,226,30,58,11,1,8,31,17,27,5,3,2,1,1
pankoji01,Jim Pankovits,111,252,31,67,11,1,5,26,23,50,4,2,1,1,1
pardoal01,Al Pardo,75,224,24,53,9,1,4,21,11,49,4,2,1,1,1
parenma01,Mark Parent,60,189,25,50,8,1,5,23,18,33,4,2,1,1,1
pariske01,Kelly Paris,58,185,24,48,8,1,5,22,16,34,4,3,1,1,1
parkeda01,Dave Parker,144,554,75,155,29,2,24,96,46,95,5,8,2,1,5
parrila01,Larry Parrish,121,443,58,120,22,1,21,75,43,99,3,3,3,1,4
parrila02,Lance Parrish,107,400,54,104,14,1,22,68,36,84,2,3,3,2,4
pasquda01,Dan Pasqua,117,335,47,91,16,1,17,50,49,86,4,1,3,1,2
pecotbi01,Bill Pecota,62,195,25,51,10,1,4,23,20,27,4,4,2,1,2
penabe01,Bert Pena,75,197,27,52,9,1,4,24,21,34,4,2,1,2,2
penato01,Tony Pena,137,492,57,134,24,2,11,57,40,67,10,8,2,3,3
pendlte01,Terry Pendleton,147,536,58,136,22,4,4,62,34,62,21,8,1,4,5
percoja01,Jack Perconte,70,260,35,71,10,2,1,17,27,24,12,2,2,3,1
perezto01,Tony Perez,106,282,30,76,14,1,6,40,32,37,2,2,1,1,3
perryge01,Gerald Perry,88,235,29,61,8,1,5,26,30,26,7,5,1,1,3
peterri01,Rick Peters,83,191,27,51,9,1,4,21,26,32,6,3,1,1,1
petrage01,Geno Petralli,102,261,31,68,12,3,4,33,16,32,6,2,1,2,3
pettiga01,Gary Pettis,146,487,77,126,18,6,4,46,65,123,47,12,1,10,3
phelpke01,Ken Phelps,125,345,60,91,15,2,23,59,77,89,4,3,4,1,3
phillto02,Tony Phillips,122,418,64,112,19,4,6,46,57,77,11,7,2,7,3
pittach01,Chris Pittaro,70,202,26,51,9,2,4,23,16,45,4,2,1,2,1
polidgu01,Gus Polidor,60,193,25,51,9,1,5,23,17,23,4,2,1,1,1
porteda02,Darrell Porter,91,268,35,68,12,2,12,41,39,64,5,2,2,1,2
preslji01,Jim Presley,150,559,72,146,30,3,24,87,33,138,3,3,3,2,6
pryorgr01,Greg Pryor,107,245,26,60,10,1,3,22,13,31,3,3,1,3,1
puckeki01,Kirby Puckett,146,603,84,177,25,7,15,68,31,84,17,10,5,3,2
puhlte01,Terry Puhl,93,279,39,76,15,3,5,32,29,35,7,4,1,4,3
pyznati01,Tim Pyznarski,63,202,25,53,9,1,4,21,20,42,6,2,2,1,1
quinolu01,Luis Quinones,103,243,32,59,9,3,3,29,13,39,6,3,2,4,2
quinore01,Rey Quinones,76,252,26,62,11,1,3,26,15,58,5,3,1,3,2
quirkja01,Jamie Quirk,99,294,34,73,14,1,9,35,23,53,3,2,1,1,2
raineti01,Tim Raines,139,524,89,162,29,9,9,51,71,56,57,8,2,2,3
ramirra01,Rafael Ramirez,129,493,52,124,21,3,6,44,21,60,11,8,2,4,4
ramosdo01,Domingo Ramos,104,246,28,59,10,1,3,22,22,35,3,3,1,3,2
randowi01,Willie Randolph,130,462,69,129,18,2,5,41,79,43,13,5,2,6,5
rayfofl01,Floyd Rayford,107,327,39,83,15,1,12,38,18,69,3,2,1,3,1
rayjo01,Johnny Ray,144,531,64,152,30,2,7,67,46,38,9,7,2,3,6
readyra01,Randy Ready,69,239,32,60,12,3,4,26,23,32,3,1,1,3,2
redusga01,Gary Redus,114,364,64,95,21,4,10,35,52,77,36,9,2,2,2
reedje02,Jeff Reed,100,269,30,69,12,2,5,25,26,36,4,2,2,3,1
renteri01,Rich Renteria,63,190,26,50,9,1,5,24,16,37,4,2,1,1,2
reynocr01,Craig Reynolds,114,373,43,96,13,6,6,42,16,38,5,2,0,5,3
reynoha01,Harold Reynolds,140,417,49,99,18,4,3,31,33,44,21,9,3,7,1
reynorj01,R. J. Reynolds,116,397,57,107,23,3,8,47,36,72,16,7,2,4,2
reynoro02,Ronn Reynolds,88,252,27,62,11,1,6,26,13,60,4,2,1,2,2
riceji01,Jim Rice,139,539,82,157,25,3,21,95,49,73,3,1,2,1,7
rileser01,Ernie Riles,136,492,63,130,20,4,8,49,47,72,6,5,2,6,3
ripkeca01,Cal Ripken,147,564,91,159,30,3,22,80,61,61,4,2,2,1,5
riverlu01,Luis Rivera,85,270,35,68,16,2,3,29,28,51,4,2,2,2,2
roberbi01,Bip Roberts,114,313,43,80,10,2,4,27,21,41,13,10,1,2,2
robidbi01,Billy Jo Robidoux,85,275,30,72,13,1,5,34,47,54,3,2,1,1,2
roeniga01,Gary Roenicke,105,255,32,66,13,1,10,37,45,44,3,2,2,2,2
roeniro01,Ron Roenicke,117,314,47,85,17,2,7,42,65,58,6,3,1,3,3
rohnda01,Dan Rohn,65,184,23,47,8,1,5,23,17,29,4,2,1,1,2
romered01,Ed Romero,113,321,41,80,14,1,3,32,28,26,4,2,1,6,3
rominke01,Kevin Romine,89,204,28,53,10,1,4,22,18,39,6,2,1,3,1
rosepe01,Pete Rose,92,311,36,83,13,2,2,36,49,36,5,1,4,1,2
rowdowa01,Wade Rowdon,79,220,28,59,11,2,3,28,24,41,5,2,2,2,2
roystje01,Jerry Royster,122,325,39,85,17,2,6,37,37,53,7,6,1,5,3
rungepa01,Paul Runge,68,184,24,50,8,1,3,18,27,35,4,3,1,3,1
runneto01,Tom Runnells,73,186,24,48,9,1,4,20,16,29,4,2,1,4,1
russebi01,Bill Russell,116,294,33,77,14,1,2,27,25,30,7,2,2,7,2
russejo02,John Russell,118,366,42,92,22,2,14,54,31,114,3,2,2,1,4
ryalma01,Mark Ryal,65,201,28,53,9,1,6,26,18,29,5,2,1,2,1
sakatle01,Lenn Sakata,86,207,29,52,8,1,5,21,14,30,5,3,1,3,1
salasma01,Mark Salas,120,357,45,93,15,4,10,43,23,44,4,2,1,3,3
salazan01,Angel Salazar,128,342,33,82,18,3,2,32,12,58,4,2,2,5,2
salazlu01,Luis Salazar,79,221,26,55,10,1,5,26,10,40,8,4,0,4,2
samplbi01,Billy Sample,102,295,38,78,13,1,6,26,20,34,8,3,2,3,3
samueju01,Juan Samuel,138,557,83,147,29,11,15,65,26,128,42,13,6,1,4
sanchal01,Alejandro Sanchez,81,212,27,52,9,2,6,23,8,57,5,3,1,1,1
sandbry01,Ryne Sandberg,142,558,83,161,27,7,17,72,46,79,33,9,1,3,4
santara01,Rafael Santana,139,435,42,108,17,1,3,33,33,48,2,2,1,2,2
santibe01,Benito Santiago,66,223,31,58,9,1,8,27,15,41,4,3,1,1,2
saxda01,Dave Sax,64,188,23,51,10,1,5,24,16,26,4,2,1,3,2
saxst01,Steve Sax,146,552,74,158,25,4,4,48,53,52,31,14,3,4,3
schmimi01,Mike Schmidt,142,488,81,137,25,3,30,91,78,86,3,4,4,1,7
schofdi02,Dick Schofield,148,462,58,111,18,4,10,47,43,66,15,4,6,10,5
schrobi01,Bill Schroeder,91,313,41,77,15,1,12,36,17,83,3,2,4,3,2
schuri01,Rick Schu,111,333,48,88,16,3,9,32,31,65,6,4,2,2,2
sciosmi01,Mike Scioscia,129,399,42,110,21,2,6,42,65,27,4,3,3,6,4
seela01,Larry See,63,190,24,51,10,1,5,24,19,41,4,2,1,1,1
seitzke01,Kevin Seitzer,67,224,32,64,10,2,6,28,36,33,4,2,2,1,1
sheetla01,Larry Sheets,127,386,50,102,16,1,19,60,29,64,3,2,2,2,2
shelbjo01,John Shelby,134,408,53,98,15,4,10,47,20,77,14,5,1,5,2
shephro01,Ron Shepherd,115,224,36,55,12,1,6,23,15,59,6,2,1,2,1
sheripa01,Pat Sheridan,108,317,43,82,14,2,7,32,30,67,12,4,1,3,2
shiplcr01,Craig Shipley,63,198,26,51,9,1,4,26,18,33,4,2,2,2,1
sierrru01,Ruben Sierra,116,390,52,102,15,7,15,54,25,67,8,7,1,2,4
simmote01,Ted Simmons,92,291,32,74,14,1,6,39,27,25,2,1,1,1,3
skinnjo01,Joel Skinner,96,275,26,71,11,1,4,30,18,64,3,4,1,1,2
slaugdo01,Don Slaught,113,375,44,99,20,3,10,45,21,60,4,3,4,4,3
smallro02,Roy Smalley,138,433,58,110,20,2,16,52,64,75,3,3,1,1,2
smithlo01,Lonnie Smith,130,470,74,126,22,5,7,45,47,75,32,8,7,2,3
smithoz01,Ozzie Smith,143,479,63,131,20,4,3,51,66,27,28,7,2,9,3
snydeco02,Cory Snyder,108,404,56,105,19,1,21,62,19,115,5,4,1,2,1
speiech01,Chris Speier,122,273,31,72,13,1,8,34,25,50,4,3,1,4,2
spilmha01,Harry Spilman,100,228,29,59,11,1,5,35,25,32,3,1,1,1,2
stanlmi02,Mike Stanley,65,199,27,54,11,1,6,23,20,38,5,2,1,1,1
staplda01,Dave Stapleton,85,205,24,51,11,1,3,20,16,38,3,2,1,2,1
stefejo01,John Stefero,83,237,30,62,9,1,5,28,29,46,4,2,1,1,2
steinte01,Terry Steinbach,59,191,26,51,8,1,8,26,18,24,4,2,1,1,2
stenhmi01,Mike Stenhouse,82,199,23,50,9,1,5,22,35,30,3,1,1,1,2
stillku01,Kurt Stillwell,113,330,40,84,11,2,3,36,35,55,8,3,2,4,1
stoneje01,Jeff Stone,107,339,46,93,9,5,6,28,24,65,23,7,3,2,1
strawda01,Darryl Strawberry,132,460,74,123,23,4,26,84,71,124,25,10,3,1,5
stubbfr01,Franklin Stubbs,131,395,50,95,12,2,18,50,36,99,7,2,2,4,2
sullima02,Marc Sullivan,84,247,33,61,10,1,5,28,19,57,3,2,3,4,2
sundbji01,Jim Sundberg,133,420,46,104,15,3,11,45,48,83,3,2,1,4,3
sveumda01,Dale Sveum,102,347,42,90,15,2,8,41,35,67,6,4,1,4,2
tablepa01,Pat Tabler,132,457,59,131,23,3,7,58,33,69,4,3,3,2,3
tartada01,Danny Tartabull,127,448,64,122,23,5,20,76,53,130,6,6,2,2,3
tarvela01,La Schelle Tarver,63,194,26,50,8,1,4,23,16,32,4,3,1,1,1
tejadwi01,Wilfredo Tejada,61,196,24,52,9,1,5,24,19,42,4,2,1,1,1
templga01,Garry Templeton,141,489,49,127,22,2,4,46,36,81,11,5,1,2,2
tettlmi01,Mickey Tettleton,112,303,37,78,15,1,10,37,46,71,7,2,2,6,3
teufeti01,Tim Teufel,110,358,47,94,21,2,8,41,42,53,3,2,2,3,3
thomaan01,Andres Thomas,117,361,39,91,17,2,7,40,13,56,6,6,1,3,2
thomago01,Gorman Thomas,83,281,40,67,11,1,14,40,51,77,3,3,1,2,3
thompja01,Jason Thompson,73,233,27,61,11,1,7,32,44,35,1,1,1,0,2
thompmi02,Milt Thompson,115,352,44,94,11,2,6,28,28,68,20,5,2,3,2
thompro01,Robby Thompson,130,466,62,125,22,3,7,45,37,93,11,11,4,12,2
thondi01,Dickie Thon,118,345,37,89,14,2,6,35,32,62,9,5,1,2,2
thornan01,Andre Thornton,116,411,53,104,16,0,19,69,57,65,5,2,1,0,6
tillmru01,Rusty Tillman,69,201,28,53,9,1,6,26,19,43,6,2,1,1,1
tollewa01,Wayne Tolleson,105,317,38,85,11,3,2,22,23,47,14,7,2,6,2
tolmati01,Tim Tolman,77,199,25,51,9,1,5,24,20,31,4,3,1,3,2
trabeji01,Jim Traber,90,290,39,76,11,1,14,48,26,44,4,2,4,1,5
trammal01,Alan Trammell,137,527,82,145,26,6,15,62,51,57,17,9,3,8,5
trevial01,Alex Trevino,104,295,40,76,18,1,7,36,33,45,3,2,1,3,2
trillma01,Manny Trillo,93,295,32,76,14,1,3,27,26,37,2,1,1,5,2
upshawi01,Willie Upshaw,145,515,76,137,28,6,12,64,60,77,14,5,3,3,3
uribejo01,Jose Uribe,149,459,49,112,18,2,4,40,48,70,15,7,1,4,1
valleda01,Dave Valle,77,218,27,57,9,1,9,31,18,37,3,2,1,2,1
vanslan01,Andy Van Slyke,145,431,55,113,23,6,12,59,52,79,25,7,1,1,2
venabma01,Max Venable,134,267,35,68,15,3,4,28,23,40,11,4,1,3,3
virgioz02,Ozzie Virgil,124,398,50,101,15,2,16,54,54,78,2,1,4,2,3
walkech01,Chico Walker,78,231,37,61,9,2,4,24,22,45,15,5,1,1,2
walkegr01,Greg Walker,111,387,51,104,21,4,17,61,33,61,5,3,2,0,3
walketo03,Tony Walker,109,223,35,58,13,1,6,27,26,37,12,4,1,1,1
wallati01,Tim Wallach,134,479,54,120,24,2,17,66,40,73,7,6,6,1,4
wallide01,Denny Walling,135,403,55,113,22,2,11,55,34,36,6,2,1,1,4
wardga01,Gary Ward,115,426,60,121,18,4,10,54,34,74,13,6,2,1,3
washicl01,Claudell Washington,88,280,41,75,12,2,11,35,28,54,11,4,1,0,2
washiro01,Ron Washington,100,231,35,61,11,3,6,28,12,43,5,3,1,3,4
washiul01,U. L. Washington,100,263,32,65,9,4,2,25,25,48,8,4,1,3,2
webstmi01,Mitch Webster,147,492,75,136,24,8,11,52,48,70,27,12,3,3,4
wellmbr01,Brad Wellman,75,208,22,52,10,1,2,22,12,35,6,3,2,3,2
whitalo01,Lou Whitaker,135,526,84,144,24,5,17,62,61,60,9,5,1,3,4
whitede03,Devon White,85,208,33,55,9,2,5,23,23,35,11,3,2,1,1
whitefr01,Frank White,139,513,64,135,27,3,19,68,34,79,7,4,2,3,4
whiteje01,Jerry White,71,187,23,49,8,1,6,24,18,28,4,2,1,2,3
whitfte01,Terry Whitfield,92,194,20,50,10,1,5,23,20,38,3,2,1,1,1
whitter01,Ernie Whitt,137,406,51,105,19,2,17,58,43,50,3,4,1,1,3
wiggial01,Alan Wiggins,90,324,48,86,10,3,2,23,34,29,29,10,1,6,3
wilforo01,Rob Wilfong,115,342,34,82,13,2,6,36,23,47,4,3,2,8,3
wilkecu01,Curt Wilkerson,123,343,37,85,12,3,2,25,19,58,11,7,2,5,2
willaje01,Jerry Willard,106,293,34,77,13,1,8,40,32,54,2,1,2,3,3
willied01,Eddie Williams,60,190,26,50,9,1,5,24,17,37,5,2,1,1,2
willike02,Ken Williams,66,204,26,52,9,1,6,23,16,48,5,3,2,1,2
willire01,Reggie Williams,135,337,43,90,15,2,6,38,27,63,10,4,2,7,2
wilsogl01,Glenn Wilson,155,539,63,143,30,4,13,77,36,90,7,3,2,1,7
wilsomo01,Mookie Wilson,119,407,63,111,19,6,9,42,30,70,26,7,1,1,2
wilsowi02,Willie Wilson,138,556,75,151,21,10,6,44,31,82,34,7,5,2,2
winero01,Robbie Wine,62,189,26,50,9,1,5,23,19,37,4,2,1,1,2
winfida01,Dave Winfield,136,519,85,146,28,4,20,90,57,86,10,5,1,1,5
winnihe01,Herm Winningham,122,309,37,78,10,4,6,27,29,76,16,8,1,2,2
wohlfji01,Jim Wohlford,109,235,25,62,11,2,4,30,23,35,3,3,1,2,1
woodami01,Mike Woodard,84,229,34,60,8,2,4,25,23,26,11,3,1,2,1
woodsal01,Al Woods,69,189,26,51,9,1,7,27,19,32,4,2,1,1,2
wrighge03,George Wright,89,281,27,66,13,2,4,25,19,47,3,3,1,2,3
wynegbu01,Butch Wynegar,92,297,32,75,11,1,7,35,48,34,2,2,0,2,2
wynnema01,Marvell Wynne,118,364,39,92,15,4,4,32,22,53,12,9,1,3,2
yeagest01,Steve Yeager,90,249,23,61,8,1,4,28,22,45,3,2,1,2,3
youngjo02,Joel Youngblood,106,287,33,75,12,1,7,35,31,51,4,3,2,2,2
youngmi01,Mike Young,127,410,57,108,18,2,16,57,51,98,4,3,4,2,2
yountro01,Robin Yount,129,481,76,139,25,5,11,57,54,63,12,4,2,3,5
zuvelpa01,Paul Zuvella,82,223,23,56,10,1,2,17,21,23,4,1,1,5,1
