playerID,playerName,W,L,G,GS,CG,SHO,SV,IPouts,H,ER,HR,BB,SO,IBB,WP,HBP,BK,BFP,GF,R,SH,SF,GIDP
abbotji01,Jim Abbott,13,11,41,29,4,1,2,623,211,83,15,70,125,6,4,5,3,879,5,93,8,6,21
abbotky01,Kyle Abbott,3,4,19,7,0,0,2,173,57,25,5,26,33,2,2,2,1,247,5,28,3,2,5
abbotpa01,Paul Abbott,3,3,20,7,0,0,1,182,55,29,5,37,50,2,3,1,0,263,4,32,4,2,5
ackerji01,Jim Acker,4,4,39,5,0,0,2,239,77,38,9,30,44,4,4,2,0,341,10,41,4,3,6
agostju01,Juan Agosto,5,4,48,4,0,0,2,228,76,36,5,31,35,4,3,4,0,329,16,39,6,3,7
aguilri01,Rick Aguilera,4,4,36,5,1,0,16,197,54,24,5,23,59,3,2,2,0,272,26,27,2,2,6
akerfda01,Darrel Akerfelds,3,2,30,4,0,0,1,177,50,27,6,29,31,3,3,2,0,255,9,30,4,2,4
aldresc01,Scott Aldred,5,6,28,13,1,0,2,278,90,44,10,44,54,3,4,2,1,399,6,48,5,3,8
alexage01,Gerald Alexander,5,4,29,9,0,0,2,250,86,41,8,40,47,4,3,2,1,364,7,45,4,3,6
allisda01,Dana Allison,2,2,12,3,0,0,1,93,33,14,3,12,11,1,1,1,0,133,4,16,1,1,3
alvarwi01,Wilson Alvarez,5,5,27,11,2,1,2,265,80,37,10,41,50,2,3,2,0,375,6,42,4,3,9
anderal02,Allan Anderson,7,10,33,21,2,0,1,415,152,68,16,38,54,3,4,4,1,592,5,75,4,5,12
anderla02,Larry Andersen,3,3,25,3,0,0,4,148,42,18,3,15,48,2,2,1,0,204,10,19,2,2,3
appieke01,Kevin Appier,11,9,41,25,4,2,2,551,182,70,13,57,133,4,6,4,1,780,6,83,7,7,15
aquinlu01,Luis Aquino,7,5,37,13,1,1,2,383,123,51,9,39,62,5,3,4,1,539,9,56,4,5,10
armstja01,Jack Armstrong,8,10,35,21,1,0,2,433,146,70,16,55,94,4,4,3,2,620,6,76,6,6,9
arnsbbr01,Brad Arnsberg,2,2,17,3,0,0,1,108,33,15,4,16,24,1,2,1,0,156,5,17,1,1,3
ashbyan01,Andy Ashby,4,6,26,11,1,0,2,249,80,40,8,34,50,2,5,3,0,356,6,43,3,3,6
assenpa01,Paul Assenmacher,5,5,48,4,0,0,7,258,76,33,8,30,91,4,3,2,0,361,16,36,6,3,6
augusdo01,Don August,8,8,34,17,1,1,2,372,143,66,14,45,50,3,5,3,0,543,7,71,6,4,12
austiji02,Jim Austin,2,2,11,3,0,0,1,88,27,14,3,15,8,1,1,1,0,127,3,15,2,1,3
averyst01,Steve Avery,12,10,43,28,2,1,2,547,179,79,17,63,123,3,5,3,1,777,7,91,10,5,14
bailesc01,Scott Bailes,3,3,26,4,0,0,1,162,53,25,5,20,31,2,2,2,0,232,8,28,2,2,4
ballaje01,Jeff Ballard,6,9,35,19,1,0,1,389,148,67,15,36,41,4,3,3,1,558,6,74,4,3,12
bankhsc01,Scott Bankhead,4,5,21,10,1,0,1,225,77,36,8,25,44,2,2,2,0,322,4,38,2,3,6
bankswi01,Willie Banks,3,3,19,7,0,0,2,170,57,26,5,26,46,2,3,1,0,245,6,29,2,2,5
bannifl01,Floyd Bannister,2,2,13,4,0,0,1,110,38,16,4,12,20,1,1,1,0,155,3,18,1,1,4
barfijo01,John Barfield,5,5,32,8,0,0,2,249,88,39,8,25,29,3,2,1,1,352,8,44,4,4,7
barnebr01,Brian Barnes,6,7,36,21,1,0,2,435,126,64,14,69,107,3,5,4,1,617,6,71,7,4,10
bautijo01,Jose Bautista,2,2,12,3,0,0,1,92,33,15,4,9,14,1,1,1,0,131,4,16,1,1,2
beaslch01,Chris Beasley,2,2,16,4,0,0,1,115,37,16,3,14,20,1,2,1,0,162,5,19,1,1,3
beattbl01,Blaine Beatty,2,2,11,3,0,0,1,90,29,13,3,11,20,1,1,1,0,128,3,14,1,1,2
beckro01,Rod Beck,2,2,22,4,0,0,1,158,53,23,5,16,39,2,1,1,0,222,7,24,3,2,4
bedrost01,Steve Bedrosian,5,4,40,4,0,0,7,211,63,32,7,32,40,4,2,2,0,301,20,35,3,2,6
belchti01,Tim Belcher,10,9,38,25,3,2,2,537,159,65,14,63,136,3,6,3,1,747,6,75,8,5,12
belinst01,Stan Belinda,5,4,40,4,0,0,7,214,56,29,7,31,67,3,2,2,0,299,17,31,3,2,5
beller01,Eric Bell,3,2,13,3,0,0,1,102,27,13,3,12,16,1,1,1,0,141,4,15,1,1,3
benesan01,Andy Benes,12,10,41,28,3,1,2,586,175,74,19,63,150,6,4,3,3,813,6,80,6,5,13
berenju01,Juan Berenguer,3,3,32,3,0,0,5,196,54,25,6,28,54,2,2,2,0,275,14,27,3,2,5
bielemi01,Mike Bielecki,2,2,11,6,0,0,1,126,43,20,3,17,28,2,2,1,0,181,2,21,3,1,3
bitkejo01,Joe Bitker,2,2,13,3,0,0,1,100,33,15,3,13,30,2,1,1,0,144,4,17,1,1,2
blackbu02,Buddy Black,10,11,36,23,2,2,2,497,156,72,16,50,75,5,6,3,3,692,6,78,8,6,14
blairwi01,Willie Blair,4,4,23,7,0,0,1,200,75,33,7,23,32,2,2,2,0,289,6,35,2,3,6
boddimi01,Mike Boddicker,11,9,35,24,2,0,1,507,171,72,13,55,93,3,5,8,1,719,5,78,6,3,15
boevejo01,Joe Boever,4,5,42,4,0,0,4,234,71,32,6,36,68,5,4,1,1,334,18,35,3,3,4
bohanbr01,Brian Bohanon,5,6,29,13,1,0,2,291,101,47,9,38,49,2,4,3,1,421,6,53,3,5,8
boltoto01,Tom Bolton,8,8,31,16,1,0,2,355,126,56,12,50,66,3,3,2,1,513,7,62,4,4,14
bonesri01,Ricky Bones,5,6,28,12,1,0,2,270,91,42,7,31,51,2,4,2,0,385,7,46,3,4,7
bosioch01,Chris Bosio,10,9,36,25,4,1,1,527,167,70,15,47,109,2,6,5,1,731,5,76,4,5,15
boskish01,Shawn Boskie,6,8,33,17,1,0,2,382,137,62,12,47,61,4,3,3,1,554,6,66,7,5,9
bouchde01,Denis Boucher,4,5,24,9,1,0,2,220,84,37,8,26,38,2,3,2,0,318,6,40,3,2,6
bowenry01,Ryan Bowen,6,5,29,13,1,0,2,288,95,46,7,43,64,3,6,3,1,415,6,50,4,5,7
boydoi01,Oil Can Boyd,5,6,26,16,1,1,1,326,108,49,13,32,61,4,2,2,1,458,4,52,5,2,7
brantcl01,Cliff Brantley,4,4,23,9,1,0,2,216,65,30,5,33,55,2,3,2,0,309,6,33,3,3,5
brantje01,Jeff Brantley,5,3,43,4,0,0,8,244,73,27,6,36,63,5,3,3,1,347,20,31,3,3,6
briscjo01,John Briscoe,2,2,13,3,0,0,1,98,31,15,3,15,20,1,2,1,0,140,5,17,1,1,3
brosste01,Terry Bross,2,2,12,3,0,0,1,92,28,13,3,11,17,1,1,1,0,129,4,14,1,1,2
brownke01,Kevin Brown,10,10,38,26,3,1,1,557,188,83,14,72,89,4,9,7,2,799,5,92,5,5,22
brownke02,Keith Brown,2,2,13,3,0,0,1,97,33,14,3,12,15,1,1,1,0,138,4,15,2,1,3
brownke03,Kevin Brown,4,5,26,11,1,0,2,251,80,40,7,38,40,3,5,2,0,361,6,43,4,2,7
brownto05,Tom Browning,12,10,39,28,2,1,1,588,201,86,23,50,93,7,4,4,1,830,5,95,9,6,11
burbada01,Dave Burba,3,3,20,5,0,0,1,145,46,21,5,18,22,2,2,1,0,204,7,23,2,1,4
burkejo03,John Burkett,11,9,40,27,2,1,2,549,189,81,16,55,112,4,5,6,1,779,6,88,7,6,13
burketi01,Tim Burke,3,3,32,3,0,0,6,179,56,22,5,17,38,3,2,1,0,250,15,25,2,2,5
burnsto02,Todd Burns,2,2,17,3,0,0,1,119,35,16,3,15,20,2,2,1,0,166,5,17,2,1,4
cadargr01,Greg Cadaret,6,5,43,8,1,0,2,301,97,43,7,46,77,4,5,2,1,430,10,48,5,3,10
campbke01,Kevin Campbell,2,2,14,4,0,0,1,110,31,15,4,17,26,1,1,1,0,155,4,17,2,1,3
candejo01,John Candelaria,2,3,26,4,0,0,2,128,44,19,4,15,44,2,2,1,0,182,6,21,2,2,4
candito01,Tom Candiotti,8,8,30,19,2,0,1,427,136,55,11,44,89,2,5,4,2,598,4,61,4,4,10
capelmi01,Mike Capel,2,3,18,4,0,0,2,123,42,18,4,17,28,1,1,1,0,177,6,20,2,1,3
carmado01,Don Carman,2,3,24,4,0,0,1,153,48,24,7,25,28,2,2,1,0,222,6,27,3,2,3
carpecr01,Cris Carpenter,5,3,31,4,0,0,1,179,53,26,5,20,40,4,2,1,0,250,9,28,3,2,4
carream01,Amalio Carreno,1,1,10,3,0,0,1,80,26,12,3,11,12,1,1,1,0,115,3,14,1,1,2
carteje01,Jeff Carter,2,3,16,5,0,0,1,136,41,20,4,17,8,1,2,1,0,192,5,22,2,1,4
carych01,Chuck Cary,4,7,25,14,1,0,1,294,97,47,11,39,76,3,5,1,1,420,5,49,3,2,7
casiala01,Larry Casian,2,2,14,4,0,0,1,111,42,17,4,12,14,1,2,1,0,158,4,19,1,1,4
castifr01,Frank Castillo,7,7,32,16,3,0,2,360,116,55,8,38,79,3,5,2,1,507,7,59,6,4,8
castito02,Tony Castillo,3,2,25,5,0,0,1,165,60,23,4,17,37,2,2,1,1,237,5,26,3,2,4
cerutjo01,John Cerutti,5,5,27,11,1,0,1,270,97,42,10,30,30,4,3,2,1,386,6,45,4,3,9
chapida01,Darrin Chapin,2,2,10,3,0,0,1,84,26,12,2,13,24,1,1,1,0,120,3,14,1,1,2
charlno01,Norm Charlton,6,5,40,10,1,0,2,313,89,38,7,41,82,4,6,3,1,436,11,41,6,2,9
chiamsc01,Scott Chiamparino,4,4,23,10,1,0,2,229,76,32,6,30,32,2,3,2,0,327,6,36,3,2,7
chitrst01,Steve Chitren,3,3,30,4,0,0,2,175,52,25,6,26,47,2,2,2,1,250,10,27,3,2,4
chrismi02,Mike Christopher,1,1,10,3,0,0,1,81,25,11,2,11,15,1,1,1,0,114,3,13,1,1,2
clancji01,Jim Clancy,3,4,19,6,0,0,1,146,53,26,4,20,27,3,3,1,0,213,5,29,2,2,4
clarkma01,Mark Clark,3,3,16,5,0,0,1,143,43,21,5,20,28,1,2,1,0,202,4,23,2,2,3
clemepa01,Pat Clements,2,2,14,3,0,0,1,100,34,14,3,14,16,2,1,1,0,143,4,16,1,2,3
clemero02,Roger Clemens,15,9,39,28,7,3,1,654,184,68,13,61,198,7,6,5,0,885,5,78,7,6,15
combspa01,Pat Combs,6,7,28,17,2,1,1,330,106,50,9,52,67,3,6,3,0,479,5,55,4,4,9
comstke01,Keith Comstock,2,2,16,3,0,0,1,90,26,13,3,13,27,1,1,1,0,127,5,14,2,1,2
coneda01,David Cone,12,10,39,27,4,1,1,592,172,76,16,64,203,3,11,3,2,820,5,84,8,6,9
cookde01,Dennis Cook,2,2,14,4,0,0,1,111,36,15,4,12,19,1,1,1,0,156,4,18,2,2,3
corbiar01,Archie Corbin,1,1,10,3,0,0,1,80,26,12,2,11,10,1,1,1,0,114,3,13,1,1,2
cormirh01,Rheal Cormier,5,6,27,11,2,0,2,278,98,41,8,20,53,2,3,2,1,392,7,46,3,3,8
corsiji01,Jim Corsi,2,4,28,4,0,0,1,190,60,27,5,20,43,3,2,1,1,266,9,29,3,2,6
costejo01,John Costello,2,2,20,3,0,0,1,128,40,18,4,16,27,2,2,1,0,182,5,20,2,2,4
coxda01,Danny Cox,5,6,30,14,1,0,2,302,97,47,11,38,45,3,5,2,1,428,7,52,5,5,7
crawfst01,Steve Crawford,3,3,26,3,0,0,1,166,58,27,4,19,39,3,2,2,0,239,9,28,2,2,3
crewsti01,Tim Crews,3,3,40,4,0,0,3,220,71,29,7,21,54,5,2,1,0,309,12,32,3,2,4
crimch01,Chuck Crim,5,4,44,4,0,0,4,236,86,35,7,23,35,5,2,2,1,339,17,38,3,2,7
daltomi01,Mike Dalton,2,2,10,3,0,0,1,87,30,12,3,10,13,1,1,1,0,124,3,14,1,1,2
darliro01,Ron Darling,6,7,28,15,1,0,1,327,106,49,12,41,83,3,5,3,1,467,5,54,5,4,6
darwida01,Danny Darwin,7,5,35,12,1,0,2,323,97,43,11,27,76,3,2,3,1,446,10,44,4,3,6
davisma01,Mark Davis,4,4,33,6,0,0,6,206,61,32,6,36,61,2,3,2,0,299,15,34,3,3,6
davisst02,Storm Davis,6,7,32,12,1,0,2,297,112,49,9,37,50,4,4,1,0,433,9,54,4,3,11
dayleke01,Ken Dayley,2,2,19,2,0,0,1,102,31,14,3,14,22,2,2,1,0,145,6,16,1,1,3
dejesjo01,Jose de Jesus,9,9,38,24,3,0,2,491,132,66,10,102,106,4,7,3,0,705,6,73,9,3,15
delarfr01,Francisco de la Rosa,1,1,10,3,0,0,1,82,28,12,2,10,6,1,1,1,0,117,3,13,1,1,2
deleojo01,Jose DeLeon,7,10,34,24,1,0,1,474,137,62,13,61,128,4,3,5,1,665,4,69,6,5,9
delucri01,Rich DeLucia,9,10,38,22,1,0,2,463,147,76,20,62,83,4,7,3,0,656,6,80,6,8,11
deshaji01,Jim Deshaies,7,10,34,24,2,0,1,480,145,74,16,64,98,6,3,3,3,676,4,76,8,7,10
dibblro01,Rob Dibble,5,4,44,4,0,0,10,229,58,27,5,27,114,3,3,1,0,314,23,29,4,3,4
dopsojo01,John Dopson,2,1,8,4,0,0,1,82,26,12,2,11,15,1,1,1,1,116,2,13,1,1,2
downske01,Kelly Downs,6,5,32,11,0,0,1,284,87,42,8,38,52,5,3,2,1,404,6,47,4,3,8
drabedo01,Doug Drabek,14,10,38,27,5,2,1,600,189,71,15,55,115,4,5,3,0,824,5,78,10,5,12
drahmbr01,Brian Drahman,3,2,18,4,0,0,1,123,35,17,4,16,25,1,1,1,0,173,5,19,2,1,3
dreesto01,Tom Drees,2,2,10,3,0,0,1,86,29,14,3,12,7,1,1,1,0,123,3,15,1,1,2
dresski01,Kirk Dressendorfer,5,5,26,10,1,0,2,240,75,37,8,37,37,2,4,2,0,346,7,44,4,3,6
eckerde01,Dennis Eckersley,4,3,42,4,0,0,22,205,52,23,6,10,78,2,1,1,0,274,31,25,2,2,3
edensto01,Tom Edens,4,4,26,8,0,0,2,229,75,34,6,27,37,2,2,2,0,327,7,38,3,2,5
edwarwa01,Wayne Edwards,2,2,19,4,0,0,1,139,42,19,4,22,30,2,2,1,0,198,5,22,2,2,5
eglofbr01,Bruce Egloff,2,2,11,3,0,0,1,85,28,12,2,11,34,1,1,1,0,121,3,14,1,1,2
eichhma01,Mark Eichhorn,3,4,42,4,0,0,3,221,71,26,4,19,52,2,2,2,0,306,17,30,4,3,7
eilanda01,Dave Eiland,4,5,27,13,1,0,2,274,101,44,10,29,28,2,2,3,0,391,7,51,2,3,10
eldreca01,Cal Eldred,4,3,23,8,1,0,2,209,72,31,6,26,41,2,2,1,0,298,6,34,3,2,5
ericksc01,Scott Erickson,14,8,40,25,3,1,2,535,168,67,13,67,92,4,5,5,0,753,6,76,6,6,18
fajarhe01,Hector Fajardo,3,4,21,7,1,0,2,190,67,29,6,20,48,2,2,2,0,270,6,32,2,3,4
farrst01,Steve Farr,5,4,37,5,0,0,8,214,62,24,5,24,58,3,2,3,0,297,20,27,3,1,7
fasseje01,Jeff Fassero,3,3,27,4,0,0,3,158,44,20,4,18,42,1,2,1,0,221,12,23,3,1,4
fernaal01,Alex Fernandez,9,10,39,24,2,0,2,505,165,78,14,73,125,3,4,3,1,723,7,84,7,7,12
fernasi01,Sid Fernandez,5,6,23,14,1,0,1,299,77,39,9,34,93,2,2,2,0,412,4,43,5,3,5
fettemi01,Mike Fetters,3,4,23,6,0,0,1,186,68,28,6,26,32,2,3,2,0,268,8,32,2,1,6
finlech01,Chuck Finley,14,9,38,27,4,1,1,590,177,74,17,80,150,3,6,4,2,821,5,80,7,4,17
flanami01,Mike Flanagan,3,5,30,7,0,0,2,222,73,28,6,21,32,3,2,2,1,309,9,31,3,2,8
flemida01,Dave Fleming,3,2,17,6,0,0,1,141,47,22,5,15,30,1,2,2,0,200,5,24,2,1,4
fossato01,Tony Fossas,3,3,35,4,0,0,1,166,55,24,5,23,33,4,2,2,0,239,10,28,3,1,6
fostest01,Steve Foster,2,2,13,3,0,0,1,98,28,13,3,12,28,1,1,1,0,137,4,15,1,1,3
francjo01,John Franco,4,5,35,3,0,0,15,177,59,22,4,21,47,3,4,1,1,253,24,27,3,1,5
frasewi01,Willie Fraser,3,3,27,3,0,0,1,173,53,25,6,20,28,2,2,2,0,243,11,27,2,2,5
freemma02,Marvin Freeman,2,2,23,4,0,0,1,152,42,20,4,17,37,1,2,2,0,211,5,22,2,1,5
freyst01,Steve Frey,3,2,27,4,0,0,3,151,48,22,4,24,27,3,2,1,0,218,8,25,2,2,5
frohwto01,Todd Frohwirth,4,3,33,4,0,0,2,219,59,25,4,25,58,3,2,2,0,301,8,29,3,2,6
gakelda01,Dan Gakeler,3,4,26,7,0,0,2,210,68,35,6,33,40,3,4,1,0,304,8,39,3,2,5
garcira03,Ramon Garcia,5,5,30,14,1,0,2,301,100,49,12,39,51,3,2,2,1,427,7,54,4,3,8
gardimi01,Mike Gardiner,8,9,34,18,1,0,2,383,138,64,14,46,87,3,3,2,0,551,7,72,3,4,11
gardnch01,Chris Gardner,4,4,22,8,1,0,2,203,61,29,7,30,33,2,2,1,0,287,6,32,3,2,5
gardnma01,Mark Gardner,8,10,36,23,1,1,2,477,136,67,15,67,116,3,3,5,2,666,6,73,6,4,10
gardnwe01,Wes Gardner,2,2,13,4,0,0,1,106,35,16,3,16,28,1,1,1,0,153,4,19,2,1,3
garresc01,Scott Garrelts,4,3,17,9,1,0,1,197,64,29,6,22,33,2,2,1,0,279,3,31,3,2,6
georgch01,Chris George,2,2,16,5,0,0,1,139,47,20,4,15,16,1,2,1,0,197,5,22,2,2,4
gibsopa01,Paul Gibson,4,5,41,5,0,0,3,246,86,36,8,37,45,6,3,2,0,357,14,39,3,3,7
glavito02,Tom Glavine,14,10,40,29,5,1,2,625,194,78,17,62,143,6,7,2,1,867,5,89,11,5,17
gleatje01,Jerry Don Gleaton,3,3,35,4,0,0,4,209,64,29,6,29,45,3,2,1,1,292,14,32,2,3,6
goodedw01,Dwight Gooden,12,7,36,24,2,1,2,538,172,74,12,58,155,3,6,4,2,754,5,79,7,5,12
gordoto01,Tom Gordon,9,9,37,16,2,0,2,413,121,58,12,71,134,4,6,3,0,592,9,66,5,3,11
gossari01,Rich Gossage,3,2,23,4,0,0,1,131,40,18,4,16,29,1,2,2,0,184,8,20,2,1,3
gottji01,Jim Gott,4,4,36,4,0,0,2,205,61,26,5,30,60,4,4,1,1,292,15,30,4,2,5
gozzoma01,Mauro Gozzo,4,3,22,8,1,0,2,191,66,31,5,27,25,2,3,1,0,274,6,34,2,3,6
grahejo01,Joe Grahe,5,6,26,11,1,0,2,262,95,42,6,38,47,2,3,3,0,382,6,47,3,2,7
gratema01,Mark Grater,1,1,10,3,0,0,1,80,27,11,2,10,0,1,1,1,0,114,3,12,1,1,2
grayje01,Jeff Gray,3,3,33,4,0,0,3,183,53,24,6,16,49,3,2,1,0,251,14,26,3,2,4
greento01,Tommy Greene,10,7,40,21,2,1,2,488,143,66,16,54,117,4,6,3,1,680,8,72,7,7,9
grimsja01,Jason Grimsley,4,7,28,15,1,0,2,296,87,45,7,61,65,3,10,3,1,429,6,48,4,3,8
grosske01,Kevin Gross,7,8,31,13,1,1,2,318,108,47,9,44,80,4,3,2,1,459,8,53,5,4,6
grosski01,Kip Gross,5,4,28,9,1,0,1,239,82,33,7,34,36,2,3,1,1,345,7,39,4,3,8
gubicma01,Mark Gubicza,8,9,31,21,2,0,1,406,150,69,9,42,93,3,5,4,0,587,5,72,5,5,13
guettle01,Lee Guetterman,5,4,42,4,0,0,4,231,74,31,6,23,36,4,3,2,0,323,18,34,4,3,8
gullibi01,Bill Gullickson,13,10,40,28,3,0,2,571,212,82,19,48,75,10,4,3,1,812,5,93,7,7,17
gundeer01,Eric Gunderson,2,2,10,3,0,0,1,87,30,13,3,12,18,1,1,1,0,126,3,15,1,1,2
guthrma01,Mark Guthrie,6,6,31,13,1,0,2,300,110,44,9,35,71,2,5,2,0,428,8,49,4,3,10
guzmajo01,Jose Guzman,10,7,35,19,3,1,2,434,131,55,10,68,106,3,6,3,1,620,7,63,4,4,10
guzmajo02,Johnny Guzman,2,2,11,3,0,0,1,86,31,13,2,11,15,1,1,1,0,123,3,14,1,1,3
guzmaju01,Juan Guzman,8,5,34,18,1,0,2,395,102,50,9,60,118,2,7,3,0,553,7,57,4,5,9
haasda01,Dave Haas,2,2,12,3,0,0,1,92,28,14,3,16,16,2,1,1,0,131,3,15,2,1,3
habyajo01,John Habyan,4,3,36,5,0,0,2,214,64,26,4,20,57,2,2,2,1,293,9,29,2,2,7
hammaat01,Atlee Hammaker,3,5,22,7,0,0,1,190,63,28,5,22,30,2,2,1,1,271,6,32,3,2,6
hammoch01,Chris Hammond,7,7,31,16,1,0,2,328,103,49,8,52,53,4,4,2,1,468,6,55,6,2,11
haneych01,Chris Haney,5,7,30,15,1,0,2,316,110,46,9,48,61,3,7,2,0,461,7,54,6,3,8
hansoer01,Erik Hanson,10,8,35,24,2,1,1,519,165,70,14,54,144,4,9,3,1,725,5,75,4,6,14
harkemi01,Mike Harkey,5,4,23,12,1,0,1,265,82,37,8,30,51,3,4,3,0,375,5,40,3,3,6
harnipe01,Pete Harnisch,11,10,40,28,3,1,2,572,168,74,15,83,140,4,5,4,2,811,5,81,8,6,10
harrige01,Gene Harris,2,2,14,3,0,0,1,107,35,16,3,19,25,2,1,1,0,156,5,19,1,1,3
harrigr01,Greg Harris,9,8,41,18,1,0,2,421,133,61,11,57,99,5,5,4,1,599,11,66,5,6,13
harrigr02,Greg Harris,9,7,47,13,2,1,4,415,118,45,12,44,107,8,3,3,1,573,16,51,8,4,8
harrire01,Reggie Harris,2,1,11,3,0,0,1,95,27,14,3,14,24,1,2,1,0,134,4,15,1,1,3
hartlmi01,Mike Hartley,3,2,19,4,0,0,1,137,38,19,4,17,41,1,2,2,0,192,5,21,2,1,3
harvebr01,Bryan Harvey,3,4,43,4,0,0,19,212,52,24,6,29,94,3,3,1,1,294,31,28,3,3,4
hawkian01,Andy Hawkins,6,7,27,17,2,0,1,333,110,56,11,48,53,2,2,3,1,479,5,62,3,3,9
heatone01,Neal Heaton,4,4,26,8,0,0,1,222,72,31,7,24,35,2,2,2,1,312,5,35,4,3,6
henketo01,Tom Henke,2,3,33,3,0,0,13,170,45,20,5,16,65,2,2,1,0,231,24,21,2,1,4
hennemi01,Mike Henneman,6,4,42,4,0,0,10,228,73,29,4,32,51,6,3,2,0,325,27,32,4,3,8
henrydo01,Doug Henry,2,2,20,4,0,0,5,129,32,16,3,17,37,1,1,1,0,179,10,17,2,2,3
henrydw01,Dwayne Henry,3,3,33,4,0,0,2,187,55,27,6,32,51,3,3,1,0,267,13,29,3,2,4
hentgpa01,Pat Hentgen,2,2,15,5,0,0,1,125,39,18,4,16,18,1,2,2,0,176,4,19,2,1,3
heredgi01,Gil Heredia,3,4,20,7,0,0,2,187,58,27,6,19,27,2,2,1,0,260,5,29,3,2,5
hernaje02,Jeremy Hernandez,2,2,12,3,0,0,1,98,29,13,3,12,22,1,2,1,0,138,4,14,1,1,3
hernaro01,Roberto Hernandez,3,2,17,5,0,0,1,133,45,21,4,17,17,1,2,1,0,190,4,23,2,1,4
hernaxa01,Xavier Hernandez,3,4,29,6,0,0,2,210,70,33,7,30,45,4,3,2,0,304,8,36,2,2,5
hershor01,Orel Hershiser,7,5,28,17,1,1,1,350,112,47,6,35,79,5,3,3,2,490,5,47,5,3,10
heskejo01,Joe Hesketh,8,6,40,12,1,0,2,354,117,47,13,45,86,4,6,1,1,499,10,53,5,3,12
hibbagr01,Greg Hibbard,10,9,37,25,3,0,1,528,175,75,15,52,70,2,3,3,1,735,5,83,7,5,20
hickebr01,Bryan Hickerson,3,3,22,7,0,0,1,187,63,26,5,22,54,2,2,1,0,265,6,29,3,2,6
hickeke01,Kevin Hickey,2,2,20,3,0,0,1,102,32,16,3,15,22,1,1,1,0,144,6,17,1,1,3
higuete01,Teddy Higuera,6,5,21,12,1,0,1,266,86,38,7,29,68,2,2,2,0,375,4,42,4,3,7
hillesh01,Shawn Hillegas,3,4,31,6,0,0,3,210,63,31,6,32,50,3,3,2,0,301,13,34,3,3,5
hillke01,Ken Hill,9,10,37,24,1,0,2,481,143,70,13,67,105,4,7,4,1,677,5,75,8,6,10
hillmi01,Milt Hill,2,2,17,4,0,0,1,126,43,18,3,13,26,2,1,1,0,178,5,20,2,2,4
holmabr01,Brian Holman,11,11,37,25,4,1,1,536,179,76,15,68,102,3,7,7,1,764,5,82,5,5,17
holmeda01,Darren Holmes,3,4,28,5,0,0,2,198,70,31,6,25,52,2,3,1,0,287,7,34,4,3,5
honeyri01,Rick Honeycutt,2,3,31,3,0,0,3,146,42,19,4,19,32,2,2,1,0,206,8,21,2,2,4
horsmvi01,Vince Horsman,2,1,10,3,0,0,1,83,26,12,2,11,15,1,1,1,0,117,3,13,1,1,2
houghch01,Charlie Hough,9,9,35,24,3,1,1,514,149,76,19,84,90,2,5,7,1,738,5,84,5,9,13
howelja01,Jay Howell,4,4,30,3,0,0,9,167,48,21,4,16,46,2,2,2,0,231,18,22,3,2,4
howest01,Steve Howe,3,2,22,4,0,0,2,145,44,18,3,12,36,2,2,2,0,202,6,20,2,1,5
huismma01,Mark Huismann,2,1,10,3,0,0,1,82,29,12,3,9,25,1,1,1,0,117,3,14,1,1,2
hunteji01,Jim Hunter,3,5,22,8,1,0,2,201,76,34,6,29,27,2,3,3,0,293,6,36,3,2,8
hurstbr01,Bruce Hurst,11,8,36,26,5,1,1,571,169,71,16,53,131,4,6,2,1,783,5,77,10,3,14
ignasmi01,Mike Ignasiak,3,2,14,4,0,0,1,122,36,18,4,18,34,1,1,1,0,173,4,20,2,1,3
innisje01,Jeff Innis,2,3,38,4,0,0,1,209,60,26,5,21,38,3,3,1,0,288,15,30,3,3,6
irvinda01,Daryl Irvine,2,2,14,3,0,0,1,108,37,17,3,15,15,2,1,1,0,156,5,18,2,1,3
jacksda02,Danny Jackson,5,6,27,15,1,0,1,302,107,51,10,48,54,4,3,2,1,445,5,58,6,3,9
jacksmi02,Michael Jackson,5,5,46,4,0,0,6,233,63,33,6,35,68,6,4,3,1,328,19,36,4,2,5
jeffcmi01,Mike Jeffcoat,4,4,35,7,1,0,2,225,85,35,7,22,39,2,2,2,0,324,9,38,3,3,7
johnsda04,Dave Johnson,6,7,27,15,1,0,1,318,124,56,16,30,41,3,2,3,1,459,5,58,3,3,9
johnsje02,Jeff Johnson,7,9,34,18,1,0,2,377,145,68,13,36,60,3,5,4,1,545,7,73,6,4,11
johnsjo06,Joel Johnston,2,2,14,4,0,0,1,111,29,14,3,14,38,2,1,1,0,155,3,16,2,1,3
johnsra05,Randy Johnson,11,10,38,27,3,1,1,548,146,79,17,113,181,2,7,7,2,792,5,88,8,7,16
jonesba01,Barry Jones,5,5,47,4,0,0,5,230,67,29,6,29,43,5,2,1,1,318,18,32,5,3,8
jonesca01,Calvin Jones,3,3,20,4,0,0,2,144,40,19,3,24,44,2,3,1,0,204,5,21,3,1,4
jonesdo01,Doug Jones,4,5,35,5,0,0,12,203,70,30,6,18,49,3,2,1,0,288,24,32,3,2,6
jonesji02,Jimmy Jones,6,7,35,17,1,1,2,384,141,62,12,48,77,3,5,3,0,559,8,70,6,4,11
jonesst02,Stacy Jones,2,2,14,4,0,0,1,121,39,17,4,15,35,1,1,1,0,172,4,19,2,1,3
judenje01,Jeff Juden,3,4,21,7,1,0,2,189,62,29,6,23,37,2,2,1,1,270,6,32,3,3,5
kaiseje01,Jeff Kaiser,1,2,12,3,0,0,1,86,29,13,3,13,19,1,1,1,0,123,3,14,1,1,2
kamiesc01,Scott Kamieniecki,5,5,26,11,1,0,2,265,85,38,9,34,54,2,3,3,0,377,6,41,4,3,7
keyji01,Jimmy Key,13,10,38,26,2,1,1,537,185,71,15,34,104,3,3,3,1,748,5,81,8,6,14
kieckda01,Dana Kiecker,4,4,22,9,0,0,1,209,72,34,6,28,40,2,3,3,1,301,5,37,3,2,6
kielyjo01,John Kiely,2,2,11,3,0,0,1,86,30,14,2,14,3,1,1,1,0,124,3,15,2,1,2
kileda01,Darryl Kile,6,8,37,16,1,0,2,379,118,53,12,63,80,4,4,4,2,552,8,64,6,4,8
kilgupa01,Paul Kilgus,2,3,23,5,0,0,1,172,59,28,5,21,26,2,2,2,0,247,7,31,2,3,5
kinger01,Eric King,8,8,33,22,2,1,1,450,148,67,10,48,64,3,3,4,2,637,5,72,6,5,12
kippebo01,Bob Kipper,3,3,33,4,0,0,3,185,55,27,6,24,39,2,2,1,1,262,10,29,2,2,4
kiserga01,Garland Kiser,2,2,11,3,0,0,1,84,28,13,2,12,14,1,1,1,0,121,3,14,1,1,2
klinkjo01,Joe Klink,5,3,36,4,0,0,2,179,56,25,4,22,32,2,3,2,0,254,10,27,4,1,6
knudsma01,Mark Knudson,4,4,23,10,1,0,1,237,87,39,8,23,32,1,3,2,0,340,5,42,3,3,6
krameto01,Tom Kramer,2,2,10,3,0,0,1,84,29,14,3,13,16,1,1,1,0,122,3,15,1,1,2
kruegbi01,Bill Krueger,8,7,39,18,1,0,2,444,158,62,13,54,80,5,8,3,1,637,7,72,5,7,14
lacosmi01,Mike LaCoss,4,4,20,8,1,0,1,194,66,32,4,29,35,2,2,2,1,282,6,34,3,3,6
lampde01,Dennis Lamp,4,3,34,4,0,0,1,237,81,37,7,24,44,4,2,2,0,336,8,40,4,3,8
lancale01,Les Lancaster,7,6,50,9,1,0,4,359,119,51,10,38,78,5,4,2,1,506,17,54,6,4,7
landrbi01,Bill Landrum,4,4,39,4,0,0,9,207,66,26,5,21,41,4,2,1,1,290,23,28,3,2,5
langsma01,Mark Langston,13,10,39,27,5,1,1,611,174,81,19,89,168,3,6,3,1,846,5,87,6,5,15
lapoida01,Dave LaPoint,4,5,20,11,1,0,1,232,88,37,6,30,33,2,2,2,0,340,4,42,3,4,8
layanti01,Tim Layana,2,2,22,3,0,0,1,131,41,20,4,21,28,2,2,1,1,187,7,22,2,1,4
leachte01,Terry Leach,3,3,33,4,0,0,1,195,70,27,4,20,32,4,2,1,0,278,13,30,4,2,5
learyti01,Tim Leary,5,10,30,17,2,0,1,380,135,67,14,51,85,3,10,4,0,550,5,71,6,3,12
leema03,Mark Lee,3,4,33,4,0,0,1,184,62,26,6,24,39,3,1,1,0,261,7,29,3,2,7
leffecr01,Craig Lefferts,3,4,36,3,0,0,11,198,63,26,6,17,47,3,2,1,0,278,21,29,5,3,5
leibrch01,Charlie Leibrandt,11,11,39,27,2,1,2,561,186,75,14,50,97,4,6,4,2,787,5,89,11,6,10
leiteal01,Al Leiter,1,1,10,3,0,0,1,80,25,12,2,12,17,1,1,1,0,115,3,13,1,1,2
leitema01,Mark Leiter,7,6,34,12,1,0,2,326,105,51,12,40,83,3,3,4,0,466,8,54,5,4,8
lewisji02,Jim Lewis,2,2,13,3,0,0,1,95,31,14,3,15,21,1,1,1,0,137,3,15,2,1,3
lewissc01,Scott Lewis,4,5,26,11,1,0,2,245,91,41,9,27,47,2,3,2,0,355,6,44,3,2,5
lillide01,Derek Lilliquist,3,3,15,7,0,0,1,152,58,24,5,14,24,2,2,1,1,219,3,26,2,1,4
longbi01,Bill Long,2,1,13,3,0,0,1,93,33,14,3,12,16,1,1,1,0,134,4,15,1,1,3
macdobo01,Bob Macdonald,3,3,26,4,0,0,1,158,49,21,5,23,23,2,2,1,1,224,7,23,2,2,4
machaju01,Julio Machado,3,3,33,5,0,0,3,214,57,29,7,38,79,2,3,2,0,302,10,31,3,2,6
maddugr01,Greg Maddux,13,11,41,30,5,1,1,657,206,85,14,65,149,8,5,5,2,915,5,98,14,4,17
maddumi01,Mike Maddux,4,3,36,6,1,0,3,229,70,30,6,23,45,2,4,2,0,317,12,33,3,2,6
magnami01,Mike Magnante,2,2,24,4,0,0,1,159,52,21,4,21,40,2,2,1,0,227,7,23,2,2,4
mahleri01,Rick Mahler,3,3,17,7,1,0,1,169,59,26,5,16,26,2,2,2,1,241,4,29,2,2,4
maldoca02,Carlos Maldonado,2,2,11,3,0,0,1,90,31,14,2,15,14,1,2,1,0,130,3,16,1,1,2
malliro01,Rob Mallicoat,2,2,16,4,0,0,1,111,35,16,3,16,28,1,1,1,0,158,4,17,2,1,3
manueba01,Barry Manuel,2,2,12,3,0,0,1,100,28,13,3,13,12,1,2,1,0,140,4,15,1,2,3
manzajo01,Josias Manzanillo,1,1,9,3,0,0,1,78,25,12,2,11,14,1,1,1,0,112,3,13,1,1,2
martide01,Dennis Martinez,11,9,36,25,5,2,1,565,166,62,13,48,116,5,3,4,1,773,5,70,7,3,13
martira02,Ramon Martinez,15,9,40,27,6,3,2,598,170,74,18,65,160,4,5,5,1,828,5,83,7,4,10
masonro01,Roger Mason,2,2,17,4,0,0,2,117,35,16,3,13,31,1,2,1,0,164,5,18,2,1,3
mathete01,Terry Mathews,3,2,23,5,0,0,1,168,54,24,5,19,51,2,3,1,0,236,6,26,2,1,4
mauseti01,Tim Mauser,2,2,11,3,0,0,1,93,34,14,3,11,15,1,1,1,0,133,3,16,1,1,2
maysc01,Scott May,1,1,9,3,0,0,1,78,27,12,2,10,9,1,1,1,0,111,3,13,1,1,2
mccaski01,Kirk McCaskill,10,12,36,25,2,1,1,496,165,70,14,59,73,2,6,3,1,700,5,77,5,4,19
mcclepa01,Paul McClellan,5,6,28,12,1,0,2,286,95,45,12,36,56,2,4,2,0,408,7,50,4,2,8
mcclubo01,Bob McClure,2,2,20,3,0,0,1,108,34,15,3,12,25,1,1,1,0,152,6,16,2,2,3
mcdonbe01,Ben McDonald,8,8,34,19,2,1,2,415,126,61,14,47,87,3,5,2,0,578,6,65,4,4,10
mcdowja01,Jack McDowell,14,9,42,29,8,1,2,633,186,85,18,73,164,3,8,5,1,876,6,90,6,5,12
mcdowro01,Roger McDowell,4,4,30,3,0,0,7,163,53,22,4,21,27,4,1,1,0,230,18,23,4,2,6
mcelrch01,Chuck McElroy,4,3,42,5,0,0,2,237,68,28,6,40,73,4,2,1,0,336,10,34,5,4,5
mcgafan01,Andy McGaffigan,2,2,14,4,0,0,1,108,37,15,3,13,20,1,1,1,0,155,4,18,1,1,3
meachru01,Rusty Meacham,3,3,19,6,0,0,1,163,58,25,5,20,26,1,2,1,1,234,5,27,2,2,4
melenjo01,Jose Melendez,6,5,29,9,0,0,3,251,75,35,9,25,57,3,3,2,1,350,9,38,3,4,5
merckke01,Kent Mercker,4,4,36,6,0,0,4,214,61,27,6,33,60,3,3,2,1,304,18,31,3,2,5
mesajo01,Jose Mesa,7,9,33,19,1,1,2,386,138,68,11,61,65,3,4,3,1,566,6,73,5,4,10
milacbo01,Bob Milacki,8,8,36,23,2,1,1,483,158,72,16,56,84,3,3,2,1,679,5,77,6,5,15
millepa01,Paul Miller,3,3,22,7,1,0,2,190,60,28,5,25,26,2,2,1,0,269,6,30,3,2,5
millsal01,Alan Mills,3,3,21,5,0,0,1,150,50,22,4,25,29,2,2,1,0,217,8,24,2,2,4
minutgi01,Gino Minutelli,2,3,18,5,0,0,1,134,45,21,5,22,32,1,2,1,0,194,4,23,2,2,3
monteri01,Rich Monteleone,3,2,21,4,0,0,1,148,46,21,4,18,36,2,2,1,0,210,7,25,2,2,4
montgje01,Jeff Montgomery,4,4,45,4,0,0,14,238,70,28,6,26,75,3,4,2,0,333,30,31,3,2,5
mooremi01,Mike Moore,13,10,37,27,3,1,1,548,165,73,12,79,114,2,11,4,0,773,5,79,5,5,17
morgami01,Mike Morgan,11,11,41,27,4,1,2,588,179,72,13,53,109,7,5,4,1,807,6,81,9,5,18
morrija02,Jack Morris,13,12,39,28,7,1,1,610,192,88,19,75,134,6,12,4,1,864,5,101,6,7,18
mortoke01,Kevin Morton,6,6,30,14,1,0,2,312,107,48,10,45,53,3,3,2,1,448,7,53,4,5,9
moyerja01,Jamie Moyer,3,6,26,11,1,0,1,244,88,39,8,33,47,2,2,2,1,352,6,44,3,4,8
mulhote01,Terry Mulholland,11,11,41,27,5,2,2,582,194,79,15,48,108,4,5,3,1,811,6,88,9,7,15
munozmi01,Mike Munoz,2,2,12,3,0,0,1,92,32,14,3,12,11,1,1,1,0,132,4,16,1,1,3
murphro01,Rob Murphy,2,3,36,3,0,0,3,163,58,24,5,23,46,3,3,1,0,237,13,26,3,2,4
mussimi01,Mike Mussina,6,6,29,13,2,0,2,321,99,42,9,31,66,2,4,2,1,444,7,46,4,3,9
mutisje01,Jeff Mutis,3,5,23,8,1,0,2,202,76,34,6,27,26,2,3,1,0,293,6,37,4,2,5
myersra01,Randy Myers,6,8,51,8,1,0,12,320,88,41,8,55,99,5,3,2,1,453,26,45,6,4,9
nabhoch01,Chris Nabholz,9,7,35,20,1,0,2,442,124,60,9,57,100,4,4,3,1,612,6,64,4,4,10
nagych01,Charles Nagy,9,12,40,25,3,1,2,523,188,81,15,58,90,6,5,5,2,752,7,87,5,7,17
navarja01,Jaime Navarro,12,10,43,27,5,1,2,590,208,87,15,60,97,4,8,5,2,844,6,98,7,6,17
neaglde01,Denny Neagle,3,3,18,6,0,0,1,154,56,22,5,18,34,2,2,1,0,221,5,24,2,1,4
nelsoge01,Gene Nelson,3,3,30,3,0,0,2,169,52,25,6,20,33,2,2,2,0,240,9,27,2,3,5
nichoro02,Rod Nichols,4,8,32,13,2,1,2,342,122,49,9,31,61,3,3,4,0,487,7,56,5,3,8
nolteer01,Eric Nolte,1,1,10,3,0,0,1,79,27,12,2,12,14,1,1,1,0,114,3,13,1,1,2
nunezed01,Ed Nunez,2,2,21,3,0,0,3,137,41,19,4,22,38,3,2,1,0,197,9,22,3,2,4
ojedabo01,Bob Ojeda,10,8,40,22,2,1,1,490,159,64,14,61,95,6,4,3,2,695,7,72,9,6,12
olinst01,Steve Olin,3,4,32,4,0,0,5,189,65,26,4,22,43,3,1,2,0,271,14,29,3,1,7
olivaom01,Omar Olivares,8,7,36,19,1,0,2,441,134,61,12,54,78,2,4,4,1,613,7,65,8,3,11
olivefr01,Francisco Oliveras,4,4,33,5,0,0,2,213,66,30,8,22,44,3,2,2,1,295,10,33,3,3,5
olsongr01,Gregg Olson,4,4,45,4,0,0,17,212,62,26,4,30,71,4,5,2,1,299,32,28,3,2,5
oroscje01,Jesse Orosco,3,2,32,3,0,0,1,160,50,22,5,21,46,4,1,1,0,229,13,24,3,2,4
osunaal01,Al Osuna,5,4,38,5,0,0,5,203,55,28,5,34,54,3,3,2,1,290,14,32,4,3,5
ottoda01,Dave Otto,4,7,29,13,1,0,2,309,108,46,8,32,49,4,3,3,0,439,7,51,6,4,10
palacvi01,Vicente Palacios,4,3,29,7,1,0,3,222,62,30,8,31,57,2,4,1,1,312,8,32,3,2,4
palldo01,Donn Pall,4,3,36,4,0,0,2,204,61,26,6,20,40,3,2,3,0,281,9,29,4,2,7
parreje01,Jeff Parrett,2,2,18,3,0,0,1,114,38,17,3,17,29,2,2,1,0,166,7,19,2,2,3
pattebo01,Bob Patterson,4,4,35,5,0,0,2,201,65,28,6,18,55,3,1,1,1,280,11,30,3,2,5
patteke01,Ken Patterson,3,2,32,4,0,0,2,192,55,25,6,30,36,2,2,2,0,271,10,28,3,3,5
pavlada01,Dave Pavlas,2,1,10,3,0,0,1,83,28,12,3,9,14,1,1,1,0,118,3,13,1,1,2
penaal01,Alejandro Pena,2,2,21,3,0,0,4,125,37,16,3,12,40,2,1,1,0,174,10,17,2,2,3
perezme01,Melido Perez,7,7,34,15,1,1,1,361,108,52,11,51,104,2,7,2,2,508,8,58,4,3,10
perezmi01,Mike Perez,2,2,15,3,0,0,1,105,35,16,3,13,14,1,1,1,0,149,4,17,1,1,3
perezpa01,Pascual Perez,5,6,25,14,1,0,1,289,88,38,8,27,67,3,4,2,1,400,5,41,4,2,9
perezyo01,Yorkis Perez,2,2,10,3,0,0,1,83,26,12,2,11,22,1,1,1,0,118,3,13,1,1,2
peterad01,Adam Peterson,4,6,28,13,1,0,2,275,92,43,11,36,47,2,5,2,1,392,6,48,4,3,8
petkoma01,Mark Petkovsek,2,2,14,4,0,0,1,117,45,20,4,14,19,1,2,1,0,169,4,22,2,1,3
petryda01,Dan Petry,3,3,16,6,0,0,1,151,49,23,5,24,24,2,2,1,0,217,4,26,2,2,4
piattdo01,Doug Piatt,2,2,17,4,0,0,1,129,39,17,4,18,36,1,1,1,0,182,4,19,2,1,4
plesada01,Dan Plesac,4,6,44,7,0,0,11,257,82,39,9,34,65,3,2,2,1,366,26,42,3,4,7
plunker01,Eric Plunk,5,5,38,8,0,0,1,284,93,42,11,52,83,3,5,2,2,417,9,48,5,3,7
plympje01,Jeff Plympton,2,2,10,3,0,0,1,84,27,12,2,11,10,1,1,1,0,119,3,13,1,1,2
pooleji02,Jim Poole,3,2,20,4,0,0,1,135,35,18,4,16,43,2,2,1,0,186,5,20,2,2,4
portuma01,Mark Portugal,9,9,36,23,1,0,2,474,150,70,16,55,114,4,5,3,1,666,6,76,6,5,13
powerte01,Ted Power,4,4,37,5,0,0,3,216,71,30,6,23,43,4,3,1,0,305,13,33,4,3,5
radinsc01,Scott Radinsky,5,4,43,4,0,0,4,204,57,26,5,28,51,2,2,2,0,287,12,29,3,3,5
rasmude01,Dennis Rasmussen,8,11,33,23,1,1,1,451,161,67,16,53,72,4,4,3,1,650,5,79,7,5,12
reardje01,Jeff Reardon,3,3,36,4,0,0,15,175,53,23,6,17,41,3,1,1,0,245,25,25,2,2,3
reedri01,Rick Reed,3,4,22,8,1,0,2,204,74,32,7,18,36,3,2,2,1,292,6,36,3,2,5
remlimi01,Mike Remlinger,4,4,23,9,1,1,2,210,69,31,7,32,37,2,3,1,1,300,6,34,3,2,7
renfrla01,Laddie Renfroe,1,2,10,3,0,0,1,82,29,13,3,10,17,1,1,1,0,117,3,14,1,1,2
reuscri01,Rick Reuschel,3,3,12,6,0,0,1,137,48,19,4,15,24,2,1,1,0,197,3,20,3,2,3
reynoar02,Armando Reynoso,4,4,22,8,1,0,2,201,68,31,7,26,28,2,3,3,0,287,6,35,4,2,5
rhodear01,Arthur Rhodes,4,5,26,11,1,0,2,242,88,42,8,39,47,2,3,2,0,353,7,47,3,3,6
ricepa01,Pat Rice,2,2,16,5,0,0,1,136,42,19,4,18,26,2,1,1,0,194,4,22,2,2,4
righeda01,Dave Righetti,3,4,39,4,0,0,15,195,61,27,5,26,48,3,2,2,0,279,27,30,3,2,5
rijojo01,Jose Rijo,12,8,38,26,3,1,2,552,152,61,10,63,151,4,4,3,3,757,5,69,6,5,13
ritchwa01,Wally Ritchie,2,3,23,4,0,0,1,152,47,20,4,18,26,3,2,1,0,216,7,22,2,2,3
ritzke01,Kevin Ritz,2,4,18,7,0,0,1,150,50,27,4,33,30,2,2,2,0,223,5,30,3,2,4
robindo01,Don Robinson,6,7,30,16,2,0,1,347,118,54,12,35,64,5,2,2,1,490,6,57,4,4,7
robinje01,Jeff Robinson,2,4,29,5,0,0,2,185,61,29,6,26,44,3,4,1,0,267,9,32,3,2,6
robinje02,Jeff Robinson,7,8,31,19,1,0,1,368,125,66,15,63,68,4,8,5,1,541,5,71,4,3,11
robinro01,Ron Robinson,5,4,20,10,2,0,1,230,79,30,5,24,29,2,2,3,0,326,4,35,3,3,6
rodriri02,Rich Rodriguez,3,3,37,5,0,0,1,211,65,28,6,32,35,4,3,1,1,297,12,31,4,2,8
rodriro02,Rosario Rodriguez,2,2,16,3,0,0,2,105,35,16,3,14,22,1,2,1,0,149,6,17,2,1,3
rogerke01,Kenny Rogers,7,6,51,7,0,0,6,286,94,45,9,47,67,5,4,3,1,420,20,51,6,4,8
rojasme01,Mel Rojas,3,3,25,4,0,0,3,162,49,23,5,20,40,2,2,1,0,229,8,25,2,2,3
rosenst01,Steve Rosenberg,2,2,12,4,0,0,1,96,32,15,3,13,17,1,1,1,0,137,3,17,1,1,3
rosenwa01,Wayne Rosenthal,3,3,25,5,0,0,2,183,60,29,6,27,50,2,4,1,1,265,6,32,2,2,4
ruffibr01,Bruce Ruffin,5,8,32,16,1,1,1,349,128,55,9,45,71,4,4,1,1,508,5,60,6,4,10
ruskisc01,Scott Ruskin,3,3,34,4,0,0,3,179,55,26,5,25,44,2,3,2,0,254,11,28,3,1,4
russeje01,Jeff Russell,4,4,41,4,0,0,14,200,58,27,7,25,51,3,4,1,0,282,27,31,3,3,7
ryanno01,Nolan Ryan,10,7,32,22,3,1,1,477,107,60,13,63,191,2,8,5,1,647,4,64,4,6,7
saberbr01,Bret Saberhagen,11,8,34,23,5,1,1,518,157,63,12,38,122,4,6,5,1,706,5,68,7,4,12
sampebi01,Bill Sampen,7,5,39,8,0,0,2,260,88,36,9,37,54,5,3,2,1,376,12,41,4,3,5
sandesc01,Scott Sanderson,13,10,40,27,2,1,1,542,179,78,20,40,113,3,5,3,1,753,5,85,6,5,13
sanfomo01,Mo Sanford,4,4,24,9,1,0,2,226,64,33,7,33,84,2,4,2,0,320,6,36,3,2,5
sauveri01,Rich Sauveur,1,1,10,3,0,0,1,80,28,12,3,10,24,1,1,1,0,114,3,13,1,1,2
scanlbo01,Bob Scanlan,6,6,33,11,1,0,2,281,94,40,6,34,37,3,4,2,1,401,11,47,5,4,8
schatda01,Dan Schatzeder,2,1,12,3,0,0,1,84,29,13,2,12,19,1,1,1,0,121,3,14,1,1,3
schilcu01,Curt Schilling,3,4,36,4,0,0,4,206,67,28,4,31,59,3,3,1,1,295,16,31,3,2,5
schirca01,Calvin Schiraldi,2,2,14,4,0,0,1,113,36,18,4,20,25,1,1,1,0,164,4,19,2,1,3
schmida01,Dave Schmidt,2,2,12,3,0,0,2,94,37,15,3,9,11,1,1,1,0,136,4,17,2,1,2
schoomi01,Mike Schooler,2,3,28,3,0,0,8,143,43,19,4,14,42,2,2,1,0,200,17,20,2,1,3
schoupe01,Pete Schourek,4,4,29,8,1,0,2,237,74,35,7,35,59,3,2,2,0,342,7,40,4,3,4
scottmi03,Mike Scott,5,5,19,11,2,1,1,246,75,36,9,26,54,3,2,1,1,346,3,40,3,3,5
scottti01,Tim Scott,1,1,9,3,0,0,1,78,26,11,2,9,22,1,1,1,0,111,3,13,1,1,2
scuddsc01,Scott Scudder,6,7,31,14,0,0,2,312,97,49,10,53,57,5,4,4,1,451,7,53,6,3,6
seaneru01,Rudy Seanez,2,2,13,3,0,0,1,93,29,15,3,18,28,1,2,1,0,136,4,17,1,1,2
searcst01,Steve Searcy,2,3,17,5,0,0,1,144,47,22,5,24,36,2,2,1,0,208,4,25,2,2,4
segurjo01,Jose Segura,2,2,13,3,0,0,1,100,35,15,3,12,19,1,1,1,0,142,4,17,2,1,3
shawje01,Jeff Shaw,3,4,24,6,0,0,1,205,75,31,7,26,30,3,4,2,0,296,6,35,2,3,8
sherrti01,Tim Sherrill,2,2,13,3,0,0,1,99,37,16,3,11,10,1,1,1,0,142,4,17,2,1,3
shower01,Eric Show,4,4,23,8,0,0,1,203,76,36,7,24,33,3,2,2,1,296,7,39,3,3,5
simondo01,Doug Simons,3,3,26,5,0,0,1,172,53,27,5,19,36,3,2,2,0,243,7,30,4,2,4
siskdo01,Doug Sisk,2,2,13,3,0,0,1,95,33,14,3,14,10,1,1,1,0,138,4,17,1,1,3
slocuhe01,Heathcliff Slocumb,3,2,28,4,0,0,1,172,51,24,4,25,31,3,4,2,0,246,10,27,3,3,3
slusajo01,Joe Slusarski,6,7,32,16,1,0,2,345,121,57,12,51,62,3,4,3,0,499,7,63,3,4,10
smilejo01,John Smiley,13,9,38,26,3,1,1,540,174,72,16,43,110,2,4,3,1,743,5,79,8,5,11
smithbr01,Bryn Smith,10,9,36,25,2,0,1,508,165,73,14,42,89,3,4,5,1,706,5,81,8,6,13
smithda02,Dave Smith,3,4,27,3,0,0,9,139,43,20,4,18,29,3,2,1,1,197,17,21,3,1,4
smithle02,Lee Smith,4,3,41,4,0,0,18,201,61,24,5,21,71,4,2,1,0,280,29,26,3,2,4
smithpe02,Pete Smith,4,6,23,13,1,0,1,250,83,40,9,32,59,3,2,1,2,356,5,46,3,4,7
smithro01,Roy Smith,6,6,28,15,1,0,1,326,126,55,12,34,51,3,5,2,1,468,4,59,3,5,9
smithza01,Zane Smith,12,8,42,24,4,2,2,540,174,64,13,32,103,4,3,2,0,732,8,74,6,4,20
smoltjo01,John Smoltz,12,11,40,29,4,1,1,608,179,86,16,72,143,3,13,3,2,844,5,91,8,7,15
stantmi02,Mike Stanton,4,4,38,5,0,0,4,199,60,28,5,21,51,3,2,1,0,278,12,30,4,1,5
stclara01,Randy St. Claire,2,2,16,3,0,0,1,117,39,17,4,14,36,2,2,1,0,166,5,20,2,1,3
stewada01,Dave Stewart,13,9,37,27,4,1,1,588,192,87,17,71,122,2,9,6,0,839,4,91,6,9,16
stiebda01,Dave Stieb,8,5,24,15,1,1,1,326,94,41,7,38,59,1,3,4,0,452,4,44,5,2,8
stottto01,Todd Stottlemyre,12,11,41,28,2,0,2,576,186,84,18,66,103,4,5,8,1,814,6,89,3,7,12
sutclri01,Rick Sutcliffe,6,6,27,16,1,0,1,319,102,47,8,40,62,3,4,1,2,453,5,52,5,6,9
swanru01,Russ Swan,4,3,33,6,0,0,2,208,69,29,7,26,27,4,4,1,0,295,7,33,4,2,8
swiftbi02,Bill Swift,3,3,39,6,0,0,6,247,81,28,5,22,35,3,3,2,1,343,13,33,3,2,12
swindgr01,Greg Swindell,10,11,40,28,4,0,1,609,211,86,20,41,140,3,4,2,1,844,5,96,9,6,14
tananfr01,Frank Tanana,10,10,38,26,2,1,2,542,184,83,20,64,103,7,5,5,1,770,6,89,7,7,15
tapanke01,Kevin Tapani,13,9,41,28,2,1,2,597,193,77,17,39,117,2,3,3,2,817,6,82,7,5,13
taylowa01,Wade Taylor,7,9,33,17,1,0,2,354,135,65,12,50,71,2,4,5,2,517,7,70,4,5,13
telfoan01,Anthony Telford,2,2,15,5,0,0,1,140,48,21,4,17,34,1,2,1,0,200,4,23,1,2,4
terrewa01,Walt Terrell,10,10,38,24,4,1,2,517,197,80,14,59,63,7,5,4,0,747,6,89,7,6,23
terrysc01,Scott Terry,4,4,35,6,0,0,2,214,70,29,5,25,39,5,2,2,0,305,10,34,3,2,5
tewksbo01,Bob Tewksbury,10,10,38,23,3,1,2,506,177,66,12,34,65,4,2,4,0,705,6,78,8,8,14
thigpbo01,Bobby Thigpen,4,4,44,4,0,0,19,206,57,26,7,31,48,4,2,2,0,290,32,29,4,3,6
timlimi01,Mike Timlin,6,5,37,6,0,0,2,247,74,33,6,36,64,5,3,1,0,351,10,36,4,2,7
tomlira01,Randy Tomlin,8,7,37,21,3,1,2,460,145,56,10,45,90,4,3,4,2,640,6,66,5,3,12
valdeef01,Efrain Valdez,2,2,12,3,0,0,1,93,28,13,3,13,13,1,1,1,0,132,3,14,1,1,2
valdese01,Sergio Valdez,2,2,14,5,0,0,1,131,44,21,5,16,28,1,2,1,0,187,4,24,2,2,4
valenfe01,Fernando Valenzuela,5,5,20,12,1,0,1,249,87,40,7,35,47,2,4,1,1,361,3,43,4,3,5
valerju01,Julio Valera,2,2,10,3,0,0,1,84,29,13,2,13,13,1,1,1,0,121,3,14,1,1,2
vanpoto01,Todd Van Poppel,4,4,22,8,1,0,2,196,66,30,6,24,80,2,2,2,0,278,6,32,3,2,5
violafr01,Frank Viola,13,11,39,27,3,1,2,596,201,79,17,51,130,4,7,2,1,832,5,86,11,4,14
wagnehe02,Hector Wagner,4,4,23,9,1,0,2,208,78,34,7,26,35,2,3,1,0,301,6,39,3,2,6
wainhda01,Dave Wainhouse,1,2,10,3,0,0,1,81,25,12,2,12,8,1,1,1,0,115,3,13,1,1,2
walkbo01,Bob Walk,8,5,30,18,1,0,1,363,120,51,12,38,64,2,6,4,2,513,5,58,5,3,8
walkemi01,Mike Walker,2,2,12,4,0,0,1,106,36,16,3,16,15,1,1,2,0,154,3,18,2,1,3
waltobr01,Bruce Walton,2,2,12,3,0,0,1,94,29,14,3,12,24,1,2,1,0,134,4,16,1,1,3
wapnist01,Steve Wapnick,1,2,11,3,0,0,1,86,26,12,2,14,13,1,1,1,0,122,4,14,1,1,2
warddu01,Duane Ward,4,6,50,4,0,0,10,276,75,35,6,34,101,4,5,2,0,379,25,39,4,3,8
waynega01,Gary Wayne,2,2,18,3,0,0,1,105,32,15,3,14,22,1,2,1,0,149,5,17,2,1,3
weathda01,David Weathers,2,2,14,3,0,0,1,100,32,15,3,18,24,2,1,1,0,146,4,16,2,1,3
wegmabi01,Bill Wegman,11,8,37,21,4,1,2,477,156,61,15,40,78,3,5,4,0,666,6,74,5,5,13
welchbo01,Bob Welch,14,9,38,27,3,1,1,569,180,82,19,71,99,4,4,6,1,804,5,90,5,5,16
wellsda01,David Wells,11,8,46,20,1,0,3,503,154,67,16,45,101,3,7,2,2,690,10,72,6,4,10
westda01,David West,6,6,28,15,1,0,1,312,100,51,13,47,70,2,4,2,0,449,5,56,4,4,8
westomi01,Mickey Weston,1,1,10,3,0,0,1,84,30,13,3,9,13,1,1,1,0,119,3,14,1,1,3
wettejo01,John Wetteland,2,2,13,4,0,0,1,103,31,15,3,12,32,1,3,1,0,145,4,17,1,1,3
whitewa02,Wally Whitehurst,6,7,42,13,1,0,2,355,123,52,10,26,79,3,4,3,2,496,12,57,5,3,10
whitsed01,Ed Whitson,7,6,25,16,2,1,1,350,115,46,11,27,63,4,2,1,1,483,4,49,6,4,10
wilkide01,Dean Wilkins,2,2,12,3,0,0,1,91,32,15,3,16,15,1,2,1,0,133,4,17,2,1,2
willibr01,Brian Williams,4,4,23,8,1,0,2,205,66,30,7,25,24,2,2,2,0,290,6,32,3,2,6
willica01,Carl Willis,5,3,27,5,0,0,2,207,62,26,5,19,43,2,3,1,1,286,7,29,3,3,6
willima05,Mark Williamson,5,4,39,4,0,0,3,218,69,30,6,26,46,4,3,1,0,309,13,32,3,4,7
willimi02,Mitch Williams,6,5,46,4,0,0,14,229,60,29,5,48,67,4,3,4,1,333,31,32,4,3,4
willsfr01,Frank Wills,2,2,14,3,0,0,1,110,37,18,4,15,24,2,1,1,0,157,4,19,2,1,3
wilsost01,Steve Wilson,2,2,17,5,0,0,1,130,41,20,4,15,30,2,1,1,0,184,4,21,2,1,3
wilsotr01,Trevor Wilson,10,9,44,22,2,1,2,489,139,68,13,67,108,4,5,4,2,683,9,74,10,4,14
wittbo01,Bobby Witt,7,7,28,18,2,1,1,376,114,60,8,73,116,2,6,2,1,549,4,68,5,4,9
wittmi01,Mike Witt,4,5,18,10,1,0,1,215,74,34,7,20,40,2,3,2,0,305,4,38,2,3,6
wohlema01,Mark Wohlers,2,2,15,4,0,0,1,109,33,15,3,17,23,2,1,1,0,156,4,17,2,1,3
yorkmi01,Mike York,3,4,19,6,0,0,1,162,58,26,4,23,26,2,2,2,0,234,5,29,3,3,5
youngan01,Anthony Young,4,5,25,10,1,0,2,237,77,32,7,24,33,2,3,2,0,333,7,36,3,2,6
youngcl01,Cliff Young,2,2,14,3,0,0,1,104,37,15,3,11,20,1,1,1,0,147,5,16,1,1,3
youngcu01,Curt Young,4,4,25,8,0,0,1,215,73,35,8,31,31,2,2,2,1,310,5,37,3,2,7
youngma01,Matt Young,5,9,30,17,2,0,1,359,112,54,8,62,91,4,7,3,0,520,5,62,4,4,13
