playerID,playerName,G,AB,R,H,2B,3B,HR,RBI,BB,SO,SB,CS,HBP,SH,SF
abbotku01,Kurt Abbott,126,432,60,113,20,5,15,56,32,113,6,2,5,3,4
aldremi01,Mike Aldrete,75,202,28,54,9,1,6,25,22,40,3,1,1,1,2
alexama02,Manny Alexander,106,308,45,80,14,2,6,36,27,41,11,4,3,4,1
alfoned01,Edgardo Alfonzo,109,365,38,98,16,4,6,47,17,44,4,2,2,4,4
alicelu01,Luis Alicea,132,402,60,112,21,4,7,49,57,61,11,7,5,6,7
allanan01,Andy Allanson,74,216,27,56,11,1,7,29,20,33,3,2,2,2,1
alomaro01,Roberto Alomar,125,473,78,141,25,5,12,62,52,48,28,7,2,5,5
alomasa02,Sandy Alomar,93,312,45,87,13,1,13,47,19,40,6,3,4,2,2
aloumo01,Moises Alou,107,393,62,114,24,3,16,67,35,59,8,4,5,1,5
amarari01,Rich Amaral,102,313,50,87,17,2,4,33,30,44,15,4,2,4,2
amaroru02,Ruben Amaro,83,209,29,56,11,2,6,29,19,27,5,4,3,3,2
anderbr01,Brady Anderson,127,490,85,132,29,7,13,57,71,92,23,6,9,4,3
anderga01,Garret Anderson,111,383,52,111,18,1,15,64,22,67,7,3,2,2,4
andresh01,Shane Andrews,101,297,40,76,15,2,10,42,25,85,4,2,2,2,3
anthoer01,Eric Anthony,84,273,38,71,13,1,9,38,26,57,4,2,1,1,2
ariasal01,Alex Arias,116,297,32,80,12,2,4,35,30,32,3,1,3,3,3
ashlebi01,Billy Ashley,98,291,31,77,11,1,10,36,32,104,3,1,3,1,2
auderi01,Rich Aude,81,243,30,63,14,1,6,37,17,46,4,3,1,1,1
aurilri01,Rich Aurilia,60,192,29,54,11,1,8,28,18,30,5,2,2,2,2
ausmubr01,Brad Ausmus,117,383,52,104,18,3,8,38,34,67,11,3,2,4,3
baergca01,Carlos Baerga,127,509,84,153,27,3,17,86,27,41,11,3,5,2,7
bagweje01,Jeff Bagwell,118,441,84,136,29,2,24,89,68,84,12,4,4,0,7
baineha01,Harold Baines,119,392,58,116,19,1,21,65,57,50,2,1,1,1,3
barbebr01,Bret Barberie,103,337,42,93,18,1,5,34,35,62,4,3,7,4,2
barryje01,Jeff Barry,64,188,28,51,10,1,5,25,18,48,4,2,2,1,2
basske01,Kevin Bass,127,336,46,91,19,1,7,47,34,51,8,5,2,3,2
batesja01,Jason Bates,115,344,47,95,18,3,9,49,44,72,5,5,3,2,1
battlal01,Allen Battle,88,235,32,66,12,1,4,23,28,48,6,4,2,3,1
battlho01,Howard Battle,58,186,28,52,9,1,5,24,26,46,5,2,2,1,2
bautida01,Danny Bautista,106,342,41,84,15,1,10,42,17,79,7,3,1,4,1
beckeri01,Rich Becker,111,394,50,102,17,1,4,40,39,94,10,7,3,5,2
bellda01,David Bell,75,264,33,69,13,2,6,36,13,47,4,3,3,1,2
bellde01,Derek Bell,120,457,62,134,20,1,13,69,30,83,23,7,6,0,5
belleal01,Albert Belle,129,484,94,149,37,2,38,105,64,75,10,5,6,1,6
bellira01,Rafael Belliard,120,281,28,71,12,2,2,25,12,49,4,3,4,5,1
bellja01,Jay Bell,126,476,75,133,28,5,11,50,53,97,6,4,4,6,2
bellju01,Juan Bell,67,198,30,53,8,1,5,23,24,45,5,2,1,2,2
beltres01,Esteban Beltre,90,237,28,63,14,1,3,27,20,41,4,3,1,5,2
benarma01,Marvin Benard,62,203,30,56,10,1,6,28,16,38,5,2,2,1,2
benitya01,Yamil Benitez,63,207,32,57,10,2,8,30,15,37,4,3,2,1,2
benjami01,Mike Benjamin,103,277,37,70,14,1,6,30,17,67,10,2,4,8,1
benzito01,Todd Benzinger,77,218,27,59,9,1,7,27,15,50,2,1,1,2,2
berroge01,Geronimo Berroa,132,479,75,135,22,3,18,77,55,86,8,3,2,1,6
berryda01,Damon Berryhill,81,246,27,63,14,1,6,33,21,52,2,1,1,1,3
berryse01,Sean Berry,121,363,51,103,21,2,15,55,36,64,10,4,3,3,5
bicheda01,Dante Bichette,130,517,86,157,34,3,29,99,23,86,15,8,5,0,5
biggicr01,Craig Biggio,129,494,95,147,34,3,16,63,68,74,26,8,12,5,4
blausje01,Jeff Blauser,114,423,66,112,20,3,11,46,53,90,8,4,9,3,4
blowemi01,Mike Blowers,131,421,59,115,23,2,18,77,48,112,3,3,2,3,3
bogarti01,Tim Bogar,112,258,32,68,13,1,5,34,19,44,3,1,2,3,2
boggswa01,Wade Boggs,116,427,68,132,21,2,6,57,65,44,2,1,1,1,6
bondsba01,Barry Bonds,131,453,97,139,26,4,33,91,98,68,26,9,4,0,4
bonilbo01,Bobby Bonilla,90,328,53,94,17,2,17,55,41,60,2,2,1,0,3
boonebr01,Bret Boone,134,480,64,133,29,2,15,70,36,83,5,3,7,6,6
bordepa01,Pat Borders,67,230,22,58,12,1,4,25,12,37,2,1,1,2,1
bordimi01,Mike Bordick,125,425,48,112,17,2,6,44,40,49,9,4,5,6,4
bradste01,Terry Bradshaw,65,205,30,55,10,2,5,25,16,41,5,3,2,1,1
bradydo01,Doug Brady,61,190,29,52,10,1,5,27,20,34,4,2,2,1,2
braggda01,Darren Bragg,82,253,37,68,12,2,6,29,30,58,9,1,4,2,3
bransje01,Jeff Branson,128,358,47,95,18,2,11,42,36,70,4,1,2,4,4
britobe01,Bernardo Brito,61,182,27,49,9,1,8,26,14,45,4,1,2,1,1
britojo01,Jorge Brito,63,206,28,55,11,1,4,29,15,52,5,2,2,2,1
brognri01,Rico Brogna,126,451,65,128,25,3,20,68,35,99,3,1,2,2,2
brosisc01,Scott Brosius,125,406,58,106,20,2,16,53,37,70,6,4,5,3,5
brownja03,Jarvis Brown,69,188,27,51,11,2,4,21,24,39,4,3,3,4,1
brownje01,Jerry Browne,98,300,38,83,14,2,4,30,39,29,4,1,2,5,2
brumfja01,Jacob Brumfield,131,389,66,107,23,3,7,35,37,68,19,9,3,2,3
brumlmi02,Mike Brumley,70,191,25,50,8,1,6,26,14,45,4,2,1,1,1
buechst01,Steve Buechele,65,218,25,58,10,1,7,31,25,44,2,1,2,2,2
buforda01,Damon Buford,88,247,42,67,12,1,7,29,31,49,8,6,5,1,2
buhneja01,Jay Buhner,121,433,76,119,23,2,28,87,65,103,2,2,3,2,6
bullesc01,Scott Bullett,117,257,34,69,10,6,6,35,22,52,10,4,2,2,2
burksel01,Ellis Burks,103,326,52,91,15,4,15,51,41,76,6,4,2,2,3
burnije01,Jeromy Burnitz,62,193,34,52,9,2,7,25,26,46,3,2,1,1,1
buschmi01,Mike Busch,63,190,28,51,9,1,10,30,16,45,4,2,2,1,2
butlebr01,Brett Butler,75,277,44,82,10,4,3,25,42,30,16,5,2,5,3
cacered01,Edgar Caceres,84,236,32,63,12,2,5,34,19,34,5,3,2,3,2
camermi01,Mike Cameron,74,204,29,55,11,1,6,26,19,54,4,2,2,4,2
caminke01,Ken Caminiti,131,478,69,136,29,1,20,79,55,83,9,4,2,1,4
cangejo01,John Cangelosi,110,274,48,82,11,2,4,28,54,53,16,4,4,3,2
cansejo01,Jose Canseco,109,412,69,118,23,2,24,80,49,99,9,5,6,1,4
carabra01,Ramon Caraballo,72,233,31,61,12,2,6,24,18,65,6,3,4,3,1
carrch02,Chuck Carr,107,380,57,99,19,1,3,31,38,58,29,10,3,6,2
carrema01,Mark Carreon,132,384,51,109,21,1,15,64,26,43,3,1,4,1,5
cartejo01,Joe Carter,127,490,70,128,25,2,24,86,36,80,10,2,4,0,8
castial01,Alberto Castillo,61,195,27,52,9,1,5,24,20,43,5,2,2,1,2
castivi02,Vinny Castilla,135,461,65,132,25,4,22,67,26,75,4,6,3,3,6
castrju01,Juan Castro,62,183,27,51,10,1,6,25,21,32,4,2,2,1,2
cedenan01,Andujar Cedeno,123,412,51,106,22,2,9,47,34,92,6,3,5,1,2
cedendo01,Domingo Cedeno,91,271,36,69,11,3,6,32,21,61,4,3,2,3,3
cedenro01,Roger Cedeno,84,208,29,56,11,1,5,27,19,42,5,2,2,1,2
chambwe01,Wes Chamberlain,71,220,26,58,12,1,7,29,16,46,3,2,1,1,2
cianfar01,Archi Cianfrocco,88,255,32,66,13,1,9,41,17,59,3,2,4,1,3
cirilje01,Jeff Cirillo,122,356,57,98,21,3,10,44,46,47,7,3,4,1,3
clarkda05,Dave Clark,106,292,45,82,13,1,10,46,34,58,4,3,1,1,3
clarkje01,Jerald Clark,71,237,34,66,13,3,7,33,11,30,5,2,3,1,1
clarkph02,Phil Clark,108,249,32,66,13,1,8,32,15,38,3,2,4,1,3
clarkto02,Tony Clark,68,237,31,63,12,2,7,31,21,61,4,1,1,1,1
clarkwi02,Will Clark,120,434,76,129,25,2,14,78,65,55,3,2,4,1,7
claytro01,Royce Clayton,134,482,53,125,23,4,6,54,37,96,19,7,4,4,4
colbrgr01,Greg Colbrunn,138,469,61,128,22,1,19,77,23,68,9,3,5,1,5
coleal01,Alex Cole,80,247,40,70,10,3,3,24,30,43,15,6,2,3,1
colemvi01,Vince Coleman,77,303,47,81,13,6,3,26,20,53,27,7,1,3,2
colesda01,Darnell Coles,90,258,32,66,13,1,7,33,25,40,2,1,4,1,3
coninje01,Jeff Conine,127,468,65,138,24,3,18,82,52,93,3,2,2,0,7
cooksbr01,Brent Cookson,68,199,27,53,10,1,5,28,17,37,5,2,2,2,1
coomero01,Ron Coomer,73,228,34,62,10,2,9,36,22,30,4,2,2,1,1
coopesc01,Scott Cooper,120,402,47,107,20,3,8,50,45,79,3,3,3,2,4
corajo01,Joey Cora,116,414,66,116,17,5,4,41,42,38,14,6,5,12,4
cordewi01,Wil Cordero,133,490,66,135,32,2,12,60,39,79,12,4,7,2,3
cordoma01,Marty Cordova,121,438,68,121,23,3,19,69,45,93,15,5,7,1,4
correro01,Rod Correia,72,193,27,52,9,1,3,23,12,33,4,3,4,3,1
crometr01,Tripp Cromer,109,357,43,88,19,1,6,30,18,69,3,1,4,2,4
cruzfa01,Fausto Cruz,64,195,25,53,9,1,5,26,23,36,4,2,1,3,3
cummimi01,Midre Cummings,89,271,34,70,13,1,5,34,23,54,4,1,2,1,2
curtich01,Chad Curtis,133,518,81,141,25,3,14,59,57,81,28,14,5,4,6
cuylemi01,Milt Cuyler,83,235,39,60,10,5,2,24,22,44,8,3,2,3,2
dalesma01,Mark Dalesandro,69,188,28,50,10,1,6,24,17,33,4,2,2,1,1
damonjo01,Johnny Damon,78,285,45,78,15,4,6,38,21,37,8,1,2,2,3
daultda01,Darren Daulton,102,358,55,97,22,3,14,65,60,61,5,1,3,0,3
davisch01,Chili Davis,116,418,69,122,22,1,21,81,72,83,4,2,1,0,5
davisru01,Russ Davis,76,232,33,63,12,2,6,31,23,55,4,1,2,1,1
dawsoan01,Andre Dawson,91,316,38,82,18,2,12,48,13,53,3,1,7,0,3
deckest01,Steve Decker,79,239,30,65,10,2,6,30,31,40,4,1,1,1,3
delgaca01,Carlos Delgado,78,239,30,61,10,1,10,35,29,66,3,2,3,1,3
deshide01,Delino DeShields,119,421,65,115,17,4,6,39,63,74,32,10,2,3,2
devermi01,Mike Devereaux,68,236,31,59,12,1,7,31,18,48,3,2,1,1,2
diazal01,Alex Diaz,125,340,48,89,15,3,5,36,18,39,15,8,2,5,3
diazma01,Mario Diaz,85,230,28,61,11,2,4,28,12,28,3,1,2,3,3
disarga01,Gary Disarcina,117,405,57,109,22,3,5,44,21,33,6,6,3,7,3
donnech01,Chris Donnels,95,230,31,62,12,2,6,28,26,44,3,1,1,1,2
duncama01,Mariano Duncan,70,253,38,69,13,2,7,37,12,52,5,2,2,2,2
dunstsh01,Shawon Dunston,124,452,57,126,26,3,14,60,16,71,8,6,4,6,3
durhara01,Ray Durham,117,427,62,113,24,5,8,50,30,75,14,4,5,4,4
dykstle01,Lenny Dykstra,84,320,61,91,22,3,7,31,56,38,14,5,2,0,2
easleda01,Damion Easley,119,392,49,99,19,2,6,42,38,56,7,5,5,5,4
edmonji01,Jim Edmonds,139,497,87,139,26,3,23,81,46,115,4,4,4,2,4
eenhoro01,Robert Eenhoorn,57,187,27,51,11,1,5,26,18,33,4,2,2,1,2
eisenji01,Jim Eisenreich,137,387,53,115,20,3,9,57,38,45,8,1,2,3,4
elsteke01,Kevin Elster,67,200,31,55,12,2,5,29,23,42,4,1,2,3,3
encaran01,Angelo Encarnacion,85,262,35,69,13,2,5,28,23,46,4,2,1,3,1
espinal01,Alvaro Espinoza,110,277,35,72,14,1,4,31,9,37,3,3,2,5,3
eusebto01,Tony Eusebio,118,380,49,108,21,2,8,60,31,64,3,3,3,2,6
evereca01,Carl Everett,97,334,51,89,16,1,13,53,41,77,6,4,2,1,1
fabrejo01,Jorge Fabregas,99,314,38,83,14,1,3,37,24,42,4,3,1,3,2
faneyri01,Rikkert Faneyte,87,224,28,58,13,2,4,25,27,61,4,1,1,2,1
fermife01,Felix Fermin,96,320,39,85,14,1,2,32,13,16,4,3,4,7,2
fernato01,Tony Fernandez,113,400,56,109,21,5,7,53,43,42,11,7,4,4,4
fieldce01,Cecil Fielder,125,458,67,121,19,1,27,84,65,106,2,1,4,0,4
finlest01,Steve Finley,129,498,81,140,20,7,10,45,44,60,22,8,3,7,2
flahejo01,John Flaherty,124,363,44,92,21,1,10,44,21,53,3,2,3,7,3
fletcda01,Darrin Fletcher,121,379,43,103,22,1,11,58,34,32,2,1,4,2,6
fletcsc01,Scott Fletcher,86,282,42,75,16,2,4,28,26,32,7,2,3,4,2
florake01,Kevin Flora,67,221,33,58,11,1,7,28,17,54,5,2,2,3,1
floydcl01,Cliff Floyd,80,257,33,67,12,2,5,32,21,57,7,2,2,1,2
foleyto02,Tom Foley,76,200,24,53,11,1,4,25,17,31,3,1,1,1,2
fonvich01,Chad Fonville,99,342,48,93,11,1,3,30,27,46,16,5,2,5,1
fordybr01,Brook Fordyce,56,179,27,50,10,1,6,25,21,29,4,2,2,1,2
francma01,Matt Franco,65,191,29,52,10,1,5,26,16,36,4,2,2,1,2
frazilo01,Lou Frazier,107,240,39,64,9,1,2,26,23,41,18,3,2,4,1
fryeje01,Jeff Frye,101,351,50,100,21,3,5,37,34,50,6,3,4,7,4
frymatr01,Travis Fryman,131,511,75,142,28,4,16,80,57,103,5,3,4,1,8
gaettga01,Gary Gaetti,127,459,68,123,24,2,25,79,37,86,3,3,6,3,5
gagnegr01,Greg Gagne,123,429,54,114,25,3,8,52,34,69,7,9,2,4,3
galaran01,Andres Galarraga,129,495,80,147,27,2,28,94,28,116,9,3,9,1,5
gallada01,Dave Gallagher,84,194,31,52,10,1,5,24,23,23,2,2,1,3,1
gallemi01,Mike Gallego,78,259,35,69,12,1,5,33,29,44,2,2,3,3,3
gantro01,Ron Gant,106,380,69,106,18,3,23,72,57,88,17,6,2,1,4
garcica01,Carlos Garcia,109,409,52,113,20,3,8,43,24,61,13,7,4,4,3
garcifr01,Freddy Garcia,81,209,28,56,10,2,4,24,26,49,4,2,2,2,1
garcika01,Karim Garcia,65,200,28,54,10,1,5,26,16,37,4,2,2,1,2
gatesbr01,Brent Gates,126,470,58,128,23,3,6,55,44,73,5,3,2,4,8
giambja01,Jason Giambi,80,266,40,74,13,1,9,38,38,46,5,2,3,2,3
giannra01,Ray Giannelli,57,179,25,50,9,1,5,24,24,36,4,2,2,1,1
gibrast01,Steve Gibralter,57,184,27,51,9,1,6,25,19,30,4,2,2,1,2
gibsoki01,Kirk Gibson,93,313,54,85,16,3,14,53,40,72,9,4,3,1,3
gilbe01,Benji Gil,124,400,42,97,20,3,9,47,28,135,5,4,2,8,2
gilesbr02,Brian Giles,58,188,32,52,9,1,7,28,17,31,4,2,2,1,2
gilkebe01,Bernard Gilkey,119,454,70,129,29,3,13,60,43,67,13,7,6,1,3
giovaed01,Ed Giovanola,61,183,27,51,9,1,5,24,23,38,4,2,2,1,2
girarjo01,Joe Girardi,123,440,60,119,17,4,7,51,30,70,5,4,3,10,2
goffje01,Jerry Goff,60,189,25,51,10,1,6,25,22,55,3,1,1,2,1
gomezch02,Chris Gomez,127,433,51,109,24,2,11,58,43,92,6,3,4,4,3
gomezle02,Leo Gomez,83,264,38,69,14,0,11,38,36,52,2,1,3,1,3
gonzaal01,Alex Gonzalez,113,378,53,98,21,4,10,44,43,110,7,4,2,7,4
gonzaju03,Juan Gonzalez,106,404,65,115,21,2,27,83,26,73,4,2,5,0,4
gonzalu01,Luis Gonzalez,100,347,50,99,23,3,9,50,42,49,11,7,4,1,5
gonzare01,Rene Gonzales,73,180,23,50,9,1,4,22,23,28,4,2,1,1,2
goodwcu01,Curtis Goodwin,100,337,48,90,15,3,4,36,20,62,18,4,3,6,3
goodwto01,Tom Goodwin,128,422,64,118,16,3,5,35,35,65,33,13,4,9,1
gracema01,Mark Grace,130,488,76,150,34,3,12,73,58,42,5,2,2,1,6
grebecr01,Craig Grebeck,86,257,36,70,14,1,3,27,33,35,3,1,3,6,1
greenmi01,Mike Greenwell,120,444,67,128,27,3,13,64,41,37,6,4,3,1,4
greensh01,Shawn Green,122,388,53,105,26,3,14,53,23,71,4,2,3,1,3
greenwi01,Willie Greene,62,194,27,51,10,1,5,23,22,52,3,1,1,1,2
greerru01,Rusty Greer,125,412,57,117,22,2,13,62,57,66,4,1,2,2,4
greggto01,Tommy Gregg,94,252,35,67,11,1,9,34,26,50,5,2,3,1,3
griffke02,Ken Griffey,95,350,68,103,18,2,26,63,56,62,8,4,2,0,3
grissma02,Marquis Grissom,127,504,83,139,23,3,13,55,43,61,31,7,3,1,5
groteje02,Jeff Grotewold,58,187,27,54,9,1,6,27,30,33,4,1,1,1,1
grudzma01,Mark Grudzielanek,94,323,39,84,16,2,4,33,20,57,9,3,6,3,1
guilloz01,Ozzie Guillen,123,425,52,113,18,4,3,47,15,35,6,5,1,7,3
gutieri01,Ricky Gutierrez,90,287,41,76,11,2,3,27,29,60,5,3,3,2,2
gwynnch01,Chris Gwynn,103,227,30,62,10,2,4,28,20,41,2,2,2,1,2
gwynnto01,Tony Gwynn,125,478,76,162,32,2,10,72,39,20,12,3,2,1,6
halech01,Chip Hale,103,236,30,67,12,1,5,33,26,36,3,2,3,2,2
halljo02,Joe Hall,62,187,29,52,10,1,5,25,20,32,4,1,2,1,1
hamelbo01,Bob Hamelin,99,306,45,79,18,1,15,48,44,72,4,2,4,1,3
hamilda02,Darryl Hamilton,107,390,56,110,19,3,6,43,42,41,12,4,3,5,2
hammoje01,Jeffrey Hammonds,90,304,43,82,18,2,9,41,19,50,7,2,2,1,4
haneyto01,Todd Haney,69,216,32,62,13,1,6,26,21,33,4,2,2,2,2
hanseda01,Dave Hansen,134,268,33,79,14,1,5,36,40,40,3,1,2,1,2
haresh01,Shawn Hare,70,192,28,53,9,2,4,24,23,40,3,1,1,1,1
harrile01,Lenny Harris,138,288,42,74,13,3,4,31,22,33,11,3,1,2,2
haselbi01,Bill Haselman,98,263,38,69,15,2,8,35,25,46,4,2,3,2,3
hatchbi01,Billy Hatcher,57,196,27,53,9,1,4,23,12,21,5,2,3,3,2
hattesc01,Scott Hatteberg,54,180,27,50,9,1,6,25,19,30,4,2,2,1,2
hayesch01,Charlie Hayes,132,485,61,137,29,3,14,73,43,79,6,4,4,1,5
helfaer01,Eric Helfand,79,223,30,58,10,2,4,27,25,53,3,1,2,3,1
hemonsc01,Scott Hemond,101,253,33,63,13,1,6,29,27,62,8,4,2,3,1
henderi01,Rickey Henderson,109,386,70,109,23,1,9,43,73,61,27,8,5,2,3
hernaca01,Carlos Hernandez,93,238,24,59,10,1,6,27,15,51,3,1,2,2,1
hernajo01,Jose Hernandez,114,321,47,83,14,4,13,44,20,83,4,2,2,8,2
herrejo02,Jose Herrera,74,220,31,59,10,3,4,25,21,36,5,4,2,1,2
hiattph01,Phil Hiatt,83,239,31,60,13,1,8,32,19,72,5,2,3,2,2
higgibo02,Bobby Higginson,119,384,57,99,19,4,13,45,55,95,7,4,4,2,5
hillgl01,Glenallen Hill,132,453,69,124,25,3,22,74,39,91,21,5,1,1,2
hockide01,Denny Hocking,63,199,29,53,10,2,4,24,18,30,6,1,1,2,1
hoilech01,Chris Hoiles,115,374,58,104,18,1,21,62,66,82,3,1,5,1,3
holbera01,Ray Holbert,97,217,32,58,10,2,6,26,23,51,7,1,3,3,1
hollato01,Todd Hollandsworth,78,237,36,64,10,1,10,32,24,58,5,2,2,1,2
hollida01,Dave Hollins,53,193,34,53,10,1,6,30,29,40,2,1,2,0,2
hornsa01,Sam Horn,61,181,27,50,9,1,7,26,17,42,4,1,2,1,2
hoseydw01,Dwayne Hosey,65,210,39,60,14,2,8,28,24,44,8,1,1,2,1
howarda02,David Howard,115,311,37,82,16,3,3,34,31,54,8,3,2,6,3
howarth01,Thomas Howard,124,337,50,94,18,2,7,39,25,49,13,7,1,2,2
hubbami01,Mike Hubbard,64,194,27,52,9,1,5,25,20,29,4,2,2,1,2
hubbatr01,Trent Hubbard,71,205,33,58,11,1,8,29,25,28,5,2,1,2,1
hudlere01,Rex Hudler,108,300,42,81,18,1,11,41,17,64,11,2,4,4,3
huffmi01,Mike Huff,102,259,35,71,16,2,4,30,36,40,4,2,3,3,2
huletti01,Tim Hulett,61,189,27,52,9,1,4,23,19,41,2,1,2,1,2
hulseda01,David Hulse,115,385,61,102,12,6,3,40,24,65,19,4,2,4,3
hundlto01,Todd Hundley,110,353,47,93,15,1,16,53,38,74,3,1,4,2,3
huntebr01,Brian Hunter,81,221,29,58,13,1,6,32,23,46,4,2,2,1,4
huntebr02,Brian Hunter,93,353,54,99,16,4,4,37,25,59,19,6,3,3,3
huskebu01,Butch Huskey,69,228,28,59,9,1,7,30,23,43,4,1,1,2,3
husonje01,Jeff Huson,92,258,37,68,10,3,4,32,23,37,6,4,2,3,2
ingraga01,Garey Ingram,83,215,29,59,9,1,5,26,26,39,5,1,1,3,1
ingrari01,Riccardo Ingram,58,182,26,50,9,1,5,25,20,28,4,2,1,1,2
jahajo01,John Jaha,104,361,58,100,19,1,17,57,39,78,6,4,6,2,3
jamesch02,Chris James,68,197,32,54,11,3,8,27,23,42,3,1,2,2,2
jamesdi01,Dion James,97,280,40,81,13,2,5,35,27,26,4,1,1,1,2
javiest01,Stan Javier,129,435,74,121,21,2,9,53,49,67,26,5,3,5,4
jeffegr01,Gregg Jefferies,117,456,67,139,26,2,12,61,43,30,17,6,1,0,5
jeffere01,Reggie Jefferson,86,258,35,71,13,1,9,38,22,52,2,1,2,1,2
jeterde01,Derek Jeter,63,212,30,57,12,2,5,30,18,43,4,2,2,1,2
johnsbr01,Brian Johnson,96,297,34,78,14,1,7,43,19,57,3,1,2,2,4
johnsch04,Charles Johnson,103,339,48,93,18,2,12,46,47,74,3,3,4,3,3
johnsho01,Howard Johnson,103,271,39,69,12,2,10,38,47,68,7,3,1,1,3
johnsla03,Lance Johnson,134,522,78,151,17,11,6,56,32,32,31,6,2,2,3
johnsma01,Mark Johnson,92,282,41,74,12,2,14,38,43,76,6,3,3,1,2
jonesch05,Chris Jones,105,276,43,75,12,3,10,41,19,65,6,3,1,3,3
jonesch06,Chipper Jones,126,449,73,123,21,3,19,70,61,84,8,4,1,1,4
jordabr01,Brian Jordan,126,445,66,125,19,5,18,68,26,76,16,8,7,1,3
jordake01,Kevin Jordan,69,211,30,55,10,1,7,28,15,36,4,2,2,1,1
josefe01,Felix Jose,67,232,32,63,13,1,5,28,20,47,9,5,1,1,1
joynewa01,Wally Joyner,123,437,66,130,26,2,12,68,60,60,5,4,2,3,6
justida01,David Justice,118,412,68,115,17,2,24,74,68,64,4,3,2,0,3
karkoro01,Ron Karkovice,118,354,52,87,17,1,15,51,41,96,3,3,4,7,5
karroer01,Eric Karros,134,501,69,138,25,2,23,75,45,89,4,2,3,0,6
kellymi02,Mike Kelly,117,263,44,67,17,2,7,34,20,77,8,4,3,2,2
kellypa03,Pat Kelly,108,343,43,92,20,2,6,44,26,70,9,6,5,10,4
kellyro01,Roberto Kelly,110,410,56,115,21,3,9,48,23,64,16,6,3,1,5
kentje01,Jeff Kent,126,462,63,127,23,3,18,69,29,87,4,4,8,2,4
kingemi01,Mike Kingery,123,373,66,108,23,5,8,46,44,42,10,6,2,5,4
kingje01,Jeff King,118,432,57,119,26,2,12,70,47,54,6,4,2,1,7
kirbywa01,Wayne Kirby,107,290,45,76,13,2,5,34,22,45,12,4,2,3,3
kleskry01,Ryan Klesko,128,373,57,108,23,3,24,70,48,78,5,3,2,1,4
kmakjo01,Joe Kmak,68,200,26,54,11,1,4,24,23,36,5,2,3,1,2
knoblch01,Chuck Knoblauch,127,494,86,149,32,5,8,53,60,72,32,11,9,1,3
knorrra01,Randy Knorr,84,260,37,67,12,1,9,38,23,59,3,1,1,2,1
kowitbr01,Brian Kowitz,59,192,28,52,10,1,5,27,19,35,4,2,2,2,2
kreutch01,Chad Kreuter,74,225,32,61,13,1,6,29,28,54,2,1,2,2,2
krukjo01,John Kruk,77,268,40,80,15,1,6,40,46,50,3,1,1,0,3
lakerti01,Tim Laker,95,253,31,66,13,2,6,34,23,60,4,2,2,3,2
lampkto01,Tom Lampkin,94,211,29,56,10,1,5,29,25,30,6,2,2,1,2
lankfra01,Ray Lankford,127,452,79,122,27,3,19,65,65,109,16,9,3,1,4
lansimi01,Mike Lansing,126,453,53,121,26,2,8,52,33,59,19,5,5,4,3
larkiba01,Barry Larkin,123,459,81,137,25,5,12,60,60,50,31,3,2,3,4
lavalmi01,Mike LaValliere,86,231,23,63,11,1,3,35,24,34,2,2,1,6,4
lawtoma02,Matt Lawton,65,211,33,60,12,2,6,32,23,37,5,2,4,1,1
ledesaa01,Aaron Ledesma,66,195,28,54,9,1,5,26,26,36,4,2,2,1,1
leema02,Manuel Lee,64,212,29,57,10,1,3,24,17,40,3,2,1,4,1
leiussc01,Scott Leius,119,395,59,103,19,3,9,52,48,60,4,3,2,1,4
lemkema01,Mark Lemke,121,407,47,109,17,3,6,42,47,43,3,3,1,6,3
leonama01,Mark Leonard,67,180,27,51,10,2,6,27,28,30,3,1,1,1,3
levisje01,Jesse Levis,67,191,26,51,10,1,4,25,15,25,3,1,1,2,3
lewisda01,Darren Lewis,86,306,46,80,11,4,3,26,29,34,20,9,3,5,1
lewisma01,Mark Lewis,98,276,38,78,17,1,6,40,27,51,4,3,1,2,2
leyriji01,Jim Leyritz,100,325,52,91,16,1,14,57,44,81,2,1,8,1,2
liebemi01,Mike Lieberthal,66,218,25,59,10,1,4,26,18,27,3,1,2,3,1
lindjo01,Jose Lind,71,232,26,60,11,1,2,24,12,26,4,2,1,5,2
liriane01,Nelson Liriano,114,325,46,90,17,3,6,43,38,48,4,3,2,3,3
listapa01,Pat Listach,103,351,45,88,14,2,3,33,30,65,13,5,3,5,2
livinsc01,Scott Livingstone,108,298,36,85,16,1,6,38,20,36,4,3,1,1,3
lockhke01,Keith Lockhart,109,320,46,91,18,3,8,41,20,32,8,2,4,2,6
loftoke01,Kenny Lofton,118,459,91,142,24,8,7,50,49,55,49,11,2,3,4
longmto01,Tony Longmire,104,247,35,69,15,1,5,36,23,45,4,2,2,1,3
lopezja01,Javy Lopez,114,384,45,107,14,3,16,54,21,71,2,2,4,1,3
loretma01,Mark Loretta,65,208,35,57,11,1,6,26,20,33,5,2,2,2,1
lyonsba01,Barry Lyons,67,207,30,56,10,1,10,34,17,41,4,1,1,2,2
maaske01,Kevin Maas,67,201,27,53,10,1,8,28,26,38,3,1,1,1,1
mabryjo01,John Mabry,122,385,42,109,21,1,6,46,26,48,3,3,2,1,4
macfami01,Mike Macfarlane,116,383,55,100,22,2,17,57,40,82,3,2,14,1,4
magadda01,Dave Magadan,121,358,48,105,20,1,3,44,66,54,3,1,1,1,3
mahayro01,Ron Mahay,56,193,29,52,11,1,7,27,18,40,4,2,2,1,2
maldoca01,Candy Maldonado,66,190,29,52,11,1,9,29,31,41,3,2,1,1,1
mantoje01,Jeff Manto,99,303,40,80,13,1,17,43,29,77,3,3,3,1,1
manwaki01,Kirt Manwaring,121,398,38,105,18,2,5,43,32,72,3,2,6,4,3
marshto01,Tom Marsh,79,238,33,64,10,2,7,33,14,50,3,2,1,2,2
martial03,Al Martin,124,425,70,119,22,4,14,50,44,92,17,8,2,1,2
martica02,Carlos Martinez,67,210,26,54,9,1,5,28,19,27,3,1,1,1,2
martida01,Dave Martinez,130,352,48,97,17,3,7,43,36,47,8,4,2,5,2
martied01,Edgar Martinez,129,451,86,142,36,1,22,81,90,72,6,3,5,2,4
martino01,Norberto Martin,100,276,37,74,13,3,5,35,14,42,7,2,2,3,4
martisa01,Sandy Martinez,88,285,31,74,16,1,5,39,15,65,3,1,2,1,2
martiti02,Tino Martinez,131,470,71,131,30,2,25,86,52,78,2,2,4,3,5
marzajo01,John Marzano,53,179,27,49,9,1,5,24,17,28,4,2,2,1,2
masteda01,Dan Masteller,91,279,36,74,16,1,6,35,26,31,4,3,2,2,2
mathemi01,Mike Matheny,107,273,30,72,15,2,4,34,21,49,4,2,4,2,1
mattido01,Don Mattingly,117,433,63,124,25,2,9,58,49,35,2,1,1,0,5
mayde01,Derrick May,98,322,44,91,18,2,9,52,27,35,6,2,1,1,3
maynebr01,Brent Mayne,117,350,38,92,18,2,4,40,31,51,3,2,3,7,1
mccarda01,Dave McCarty,65,210,27,53,11,2,3,21,14,46,3,2,3,1,1
mcdavra01,Ray McDavid,62,195,27,53,9,1,5,24,19,44,5,2,2,1,1
mcgeewi01,Willie McGee,86,289,39,81,14,2,5,32,21,51,6,3,1,3,3
mcgrifr01,Fred McGriff,131,477,84,138,26,1,28,89,58,89,5,4,3,1,4
mcgwima01,Mark McGwire,106,330,66,96,15,1,32,74,82,77,3,2,7,1,4
mclemma01,Mark McLemore,123,439,63,119,19,3,5,46,55,67,18,9,2,7,3
mcraebr01,Brian McRae,129,511,76,143,28,6,10,51,45,82,23,8,5,6,2
mearepa01,Pat Meares,127,407,54,108,20,3,8,48,18,72,9,4,6,5,5
mejiaro02,Roberto Mejia,71,225,29,57,13,2,6,26,17,60,4,2,2,2,2
mercehe01,Henry Mercedes,68,199,29,55,10,1,4,28,24,47,4,2,2,2,3
merceor01,Orlando Merced,129,454,66,131,26,4,12,70,54,69,6,2,2,0,3
merulma01,Matt Merullo,95,277,34,75,16,1,4,37,22,40,3,2,3,2,3
mieskma01,Matt Mieske,123,341,52,90,17,1,14,53,32,64,4,5,4,2,4
milleke01,Keith Miller,60,187,24,49,8,1,4,21,17,35,4,2,2,1,2
milleor01,Orlando Miller,103,351,43,94,19,2,7,45,25,76,5,4,5,3,1
molitpa01,Paul Molitor,120,468,74,140,27,3,14,68,55,52,15,1,3,2,5
mondera01,Raul Mondesi,141,510,80,144,25,6,22,75,29,92,19,6,3,1,5
moranmi01,Mickey Morandini,126,451,62,124,26,7,6,46,42,72,11,5,7,4,2
mordemi01,Mike Mordecai,99,213,31,60,13,1,8,32,25,41,4,1,1,3,2
mormaru01,Russ Morman,75,218,29,58,9,2,8,27,15,40,3,1,3,1,1
morriha02,Hal Morris,109,400,56,117,24,2,10,60,33,62,4,2,3,1,4
moutoja01,James Mouton,117,361,51,95,18,2,5,33,32,73,23,7,5,3,2
moutoly01,Lyle Mouton,83,270,37,76,18,1,8,39,29,64,4,1,3,1,2
munozpe01,Pedro Munoz,117,397,51,109,19,1,17,57,26,97,2,2,3,1,2
murraed02,Eddie Murray,112,430,60,123,21,1,19,74,34,58,6,2,1,0,5
myersgr01,Greg Myers,108,329,39,86,15,1,9,43,23,60,3,3,2,4,3
naehrti01,Tim Naehring,121,421,59,124,26,2,10,57,61,68,3,3,4,6,2
natalro01,Rob Natal,65,203,21,53,10,2,5,24,15,38,4,1,3,2,2
nevinph01,Phil Nevin,68,229,30,62,11,2,6,31,26,55,4,1,4,1,1
newfima01,Marc Newfield,70,221,28,59,12,1,6,29,14,33,3,2,2,1,2
newsowa01,Warren Newson,89,215,36,61,10,1,6,25,35,47,4,1,1,2,1
nieveme01,Melvin Nieves,112,305,42,77,12,2,15,45,27,106,4,3,5,1,3
nilssda01,Dave Nilsson,106,353,49,96,19,2,12,59,34,54,3,2,1,2,5
nixonot01,Otis Nixon,129,495,75,139,18,2,2,39,56,74,41,14,1,5,3
nokesma01,Matt Nokes,65,192,26,51,9,1,9,30,16,35,2,1,1,1,2
normale01,Les Norman,68,197,29,54,9,2,5,26,24,32,4,2,2,2,1
nunnajo01,Jon Nunnally,116,330,53,89,18,5,14,46,52,87,7,4,3,3,1
obandsh01,Sherman Obando,65,205,24,55,9,1,5,28,15,51,4,1,2,1,2
obriech01,Charlie O'Brien,93,285,34,75,15,1,11,39,33,48,2,2,5,2,1
ochoaal01,Alex Ochoa,60,204,31,56,10,1,5,24,18,44,5,2,2,1,2
offerjo01,Jose Offerman,116,412,58,113,16,5,4,42,60,62,9,6,2,11,3
oleartr01,Troy O'Leary,118,390,57,112,25,4,10,49,31,65,6,3,2,4,3
olerujo01,John Olerud,128,453,70,138,33,1,13,68,78,54,2,2,4,0,4
olivajo01,Jose Oliva,68,227,32,58,12,1,9,32,21,56,3,2,3,1,2
olivejo01,Joe Oliver,102,351,41,92,20,1,12,53,26,67,3,2,2,2,3
oneilpa01,Paul O'Neill,123,438,73,135,28,2,20,82,64,69,4,3,1,0,6
oquenjo01,Jose Oquendo,111,290,39,75,11,3,4,28,44,32,3,2,1,4,2
orsuljo01,Joe Orsulak,118,352,50,96,15,2,6,44,24,36,4,3,2,1,5
ortizlu01,Luis Ortiz,81,241,31,63,13,2,5,37,17,42,3,2,1,2,4
oterori01,Ricky Otero,78,212,29,55,11,1,5,25,18,39,6,2,2,2,1
owenser01,Eric Owens,55,183,27,51,9,1,6,26,19,30,4,2,2,2,2
owensja02,Jayhawk Owens,68,206,32,55,11,1,9,30,18,55,4,1,3,1,2
owensp01,Spike Owen,98,305,35,81,16,3,3,36,35,30,4,4,1,2,1
paglimi01,Mike Pagliarulo,95,296,41,78,18,1,8,39,21,57,3,1,2,2,3
pagnoto01,Tom Pagnozzi,89,312,32,80,17,1,6,38,21,44,2,1,1,1,3
palmede01,Dean Palmer,79,276,46,74,14,1,16,48,30,66,4,4,4,0,2
palmeor01,Orlando Palmeiro,64,191,28,53,9,1,5,25,18,27,4,2,2,1,2
palmera01,Rafael Palmeiro,130,490,87,146,30,1,30,86,57,64,9,2,3,1,6
paquecr01,Craig Paquette,106,339,42,82,17,2,12,47,15,97,6,2,1,3,3
parenma01,Mark Parent,68,198,26,54,10,1,9,30,21,42,3,2,2,2,2
parkeri01,Rick Parker,85,194,29,53,9,1,4,25,16,31,4,3,1,4,1
parrila02,Lance Parrish,91,268,30,69,14,1,7,35,28,69,3,1,2,4,2
pattejo01,John Patterson,116,306,43,77,13,3,4,35,22,58,10,3,11,6,1
peguest01,Steve Pegues,102,276,34,72,14,1,9,32,12,55,5,3,2,1,3
pemberu01,Rudy Pemberton,61,198,28,54,11,2,5,27,16,34,4,2,2,1,2
penage01,Geronimo Pena,80,247,38,67,16,2,7,32,29,63,9,3,4,4,2
penato01,Tony Pena,109,311,34,79,17,1,6,32,22,50,3,2,2,5,2
pendlte01,Terry Pendleton,121,463,58,127,26,2,12,62,30,76,4,2,2,2,3
pennsh01,Shannon Penn,54,183,26,51,9,1,5,25,20,33,4,2,2,1,2
perezed01,Eduardo Perez,72,231,27,59,12,2,6,32,24,41,5,3,2,1,2
perezed02,Eddie Perez,58,187,27,51,10,1,7,28,16,32,4,2,2,1,2
perezro01,Robert Perez,66,212,27,54,10,1,6,26,12,31,4,2,2,1,1
perezto03,Tomas Perez,79,237,33,63,11,2,5,29,20,43,4,2,1,1,2
perryge01,Gerald Perry,122,216,30,59,13,1,6,31,28,37,3,2,1,1,1
perryhe01,Herbert Perry,81,262,38,74,16,2,6,37,24,45,4,3,5,3,3
petagro01,Roberto Petagine,107,236,33,66,14,1,7,33,41,65,3,1,1,2,1
philljr01,J. R. Phillips,110,306,38,75,14,1,11,40,25,86,4,2,1,2,2
phillto02,Tony Phillips,123,458,93,131,21,2,18,56,97,107,12,7,3,1,2
piazzmi01,Mike Piazza,119,441,72,136,19,1,28,89,39,77,3,2,2,0,3
pirklgr01,Greg Pirkl,65,200,28,53,9,1,9,29,13,46,3,1,2,1,2
plantph01,Phil Plantier,87,286,40,73,14,1,15,44,33,67,3,2,3,1,2
polonlu01,Luis Polonia,69,238,35,67,12,3,2,21,22,28,15,7,2,2,1
prattto02,Todd Pratt,70,219,25,56,12,1,6,26,22,58,3,1,1,1,2
pridecu01,Curtis Pride,88,212,33,56,10,1,5,26,19,47,6,3,1,2,1
princto01,Tom Prince,66,196,24,51,12,1,4,26,18,42,3,1,3,1,2
puckeki01,Kirby Puckett,125,484,76,144,32,2,20,89,43,73,6,3,5,1,5
pulliha01,Harvey Pulliam,60,184,26,50,11,1,6,26,15,37,4,1,2,1,1
raabebr01,Brian Raabe,56,185,29,51,9,1,5,25,18,25,4,2,2,1,2
raineti01,Tim Raines,122,449,78,128,21,4,13,60,65,48,14,3,3,3,3
ramirma02,Manny Ramirez,136,459,77,132,27,1,27,90,66,104,7,5,3,2,5
randajo01,Joe Randa,74,216,29,57,11,1,5,27,21,46,4,2,1,1,1
readyra01,Randy Ready,65,187,27,52,9,1,4,20,26,27,3,2,1,2,1
rebouje01,Jeff Reboulet,113,299,46,82,15,1,5,33,36,45,4,3,2,3,1
reedje02,Jeff Reed,103,238,29,64,9,1,5,26,33,40,2,1,1,1,1
reedjo01,Jody Reed,124,431,54,117,21,1,4,41,53,39,5,4,3,6,3
rhodeka01,Tuffy Rhodes,70,215,32,56,13,1,7,22,27,44,5,2,1,2,2
ripkebi01,Billy Ripken,66,195,26,52,9,1,4,23,14,31,3,2,2,3,1
ripkeca01,Cal Ripken,128,489,69,134,24,2,16,75,45,51,2,2,3,1,5
roberbi01,Bip Roberts,97,360,50,103,16,2,3,32,31,50,21,5,3,1,2
roberke01,Kevin Roberson,86,206,29,52,10,1,11,30,19,53,2,2,3,1,1
rodrial01,Alex Rodriguez,85,272,34,70,12,2,8,34,16,76,8,3,1,2,2
rodrica01,Carlos Rodriguez,68,213,27,59,13,1,4,25,16,23,3,1,2,6,1
rodrihe02,Henry Rodriguez,84,243,30,63,11,1,7,34,18,47,2,1,1,1,3
rodriiv01,Ivan Rodriguez,131,473,61,134,27,2,13,67,26,55,5,4,5,2,5
rodrist01,Steve Rodriguez,59,193,28,53,10,1,5,24,24,41,5,3,2,2,1
rowlari01,Rich Rowland,71,205,25,53,9,1,8,28,17,57,3,1,1,1,1
saboch01,Chris Sabo,58,209,32,55,12,1,8,32,17,36,3,1,3,2,2
salmoti01,Tim Salmon,131,480,89,144,28,2,29,88,76,107,5,5,5,0,5
samueju01,Juan Samuel,75,205,32,55,10,3,6,27,19,43,6,3,2,1,2
sanchre01,Rey Sanchez,125,425,51,117,19,2,3,37,20,46,5,4,4,7,2
sandede02,Deion Sanders,87,307,44,84,15,5,6,29,25,57,16,8,3,2,1
sandere02,Reggie Sanders,127,460,80,131,26,6,22,80,56,115,26,10,5,1,5
santafp01,F. P. Santangelo,71,225,31,63,12,2,5,28,26,27,4,2,3,2,1
santibe01,Benito Santiago,103,346,43,92,18,2,12,46,29,62,5,3,3,1,3
sassema01,Mackey Sasser,69,191,23,49,10,1,3,23,15,26,3,1,1,1,2
scarsst01,Steve Scarsone,109,305,47,82,17,2,11,40,25,93,4,3,4,5,3
schalge01,Gene Schall,67,214,26,58,10,1,4,27,21,46,4,2,2,1,1
schofdi02,Dick Schofield,66,214,27,57,9,1,3,23,25,39,5,3,2,4,1
seguida01,David Segui,113,399,56,110,22,2,11,55,38,46,2,2,2,3,4
seitzke01,Kevin Seitzer,122,447,58,133,28,2,8,66,53,53,4,1,4,4,3
servasc01,Scott Servais,90,292,39,76,17,1,14,46,26,55,3,1,4,4,3
sharpmi01,Mike Sharperson,75,181,27,49,10,1,5,25,15,34,4,1,2,1,2
sheafda01,Danny Sheaffer,101,290,36,76,14,1,7,40,27,44,3,2,1,1,3
sheffga01,Gary Sheffield,90,311,55,92,14,1,20,61,57,55,15,5,5,1,4
shiplcr01,Craig Shipley,117,321,39,87,14,2,6,38,14,42,9,4,3,3,3
shumpte01,Terry Shumpert,75,221,32,58,10,2,7,28,19,48,12,3,1,3,1
siddajo01,Joe Siddall,62,180,27,50,9,1,5,24,22,35,4,1,2,1,1
sierrru01,Ruben Sierra,87,331,48,86,17,1,13,60,27,52,8,3,1,0,6
silveda01,Dave Silvestri,78,211,33,58,12,1,7,28,28,61,5,2,1,2,2
simmsmi01,Mike Simms,82,239,32,65,11,1,13,37,25,52,5,3,3,1,2
singldu01,Duane Singleton,63,202,26,52,10,1,5,25,16,47,5,2,2,1,2
slaugdo01,Don Slaught,77,250,27,71,11,1,4,31,25,31,2,1,3,2,2
smithdw01,Dwight Smith,108,250,37,69,13,3,8,35,23,54,4,4,3,1,2
smithma03,Mark Smith,74,233,31,63,12,1,7,34,25,46,6,1,2,2,2
smithoz01,Ozzie Smith,77,284,38,76,13,2,2,27,27,20,7,3,1,5,3
snopech01,Chris Snopek,64,213,33,61,11,1,5,28,26,37,4,1,1,1,1
snowjt01,J. T. Snow,132,472,66,127,19,1,19,76,48,85,3,1,3,5,3
sojolu01,Luis Sojo,112,371,54,101,18,2,9,45,24,29,5,2,2,5,2
sorrepa01,Paul Sorrento,114,368,55,98,18,1,20,68,49,82,3,1,1,1,4
sosasa01,Sammy Sosa,134,513,77,140,20,4,30,91,43,117,27,9,4,1,3
spehrti01,Tim Spehr,106,196,30,54,14,1,5,26,22,40,5,1,2,4,2
spierbi01,Bill Spiers,89,234,30,61,10,2,2,27,24,42,6,3,2,4,2
spraged02,Ed Sprague,134,485,59,124,26,2,14,64,42,90,2,1,11,2,5
stahosc01,Scott Stahoviak,104,315,37,85,20,1,5,33,34,73,6,3,2,1,2
stairma01,Matt Stairs,78,227,30,61,14,2,5,36,15,38,4,2,2,2,2
stankan01,Andy Stankiewicz,87,197,29,54,10,1,4,26,34,50,6,3,2,3,1
stanlmi02,Mike Stanley,118,398,65,114,24,1,20,76,54,93,2,1,4,1,6
steinte01,Terry Steinbach,117,417,52,115,23,2,13,60,28,74,3,3,2,1,4
steveto01,Todd Steverson,73,201,33,56,9,1,7,28,24,40,5,2,2,1,3
stewash01,Shannon Stewart,60,203,27,56,9,1,5,25,24,31,6,2,2,1,2
stinnke01,Kelly Stinnett,99,294,39,77,14,2,6,33,35,80,5,1,7,1,1
stockke01,Kevin Stocker,122,412,54,109,17,3,3,42,49,72,6,2,9,7,4
strando01,Doug Strange,93,277,35,72,16,1,5,35,22,44,3,3,3,3,2
strawda01,Darryl Strawberry,70,220,33,59,10,2,8,32,31,48,3,2,3,1,2
stubbfr01,Franklin Stubbs,86,226,30,63,16,1,6,33,32,47,3,2,2,1,2
stynech01,Chris Stynes,69,201,31,54,10,1,5,26,22,28,4,2,2,1,2
surhobj01,B. J. Surhoff,112,398,59,114,25,3,10,63,35,42,7,4,3,3,4
sweenma01,Mark Sweeney,74,216,27,60,10,1,6,32,26,40,4,2,1,2,3
sweenmi01,Mike Sweeney,57,186,28,51,10,1,6,26,19,30,4,2,2,1,2
tarasto01,Tony Tarasco,147,418,60,110,19,3,13,46,44,72,18,3,2,2,3
tartada01,Danny Tartabull,68,249,39,67,15,1,12,41,39,70,2,1,1,0,2
tatumji01,Jim Tatum,99,199,26,52,10,2,4,27,14,42,3,1,2,1,2
taubeed01,Ed Taubensee,103,310,42,85,16,2,12,48,28,62,4,2,2,2,2
tavarje01,Jesus Tavarez,92,286,43,78,11,2,5,30,24,42,8,5,2,3,2
tettlmi01,Mickey Tettleton,123,403,66,106,21,2,25,71,95,103,2,2,4,1,4
thomafr04,Frank Thomas,131,454,94,144,29,1,35,100,112,63,4,3,4,0,9
thomeji01,Jim Thome,132,436,80,128,27,2,23,68,80,105,5,3,4,1,4
thompmi02,Milt Thompson,101,239,32,63,12,1,5,33,26,52,7,3,2,2,2
thompro01,Robby Thompson,97,352,53,94,19,2,10,36,39,75,5,3,4,7,2
thompry01,Ryan Thompson,99,346,46,88,18,1,13,47,27,95,4,3,6,3,4
thurmga01,Gary Thurman,78,188,31,51,9,2,4,26,18,38,9,3,1,1,2
timmooz01,Ozzie Timmons,99,271,43,73,15,2,11,41,23,50,6,1,1,1,2
tinglro01,Ron Tingley,92,237,29,61,15,2,6,31,26,64,3,2,1,5,2
tinslle01,Lee Tinsley,124,364,62,100,17,1,8,45,42,80,18,5,2,7,2
tombean01,Andy Tomberlin,89,225,32,59,7,2,8,28,19,55,6,2,2,2,1
trammal01,Alan Trammell,91,313,46,89,18,1,7,38,29,33,6,3,1,3,2
treadje01,Jeff Treadway,95,209,29,58,11,1,3,28,17,22,3,2,2,2,2
tremich01,Chris Tremie,59,194,26,52,9,1,5,24,17,28,4,2,2,2,2
tuckeed01,Eddie Tucker,57,182,26,49,9,1,6,25,17,27,4,2,2,1,1
tuckemi01,Michael Tucker,87,272,38,74,15,1,7,33,28,71,5,3,2,2,1
turnech01,Chris Turner,67,202,29,54,10,1,4,25,17,40,4,1,2,1,2
unroeti01,Tim Unroe,55,183,27,50,9,1,6,25,18,29,4,2,2,1,2
valenjo02,John Valentin,130,464,78,136,34,2,18,78,64,63,11,4,6,7,5
valenjo03,Jose Valentin,122,376,64,95,24,3,13,56,44,92,14,6,2,6,3
valleda01,Dave Valle,70,208,27,57,11,0,5,28,24,35,2,1,5,3,2
vandejo02,John Vander Wal,135,235,34,66,12,2,9,36,32,48,5,2,1,1,2
vanslan01,Andy Van Slyke,89,315,40,85,15,3,6,34,38,56,8,1,2,0,3
varshga01,Gary Varsho,126,235,30,62,11,3,3,28,18,43,4,1,3,3,2
vaughgr01,Greg Vaughn,110,403,66,104,22,1,19,62,57,90,9,5,2,0,3
vaughmo01,Mo Vaughn,133,486,81,143,27,2,30,98,64,128,7,4,10,0,4
velarra01,Randy Velarde,117,384,60,108,21,2,10,48,46,69,6,2,5,3,3
venturo01,Robin Ventura,127,454,69,128,21,1,21,81,72,83,4,3,2,2,7
verasqu01,Quilvio Veras,114,398,72,110,20,5,6,38,68,61,37,14,7,5,2
vinafe01,Fernando Vina,136,336,52,89,13,5,4,35,28,35,9,3,12,4,2
vitiejo01,Joe Vitiello,84,250,32,67,11,1,11,37,19,47,4,1,4,1,1
vizcajo01,Jose Vizcaino,128,477,62,132,19,4,4,50,37,71,7,7,2,8,5
vizquom01,Omar Vizquel,126,478,69,128,20,1,5,47,47,54,19,9,2,10,6
voigtja01,Jack Voigt,82,218,32,59,12,1,7,31,30,43,2,1,1,1,2
walbema01,Matt Walbeck,123,420,46,105,19,1,5,50,26,69,4,2,2,2,2
walkela01,Larry Walker,125,457,83,133,31,4,26,87,54,72,17,5,8,0,5
wallati01,Tim Wallach,106,373,44,98,20,2,13,54,33,71,2,2,4,1,4
waltoje01,Jerome Walton,124,264,44,74,16,1,10,36,26,42,10,7,4,3,2
wardtu01,Turner Ward,86,272,39,70,11,2,7,36,35,47,6,2,2,2,3
webstle01,Lenny Webster,91,264,33,71,15,1,7,33,28,44,3,1,3,2,1
webstmi01,Mitch Webster,113,211,32,55,9,2,5,24,17,39,4,3,2,3,2
wehnejo01,John Wehner,89,230,31,64,8,3,3,25,23,39,5,2,1,4,3
weisswa01,Walt Weiss,127,425,57,115,16,3,2,35,76,58,11,4,3,5,3
whitalo01,Lou Whitaker,97,315,54,91,20,1,12,49,45,48,4,1,2,3,4
whitede03,Devon White,107,428,70,117,25,5,11,50,31,92,15,3,5,2,3
whitede04,Derrick White,81,211,28,54,11,1,5,25,12,37,5,1,2,1,1
whitema01,Mark Whiten,89,317,50,86,13,2,14,52,38,75,9,3,2,0,2
whitero02,Rondell White,129,438,74,124,29,4,12,58,39,81,17,5,6,1,4
whitmda02,Darrell Whitmore,70,215,26,54,10,1,5,21,16,53,4,2,2,2,1
widgech01,Chris Widger,69,207,27,55,9,1,6,25,18,43,4,2,2,1,2
wilkiri01,Rick Wilkins,71,228,35,63,14,1,10,32,29,53,3,1,2,1,1
willibe02,Bernie Williams,131,502,80,145,28,5,15,69,64,85,11,7,4,2,3
willied01,Eddie Williams,105,342,48,94,16,2,15,58,28,55,3,1,4,2,2
willige02,Gerald Williams,129,279,48,73,21,3,9,40,27,52,6,4,2,1,3
willige03,George Williams,68,216,33,61,12,2,7,32,27,49,4,1,3,1,3
willima04,Matt Williams,97,369,64,106,18,2,28,73,29,67,3,1,2,0,4
willire02,Reggie Williams,63,180,27,50,9,1,5,25,21,34,4,2,2,1,2
wilsoda01,Dan Wilson,129,414,44,108,22,3,8,50,31,70,4,2,2,7,2
winfida01,Dave Winfield,73,255,33,67,13,1,8,33,26,50,2,1,1,1,1
worthcr01,Craig Worthington,66,210,26,57,12,1,7,27,22,30,4,1,1,3,1
younger01,Eric Young,122,378,64,109,19,6,7,41,51,33,28,11,4,4,2
younger02,Ernie Young,70,207,30,55,12,1,6,27,24,43,4,1,1,1,1
youngke01,Kevin Young,94,285,30,71,15,2,6,33,19,69,3,3,4,3,4
zaungr01,Gregg Zaun,75,231,36,64,12,1,7,32,31,34,4,2,1,2,1
zeileto01,Todd Zeile,100,364,50,96,21,1,12,56,36,57,3,2,2,2,4
zoskyed01,Eddie Zosky,57,182,26,50,9,1,6,25,18,29,4,2,2,1,2
