playerID,playerName,W,L,G,GS,CG,SHO,SV,IPouts,H,ER,HR,BB,SO,IBB,WP,HBP,BK,BFP,GF,R,SH,SF,GIDP
abbotji01,Jim Abbott,6,11,33,19,1,0,1,402,150,84,17,61,61,3,7,3,1,595,6,90,5,6,15
abbotky01,Kyle Abbott,2,2,13,3,0,0,1,90,33,16,4,15,21,1,1,1,0,132,3,17,1,1,3
acrema01,Mark Acre,2,3,23,3,0,0,1,128,46,23,5,20,32,2,1,2,0,190,7,25,2,1,4
adamsjo02,Joel Adamson,2,2,13,3,0,0,1,93,35,16,4,14,17,1,1,1,0,137,3,18,2,1,3
adamste01,Terry Adams,4,5,42,5,0,0,3,239,74,35,7,37,63,4,3,2,1,343,13,39,4,2,9
adamswi02,Willie Adams,5,5,30,13,1,1,2,302,102,49,13,34,90,4,3,5,0,437,7,54,4,3,8
aguilri01,Rick Aguilera,7,7,43,14,1,0,10,349,126,62,17,31,91,3,5,3,0,505,20,65,3,4,7
alberjo01,Jose Alberro,2,2,16,4,0,0,1,117,44,21,5,18,13,2,2,1,0,173,5,23,1,2,3
aldresc01,Scott Aldred,6,5,33,14,0,0,2,329,119,59,16,39,68,2,4,3,0,479,6,63,4,4,9
alstoga01,Garvin Alston,2,2,12,3,0,0,1,86,31,15,3,12,21,1,1,1,0,125,4,16,1,1,3
alvarta01,Tavo Alvarez,3,4,21,8,0,0,1,168,59,29,5,24,24,2,2,2,0,248,5,33,2,1,5
alvarwi01,Wilson Alvarez,12,10,41,28,1,0,1,565,185,90,20,85,144,4,3,4,1,820,5,97,6,4,16
anderbr02,Brian Anderson,6,5,26,14,1,0,1,283,105,52,15,29,42,2,3,3,1,408,5,56,4,4,8
andujlu01,Luis Andujar,4,3,20,7,0,0,1,180,59,30,8,21,20,2,2,2,0,259,5,32,2,2,5
appieke01,Kevin Appier,12,9,39,26,3,1,1,556,165,82,16,71,179,3,8,6,1,778,5,85,6,5,17
ashbyan01,Andy Ashby,9,8,34,22,2,1,1,462,148,62,16,43,106,4,5,5,0,645,5,70,7,3,16
assenpa01,Paul Assenmacher,4,3,37,4,0,0,1,153,49,23,5,18,50,3,2,3,0,220,12,25,2,2,4
astacpe01,Pedro Astacio,9,9,47,23,1,0,1,520,172,76,18,56,116,7,6,7,1,734,7,83,8,5,19
aucoide01,Derek Aucoin,1,2,10,3,0,0,1,80,28,13,3,11,10,1,1,1,0,116,3,15,1,1,2
averyst01,Steve Avery,7,9,34,22,1,0,1,429,144,72,15,47,107,5,5,5,0,612,5,76,6,4,9
ayalabo01,Bobby Ayala,5,4,39,4,0,0,6,198,64,36,8,27,69,2,2,3,0,287,21,39,2,2,5
baileco01,Cory Bailey,4,3,30,4,0,0,1,165,56,25,5,26,38,2,2,2,0,240,7,28,2,2,5
bailero01,Roger Bailey,5,5,34,10,0,0,2,276,99,53,10,48,44,2,4,2,0,410,8,58,4,3,10
baldwja01,James Baldwin,9,7,40,22,0,0,2,446,158,78,21,54,112,4,8,4,1,645,7,84,3,3,10
barbebr02,Brian Barber,4,3,25,8,0,0,2,199,69,36,8,34,51,2,3,2,0,293,7,39,2,4,5
bartosh01,Shawn Barton,2,2,18,3,0,0,1,99,36,18,4,12,15,1,1,1,0,144,4,20,1,1,4
batchri01,Rich Batchelor,2,2,13,3,0,0,1,97,31,15,3,10,28,1,1,1,0,139,5,17,1,1,3
batismi01,Miguel Batista,2,2,13,3,0,0,1,94,31,16,3,14,17,1,1,1,0,136,4,18,2,1,3
bautijo01,Jose Bautista,3,4,34,5,0,0,1,210,75,36,11,19,33,3,2,3,1,303,11,40,4,3,4
beckero01,Robbie Beckett,2,2,11,3,0,0,1,85,29,15,4,15,24,1,1,1,0,125,3,17,1,1,2
beckro01,Rod Beck,3,5,42,4,0,0,17,186,61,29,8,18,48,2,2,2,0,264,30,31,2,2,5
beechma01,Matt Beech,4,5,28,11,0,0,2,248,92,47,11,27,65,2,2,4,0,361,7,50,3,5,6
belchti01,Tim Belcher,11,11,40,27,2,0,1,579,210,93,23,73,94,5,6,5,0,845,5,106,5,7,20
belinst01,Stan Belinda,3,2,28,3,0,0,3,138,42,23,5,22,34,2,2,3,0,201,10,26,1,2,4
benesal01,Alan Benes,10,9,41,23,2,1,2,476,164,86,21,69,113,4,6,6,1,698,7,97,10,6,12
benesan01,Andy Benes,12,9,40,25,2,1,2,537,174,84,22,63,141,5,5,5,0,765,6,92,4,5,14
benitar01,Armando Benitez,2,2,20,3,0,0,2,113,32,20,5,20,48,1,2,2,0,165,7,21,1,2,3
benneer01,Erik Bennett,2,2,18,4,0,0,1,116,42,22,6,18,17,1,1,2,0,171,6,24,2,1,3
bereja01,Jason Bere,5,6,24,13,0,0,1,251,86,53,11,54,70,3,4,3,0,382,4,56,3,3,6
bergmse01,Sean Bergman,6,7,35,15,1,0,1,325,122,56,14,41,76,4,7,3,1,478,8,65,5,3,12
bertomi01,Mike Bertotti,3,2,18,5,0,0,1,137,49,26,7,25,32,2,3,2,0,204,5,28,1,2,4
beruman01,Andres Berumen,2,2,15,3,0,0,1,95,29,17,4,17,29,1,2,1,0,140,5,18,1,1,3
bevilbr01,Brian Bevil,3,2,16,5,0,0,1,129,43,22,5,18,30,1,2,1,0,186,4,24,1,2,4
bielemi01,Mike Bielecki,4,4,30,7,0,0,2,218,70,34,9,31,59,3,2,2,0,314,7,38,2,3,5
blairwi01,Willie Blair,4,5,38,6,0,0,1,239,80,41,10,31,61,3,3,4,0,346,10,46,4,2,5
blaziro01,Ron Blazier,3,2,20,4,0,0,1,135,51,24,6,15,29,2,2,1,0,198,6,27,2,2,4
blumaja01,Jaime Bluma,2,2,16,4,0,0,2,108,36,18,4,12,26,1,1,2,0,155,6,20,2,1,3
bochtdo01,Doug Bochtler,3,4,37,4,0,0,2,189,53,28,7,32,66,3,4,2,1,270,10,31,3,2,5
boehrbr01,Brian Boehringer,3,4,21,6,0,0,1,172,59,34,8,29,41,2,2,2,0,255,4,36,2,2,4
boevejo01,Joe Boever,2,3,20,3,0,0,2,124,47,23,6,18,26,3,2,1,0,184,8,25,2,2,3
bohanbr01,Brian Bohanon,2,2,21,5,0,0,1,140,53,27,6,20,29,2,2,2,0,208,5,29,1,2,4
bonesri01,Ricky Bones,3,3,15,8,1,0,1,173,62,30,7,21,22,1,2,2,0,251,2,32,2,3,6
borbope02,Pedro Borbon,3,2,29,4,0,0,1,138,42,21,4,16,44,2,1,2,0,197,11,23,3,1,4
borlato02,Toby Borland,4,3,44,4,0,0,2,235,77,37,7,36,64,4,7,3,0,345,11,42,3,2,8
borowjo01,Joe Borowski,2,3,18,4,0,0,1,118,43,20,5,17,21,2,1,1,0,174,6,22,2,1,4
bosioch01,Chris Bosio,5,5,24,13,1,0,1,265,103,49,10,33,48,2,4,3,0,394,5,53,3,5,8
boskish01,Shawn Boskie,10,9,40,22,1,0,2,471,181,89,27,52,99,5,7,9,0,700,6,98,5,5,13
bottari01,Ricky Bottalico,4,4,40,4,0,0,10,204,51,28,7,28,75,2,2,2,0,284,22,30,3,2,5
botteke01,Kent Bottenfield,3,4,28,4,0,0,1,168,57,25,6,19,30,2,2,2,0,241,7,29,3,1,5
bourgst01,Steve Bourgeois,3,3,22,7,0,0,1,174,71,32,7,26,22,3,3,3,0,261,6,37,2,2,6
bozema01,Marshall Boze,2,2,19,4,0,0,1,126,49,24,5,23,22,2,2,3,0,189,6,26,2,1,5
brandma01,Mark Brandenburg,3,2,20,4,0,0,1,127,46,22,6,14,39,1,1,1,0,185,5,23,1,2,3
brantje01,Jeff Brantley,3,3,41,4,0,0,17,200,55,27,8,26,69,3,2,1,0,279,29,29,3,3,5
brewebi01,Billy Brewer,2,2,18,3,0,0,1,97,34,17,4,15,24,1,2,1,0,143,5,18,1,1,3
briscjo01,John Briscoe,2,2,19,3,0,0,1,120,36,21,5,28,30,2,2,1,0,177,6,22,2,2,4
brocado01,Doug Brocail,3,4,27,6,0,0,1,195,71,33,8,24,38,2,2,3,0,285,7,36,2,2,6
brownke01,Kevin Brown,12,10,39,26,3,1,1,576,178,67,13,43,135,3,6,10,1,790,5,79,5,4,21
browsc01,Scott Brow,2,2,19,4,0,0,1,140,50,25,6,25,25,2,2,1,0,207,7,28,2,2,5
bruskji01,Jim Bruske,2,2,14,3,0,0,1,96,35,17,4,12,25,1,1,1,0,140,4,18,1,1,3
bulliji01,Jim Bullinger,7,7,36,17,1,1,2,367,127,70,13,55,82,5,5,6,1,544,7,75,7,4,9
burbada01,Dave Burba,10,10,47,22,1,0,2,485,147,73,16,79,131,6,7,4,1,701,8,82,5,7,12
burkejo03,John Burkett,7,6,26,16,1,0,1,335,123,54,12,31,72,4,2,4,0,481,4,57,5,2,12
burkejo04,John Burke,2,2,14,3,0,0,1,100,37,18,4,13,37,1,1,1,0,146,4,19,1,1,3
burrote01,Terry Burrows,2,2,16,3,0,0,1,107,40,19,5,17,16,1,2,1,0,158,4,21,1,1,4
busbymi01,Mike Busby,3,4,24,7,0,0,2,190,70,35,9,28,40,2,2,3,0,282,6,40,3,2,5
byrdpa01,Paul Byrd,3,2,26,4,0,0,1,153,51,25,6,21,40,2,2,1,1,222,8,26,2,2,4
campbmi01,Mike Campbell,4,3,21,7,0,0,1,168,54,29,8,20,34,1,2,2,0,241,6,32,2,2,4
candito01,Tom Candiotti,8,10,34,22,1,0,1,447,156,70,16,47,93,3,5,5,1,642,5,81,7,5,15
carlsda01,Dan Carlson,2,2,12,3,0,0,1,91,33,15,4,11,12,1,1,1,0,133,4,17,1,1,3
carmora01,Rafael Carmona,5,4,34,6,0,0,2,232,81,40,10,44,50,4,3,3,0,348,10,43,4,3,8
carpecr01,Cris Carpenter,1,2,13,3,0,0,1,87,32,15,3,10,15,1,1,1,0,127,4,17,1,1,2
carragi01,Giovanni Carrara,3,3,22,8,1,0,1,190,75,36,10,29,33,2,2,2,0,283,5,41,2,2,5
carrahe01,Hector Carrasco,4,4,41,4,0,0,2,214,64,33,6,38,54,3,6,2,0,312,13,37,3,3,6
casiala01,Larry Casian,2,2,26,3,0,0,1,117,37,17,4,18,22,3,2,1,0,168,5,19,2,2,4
castifr01,Frank Castillo,9,12,40,26,1,1,2,513,182,86,23,47,129,4,3,6,1,737,5,92,6,4,12
castito02,Tony Castillo,2,2,22,3,0,0,3,129,42,19,5,15,23,1,1,2,0,184,8,20,2,2,4
charlno01,Norm Charlton,4,4,39,4,0,0,9,200,57,30,7,30,71,2,5,2,0,284,21,33,3,2,7
chouibo01,Bobby Chouinard,5,4,29,12,0,0,2,258,99,48,12,41,44,3,2,3,0,385,6,52,4,3,8
chrisja01,Jason Christiansen,3,3,31,4,0,0,1,159,55,29,7,24,46,3,3,2,1,236,8,31,3,2,4
chrismi02,Mike Christopher,2,2,19,3,0,0,1,136,55,26,8,15,26,2,2,1,0,201,5,29,1,2,3
clarkma01,Mark Clark,12,9,40,26,2,0,2,536,190,82,19,50,110,5,7,4,1,763,5,93,6,6,16
clarkte01,Terry Clark,2,2,15,3,0,0,1,94,36,16,4,12,16,2,1,1,0,138,5,18,1,1,3
clemero02,Roger Clemens,10,10,40,26,3,1,1,575,175,84,18,83,198,2,7,7,1,824,5,90,4,6,13
clontbr01,Brad Clontz,5,3,48,4,0,0,2,221,74,39,9,28,50,4,1,3,0,319,10,41,3,3,7
coneda01,David Cone,8,4,25,13,1,0,1,313,85,45,10,43,95,1,4,3,1,440,5,47,2,4,8
cookde01,Dennis Cook,4,3,38,4,0,0,1,191,58,31,6,28,57,3,2,3,0,274,8,34,3,3,4
cookest01,Steve Cooke,1,2,10,4,0,0,1,89,33,16,4,11,17,1,1,1,0,130,2,17,1,1,3
coppiro01,Rocky Coppinger,8,7,36,18,0,0,2,376,127,68,20,58,104,3,4,3,0,548,7,73,3,5,10
corbiar01,Archie Corbin,2,2,16,4,0,0,1,116,36,18,4,21,27,1,2,1,0,169,5,20,1,1,4
cordofr01,Francisco Cordova,4,5,38,7,0,0,5,240,84,39,9,21,79,4,2,2,1,343,19,42,2,2,7
cormirh01,Rheal Cormier,8,8,45,20,1,0,1,434,155,69,16,40,91,3,6,6,0,618,6,76,5,6,16
corsiji01,Jim Corsi,4,3,36,4,0,0,2,195,60,30,6,30,39,2,2,2,0,279,10,32,5,2,8
crabtti01,Tim Crabtree,4,3,35,4,0,0,1,187,59,27,6,23,51,2,3,3,0,269,13,31,2,2,5
crawfca01,Carlos Crawford,3,4,24,7,0,0,2,189,68,32,8,25,50,2,2,3,0,277,6,39,3,2,5
creekdo01,Doug Creek,2,3,31,4,0,0,1,150,47,28,7,27,41,2,2,2,0,220,8,31,2,1,5
cummijo01,John Cummings,3,3,21,4,0,0,1,135,47,23,5,21,27,2,2,1,0,199,6,25,2,2,4
daalom01,Omar Daal,5,4,45,7,0,0,1,227,73,38,9,34,67,3,2,2,1,328,8,40,3,2,8
damicje01,Jeff D'Amico,7,7,33,16,0,0,2,322,111,59,18,40,67,2,3,2,1,464,7,62,4,4,7
darwida01,Danny Darwin,4,3,20,8,0,0,1,183,68,35,10,19,40,3,2,3,0,268,4,39,2,3,5
darwije01,Jeff Darwin,2,2,18,4,0,0,1,122,40,19,5,15,20,1,1,2,0,175,6,21,1,1,4
davissc01,Scott Davison,2,2,12,3,0,0,1,91,33,16,5,11,27,1,1,1,0,133,4,18,1,1,2
davisti01,Tim Davis,3,3,25,4,0,0,1,148,52,25,5,23,36,2,2,2,0,218,5,28,2,2,4
delucri01,Rich DeLucia,4,5,36,4,0,0,1,190,58,33,8,29,58,3,4,2,0,276,10,36,3,2,5
desseel01,Elmer Dessens,2,3,19,5,0,0,1,136,56,26,5,14,23,1,1,1,0,198,4,28,2,2,5
deweyma01,Mark Dewey,4,3,44,4,0,0,1,208,69,33,7,31,50,5,3,3,0,301,11,35,3,3,8
dicksja01,Jason Dickson,4,5,28,10,0,0,2,252,94,43,11,34,38,3,3,3,1,368,7,46,3,3,8
dipotje01,Jerry Dipoto,5,4,39,4,0,0,1,215,78,35,6,34,45,5,3,3,1,318,14,40,4,3,9
dishmgl01,Glenn Dishman,2,3,16,6,0,0,1,143,51,25,6,17,21,1,2,2,0,207,4,28,2,2,4
doherjo02,John Doherty,2,2,15,3,0,0,1,118,46,21,4,13,14,2,1,2,0,174,4,24,1,1,4
doughji01,Jim Dougherty,3,2,20,3,0,0,1,115,41,21,5,17,25,1,1,2,0,168,5,23,2,2,4
drabedo01,Doug Drabek,8,8,37,25,2,1,1,490,178,82,18,52,126,4,7,6,0,710,5,89,7,6,13
dreifda01,Darren Dreifort,2,3,18,3,0,0,1,113,40,20,4,17,33,2,2,1,0,167,5,21,2,1,3
dyermi01,Mike Dyer,4,4,43,4,0,0,2,211,74,35,8,31,49,3,3,4,0,309,12,39,4,3,8
eckerde01,Dennis Eckersley,3,4,39,4,0,0,14,173,62,27,7,13,50,2,1,2,0,247,26,31,2,2,5
edenfke01,Ken Edenfield,1,1,11,3,0,0,1,85,32,15,4,11,16,1,1,1,0,125,3,16,1,1,3
eichhma01,Mark Eichhorn,2,2,19,3,0,0,1,118,41,20,4,13,26,2,1,2,0,170,6,20,2,2,4
eischjo01,Joey Eischen,2,2,20,4,0,0,1,120,41,19,5,19,25,2,2,1,0,176,5,22,1,1,4
eldreca01,Cal Eldred,6,6,27,15,1,0,1,313,100,52,12,47,62,2,3,4,0,452,5,56,3,4,9
ellisro02,Robert Ellis,2,1,11,3,0,0,1,83,26,14,3,12,32,1,1,1,0,121,3,15,1,1,2
embreal01,Alan Embree,3,2,22,4,0,0,1,130,43,24,7,23,43,2,2,1,0,192,5,27,2,2,4
erickjo01,John Ericks,3,5,23,8,0,0,3,191,68,34,8,27,53,2,4,2,0,282,7,38,2,2,4
ericksc01,Scott Erickson,11,10,40,26,5,1,2,546,207,96,18,61,94,3,4,7,1,790,6,105,4,5,26
eshelva01,Vaughn Eshelman,5,4,33,11,0,0,1,259,98,52,10,46,51,3,4,2,0,391,6,58,3,4,10
estessh01,Shawn Estes,5,7,30,13,0,0,2,299,94,48,9,48,85,3,5,3,0,435,7,53,5,2,11
farmemi01,Mike Farmer,3,3,21,7,0,0,1,177,63,33,9,25,33,2,2,2,0,259,5,36,3,2,5
farrejo03,John Farrell,3,4,23,8,0,0,2,187,71,35,8,28,25,2,3,3,0,276,6,39,2,2,5
fasseje01,Jeff Fassero,12,11,40,27,2,0,1,575,190,83,18,58,178,4,6,3,1,819,5,91,13,5,12
fernaal01,Alex Fernandez,13,9,41,28,4,1,1,632,206,90,26,64,163,5,5,4,0,888,5,100,5,6,17
fernaos01,Osvaldo Fernandez,7,10,38,20,1,0,2,428,157,73,17,49,88,4,5,7,1,627,7,79,8,4,12
fernasi01,Sid Fernandez,6,6,26,14,1,0,1,289,84,44,13,38,108,2,2,2,0,411,5,48,3,3,7
fettemi01,Mike Fetters,3,3,38,4,0,0,14,175,61,27,5,27,49,3,4,2,0,257,25,30,2,3,6
finlech01,Chuck Finley,12,12,40,27,3,1,1,587,194,93,22,80,177,3,12,7,1,849,5,104,6,7,18
flenehu01,Huck Flener,4,4,28,11,0,0,2,260,86,44,11,38,54,2,3,2,0,378,6,49,2,4,8
fletcpa01,Paul Fletcher,2,1,11,3,0,0,1,81,30,14,3,12,15,1,1,1,0,119,3,15,1,1,3
floribr01,Bryce Florie,2,2,21,3,0,0,1,126,37,21,5,21,37,2,3,2,0,183,6,23,2,2,4
fossato01,Tony Fossas,2,3,39,4,0,0,1,151,47,21,6,20,44,2,2,1,0,219,10,24,2,1,4
fosteke01,Kevin Foster,8,7,31,18,1,0,1,357,117,65,19,48,93,3,3,4,1,513,5,69,4,4,7
francjo01,John Franco,4,3,35,4,0,0,14,167,55,22,5,21,48,1,2,1,0,241,23,25,3,1,5
freemma02,Marvin Freeman,4,4,21,10,0,0,1,208,80,38,9,23,43,2,3,2,0,306,4,39,3,2,7
freyst01,Steve Frey,2,2,23,3,0,0,1,128,44,21,5,19,17,2,1,1,0,185,7,23,2,2,5
frohwto01,Todd Frohwirth,1,2,11,3,0,0,1,82,31,15,3,13,8,1,1,1,0,122,3,18,1,1,3
fyhrimi01,Mike Fyhrie,1,2,10,3,0,0,1,79,28,14,3,12,0,1,1,1,0,116,3,15,1,1,2
garceri01,Rich Garces,3,3,25,4,0,0,1,148,48,26,6,28,58,3,1,1,0,219,7,28,2,3,4
garcira03,Ramon Garcia,4,4,27,5,0,0,2,195,71,38,10,21,35,2,2,3,1,283,9,41,2,3,7
gardnma01,Mark Gardner,9,7,43,21,2,1,2,464,168,77,22,54,123,4,4,6,1,676,7,89,6,4,12
gibsopa01,Paul Gibson,1,1,12,3,0,0,1,80,27,14,3,11,19,1,1,1,0,116,4,15,1,1,2
givenbr01,Brian Givens,4,5,24,11,0,0,1,231,90,45,9,35,50,2,3,2,1,346,5,50,2,2,7
glavito02,Tom Glavine,13,9,41,28,2,0,1,589,189,76,14,73,147,5,5,3,0,836,5,85,10,4,19
gohrgr01,Greg Gohr,2,2,16,4,0,0,1,114,42,20,5,17,26,1,1,1,0,167,5,22,1,1,4
goodedw01,Dwight Gooden,9,7,37,21,1,1,2,431,144,77,17,69,108,4,7,6,1,632,6,84,3,4,11
gordoto01,Tom Gordon,11,9,40,27,2,0,1,559,201,103,20,91,138,5,7,4,1,836,5,112,5,9,15
gracemi02,Mike Grace,7,5,30,13,1,1,2,307,99,47,12,28,66,3,2,3,1,434,7,51,4,2,8
grangje01,Jeff Granger,2,2,15,3,0,0,1,101,37,18,4,16,18,1,2,1,0,150,4,20,1,1,3
graveda01,Danny Graves,2,2,17,4,0,0,1,123,42,21,5,15,31,1,2,1,0,179,5,23,1,1,3
grimsja01,Jason Grimsley,5,5,36,15,1,0,2,340,124,71,13,60,72,4,8,8,0,517,7,78,4,4,13
groombu01,Buddy Groom,4,3,41,5,0,0,2,195,73,32,8,27,49,2,3,2,0,286,10,35,2,2,7
grosske01,Kevin Gross,8,8,32,18,1,0,1,387,142,72,17,50,81,4,4,4,0,570,6,76,4,5,11
grundke01,Ken Grundt,1,1,10,3,0,0,1,76,27,13,3,10,0,1,1,1,0,111,3,14,1,1,2
guarded01,Eddie Guardado,4,5,44,5,0,0,2,215,71,39,10,31,64,3,3,2,0,314,10,42,4,3,5
gubicma01,Mark Gubicza,7,10,32,20,2,1,1,415,151,69,17,39,59,2,5,5,1,594,4,74,5,5,13
guettle01,Lee Guetterman,2,2,17,3,0,0,1,94,33,16,3,16,17,1,1,1,0,138,3,18,1,1,3
gundeer01,Eric Gunderson,2,2,20,3,0,0,1,104,36,19,5,16,17,2,2,2,0,153,4,21,1,2,3
guthrma01,Mark Guthrie,3,3,39,4,0,0,1,189,62,27,6,22,50,2,3,2,0,272,10,31,3,3,5
guzmaju01,Juan Guzman,9,10,37,24,3,0,1,499,163,78,19,66,139,4,8,5,0,714,5,88,3,4,15
habyajo01,John Habyan,2,2,21,3,0,0,1,119,45,21,4,17,36,2,3,1,0,176,5,22,2,1,3
hallda01,Darren Hall,2,2,16,3,0,0,2,97,34,17,4,14,28,1,1,1,0,141,6,18,1,1,3
hamiljo02,Joey Hamilton,11,9,40,27,2,1,1,562,180,83,17,64,141,4,8,8,1,799,5,90,7,5,20
hammoch01,Chris Hammond,5,5,28,11,1,1,1,268,97,48,11,29,61,2,2,4,0,390,5,51,4,4,8
hamptmi01,Mike Hampton,9,9,42,23,1,1,2,477,164,69,15,52,107,3,6,4,1,686,6,81,9,4,15
hancole01,Lee Hancock,2,2,16,3,0,0,1,106,36,18,5,14,21,2,2,1,0,156,4,21,1,1,4
hancory01,Ryan Hancock,4,3,20,6,0,0,1,157,57,30,6,25,34,2,2,2,0,232,6,32,2,2,5
haneych01,Chris Haney,9,11,42,26,2,1,2,546,204,92,22,51,89,2,6,5,0,788,6,104,5,7,18
hansegr01,Greg Hansell,3,2,34,4,0,0,2,196,73,37,10,26,40,2,4,2,0,288,12,40,3,2,5
hansoer01,Erik Hanson,12,11,41,27,2,1,1,553,199,99,20,70,137,3,9,3,0,805,5,108,5,6,18
harikti01,Tim Harikkala,3,4,24,7,0,0,2,191,68,35,8,25,15,2,2,3,0,279,7,38,3,2,5
harnipe01,Pete Harnisch,8,10,39,25,1,0,2,502,170,79,23,54,106,5,5,6,2,722,5,90,8,7,10
harripe01,Pep Harris,3,2,19,6,0,0,1,156,52,26,6,23,31,2,3,2,0,228,4,28,2,3,5
harrire01,Reggie Harris,1,1,11,3,0,0,1,82,29,15,4,13,20,1,1,1,0,120,3,16,1,1,2
hartgde01,Dean Hartgraves,2,2,21,3,0,0,1,113,36,18,4,15,28,1,1,1,0,163,5,20,1,1,3
hawblry01,Ryan Hawblitzel,2,2,13,3,0,0,1,99,35,17,4,13,15,1,1,1,0,145,4,19,1,1,3
hawkila01,LaTroy Hawkins,4,4,25,10,1,0,2,218,92,44,11,28,47,2,3,2,1,324,6,48,2,3,7
hayneji01,Jimmy Haynes,4,5,30,10,0,0,2,266,101,57,12,49,64,2,4,2,0,402,8,60,4,4,9
heflibr01,Bronson Heflin,2,2,11,3,0,0,1,87,32,15,4,11,15,1,1,1,0,127,3,17,1,1,2
helliri01,Rick Helling,4,4,23,9,0,0,1,207,66,33,9,25,49,2,2,2,1,297,5,37,2,2,6
hennemi01,Mike Henneman,2,4,29,4,0,0,10,141,49,25,6,18,38,3,3,2,0,206,18,27,2,2,3
henrydo01,Doug Henry,3,5,39,4,0,0,4,204,66,33,8,31,55,4,4,2,1,299,16,37,3,2,5
hentgpa01,Pat Hentgen,14,11,41,28,5,2,1,639,211,94,21,81,149,4,7,5,1,913,5,105,5,5,18
heredfe01,Felix Heredia,2,2,17,3,0,0,1,104,38,18,4,16,20,1,2,1,0,153,4,19,1,1,3
heredgi01,Gil Heredia,3,4,31,7,0,0,1,219,85,39,8,16,47,2,2,2,0,316,10,41,3,2,5
hermadu01,Dustin Hermanson,2,2,16,3,0,0,1,108,39,21,5,16,23,1,2,1,0,159,5,23,2,2,3
hernali01,Livan Hernandez,2,2,10,3,0,0,1,83,29,14,3,11,19,1,1,1,0,120,3,15,1,1,3
hernaro01,Roberto Hernandez,4,5,47,4,0,0,18,217,66,29,7,32,81,3,3,2,0,314,33,33,3,2,5
hernaxa01,Xavier Hernandez,5,4,40,4,0,0,3,212,72,35,9,27,70,3,5,3,0,308,15,39,4,2,6
hershor01,Orel Hershiser,12,8,38,25,1,0,1,523,185,82,20,53,107,4,7,7,1,751,5,92,5,4,20
hillke01,Ken Hill,12,8,40,26,4,1,2,573,191,84,17,70,126,4,5,5,2,817,6,90,5,6,19
hitchst01,Sterling Hitchcock,11,9,44,27,2,0,2,535,196,98,23,71,123,4,5,6,1,785,6,106,5,8,15
hoffmtr01,Trevor Hoffman,6,4,46,4,0,0,19,222,57,30,8,26,92,4,2,2,0,310,33,32,2,2,5
holmeda01,Darren Holmes,4,3,44,4,0,0,4,209,69,33,7,30,67,3,3,2,0,304,16,37,3,2,6
holtch01,Chris Holt,2,2,11,3,0,0,1,83,29,14,3,12,0,1,1,1,0,122,3,16,1,1,2
holtzmi01,Mike Holtz,3,3,20,4,0,0,1,122,37,19,4,20,43,2,2,2,0,177,5,21,2,1,4
holzema01,Mark Holzemer,2,2,20,4,0,0,1,115,44,22,6,15,27,1,1,2,0,171,5,25,1,1,3
honeyri01,Rick Honeycutt,2,2,31,4,0,0,2,140,48,22,5,13,31,2,2,1,1,201,7,24,3,2,4
hookch01,Chris Hook,2,2,18,3,0,0,1,111,38,20,5,20,22,2,2,2,0,165,5,22,2,2,3
hopejo01,John Hope,3,4,24,8,0,0,2,191,67,36,9,29,38,2,3,4,0,282,6,41,3,3,6
howest01,Steve Howe,2,2,24,3,0,0,2,112,41,19,4,12,17,2,2,2,0,163,7,21,2,1,3
hudekjo01,John Hudek,2,2,18,3,0,0,3,104,32,17,4,13,39,1,1,1,0,150,8,18,2,1,3
hudsojo02,Joe Hudson,3,3,28,4,0,0,1,158,60,27,5,28,25,2,2,2,0,235,9,31,2,2,6
huismri01,Rick Huisman,2,2,19,4,0,0,1,123,41,21,5,19,35,2,1,1,0,179,5,23,2,2,3
hunteri01,Rich Hunter,5,7,31,14,0,0,2,294,110,57,13,43,43,3,4,5,0,437,7,62,4,4,8
hurstbi01,Bill Hurst,1,1,10,3,0,0,1,79,28,13,3,11,12,1,1,1,0,115,3,14,1,1,2
hurtaed01,Edwin Hurtado,4,4,22,7,0,0,2,198,73,40,10,34,38,3,4,2,0,294,6,42,2,3,6
huttoma01,Mark Hutton,5,3,27,10,0,0,2,235,73,38,9,27,44,2,3,3,0,337,6,40,2,2,7
isrinja01,Jason Isringhausen,8,10,38,22,2,1,2,477,168,78,14,64,102,5,9,6,1,694,6,85,6,7,17
jacksda02,Danny Jackson,3,4,18,8,1,0,1,189,67,33,6,23,41,1,2,2,0,275,4,36,3,3,6
jacksmi02,Michael Jackson,3,3,42,4,0,0,3,195,56,29,8,23,66,2,2,3,0,276,12,30,2,2,5
jacomja01,Jason Jacome,3,4,26,7,0,0,1,178,71,31,7,21,33,3,2,2,0,262,8,33,2,2,6
jamesmi01,Mike James,4,4,42,4,0,0,2,213,61,30,8,34,54,4,3,5,0,308,12,34,3,3,6
janzema01,Marty Janzen,5,6,29,11,0,0,2,270,106,55,14,42,55,3,5,3,0,403,7,60,3,3,9
jarvike01,Kevin Jarvis,7,8,35,17,1,1,2,369,145,73,17,45,60,4,4,3,0,550,7,82,5,4,11
johnsda05,Dane Johnson,2,2,13,3,0,0,1,87,29,15,3,14,21,1,1,1,0,127,3,16,1,1,2
johnsdo04,Doug Johns,7,8,39,17,1,0,2,388,141,75,16,56,58,4,7,5,1,569,7,82,3,3,17
johnsjo07,John Johnstone,2,2,14,3,0,0,1,96,35,17,4,14,20,1,1,1,0,141,5,18,1,1,3
johnsra05,Randy Johnson,7,3,23,12,2,1,1,287,77,38,9,36,130,1,3,3,1,399,4,40,2,1,6
jonesbo03,Bobby Jones,11,9,39,26,2,1,1,539,194,87,20,51,107,6,3,5,1,769,5,96,10,5,17
jonesdo01,Doug Jones,3,2,26,3,0,0,6,132,47,21,5,14,40,2,1,2,0,193,14,23,1,1,3
jonesst02,Stacy Jones,1,1,10,3,0,0,1,78,26,13,3,10,16,1,1,1,0,113,3,14,1,1,2
jonesto02,Todd Jones,4,3,37,3,0,0,7,191,60,29,6,30,55,5,3,3,0,279,19,31,3,2,6
jordari03,Ricardo Jordan,2,2,20,4,0,0,1,118,38,19,4,19,27,1,2,1,0,172,4,21,1,2,3
judenje01,Jeff Juden,2,3,19,5,0,0,1,145,43,22,5,21,38,1,2,3,0,210,5,26,2,2,4
kamiesc01,Scott Kamieniecki,4,4,21,10,1,0,1,208,72,39,9,37,38,2,3,3,0,308,4,41,2,2,8
karchma01,Matt Karchner,5,3,33,4,0,0,1,173,59,30,7,31,43,4,3,2,0,256,9,33,2,3,5
karlsc01,Scott Karl,10,9,42,25,2,1,2,538,193,92,22,66,99,4,4,7,1,784,7,102,4,6,19
keaglgr01,Greg Keagle,4,5,27,7,0,0,1,235,86,49,10,49,58,3,3,5,0,360,7,53,2,4,6
keyji01,Jimmy Key,10,8,35,22,1,0,2,434,152,74,16,48,94,2,4,3,0,619,5,78,6,4,15
keysebr01,Brian Keyser,3,3,24,5,0,0,1,191,77,34,6,24,26,3,2,2,0,282,6,36,3,2,7
kiefema01,Mark Kiefer,2,2,15,3,0,0,1,105,34,18,4,17,26,1,2,1,0,153,4,20,1,1,3
kileda01,Darryl Kile,9,11,41,26,2,0,1,541,182,89,15,87,166,6,11,12,2,800,6,100,9,6,15
klingsc01,Scott Klingenbeck,3,3,21,6,0,0,1,167,69,35,9,23,29,1,3,2,0,251,5,38,2,2,5
klinkjo01,Joe Klink,1,1,10,3,0,0,1,77,27,13,3,10,20,1,1,1,0,112,3,14,1,1,2
knackbr01,Brent Knackert,2,2,12,3,0,0,1,91,34,16,4,13,13,1,1,1,0,134,3,18,1,1,3
krivdri01,Rick Krivda,4,6,28,12,1,0,1,276,97,48,13,39,62,2,3,3,1,400,6,52,2,3,9
lacyke01,Kerry Lacy,2,2,13,3,0,0,1,93,34,15,4,14,23,1,1,1,0,137,4,17,1,1,3
langsma01,Mark Langston,8,6,31,19,2,0,1,415,140,72,18,51,101,2,5,3,0,593,5,76,4,4,11
larkian01,Andy Larkin,4,3,24,7,0,0,2,194,64,32,8,29,26,2,2,3,0,283,7,35,2,2,6
leftwph01,Phil Leftwich,3,4,21,8,0,0,1,192,71,34,8,24,37,2,2,2,0,281,5,39,2,2,5
leipeda01,Dave Leiper,1,2,15,3,0,0,1,86,29,15,3,11,19,1,1,1,0,125,4,16,2,1,2
leiteal01,Al Leiter,12,11,40,27,2,1,1,553,155,74,15,102,166,3,8,7,1,793,5,82,6,5,17
leitema01,Mark Leiter,6,6,30,15,2,0,1,338,111,54,14,35,76,3,5,8,1,485,6,58,6,4,9
leskacu01,Curt Leskanic,5,4,44,4,0,0,4,215,72,38,9,31,74,2,4,2,1,312,16,40,3,2,6
levinal01,Al Levine,2,2,15,3,0,0,1,102,37,18,4,13,21,1,1,1,0,150,4,20,1,1,3
lewisri01,Richie Lewis,3,4,42,4,0,0,2,220,68,36,9,44,62,5,6,3,1,326,11,40,3,4,5
liebejo01,Jon Lieber,7,6,39,14,0,0,2,345,133,58,14,27,76,2,3,3,1,496,7,65,5,4,10
lillide01,Derek Lilliquist,2,2,15,3,0,0,1,87,32,15,4,10,12,1,1,1,0,126,4,17,1,1,3
limajo01,Jose Lima,4,6,29,8,0,0,2,222,85,43,11,23,51,3,3,4,0,327,8,46,3,2,6
lintodo01,Doug Linton,7,7,35,14,0,0,2,325,118,59,13,34,83,3,4,6,1,475,7,65,5,3,8
lirafe01,Felipe Lira,8,12,45,25,2,1,2,528,183,94,24,63,104,5,6,8,1,768,8,102,5,9,15
lloydgr01,Graeme Lloyd,1,2,17,3,0,0,1,93,33,17,4,12,18,2,2,1,0,135,5,18,1,2,3
loaizes01,Esteban Loaiza,5,6,29,16,1,0,1,316,123,57,14,36,56,3,3,3,0,464,5,64,5,4,10
loiseri01,Rich Loiselle,3,3,21,7,0,0,1,173,60,28,7,23,25,2,3,2,0,252,5,31,2,2,6
lomonke01,Kevin Lomon,2,2,12,3,0,0,1,90,34,16,3,12,10,1,1,1,0,132,3,17,1,1,3
lopezal02,Albie Lopez,5,5,28,11,1,0,2,260,97,48,14,31,68,2,4,3,0,381,6,52,2,3,8
ludwier01,Eric Ludwick,2,2,14,4,0,0,1,109,38,20,5,14,43,1,1,1,0,160,4,22,1,1,3
lyonscu01,Curt Lyons,4,4,25,8,0,0,2,211,74,36,8,29,61,2,2,3,0,307,7,39,2,2,6
macdobo01,Bob Macdonald,2,2,20,3,0,0,1,116,40,20,5,17,31,1,1,1,0,168,5,21,2,1,4
maddugr01,Greg Maddux,14,8,39,27,5,1,1,607,172,65,11,30,158,6,4,4,0,809,5,69,7,4,18
maddumi01,Mike Maddux,4,3,29,7,0,0,1,226,80,36,9,24,46,3,3,3,0,327,7,40,2,2,7
madurca01,Calvin Maduro,3,3,19,6,0,0,1,156,52,26,6,18,40,2,2,2,0,225,5,28,2,2,4
magnami01,Mike Magnante,3,3,29,4,0,0,1,168,59,30,6,22,32,2,3,2,0,244,7,33,2,3,6
magrajo01,Joe Magrane,3,4,24,8,0,0,1,197,76,39,10,33,26,2,3,3,0,296,6,43,2,3,7
mahompa01,Pat Mahomes,3,3,17,4,0,0,1,123,42,23,7,20,24,1,2,1,0,180,5,25,2,1,4
mantema01,Matt Mantei,2,2,17,3,0,0,1,110,33,19,4,24,43,1,2,1,0,162,4,21,2,1,3
manueba01,Barry Manuel,4,3,32,5,0,0,1,202,60,30,8,23,50,3,3,4,0,289,6,33,3,2,5
martide01,Dennis Martinez,8,6,30,19,2,1,1,387,129,58,13,38,64,3,3,5,0,548,4,63,3,4,11
martipe02,Pedro Martinez,12,9,41,27,2,1,2,574,166,82,19,64,190,3,6,7,1,797,5,89,7,5,13
martipe03,Pedro Martinez,1,1,14,3,0,0,1,86,29,15,3,16,21,1,1,1,0,128,4,16,2,1,2
martira02,Ramon Martinez,12,7,35,23,2,2,1,491,149,70,15,70,120,4,3,6,1,701,5,80,6,5,15
mathete01,Terry Mathews,2,2,21,3,0,0,1,126,41,19,5,14,33,1,1,1,0,179,6,21,2,1,3
mathetj01,T. J. Mathews,3,4,39,5,0,0,3,212,59,30,7,28,70,3,2,2,0,300,13,33,4,1,4
maxcybr01,Brian Maxcy,2,2,15,3,0,0,1,97,36,19,4,15,11,2,2,1,0,145,4,21,1,1,3
mayda02,Darrell May,1,1,11,3,0,0,1,82,31,15,3,11,8,1,1,1,0,120,3,16,1,1,2
mccargr01,Greg McCarthy,2,2,13,3,0,0,1,90,29,15,3,12,20,1,1,2,0,131,3,16,1,1,3
mccaski01,Kirk McCaskill,4,4,31,5,0,0,2,187,73,35,7,29,37,4,3,2,0,279,11,38,3,2,7
mccurje01,Jeff McCurry,2,2,17,3,0,0,1,99,41,19,5,15,13,1,1,1,0,148,4,20,1,1,3
mcdonbe01,Ben McDonald,10,9,40,26,2,0,2,534,177,82,20,61,119,3,5,5,1,766,6,89,6,5,13
mcdowja01,Jack McDowell,11,9,37,24,4,1,1,530,185,90,19,58,128,3,6,5,0,765,5,97,7,5,13
mcdowro01,Roger McDowell,3,3,34,4,0,0,2,185,67,30,6,25,30,3,2,3,0,269,11,33,3,2,8
mcelrch01,Chuck McElroy,3,3,30,3,0,0,1,142,47,23,5,17,37,2,2,2,0,203,8,24,2,2,4
mcmicgr01,Greg McMichael,5,4,48,4,0,0,4,228,72,32,7,27,69,5,3,1,1,326,13,36,3,2,7
meachru01,Rusty Meacham,3,3,30,6,0,0,2,191,75,34,9,20,37,2,2,3,0,280,11,37,2,3,6
mecirji01,Jim Mecir,2,2,20,4,0,0,1,139,47,24,6,22,41,2,3,1,0,204,6,26,3,2,4
mendora01,Ramiro Mendoza,5,6,29,12,0,0,2,257,109,49,10,23,52,2,3,4,1,381,6,54,3,3,8
menhapa01,Paul Menhart,3,4,24,9,1,0,1,220,77,42,10,39,39,2,3,3,0,326,7,46,3,2,9
mercejo02,Jose Mercedes,2,2,15,3,0,0,1,104,37,20,5,15,14,1,2,1,0,152,4,21,1,1,3
merckke01,Kent Mercker,3,2,14,6,0,0,1,135,43,21,5,18,36,1,2,1,0,194,3,23,2,2,4
mesajo01,Jose Mesa,3,4,44,4,0,0,18,201,63,28,6,24,61,3,3,2,0,285,29,30,3,2,7
micelda01,Dan Miceli,4,6,44,7,0,0,6,245,88,45,12,38,67,4,5,3,0,366,21,51,3,5,5
milacbo01,Bob Milacki,3,4,19,7,0,0,1,165,63,30,7,24,23,3,2,2,0,245,5,34,2,2,5
milchmi01,Mike Milchin,2,2,13,3,0,0,1,92,32,16,3,12,27,1,1,1,0,133,3,17,1,2,3
milleku01,Kurt Miller,3,3,24,6,0,0,1,169,63,32,7,29,33,4,2,2,0,252,6,37,3,2,6
milletr01,Travis Miller,4,4,27,10,0,0,2,225,95,44,11,28,40,2,2,2,0,332,7,48,3,2,7
milletr02,Trever Miller,3,5,24,8,0,0,2,190,74,36,8,27,26,2,2,3,0,282,6,38,3,3,5
millsal01,Alan Mills,3,3,32,4,0,0,2,163,50,28,8,30,48,2,3,2,0,239,11,30,2,2,4
mimbsmi01,Mike Mimbs,6,8,35,16,1,0,2,352,122,62,13,54,72,2,7,4,0,519,7,68,6,5,12
minchna01,Nate Minchey,4,4,24,8,0,0,2,190,82,36,7,29,34,2,3,2,0,284,6,40,2,3,7
minorbl01,Blas Minor,2,2,19,3,0,0,1,126,44,21,6,16,33,1,2,1,0,182,6,23,2,1,4
miranan01,Angel Miranda,6,6,38,11,0,0,2,290,101,52,11,57,63,3,6,2,1,433,7,58,3,5,8
mitchla01,Larry Mitchell,2,2,13,3,0,0,1,95,34,16,4,13,19,1,1,1,0,137,3,17,1,1,3
mlickda01,Dave Mlicki,5,5,32,9,0,0,1,262,90,40,11,31,74,4,4,4,0,381,8,46,5,3,8
moehlbr01,Brian Moehler,3,4,24,8,0,0,2,199,68,34,8,31,11,2,3,2,0,292,6,39,3,2,5
mohlemi01,Mike Mohler,4,3,41,5,0,0,3,204,65,31,7,34,53,3,4,2,0,295,14,34,3,3,7
monteri01,Rich Monteleone,2,2,16,3,0,0,1,99,36,17,5,10,12,1,1,1,0,144,4,18,1,1,3
montgje01,Jeff Montgomery,3,4,36,4,0,0,14,186,61,30,9,22,50,3,2,2,0,265,24,32,3,2,8
montgst01,Steve Montgomery,2,2,13,3,0,0,1,97,35,18,5,17,16,1,2,1,0,143,3,19,1,1,3
moorema01,Marcus Moore,2,2,19,3,0,0,1,116,38,21,5,22,36,1,2,2,0,172,7,23,2,2,4
morelra01,Ramon Morel,3,2,22,4,0,0,1,145,56,25,5,20,24,3,2,2,0,214,5,28,2,2,4
morgami01,Mike Morgan,4,6,23,11,1,0,1,246,91,38,9,27,46,2,3,3,0,356,4,44,5,3,9
mormaal01,Alvin Morman,3,2,27,4,0,0,1,139,47,24,6,22,33,3,2,1,0,204,6,26,2,1,4
moyerja01,Jamie Moyer,7,5,28,14,0,0,1,315,107,52,14,30,55,3,2,3,0,448,5,58,4,3,9
mulhote01,Terry Mulholland,6,7,29,16,1,0,1,324,127,60,15,35,53,3,3,3,0,475,5,69,6,4,10
munozbo01,Bobby Munoz,4,5,24,10,0,0,2,223,84,41,9,27,34,2,2,3,0,328,5,45,3,3,7
munozmi01,Mike Munoz,3,3,38,3,0,0,1,154,56,30,6,24,45,2,2,1,0,228,8,32,2,2,4
mussimi01,Mike Mussina,16,9,41,28,4,1,1,612,202,97,24,55,156,3,3,3,0,855,5,101,4,5,16
myersji01,Jimmy Myers,2,2,13,3,0,0,1,97,35,17,4,11,13,1,1,1,0,141,4,19,1,1,3
myersmi01,Mike Myers,3,4,40,4,0,0,3,175,62,31,7,28,58,4,2,3,0,260,12,35,2,2,6
myersra01,Randy Myers,3,3,39,4,0,0,16,176,58,27,7,27,66,2,2,1,0,257,26,29,3,2,4
myersro01,Rodney Myers,3,2,28,4,0,0,1,177,56,30,6,29,43,2,3,2,0,259,6,33,2,3,5
nagych01,Charles Nagy,14,7,39,26,3,0,1,565,194,84,20,57,141,2,5,5,0,801,5,90,3,4,20
naultda01,Dan Naulty,3,3,28,4,0,0,2,162,47,26,6,28,54,2,2,1,0,235,8,29,2,1,5
navarja01,Jaime Navarro,12,10,43,27,2,1,1,593,204,88,21,63,132,6,6,7,0,847,6,99,6,6,17
neaglde01,Denny Neagle,6,5,24,14,2,0,1,301,105,48,11,30,73,2,3,2,0,428,4,53,5,3,8
nelsoje01,Jeff Nelson,4,3,44,4,0,0,2,209,64,31,6,30,84,3,3,3,0,300,15,34,3,2,6
nenro01,Robb Nen,4,4,48,4,0,0,15,221,67,29,6,23,83,3,3,2,0,308,33,32,3,2,7
niedda01,David Nied,2,2,12,4,0,0,1,102,38,19,4,15,20,1,1,1,0,150,3,21,1,1,3
nitkocj01,C. J. Nitkowski,4,5,27,12,0,0,2,239,95,50,11,46,46,3,3,5,0,363,5,54,2,3,8
nomohi01,Hideo Nomo,13,9,41,26,3,2,2,580,149,74,19,75,216,5,11,4,3,804,6,83,10,5,10
ogeach01,Chad Ogea,9,6,36,17,1,0,2,408,136,66,18,43,88,3,3,4,0,581,7,71,3,4,10
olivaom01,Omar Olivares,7,9,37,19,2,0,2,422,149,75,16,64,68,4,5,7,1,619,7,81,4,5,17
oliveda02,Darren Oliver,11,6,46,21,1,1,2,461,159,78,17,74,106,4,6,7,1,682,8,84,5,5,13
olsongr01,Gregg Olson,2,2,15,3,0,0,1,98,32,16,4,17,23,2,1,1,0,143,5,18,1,1,3
oquismi01,Mike Oquist,2,2,14,3,0,0,1,103,35,17,4,18,19,2,1,1,0,152,3,19,1,1,3
oroscje01,Jesse Orosco,3,3,41,4,0,0,1,168,45,26,6,29,57,3,2,2,0,240,10,28,2,2,5
osbordo01,Donovan Osborne,10,9,40,24,1,1,2,515,170,75,21,53,120,5,5,3,1,726,6,84,7,4,12
osunaal01,Al Osuna,2,1,12,3,0,0,1,80,29,13,3,11,21,1,1,1,0,118,3,15,1,1,2
osunaan01,Antonio Osuna,5,5,44,5,0,0,2,221,65,33,8,30,78,5,3,2,1,312,12,36,4,3,6
pacheal01,Alex Pacheco,2,2,11,3,0,0,1,86,31,15,4,11,34,1,1,1,0,125,3,17,1,1,2
paintla01,Lance Painter,3,3,26,5,0,0,1,167,63,30,9,21,44,2,2,2,0,247,5,33,2,2,5
palldo01,Donn Pall,2,2,14,3,0,0,1,101,34,18,4,14,16,1,1,1,0,147,4,20,1,1,3
paniajo01,Jose Paniagua,4,5,29,12,0,0,2,248,87,39,10,35,44,2,3,3,1,360,6,44,3,3,9
parkch01,Chan Ho Park,5,5,37,9,0,0,1,269,74,42,9,53,99,3,3,3,2,392,8,46,5,2,8
parrajo01,Jose Parra,4,5,26,9,0,0,1,223,90,45,12,28,45,1,3,3,0,334,6,49,2,3,7
parreje01,Jeff Parrett,2,3,23,3,0,0,1,131,43,20,4,17,41,2,3,1,0,189,7,21,2,1,4
parrist01,Steve Parris,3,4,21,9,0,0,1,191,71,36,8,26,53,2,3,3,0,281,5,38,2,2,5
pattebo01,Bob Patterson,3,3,44,4,0,0,3,168,52,25,7,21,50,3,2,2,1,239,14,27,2,2,5
patteda04,Danny Patterson,2,2,12,3,0,0,1,90,32,14,3,12,17,1,1,1,0,130,4,16,1,1,3
pavlada01,Dave Pavlas,2,2,16,3,0,0,1,109,38,17,4,13,28,1,2,1,0,158,5,19,2,1,3
pavliro01,Roger Pavlik,11,9,41,27,3,0,1,537,182,96,22,78,122,5,8,5,1,780,5,102,5,5,17
penaal01,Alejandro Pena,2,2,13,3,0,0,1,83,27,14,4,10,33,1,1,1,0,119,4,16,1,1,2
pennibr01,Brad Pennington,2,2,13,3,0,0,1,89,28,17,4,21,22,1,2,1,0,133,4,18,1,1,2
percitr01,Troy Percival,3,3,42,4,0,0,11,209,46,27,8,28,98,3,2,2,1,289,21,29,3,2,4
perezmi01,Mike Perez,2,3,27,3,0,0,2,135,49,22,5,18,32,2,2,2,0,199,7,25,2,2,3
perezyo01,Yorkis Perez,3,4,41,4,0,0,1,160,50,28,6,27,52,3,2,2,0,235,9,30,2,2,4
persoro01,Robert Person,5,5,31,11,0,0,2,265,84,44,13,34,75,3,3,3,0,383,6,48,2,3,5
peterch01,Chris Peters,4,5,27,10,0,0,2,242,88,44,10,32,35,2,4,2,0,354,6,48,3,3,8
petkoma01,Mark Petkovsek,6,4,32,10,0,0,1,260,86,40,9,30,45,2,2,4,1,370,6,44,4,2,11
pettian01,Andy Pettitte,15,9,44,27,2,0,2,574,200,88,20,66,137,3,7,3,1,816,6,96,6,4,18
pichahi01,Hipolito Pichardo,4,4,37,4,0,0,2,197,71,35,6,26,41,4,3,3,0,288,14,38,3,2,8
plesada01,Dan Plesac,4,4,44,4,0,0,4,195,64,31,6,23,67,4,2,1,0,281,15,34,2,2,5
plunker01,Eric Plunk,4,3,39,4,0,0,2,208,57,28,6,31,77,2,3,3,0,294,12,29,2,3,5
polleda01,Dale Polley,2,2,19,3,0,0,1,107,36,20,5,15,21,1,1,2,0,157,5,22,1,1,3
pooleji02,Jim Poole,3,2,26,3,0,0,1,125,38,20,5,18,35,2,2,1,0,179,6,21,2,1,4
portuma01,Mark Portugal,8,8,35,21,1,0,1,426,139,66,17,43,83,3,6,4,0,602,5,72,6,5,11
pottsmi01,Mike Potts,2,3,20,4,0,0,1,145,55,28,6,25,21,2,2,1,0,216,6,31,2,2,5
powelja04,Jay Powell,3,3,37,5,0,0,2,189,62,31,6,30,44,2,2,3,0,278,9,35,2,2,6
prietar01,Ariel Prieto,6,8,35,18,2,0,2,388,132,64,12,57,78,3,6,6,1,565,6,71,5,5,14
pughti01,Tim Pugh,2,2,12,4,0,0,1,105,38,17,4,14,14,1,1,1,0,152,3,19,1,1,3
quantpa01,Paul Quantrill,7,10,38,18,0,0,1,386,155,70,19,42,77,3,2,4,1,569,8,77,6,5,11
quirira01,Rafael Quirico,3,4,23,7,0,0,2,184,65,34,8,30,19,2,2,2,1,270,6,37,2,2,5
radinsc01,Scott Radinsky,4,2,36,4,0,0,1,165,58,25,6,21,42,3,1,1,1,239,10,28,3,3,4
radkebr01,Brad Radke,11,13,43,28,2,0,2,596,205,104,32,53,114,3,4,5,0,847,6,112,5,7,15
rapppa01,Pat Rapp,9,11,37,24,1,1,1,469,162,78,13,79,87,4,8,5,0,686,5,83,10,5,18
reedst01,Steve Reed,4,3,46,4,0,0,2,211,65,31,9,22,57,2,2,3,0,297,8,34,2,3,6
rekarbr01,Bryan Rekar,5,6,28,13,1,0,1,277,111,58,13,34,49,3,4,4,1,416,5,63,5,4,7
remlimi01,Mike Remlinger,2,3,19,6,0,0,1,138,45,24,6,26,29,2,2,2,1,203,4,26,2,2,4
reyesal01,Alberto Reyes,2,2,14,3,0,0,1,95,28,16,4,14,24,1,1,1,0,137,5,17,1,1,3
reyesca01,Carlos Reyes,5,7,41,9,0,0,1,304,106,53,14,48,67,5,4,3,1,448,13,58,3,4,10
reynoar02,Armando Reynoso,8,9,39,24,1,0,2,458,176,83,21,52,76,3,4,8,2,668,6,89,6,4,12
reynosh01,Shane Reynolds,12,10,43,27,3,1,1,595,199,85,18,41,177,5,6,6,1,832,6,92,8,4,12
rhodear01,Arthur Rhodes,5,3,23,6,0,0,1,186,58,33,8,31,66,2,2,1,0,270,5,36,2,2,5
rislebi01,Bill Risley,3,2,26,3,0,0,1,155,46,24,7,22,50,1,2,1,0,221,7,26,2,2,5
ritzke01,Kevin Ritz,13,10,42,28,1,0,2,547,194,98,19,82,103,4,8,8,1,807,6,107,7,5,16
riverma01,Mariano Rivera,6,4,37,7,0,0,3,258,74,36,7,32,96,2,2,2,0,364,9,39,2,2,6
roajo01,Joe Roa,1,2,10,3,0,0,1,81,30,14,3,12,0,1,1,1,0,118,3,15,1,1,2
roberri02,Rich Robertson,7,10,45,21,3,1,2,460,158,82,18,89,94,4,5,6,1,688,9,90,5,4,17
robinke01,Ken Robinson,2,2,14,3,0,0,1,96,29,16,4,15,25,1,1,1,0,140,4,18,1,1,2
rodrifr02,Frankie Rodriguez,10,11,43,25,2,0,3,515,180,94,21,70,90,2,5,6,0,751,8,106,5,7,18
rodrine01,Nerio Rodriguez,2,2,15,4,0,0,1,115,40,19,5,15,26,1,1,1,0,169,4,22,1,1,3
rogerke01,Kenny Rogers,11,8,37,24,2,1,1,505,165,80,19,67,102,2,5,5,1,727,5,87,5,4,15
rojasme01,Mel Rojas,4,4,46,4,0,0,16,215,63,32,6,25,77,3,3,3,0,306,29,34,2,2,6
rosadjo01,Jose Rosado,8,7,33,15,1,1,2,352,116,52,11,34,73,3,5,4,1,501,7,56,3,4,10
ruebema01,Matt Ruebel,3,3,26,7,0,0,2,192,68,33,8,26,23,1,2,4,0,283,6,38,2,3,6
rueteki01,Kirk Rueter,4,4,21,10,1,0,1,205,67,31,7,19,42,1,2,2,0,291,4,35,3,2,6
ruffcsc01,Scott Ruffcorn,2,3,16,5,0,0,1,123,46,23,5,23,17,1,2,2,0,183,4,25,2,1,4
ruffibr01,Bruce Ruffin,4,4,42,4,0,0,10,187,55,29,6,28,64,2,4,1,0,268,24,32,2,2,5
ruffijo01,Johnny Ruffin,3,3,32,4,0,0,1,176,57,30,7,29,55,3,4,2,0,257,9,33,2,2,6
russeje01,Jeff Russell,3,3,34,4,0,0,6,165,58,25,6,20,27,2,2,2,0,241,13,27,2,2,4
ryanke01,Ken Ryan,3,4,40,4,0,0,6,218,66,31,6,35,60,5,3,2,1,314,17,35,3,1,8
sackibr01,Brian Sackinsky,2,1,11,3,0,0,1,83,29,14,3,12,11,1,1,1,0,122,3,15,1,1,2
sageraj01,A. J. Sager,4,5,29,8,0,0,1,239,91,43,9,30,50,3,2,2,0,351,6,48,4,3,7
salkero01,Roger Salkeld,6,6,34,15,1,1,2,324,111,59,15,54,76,3,5,4,1,476,6,64,6,3,9
sandesc01,Scott Sanderson,3,4,20,9,0,0,1,191,81,34,10,14,28,2,2,3,1,282,4,40,2,2,5
sandesc02,Scott Sanders,7,6,37,15,1,0,1,357,105,53,12,44,126,4,6,3,1,506,7,59,5,5,6
sauveri01,Rich Sauveur,1,1,10,3,0,0,1,78,27,14,3,13,8,1,1,1,0,114,3,15,1,1,3
scanlbo01,Bob Scanlan,2,2,13,5,0,0,1,116,44,21,4,15,17,1,1,2,0,171,3,23,1,2,4
schilcu01,Curt Schilling,8,9,36,22,4,1,2,487,143,68,17,47,159,5,4,4,1,674,5,74,6,4,12
schmija01,Jason Schmidt,5,5,28,10,1,0,2,251,86,43,9,42,57,3,4,3,0,371,7,47,3,5,7
schmije01,Jeff Schmidt,2,2,12,3,0,0,1,89,33,16,4,14,6,1,1,1,0,130,3,17,1,1,3
schoupe01,Pete Schourek,8,6,29,16,1,0,1,340,111,55,12,36,95,3,3,4,0,482,5,59,4,4,9
schutca01,Carl Schutz,1,1,11,3,0,0,1,81,28,14,3,11,45,1,1,1,0,118,3,15,1,1,3
scottti01,Tim Scott,2,2,24,3,0,0,1,123,40,22,5,16,31,1,2,2,0,178,5,23,2,1,3
seleaa01,Aaron Sele,8,9,37,22,1,0,2,431,160,76,14,60,116,3,4,7,0,641,6,86,5,6,12
serafda01,Dan Serafini,4,4,24,7,0,0,2,193,69,34,8,26,12,2,2,3,0,283,7,37,2,3,6
servisc01,Scott Service,3,2,27,4,0,0,1,159,50,25,7,23,50,3,3,3,0,231,6,27,3,2,4
shawje01,Jeff Shaw,5,4,44,4,0,0,2,233,78,32,8,23,53,5,2,2,0,332,13,36,3,3,7
shephke01,Keith Shepherd,2,2,15,3,0,0,1,106,41,21,5,19,23,1,1,1,0,160,5,24,1,1,3
shueypa01,Paul Shuey,3,3,28,4,0,0,3,159,50,24,6,26,46,2,3,1,0,230,10,27,2,2,4
silvajo01,Jose Silva,1,1,10,3,0,0,1,80,29,14,3,10,0,1,1,1,0,117,3,15,1,1,2
simasbi01,Bill Simas,3,5,37,4,0,0,2,192,65,32,6,32,57,3,2,2,0,283,10,35,2,2,5
sirotmi01,Mike Sirotka,3,3,20,7,0,0,1,156,58,28,6,22,24,1,2,1,0,229,5,32,2,2,5
slocuhe01,Heathcliff Slocumb,4,4,47,4,0,0,14,218,68,31,5,38,71,3,5,2,0,320,29,34,2,2,6
smallaa01,Aaron Small,3,3,20,5,0,0,1,149,55,28,6,27,27,2,2,2,0,223,6,31,2,2,4
smallma01,Mark Small,2,2,16,4,0,0,1,111,41,20,4,16,22,2,1,1,0,165,4,23,1,1,3
smilejo01,John Smiley,11,10,40,26,1,1,1,551,182,79,17,47,140,4,6,4,1,767,5,88,13,5,16
smithle02,Lee Smith,2,4,32,3,0,0,9,151,50,24,5,22,44,3,2,1,0,220,17,25,2,2,3
smithza01,Zane Smith,6,7,29,17,1,1,1,330,131,59,11,28,51,4,2,3,1,477,5,65,3,4,12
smoltjo01,John Smoltz,15,9,41,28,3,1,1,616,174,79,18,61,216,5,10,4,1,846,5,89,10,5,13
soderst01,Steve Soderstrom,4,3,25,8,0,0,2,205,73,35,8,28,43,2,2,3,0,300,6,40,2,3,6
sodowcl01,Clint Sodowsky,4,5,27,11,0,0,2,229,88,48,11,43,30,2,4,3,1,347,6,52,3,2,8
sparkst01,Steve Sparks,5,7,29,14,1,0,1,334,120,63,14,53,41,2,5,3,0,490,5,67,4,4,14
spoljpa01,Paul Spoljaric,2,3,20,4,0,0,1,134,41,21,6,22,44,1,1,2,0,195,7,25,2,1,4
spradje01,Jerry Spradlin,1,1,10,3,0,0,1,75,27,13,3,9,11,1,1,1,0,110,3,14,1,1,2
sprinde01,Dennis Springer,5,6,30,13,1,1,2,300,98,55,18,43,68,2,3,5,0,435,7,61,3,2,8
sprinru01,Russ Springer,3,6,36,7,0,0,1,242,85,41,11,31,76,4,4,2,0,356,9,46,3,3,4
stantmi02,Mike Stanton,2,2,21,3,0,0,1,114,37,18,4,15,26,1,1,1,0,163,7,20,1,1,3
stephga01,Garrett Stephenson,2,2,11,3,0,0,1,87,33,16,4,11,11,1,1,1,0,127,3,17,1,1,2
steveda01,Dave Stevens,4,3,35,4,0,0,5,184,65,32,10,27,35,2,2,1,0,270,19,35,3,3,5
stottto01,Todd Stottlemyre,12,9,40,26,3,1,2,570,185,90,24,75,169,6,7,5,1,818,6,96,7,6,15
sturtta01,Tanyon Sturtze,2,2,12,3,0,0,1,93,35,17,4,13,17,1,1,1,0,136,4,18,1,1,3
sullisc01,Scott Sullivan,2,2,12,3,0,0,1,90,30,15,3,13,12,1,1,1,0,131,4,16,1,1,3
suppaje01,Jeff Suppan,3,3,22,7,0,0,1,175,67,33,7,24,38,2,3,2,0,258,6,35,2,3,5
suzukma01,Mac Suzuki,1,1,10,3,0,0,1,80,28,14,3,11,15,1,1,1,0,117,3,15,1,1,2
swartda01,Dave Swartzbaugh,3,4,25,8,0,0,2,201,68,35,8,31,37,2,3,2,0,293,6,38,3,2,6
swiftbi02,Bill Swift,4,3,17,8,0,0,1,175,65,30,6,21,33,2,2,1,0,254,4,33,3,2,6
swindgr01,Greg Swindell,3,3,18,8,0,0,1,178,68,31,9,15,36,1,1,1,0,256,3,34,2,3,5
tabakje01,Jeff Tabaka,2,2,19,3,0,0,1,111,37,19,4,18,30,1,2,2,0,164,5,21,1,1,3
tapanke01,Kevin Tapani,11,8,40,25,1,0,2,529,193,91,23,56,117,4,7,4,0,765,6,98,5,5,14
tavarju01,Julian Tavarez,5,5,41,6,0,0,1,237,86,39,9,23,52,3,2,2,1,341,11,44,3,3,8
taylobi04,Billy Taylor,4,3,31,4,0,0,5,162,50,27,6,22,60,3,2,2,0,234,12,29,2,2,4
telemam01,Amaury Telemaco,5,6,33,14,0,0,2,303,110,55,16,34,66,3,4,3,0,442,7,62,4,3,7
telghda01,Dave Telgheder,5,7,31,13,1,1,2,292,111,51,13,35,53,3,3,2,1,427,7,55,4,3,8
tewksbo01,Bob Tewksbury,10,9,39,25,2,0,1,508,196,84,16,34,93,4,4,4,1,729,5,96,8,7,15
thobeto01,Tom Thobe,2,2,11,3,0,0,1,86,30,14,3,9,8,1,1,1,0,124,4,16,1,1,3
thomala01,Larry Thomas,2,3,29,4,0,0,1,126,41,20,4,18,30,2,2,2,0,182,7,21,2,1,4
thompju02,Justin Thompson,4,6,30,12,0,0,2,277,95,47,11,43,67,3,3,3,0,407,7,52,2,3,8
thompma01,Mark Thompson,8,9,43,20,2,1,2,439,168,84,20,64,84,3,3,8,1,655,8,92,8,4,16
timlimi01,Mike Timlin,3,4,35,4,0,0,9,172,54,26,5,22,53,3,3,2,0,245,21,29,2,2,6
torresa01,Salomon Torres,4,6,25,11,1,0,1,249,88,45,10,38,52,3,3,4,1,370,5,50,3,3,7
trachst01,Steve Trachsel,10,10,40,27,2,1,1,542,174,79,25,66,124,5,5,5,1,773,5,90,6,4,15
trlicri01,Ricky Trlicek,2,2,11,3,0,0,1,83,29,14,3,13,11,1,1,1,0,122,3,16,1,1,2
trombmi01,Mike Trombley,4,3,28,7,0,0,2,207,70,34,8,27,52,3,3,3,0,302,9,38,2,2,5
urbanto01,Tom Urbani,3,3,19,6,0,0,1,148,58,26,7,17,32,1,3,2,0,218,4,29,2,1,5
urbinug01,Ugueth Urbina,8,6,36,14,0,0,2,318,101,51,16,43,98,4,4,2,1,459,6,56,3,3,7
valdeis01,Ismael Valdez,13,9,45,26,2,1,2,594,186,79,19,53,155,7,3,3,3,833,7,88,8,6,15
valdema01,Marc Valdes,4,4,26,10,0,0,2,231,93,41,9,35,19,2,4,3,1,347,6,47,3,3,7
valenfe01,Fernando Valenzuela,10,7,42,23,0,0,2,447,156,69,18,55,84,3,6,2,0,646,7,76,9,4,13
valerju01,Julio Valera,3,3,24,5,0,0,1,174,66,33,7,24,28,2,2,2,0,256,6,35,2,3,6
vanegti01,Tim Van Egmond,4,5,26,10,1,0,2,239,83,43,10,36,47,3,2,2,1,351,6,48,3,3,8
vanlawi01,William VanLandingham,9,9,39,25,1,0,2,495,170,87,17,69,101,5,6,6,2,723,6,96,7,5,13
vanpoto01,Todd Van Poppel,5,6,29,13,1,0,1,281,95,59,14,53,68,2,4,3,0,416,6,63,3,4,8
vanrybe01,Ben VanRyn,1,1,10,3,0,0,1,78,27,13,3,11,0,1,1,1,0,113,3,14,1,1,2
verasda01,Dario Veras,3,2,18,4,0,0,1,122,39,19,5,16,34,2,2,1,0,175,5,21,2,1,4
veresda01,Dave Veres,4,3,44,4,0,0,2,221,73,32,8,25,71,3,3,3,1,318,12,35,3,3,5
veresra01,Randy Veres,2,3,25,3,0,0,1,134,47,25,6,22,32,3,2,2,0,200,8,27,2,2,4
villoro01,Ron Villone,2,2,20,3,0,0,2,121,36,20,5,20,42,1,2,2,0,175,7,21,1,2,4
violafr01,Frank Viola,4,5,25,10,0,0,2,224,88,43,10,37,33,3,3,3,0,334,6,47,3,4,8
vosbeed01,Ed Vosberg,3,3,33,4,0,0,3,149,52,23,5,22,41,2,2,1,1,216,12,25,2,2,5
wadete01,Terrell Wade,4,3,32,8,0,0,2,206,61,31,9,40,77,3,3,2,0,300,9,35,3,2,6
wagnebi02,Billy Wagner,3,3,25,4,0,0,4,155,40,23,6,26,70,2,2,2,0,222,9,25,3,2,4
wagnema02,Matt Wagner,5,6,31,14,1,0,2,300,109,60,15,44,50,3,2,4,0,443,7,64,2,4,8
wagnepa01,Paul Wagner,5,9,31,16,1,0,1,344,122,62,13,50,94,4,6,5,0,505,5,66,5,3,10
wainhda01,Dave Wainhouse,2,2,16,4,0,0,1,110,37,19,4,15,25,1,2,1,0,160,5,21,1,2,3
wakefti01,Tim Wakefield,12,10,39,25,4,0,2,553,186,90,27,73,118,2,6,9,1,807,6,107,3,7,17
walkemi01,Mike Walker,2,2,22,3,0,0,1,129,48,24,6,21,19,2,2,1,0,193,8,26,2,2,4
walkepe01,Pete Walker,2,1,11,3,0,0,1,82,30,14,3,12,9,1,1,1,0,120,4,15,1,1,2
wallade01,Derek Wallace,2,2,17,4,0,0,2,114,41,19,4,17,22,2,2,1,0,168,6,21,1,1,3
walldo01,Donne Wall,8,7,36,18,1,1,2,399,151,68,16,35,88,3,4,5,1,576,7,76,4,5,10
wareje01,Jeff Ware,3,4,20,7,0,0,1,166,57,34,7,36,23,2,4,2,0,250,6,36,2,1,6
wasdijo01,John Wasdin,7,7,36,17,1,0,2,374,133,72,19,46,69,4,3,4,1,543,8,79,4,5,10
watsoal01,Allen Watson,9,10,39,24,1,0,2,499,176,87,23,64,104,2,6,6,2,719,6,95,10,5,16
weathda01,David Weathers,3,4,19,8,0,0,1,167,64,33,6,27,33,2,2,2,0,252,3,36,3,2,6
wellsbo01,Bob Wells,8,6,38,12,1,0,1,339,122,63,17,44,74,4,2,4,0,499,8,67,3,4,8
wellsda01,David Wells,10,11,39,25,3,0,2,530,191,93,22,43,108,6,5,5,1,751,6,99,7,8,17
wendetu01,Turk Wendell,4,4,41,4,0,0,6,211,67,32,9,34,63,3,2,2,1,308,20,36,3,2,4
wengedo01,Don Wengert,6,8,42,17,1,1,2,401,157,75,20,50,62,5,4,5,0,592,10,79,4,4,13
westda01,David West,4,5,24,10,0,0,1,216,68,36,7,36,56,2,3,2,1,314,5,38,3,2,6
wettejo01,John Wetteland,3,4,41,4,0,0,18,188,53,27,7,21,70,3,2,1,0,263,29,29,2,2,5
whitema02,Matt Whiteside,2,2,22,3,0,0,1,139,50,25,6,18,30,2,2,1,0,203,8,27,2,2,4
whitewa02,Wally Whitehurst,4,4,22,8,0,0,2,190,73,33,8,24,33,2,2,2,0,278,5,36,2,2,6
wickake01,Kevin Wickander,2,2,18,4,0,0,1,114,37,19,4,19,26,2,2,1,0,167,5,21,2,2,3
wickmbo01,Bob Wickman,2,2,22,3,0,0,1,125,39,20,4,18,31,2,1,2,0,180,6,22,2,1,4
wilkima01,Marc Wilkins,4,3,30,5,0,0,2,194,65,31,7,29,53,3,3,3,0,284,8,34,2,3,5
willibr01,Brian Williams,5,8,42,13,1,0,2,325,125,68,14,62,73,3,6,6,1,498,12,78,6,4,12
willimi03,Mike Williams,6,10,43,21,0,0,2,447,159,79,20,58,93,5,10,5,1,648,8,86,6,5,13
willish01,Shad Williams,2,3,18,5,0,0,1,136,53,27,7,23,36,2,2,2,0,205,5,30,2,2,4
williwo02,Woody Williams,4,5,32,10,1,0,1,265,85,44,11,39,70,2,3,3,0,384,9,47,3,2,7
wilsopa02,Paul Wilson,6,10,38,20,1,0,2,416,144,77,15,63,99,8,4,7,2,617,7,86,6,4,11
witasja01,Jay Witasick,2,2,14,3,0,0,1,97,33,17,5,13,31,1,2,1,0,140,4,18,1,1,3
wittbo01,Bobby Witt,11,10,39,24,2,1,2,489,189,91,21,75,127,4,6,4,1,729,6,99,4,6,16
wohlema01,Mark Wohlers,4,4,49,4,0,0,15,213,66,30,7,27,93,3,5,2,0,305,30,33,3,2,5
wojcist01,Steve Wojciechowski,6,6,32,15,0,0,2,311,116,58,13,42,36,2,3,3,1,458,7,63,3,3,11
wolcobo01,Bob Wolcott,8,9,39,21,1,0,2,420,162,80,21,52,72,4,4,6,1,622,6,85,5,4,11
woodabr01,Brad Woodall,3,3,20,6,0,0,1,148,56,27,7,18,39,2,2,1,0,218,5,31,2,2,4
worreti01,Tim Worrell,6,5,38,10,0,0,2,283,89,41,9,33,80,2,2,4,0,406,9,45,3,2,7
worreto01,Todd Worrell,4,4,42,4,0,0,18,187,61,26,6,19,64,2,3,2,0,267,30,30,2,2,4
wrighja01,Jamey Wright,6,5,32,14,0,0,2,322,119,56,11,46,52,3,3,6,1,471,7,64,4,3,13
yanes01,Esteban Yan,2,2,12,3,0,0,1,93,34,16,4,12,23,1,1,1,0,135,3,18,1,1,3
youngan01,Anthony Young,3,3,21,4,0,0,1,137,47,22,5,20,24,2,2,2,0,199,6,24,2,1,4
