playerID,playerName,W,L,G,GS,CG,SHO,SV,IPouts,H,ER,HR,BB,SO,IBB,WP,HBP,BK,BFP,GF,R,SH,SF,GIDP
abbotji01,Jim Abbott,5,5,23,10,0,0,1,225,83,39,9,35,31,1,3,3,0,329,5,46,2,3,9
abbotpa01,Paul Abbott,5,4,25,9,0,0,2,215,72,35,8,28,65,1,4,2,0,309,6,37,2,2,7
aceveju01,Juan Acevedo,6,4,38,8,0,0,6,256,81,34,9,30,52,2,3,4,0,361,15,38,5,3,7
adamsjo02,Joel Adamson,4,5,30,9,0,0,1,239,84,41,11,29,54,1,2,4,0,346,6,45,4,3,7
adamste01,Terry Adams,4,5,45,4,0,0,4,210,72,34,6,35,63,3,3,2,1,309,15,36,3,2,6
aguilri01,Rick Aguilera,4,5,38,5,0,0,13,201,69,32,8,18,56,2,2,2,0,286,26,34,3,2,5
aldresc01,Scott Aldred,2,3,22,6,0,0,1,144,55,27,7,17,27,1,2,2,0,210,4,28,2,1,5
alfonan01,Antonio Alfonseca,4,4,34,4,0,0,3,191,69,31,8,27,41,4,2,2,0,281,12,34,4,3,5
almanca01,Carlos Almanzar,2,2,19,4,0,0,1,121,43,20,5,13,29,1,1,1,0,176,6,22,2,1,3
alvarwi01,Wilson Alvarez,7,9,34,21,0,0,1,414,128,69,16,64,113,2,4,6,0,599,5,73,4,3,11
anderbr02,Brian Anderson,10,10,41,24,1,1,2,512,185,83,27,31,79,2,4,4,3,712,6,91,6,5,13
anderma01,Matt Anderson,3,2,25,4,0,0,1,146,46,22,5,26,48,2,2,2,0,212,6,24,3,2,5
andujlu01,Luis Andujar,1,2,13,4,0,0,1,100,42,18,4,12,15,1,1,1,0,148,4,20,1,1,3
appieke01,Kevin Appier,5,5,21,12,1,0,1,271,86,41,10,31,80,2,4,2,0,381,3,43,2,2,8
arrojro01,Rolando Arrojo,10,9,40,22,1,1,2,476,155,69,17,53,121,2,4,11,1,676,7,73,5,3,15
ashbyan01,Andy Ashby,12,9,40,27,3,0,1,575,193,81,20,50,129,5,5,6,0,806,5,89,8,5,18
assenpa01,Paul Assenmacher,3,3,43,3,0,0,2,155,53,23,5,18,50,3,2,2,0,225,12,25,2,2,3
astacpe01,Pedro Astacio,10,9,39,24,0,0,1,503,183,98,25,57,131,2,4,11,0,732,5,103,8,4,18
averyst01,Steve Avery,8,7,36,19,0,0,1,361,133,66,14,53,62,2,5,4,0,531,6,72,4,3,13
ayalabo01,Bobby Ayala,4,5,43,4,0,0,4,216,79,41,9,27,66,2,3,2,0,315,19,44,4,4,6
aybarma01,Manny Aybar,6,6,30,14,0,0,1,294,102,53,10,45,64,2,3,4,0,431,6,57,5,3,8
baileco01,Cory Bailey,2,1,13,3,0,0,1,83,29,14,3,12,17,1,1,1,0,121,4,15,1,1,3
bailesc01,Scott Bailes,2,2,27,4,0,0,1,138,54,24,5,16,32,1,2,1,0,202,8,27,2,2,5
baldwja01,James Baldwin,10,8,37,21,1,0,1,444,155,82,17,56,103,3,7,6,1,650,5,89,3,4,10
bankswi01,Willie Banks,3,2,22,4,0,0,1,144,42,21,4,23,34,1,2,2,0,207,6,24,3,1,4
baptitr01,Travis Baptist,2,2,15,4,0,0,1,116,43,20,5,15,15,1,1,1,0,169,4,21,1,2,3
barbebr02,Brian Barber,4,5,28,11,0,0,2,247,86,44,10,31,46,2,4,3,0,357,6,47,2,4,7
barklbr01,Brian Barkley,2,2,12,3,0,0,1,94,34,17,4,14,5,1,1,1,0,138,3,18,1,1,3
barrima01,Manuel Barrios,1,1,10,3,0,0,1,79,27,13,3,11,14,1,1,1,0,115,3,14,1,1,2
batismi01,Miguel Batista,4,6,42,11,0,0,1,315,107,49,11,50,71,4,4,4,1,461,10,55,6,4,9
beckro01,Rod Beck,4,4,51,4,0,0,23,215,73,30,9,17,65,2,2,2,0,305,37,34,2,3,5
beechma01,Matt Beech,5,9,34,21,0,0,1,401,143,72,20,60,121,4,6,5,1,591,5,80,5,5,12
belchti01,Tim Belcher,12,11,39,27,2,0,1,579,210,96,27,61,103,2,6,6,1,831,5,106,6,6,18
belinst01,Stan Belinda,3,5,37,4,0,0,1,194,56,29,7,27,65,3,3,3,0,277,13,31,4,2,5
beltrri01,Rigo Beltran,2,2,16,3,0,0,1,103,32,16,4,13,31,1,1,1,0,147,5,18,2,1,3
benesan01,Andy Benes,12,10,40,27,1,0,1,575,178,83,19,64,150,4,7,6,1,809,5,89,7,6,12
benitar01,Armando Benitez,4,4,46,4,0,0,9,202,52,29,8,35,92,2,2,2,0,287,23,31,3,2,5
bennejo02,Joel Bennett,1,1,10,3,0,0,1,78,26,13,3,11,0,1,1,1,0,113,3,14,1,1,2
bennesh01,Shayne Bennett,4,4,38,5,0,0,2,222,75,39,8,33,44,3,2,3,0,326,8,42,5,4,5
bereja01,Jason Bere,5,4,25,11,0,0,2,232,72,38,8,38,58,1,3,3,0,335,6,41,2,3,5
bergmse01,Sean Bergman,8,8,46,19,1,0,1,454,167,73,18,45,98,4,7,5,1,655,10,82,6,3,13
bevilbr01,Brian Bevil,3,2,26,4,0,0,1,141,49,26,5,22,47,1,3,2,0,208,8,28,2,2,3
blairwi01,Willie Blair,4,3,21,7,0,0,1,187,63,29,7,19,38,1,2,2,0,265,4,31,2,2,5
bochtdo01,Doug Bochtler,3,4,39,4,0,0,2,194,61,35,9,39,49,4,4,2,0,288,10,37,3,2,5
boehrbr01,Brian Boehringer,4,3,36,5,0,0,1,205,65,32,8,36,62,3,2,2,0,301,10,34,3,2,5
bohanbr01,Brian Bohanon,6,7,33,15,1,0,2,352,107,48,12,47,86,2,4,5,1,501,6,57,6,3,12
bonesri01,Ricky Bones,3,3,24,6,0,0,1,178,65,29,7,23,35,2,2,2,0,260,7,32,3,2,6
borlato02,Toby Borland,2,1,14,3,0,0,1,89,29,15,3,14,24,1,2,1,0,130,3,16,1,1,3
borowjo01,Joe Borowski,2,2,13,3,0,0,1,91,32,15,3,13,19,1,1,1,0,132,5,17,1,1,3
boskish01,Shawn Boskie,5,5,25,10,0,0,1,228,92,45,13,26,49,2,3,4,0,339,6,49,3,3,6
bottari01,Ricky Bottalico,2,4,34,3,0,0,9,162,53,27,6,25,51,2,2,2,0,236,22,28,2,2,4
botteke01,Kent Bottenfield,5,6,51,11,0,0,3,339,110,54,12,45,85,4,3,4,1,488,14,58,7,3,8
bradfch01,Chad Bradford,2,2,20,4,0,0,1,124,40,19,4,13,16,1,1,1,0,177,5,22,1,1,4
bradlry01,Ryan Bradley,3,2,15,4,0,0,1,118,39,20,5,18,38,1,1,2,0,172,4,22,1,1,3
brantje01,Jeff Brantley,2,3,30,4,0,0,8,151,44,24,7,20,53,2,2,2,0,215,17,25,3,2,4
brewebi01,Billy Brewer,2,2,13,3,0,0,1,82,26,14,3,13,20,1,1,1,0,119,3,15,1,1,2
brocado01,Doug Brocail,4,3,38,5,0,0,1,191,59,27,6,24,52,2,4,2,0,269,12,30,2,2,5
brockch01,Chris Brock,2,2,16,4,0,0,1,126,44,21,5,16,25,1,1,1,0,183,4,23,2,2,4
brownke01,Kevin Brown,14,8,40,27,4,2,1,624,186,68,11,45,191,4,7,10,1,852,5,73,8,3,18
brownma04,Mark Brownson,4,3,25,8,1,1,2,206,73,34,8,22,42,2,2,3,0,297,6,36,2,2,6
browsc01,Scott Brow,2,2,16,3,0,0,1,107,37,19,4,18,20,1,1,1,0,156,5,20,2,1,3
brunswi01,Will Brunson,1,1,11,3,0,0,1,80,27,13,3,10,10,1,1,1,0,114,3,14,1,1,2
bruskji01,Jim Bruske,3,2,19,4,0,0,1,134,43,21,5,18,30,1,2,1,0,193,5,23,2,2,4
buddimi01,Mike Buddie,3,2,21,5,0,0,1,146,52,25,6,17,23,1,2,2,0,211,6,28,2,1,5
bulliji01,Jim Bullinger,3,4,19,8,1,0,1,180,65,35,7,28,36,2,2,3,0,267,4,39,3,2,6
bulliki01,Kirk Bullinger,2,1,12,3,0,0,1,85,33,15,3,9,7,1,1,1,0,124,3,16,1,1,2
burbada01,Dave Burba,12,10,40,26,1,0,1,524,174,84,23,71,125,6,6,6,0,755,5,90,5,7,14
burkejo03,John Burkett,9,11,39,25,1,0,1,520,206,96,18,40,120,2,3,6,0,754,5,103,6,5,15
busbymi01,Mike Busby,3,3,22,5,0,0,1,158,57,27,6,19,35,1,2,3,0,231,6,30,3,2,4
butlead01,Adam Butler,2,2,12,3,0,0,1,84,28,14,3,13,31,1,1,1,0,122,3,16,1,1,2
byrdati01,Tim Byrdak,1,1,11,3,0,0,1,79,29,13,3,9,13,1,1,1,0,114,3,14,1,1,2
byrdpa01,Paul Byrd,6,5,36,10,1,1,2,278,83,41,11,37,65,3,4,3,0,397,9,45,3,3,6
cabrejo01,Jose Cabrera,1,1,12,3,0,0,1,87,28,14,3,11,28,1,1,1,0,125,4,15,1,1,2
cadargr01,Greg Cadaret,1,1,14,3,0,0,1,88,30,14,3,12,20,1,2,1,0,128,4,15,1,1,2
candito01,Tom Candiotti,10,11,43,24,1,0,1,502,177,83,23,52,89,3,8,8,0,724,6,93,6,5,14
carlsda01,Dan Carlson,2,2,14,3,0,0,1,106,40,19,5,14,27,1,1,2,0,156,4,21,2,1,3
carpech01,Chris Carpenter,9,8,39,20,1,1,2,451,163,75,16,56,114,2,6,5,1,651,8,85,4,4,16
carrahe01,Hector Carrasco,3,3,37,4,0,0,1,177,60,29,6,29,45,2,5,2,0,261,11,31,2,4,5
casiala01,Larry Casian,1,2,16,3,0,0,1,88,31,15,3,10,21,1,1,1,0,127,4,16,1,1,3
castica02,Carlos Castillo,5,4,40,6,0,0,1,257,84,44,12,33,55,2,3,3,1,371,10,48,2,4,5
castifr01,Frank Castillo,5,7,31,17,0,0,2,348,139,70,17,37,82,2,2,5,0,513,6,75,4,4,9
castito02,Tony Castillo,3,3,26,3,0,0,1,131,50,24,6,15,25,2,1,2,0,193,7,27,2,1,5
cathemi01,Mike Cather,3,3,27,4,0,0,1,148,44,22,6,18,40,2,1,2,0,211,8,25,3,2,4
charlno01,Norm Charlton,2,3,23,3,0,0,4,113,39,20,4,20,29,1,2,2,0,167,11,21,2,1,3
checoro01,Robinson Checo,4,4,25,8,0,0,2,197,69,33,8,26,57,1,3,2,0,283,6,36,2,2,5
chenbr01,Bruce Chen,5,4,26,9,0,0,2,219,77,35,9,29,59,2,2,3,0,318,7,38,3,2,6
choji01,Jin Ho Cho,4,5,26,9,0,0,2,214,82,38,9,22,54,2,3,3,0,312,6,41,2,2,5
chouibo01,Bobby Chouinard,2,2,20,5,0,0,1,142,51,23,6,18,29,2,2,1,0,208,6,27,3,2,4
chrisja01,Jason Christiansen,3,3,38,4,0,0,3,182,58,25,5,25,64,3,3,2,0,262,11,29,3,2,4
clarkma01,Mark Clark,9,10,38,24,2,0,1,516,181,85,18,41,128,4,4,4,1,734,5,88,7,5,9
clemema01,Matt Clement,3,3,19,6,0,0,1,152,52,25,5,21,46,1,2,2,0,220,5,27,2,1,5
clemero02,Roger Clemens,14,7,38,26,4,2,1,597,158,65,12,72,225,1,5,7,0,821,5,73,6,3,14
clontbr01,Brad Clontz,2,1,18,2,0,0,1,94,33,15,4,12,23,1,1,1,0,136,4,17,1,1,3
cloudke01,Ken Cloude,8,8,40,23,0,0,2,441,160,88,23,71,109,3,4,4,1,658,6,95,5,4,10
colonba01,Bartolo Colon,11,9,42,25,3,1,2,523,180,82,17,70,132,4,5,4,0,761,6,90,8,3,16
coneda01,David Cone,14,7,38,25,2,0,1,538,155,72,17,65,190,2,8,8,1,754,5,77,4,4,10
connest01,Steve Connelly,2,1,11,3,0,0,1,84,31,13,3,12,4,1,1,1,0,123,3,15,1,1,3
cookde01,Dennis Cook,4,3,43,4,0,0,1,191,60,27,6,27,68,3,1,3,0,273,10,29,2,2,5
cookest01,Steve Cooke,5,5,24,12,0,0,1,239,84,38,8,33,51,3,3,4,0,351,5,43,5,2,7
coppiro01,Rocky Coppinger,2,2,14,5,0,0,1,125,42,21,6,20,36,1,1,1,0,183,4,23,1,1,3
cordofr01,Francisco Cordova,11,11,47,26,2,1,3,571,184,78,19,56,140,5,3,5,1,802,10,87,6,6,16
coreybr01,Bryan Corey,2,1,11,3,0,0,1,82,29,14,3,11,6,1,1,1,0,119,3,15,1,1,2
corsiji01,Jim Corsi,4,3,38,4,0,0,1,186,59,26,6,24,44,3,2,2,0,265,9,29,3,2,7
crabtti01,Tim Crabtree,5,3,42,4,0,0,1,215,78,34,6,28,51,2,4,3,0,313,12,38,3,3,7
crousri01,Rich Croushore,2,3,25,4,0,0,3,156,47,26,6,24,44,1,3,2,0,228,8,28,2,1,4
crowde01,Dean Crow,3,3,22,4,0,0,1,145,54,23,6,18,19,2,1,2,0,209,8,25,2,1,6
cunnawi01,Will Cunnane,2,2,17,4,0,0,1,109,42,20,4,17,29,1,1,1,0,162,5,22,1,1,3
daalom01,Omar Daal,7,9,44,17,2,1,2,405,128,54,13,46,117,3,2,3,1,568,8,60,6,4,11
darenvi01,Vic Darensbourg,2,4,32,5,0,0,1,182,52,28,6,25,66,3,3,1,0,256,7,30,2,2,4
darwida01,Danny Darwin,7,8,37,18,0,0,2,373,141,69,17,41,70,3,3,4,0,546,6,75,8,3,10
deharri01,Rick DeHart,2,2,21,4,0,0,1,126,45,21,5,17,27,2,2,1,0,185,6,25,2,2,3
dejeami01,Mike DeJean,4,2,40,4,0,0,2,209,74,30,6,24,31,2,3,2,0,297,9,34,3,2,8
delosva01,Valerio De Los Santos,2,2,15,4,0,0,1,109,32,17,5,11,37,1,1,1,0,153,4,18,1,1,3
delucri01,Rich DeLucia,4,5,38,4,0,0,2,192,54,31,8,35,63,3,4,2,0,277,12,34,3,3,5
dempsry01,Ryan Dempster,4,5,29,11,0,0,2,250,95,48,9,45,48,2,4,6,0,375,7,52,4,4,9
desseel01,Elmer Dessens,3,4,31,6,0,0,1,201,78,36,8,22,38,2,2,2,0,293,7,39,3,2,6
dicksja01,Jason Dickson,9,8,34,18,1,0,1,396,153,72,18,43,69,2,5,5,1,579,6,78,4,5,12
dipotje01,Jerry Dipoto,4,3,44,4,0,0,8,209,71,33,7,28,50,3,4,3,1,302,22,37,3,3,7
doddro01,Robert Dodd,2,1,11,3,0,0,1,84,29,14,3,10,19,1,1,1,0,122,3,16,1,1,2
doughji01,Jim Dougherty,2,2,13,3,0,0,1,92,33,16,4,14,9,1,1,1,0,135,4,18,1,1,3
drabedo01,Doug Drabek,7,9,32,20,1,0,1,375,140,78,19,42,71,3,5,4,1,548,5,81,4,5,11
dreifda01,Darren Dreifort,8,9,51,17,1,1,3,455,140,68,12,56,145,3,7,6,1,643,11,72,9,5,15
duranro01,Roberto Duran,2,2,17,3,0,0,1,103,29,18,3,22,26,1,2,2,0,152,4,19,2,1,3
duvalmi01,Mike Duvall,2,1,11,3,0,0,1,83,28,14,3,11,7,1,1,1,0,120,3,15,1,1,3
dykhora01,Radhames Dykhoff,1,1,10,3,0,0,1,78,27,13,3,10,19,1,1,1,0,113,3,14,1,1,2
eckerde01,Dennis Eckersley,3,3,33,3,0,0,8,143,50,23,6,10,35,1,1,2,0,204,16,24,2,1,4
edmonbr01,Brian Edmondson,3,3,27,4,0,0,1,167,57,26,7,24,30,2,2,2,0,242,7,29,3,2,6
eilanda01,Dave Eiland,3,4,23,7,0,0,2,182,65,32,7,25,16,1,2,2,0,265,6,34,2,2,5
elartsc01,Scott Elarton,3,3,24,5,0,0,2,174,50,26,6,21,60,1,2,2,0,245,6,28,2,2,4
eldreca01,Cal Eldred,7,9,35,22,1,0,1,436,156,76,18,64,90,2,5,5,0,640,5,83,4,4,13
embreal01,Alan Embree,3,2,31,3,0,0,1,141,44,22,6,20,41,1,2,2,0,203,8,24,2,1,3
erdosto01,Todd Erdos,2,1,12,3,0,0,1,84,31,14,3,10,19,1,1,1,0,122,3,15,1,1,2
ericksc01,Scott Erickson,13,10,42,29,5,1,1,620,224,93,19,59,133,4,6,8,0,891,5,105,5,4,24
escobke01,Kelvim Escobar,6,4,34,9,0,0,5,261,81,39,8,39,83,2,2,2,0,376,11,43,2,3,7
estessh01,Shawn Estes,10,9,37,23,1,1,1,473,144,75,14,80,142,4,7,6,1,682,5,80,11,3,18
evansba02,Bart Evans,2,2,12,3,0,0,1,88,29,14,3,9,26,1,1,1,0,127,3,15,1,1,2
eversbr01,Bryan Eversgerd,2,2,12,3,0,0,1,84,31,15,3,11,17,1,1,1,0,123,3,16,1,1,2
eyresc01,Scott Eyre,5,7,34,14,0,0,1,311,107,56,17,54,67,1,5,3,0,460,9,64,3,3,9
fasseje01,Jeff Fassero,12,9,39,26,4,0,1,575,187,84,22,58,159,3,9,6,1,819,5,94,8,7,14
fettemi01,Mike Fetters,2,2,20,3,0,0,3,111,37,17,4,15,32,1,2,1,0,160,9,19,2,1,3
finlech01,Chuck Finley,11,9,39,26,2,1,1,551,176,79,19,80,172,2,8,6,1,794,5,88,4,5,17
floribr01,Bryce Florie,6,7,42,13,0,0,1,337,116,57,12,52,80,4,6,4,0,490,9,64,3,3,13
fontejo01,Joe Fontenot,4,7,29,11,0,0,2,254,96,46,10,35,44,2,5,5,0,376,7,50,4,3,8
fordbe01,Ben Ford,2,2,13,3,0,0,1,93,33,16,4,11,14,1,1,1,0,135,3,18,1,1,3
fordhto01,Tom Fordham,3,3,25,6,0,0,1,174,59,33,7,36,27,1,2,2,0,258,6,35,2,2,5
fossato01,Tony Fossas,2,2,22,3,0,0,1,98,33,15,4,14,26,1,1,1,0,142,5,17,1,1,3
fosteke01,Kevin Foster,3,2,12,6,0,0,1,124,42,22,6,17,31,1,1,1,0,180,2,24,2,2,2
foulkke01,Keith Foulke,4,3,32,4,0,0,2,184,56,29,8,19,54,2,2,2,0,259,10,31,2,2,5
foxch02,Chad Fox,2,3,32,4,0,0,1,169,55,26,6,22,62,1,3,2,0,242,8,29,3,1,5
francjo01,John Franco,3,4,40,4,0,0,18,184,59,26,5,24,55,3,3,2,0,266,28,28,3,2,6
frascjo01,John Frascatore,4,4,45,4,0,0,1,242,79,36,8,31,47,3,3,3,0,350,11,39,4,2,7
fussech01,Chris Fussell,3,3,21,7,0,0,1,165,57,28,6,26,41,2,2,2,0,240,5,31,2,2,5
gailled01,Eddie Gaillard,2,1,13,3,0,0,1,93,28,16,4,12,20,1,1,1,0,133,4,17,1,1,2
gajkost01,Steve Gajkowski,2,2,12,3,0,0,1,88,32,15,4,11,9,1,1,1,0,127,3,16,1,1,3
garceri01,Rich Garces,2,2,25,4,0,0,1,149,45,23,6,27,43,2,1,2,0,218,7,26,2,2,3
gardnma01,Mark Gardner,11,7,39,26,3,1,1,539,183,87,25,57,134,5,4,5,1,764,5,93,7,6,12
glaubke01,Keith Glauber,2,2,11,3,0,0,1,88,29,14,3,10,16,1,1,1,0,126,3,15,1,1,2
glavito02,Tom Glavine,14,7,39,27,3,2,1,589,174,68,15,67,136,4,4,3,0,813,5,74,8,4,20
gomeswa01,Wayne Gomes,6,4,44,5,0,0,1,232,78,38,8,31,65,2,4,3,0,337,12,41,3,2,7
gonzaga01,Gabe Gonzalez,1,1,10,3,0,0,1,77,26,13,3,10,0,1,1,1,0,112,3,14,1,1,2
gonzaje01,Geremi Gonzalez,9,8,34,20,1,1,2,400,133,69,15,55,85,5,3,4,2,581,6,75,5,4,9
gonzala02,Lariel Gonzalez,1,1,10,3,0,0,1,79,26,13,3,10,0,1,1,1,0,114,3,14,1,1,2
goodedw01,Dwight Gooden,9,7,33,21,0,0,1,405,138,64,15,60,87,2,6,7,0,590,5,70,2,4,12
gordoto01,Tom Gordon,5,4,33,9,1,0,11,247,75,36,7,34,72,1,4,2,0,352,19,40,2,3,6
gorecri01,Rick Gorecki,4,4,26,8,0,0,2,211,71,37,8,33,36,2,3,2,0,304,7,39,2,3,7
gracemi02,Mike Grace,6,6,29,14,1,0,1,297,108,51,11,30,55,2,3,5,1,431,5,55,5,2,8
graveda01,Danny Graves,3,2,36,4,0,0,3,205,70,31,6,26,38,2,3,2,0,295,15,34,3,3,7
greenty01,Tyler Green,7,9,38,22,0,0,2,442,135,78,19,76,105,3,7,6,0,644,6,86,4,5,13
greisse01,Seth Greisinger,7,8,36,18,0,0,2,386,138,68,16,48,65,3,4,4,0,557,7,73,4,5,11
groombu01,Buddy Groom,3,2,46,4,0,0,1,178,64,29,6,23,40,1,2,2,0,258,8,32,2,2,6
grzanmi01,Mike Grzanich,1,1,10,3,0,0,1,77,26,13,3,11,19,1,1,1,0,112,3,14,1,1,2
guarded01,Eddie Guardado,3,3,50,4,0,0,1,187,61,30,8,26,58,3,2,2,0,270,11,33,3,3,5
gundeer01,Eric Gunderson,2,3,44,4,0,0,1,191,71,32,9,20,37,3,3,2,0,277,9,35,2,3,6
guthrma01,Mark Guthrie,2,3,37,3,0,0,1,174,58,28,6,23,43,2,2,2,0,252,9,30,4,2,4
guzmaju01,Juan Guzman,6,6,26,14,1,0,1,293,87,47,12,38,85,2,5,3,0,418,5,50,2,3,8
halamjo01,John Halama,4,4,27,10,0,0,2,231,82,40,7,29,48,2,3,3,1,337,6,43,4,4,6
hallaro01,Roy Halladay,4,3,25,8,1,0,2,209,66,32,8,23,73,2,2,2,0,299,7,36,2,2,6
hallda01,Darren Hall,2,2,20,3,0,0,1,106,39,17,4,15,26,1,1,1,0,154,6,19,1,1,3
hamiljo02,Joey Hamilton,11,10,40,27,1,0,1,564,190,89,18,80,133,5,6,8,0,818,5,97,9,6,18
hammoch01,Chris Hammond,4,5,29,9,0,0,2,217,86,40,9,28,47,2,2,3,0,320,6,44,3,3,8
hamptmi01,Mike Hampton,11,8,40,27,3,1,1,571,197,80,17,68,121,2,5,4,1,818,5,90,8,6,24
haneych01,Chris Haney,1,2,9,4,0,0,1,89,33,15,4,8,16,1,1,1,0,129,2,17,1,1,2
hansoer01,Erik Hanson,3,5,22,10,1,0,1,226,88,42,10,36,48,1,3,2,0,337,5,46,3,2,7
harnipe01,Pete Harnisch,10,7,38,23,1,1,2,492,149,68,20,54,117,3,5,5,1,690,6,75,7,5,12
harride01,Denny Harriger,3,3,18,6,0,0,1,145,52,25,5,21,10,2,2,2,0,212,5,28,2,1,4
harripe01,Pep Harris,4,3,36,4,0,0,1,191,63,30,7,27,40,3,3,2,0,276,9,32,3,2,6
harrire01,Reggie Harris,2,2,17,3,0,0,1,100,33,17,3,18,23,1,2,2,0,148,5,19,1,1,2
hartgde01,Dean Hartgraves,1,1,12,3,0,0,1,82,29,14,3,11,18,1,1,1,0,120,3,15,1,1,2
hasegsh01,Shigetoshi Hasegawa,5,4,40,5,0,0,2,254,82,37,11,31,63,3,3,2,1,360,12,41,3,4,9
hawkila01,LaTroy Hawkins,8,12,42,26,0,0,2,502,201,94,24,59,94,2,8,5,2,741,6,105,5,7,20
hayneji01,Jimmy Haynes,9,9,42,25,1,1,2,499,189,90,20,80,119,3,8,5,1,744,7,102,5,7,14
heathmi03,Mike Heathcott,1,1,10,3,0,0,1,79,26,13,3,10,29,1,1,1,0,114,3,14,1,1,2
helliri01,Rick Helling,13,7,41,24,2,1,2,521,165,85,20,63,136,4,7,3,0,740,6,88,5,7,9
hendero01,Rod Henderson,1,1,10,3,0,0,1,81,28,14,3,9,7,1,1,1,0,117,3,15,1,1,2
henrios01,Oscar Henriquez,2,2,16,4,0,0,1,109,38,20,5,16,30,1,1,1,0,160,4,22,1,1,3
henrybu01,Butch Henry,4,3,28,7,0,0,3,217,76,33,8,22,46,2,2,2,0,309,8,36,2,2,7
henrydo01,Doug Henry,5,4,43,4,0,0,3,198,62,30,7,32,57,3,4,1,0,287,16,34,3,2,5
hentgpa01,Pat Hentgen,11,9,35,24,3,1,1,523,179,84,21,60,103,2,6,5,1,745,4,88,5,5,16
heredfe01,Felix Heredia,3,2,26,3,0,0,1,122,41,20,4,18,36,1,2,2,0,178,6,21,1,1,3
heredgi01,Gil Heredia,4,4,26,8,0,0,2,214,77,32,8,15,45,1,2,3,0,306,8,36,2,2,5
hermadu01,Dustin Hermanson,11,9,42,25,1,0,2,507,151,69,19,58,143,3,5,3,2,709,6,79,8,5,15
hernali01,Livan Hernandez,10,9,43,26,4,0,2,577,203,94,25,82,134,5,4,6,2,840,6,102,7,6,18
hernaor01,Orlando Hernandez,9,5,34,17,2,1,2,386,111,54,12,48,123,2,5,5,1,540,7,58,4,4,10
hernaro01,Roberto Hernandez,4,4,39,4,0,0,11,188,53,28,5,30,56,2,2,2,0,270,23,29,3,1,5
hernaxa01,Xavier Hernandez,4,4,34,4,0,0,2,174,53,27,7,25,47,2,4,2,0,250,12,30,2,2,5
hershor01,Orel Hershiser,11,8,39,26,1,0,1,522,179,85,20,63,104,4,9,9,0,755,5,93,7,5,20
hillke01,Ken Hill,8,6,29,17,1,0,1,353,121,57,10,49,69,1,3,3,1,509,4,60,4,4,10
hitchst01,Sterling Hitchcock,9,8,40,23,1,0,2,463,162,76,22,50,121,3,7,6,1,665,6,85,6,4,13
hoffmtr01,Trevor Hoffman,4,3,44,4,0,0,22,207,50,25,6,23,91,2,4,2,0,282,32,26,2,1,5
holdrda01,David Holdridge,2,1,12,3,0,0,1,85,28,14,3,11,24,1,2,1,0,123,3,15,1,1,2
holmeda01,Darren Holmes,3,3,29,4,0,0,2,177,65,29,7,21,44,2,2,2,0,256,9,31,2,2,5
holtzmi01,Mike Holtz,3,3,35,3,0,0,1,135,45,21,5,20,43,2,2,2,0,196,7,23,2,2,4
holzema01,Mark Holzemer,2,1,16,3,0,0,1,92,34,16,4,12,17,1,1,1,0,134,4,18,1,1,3
howrybo01,Bob Howry,2,3,27,4,0,0,4,159,45,24,6,20,53,1,2,2,0,225,8,26,2,2,4
hudekjo01,John Hudek,3,3,26,4,0,0,2,141,41,22,6,28,45,1,2,2,0,206,8,24,2,2,4
hudsojo02,Joe Hudson,2,2,14,3,0,0,1,86,31,15,3,15,11,1,1,1,0,126,4,16,1,1,3
huttoma01,Mark Hutton,2,2,17,5,0,0,1,125,46,22,5,20,18,1,2,2,0,185,4,23,2,1,5
irabuhi01,Hideki Irabu,10,8,39,21,1,1,2,451,143,75,23,63,117,2,6,6,2,647,6,80,5,5,11
jacksmi02,Michael Jackson,2,3,44,4,0,0,13,190,52,24,6,20,61,2,2,3,1,263,24,27,2,2,6
jacomja01,Jason Jacome,3,4,30,7,0,0,2,200,76,36,9,26,38,3,2,2,0,292,8,38,2,2,7
jamesmi01,Mike James,2,2,22,3,0,0,2,114,36,17,3,17,32,1,1,2,0,165,7,18,2,1,3
jerzemi01,Mike Jerzembeck,3,3,20,6,0,0,1,156,55,28,7,21,7,1,2,2,1,227,6,30,2,2,5
jimenjo01,Jose Jimenez,4,3,23,7,0,0,2,189,64,29,6,24,35,1,2,2,0,273,6,32,3,2,6
johnsdo04,Doug Johns,4,4,28,9,0,0,2,237,92,40,9,31,32,2,3,3,0,346,6,45,3,3,9
johnsja02,Jason Johnson,4,6,31,13,0,0,2,277,106,49,12,37,53,2,3,4,0,406,7,52,3,3,8
johnsjo07,John Johnstone,4,4,38,5,0,0,1,206,63,30,8,29,65,3,3,2,0,295,9,33,3,3,5
johnsjo08,Jonathan Johnson,3,3,24,7,0,0,2,191,65,32,7,28,38,1,2,2,0,277,6,35,2,2,6
johnsmi02,Mike Johnson,4,5,25,10,0,0,2,212,80,40,10,27,38,2,3,2,0,310,6,43,3,2,6
johnsra05,Randy Johnson,10,4,28,15,3,2,1,363,91,39,11,43,171,2,3,5,0,496,5,42,3,2,7
jonesbo03,Bobby Jones,10,8,38,25,1,0,1,531,176,80,21,51,109,3,3,5,1,743,5,87,6,5,16
jonesbo04,Bobby Jones,6,7,37,16,1,0,2,357,130,66,12,54,86,1,4,4,1,526,6,70,6,5,8
jonesdo01,Doug Jones,3,3,27,3,0,0,6,140,44,19,4,12,48,2,1,2,0,197,15,21,2,2,3
jonesto02,Todd Jones,3,4,43,4,0,0,14,190,59,30,6,32,57,3,4,2,0,276,27,33,2,3,6
jordari03,Ricardo Jordan,2,2,14,3,0,0,1,88,30,16,3,15,18,1,1,1,0,129,3,17,1,1,3
juddmi01,Mike Judd,2,2,13,3,0,0,1,96,36,18,4,14,33,1,1,1,0,141,4,19,2,1,3
judenje01,Jeff Juden,3,4,26,9,0,0,1,224,69,41,10,32,69,1,4,3,0,324,6,44,3,2,5
kamiesc01,Scott Kamieniecki,5,6,27,15,0,0,1,302,108,53,12,43,56,2,3,4,0,439,5,56,3,3,8
karchma01,Matt Karchner,3,2,26,3,0,0,3,132,44,21,6,22,30,2,2,2,0,193,8,23,2,1,4
karlsc01,Scott Karl,10,10,39,27,1,0,1,530,194,87,21,61,100,3,6,5,0,769,5,96,8,4,18
karsast01,Steve Karsay,2,4,17,7,0,0,1,163,64,30,7,18,35,1,3,3,0,241,4,33,2,2,4
keaglgr01,Greg Keagle,4,6,25,10,0,0,1,230,86,43,10,40,52,2,3,5,0,345,5,48,2,2,6
keyji01,Jimmy Key,7,5,26,14,0,0,1,296,98,44,10,35,67,1,2,3,1,419,4,48,3,3,10
kileda01,Darryl Kile,12,11,40,27,3,1,1,596,197,93,20,80,155,4,8,8,1,859,5,101,11,7,18
kingcu01,Curtis King,3,2,28,4,0,0,2,160,56,24,5,20,28,2,2,2,0,232,8,26,3,2,5
klinest02,Steve Kline,3,4,42,4,0,0,1,193,61,29,6,31,63,3,3,2,0,281,10,31,2,2,4
klingsc01,Scott Klingenbeck,4,5,25,9,0,0,2,215,79,37,10,25,38,1,2,3,0,314,6,42,3,2,6
krivdri01,Rick Krivda,2,3,17,5,0,0,1,136,55,28,7,21,28,1,1,2,1,203,3,30,2,1,5
kroonma01,Marc Kroon,2,2,13,3,0,0,1,88,31,16,3,14,23,1,1,1,0,129,3,17,1,1,3
kubenje01,Jeff Kubenka,2,2,12,3,0,0,1,91,28,14,3,14,33,1,1,1,0,131,3,15,2,1,2
langsma01,Mark Langston,5,6,28,14,1,0,1,279,107,52,12,42,61,2,3,2,1,414,5,55,4,3,9
lankffr01,Frank Lankford,2,2,14,3,0,0,1,105,37,18,4,13,12,1,1,2,0,152,5,19,1,1,3
larkian01,Andy Larkin,5,7,31,13,0,0,2,280,110,64,12,55,49,3,3,4,0,426,6,70,5,3,10
lawrese01,Sean Lawrence,3,3,19,6,0,0,1,150,54,26,6,21,28,1,2,2,0,218,5,28,2,2,4
leiteal01,Al Leiter,13,8,37,24,2,1,1,507,139,65,12,80,154,3,4,9,1,715,5,69,7,3,16
leitema01,Mark Leiter,5,6,34,9,1,0,6,257,87,44,10,34,72,3,4,5,1,376,15,48,5,3,6
leskacu01,Curt Leskanic,5,3,44,4,0,0,2,205,69,35,9,32,57,1,3,2,1,297,15,37,2,2,6
levinal01,Al Levine,2,3,27,4,0,0,1,169,64,29,6,20,25,1,3,2,0,247,8,31,2,2,6
lewisri01,Richie Lewis,2,2,21,4,0,0,1,135,43,24,6,26,36,2,3,2,0,197,5,25,2,2,4
liebejo01,Jon Lieber,9,11,41,24,1,0,2,489,172,78,21,41,131,5,2,3,1,698,6,87,6,5,11
ligteke01,Kerry Ligtenberg,3,3,40,4,0,0,10,190,53,27,7,22,74,2,2,1,0,266,22,29,2,2,5
limajo01,Jose Lima,11,9,56,21,2,1,3,559,190,86,25,36,142,3,5,7,0,783,12,92,9,5,13
lirafe01,Felipe Lira,2,2,12,4,0,0,1,105,39,19,5,12,22,1,1,2,0,155,3,21,1,2,3
lloydgr01,Graeme Lloyd,3,2,32,4,0,0,1,145,47,20,5,16,27,2,2,2,0,206,8,24,2,2,5
loaizes01,Esteban Loaiza,6,7,30,18,1,0,1,360,137,62,15,36,77,4,3,5,1,525,5,68,5,5,9
loeweca01,Carlton Loewer,7,7,35,17,1,0,2,371,146,71,16,41,57,2,4,4,0,543,7,75,5,6,11
loiseri01,Rich Loiselle,3,4,38,4,0,0,10,181,62,26,6,28,50,4,2,2,0,266,23,30,3,2,5
loopebr01,Braden Looper,2,2,11,3,0,0,1,82,29,13,3,10,30,1,1,1,0,118,3,15,1,1,2
lopezal02,Albie Lopez,5,4,34,6,0,0,1,219,79,35,9,30,57,3,4,3,0,320,8,40,3,2,5
lorraan01,Andrew Lorraine,2,2,12,4,0,0,1,90,35,15,3,13,14,1,1,1,0,133,3,17,1,1,3
lowede01,Derek Lowe,4,6,43,9,0,0,3,286,97,44,7,33,61,3,5,4,0,409,8,50,4,4,9
lowese01,Sean Lowe,2,3,15,5,0,0,1,115,45,22,5,17,14,1,1,1,0,170,4,24,2,1,4
ludwier01,Eric Ludwick,3,5,23,8,0,0,1,181,71,35,9,27,44,2,2,2,0,269,5,39,3,2,6
maddugr01,Greg Maddux,14,8,40,27,5,2,1,619,179,64,12,32,164,7,3,6,0,826,5,71,10,5,18
maddumi01,Mike Maddux,3,3,27,4,0,0,1,157,55,26,6,19,30,1,2,2,0,227,8,28,2,2,5
magnami01,Mike Magnante,3,4,32,4,0,0,2,164,55,26,5,22,41,2,2,2,0,238,11,29,2,2,4
mahayro01,Ron Mahay,2,2,23,4,0,0,1,122,39,19,4,18,26,1,2,2,0,177,6,21,1,2,3
malonse01,Sean Maloney,2,2,14,3,0,0,1,97,33,16,4,12,26,1,2,2,0,140,4,17,1,1,3
mantema01,Matt Mantei,3,3,27,4,0,0,3,160,44,24,5,26,64,2,2,3,0,228,10,26,2,2,5
manueba01,Barry Manuel,2,2,17,3,0,0,1,105,35,18,5,15,26,1,1,2,0,154,4,19,1,1,3
martide01,Dennis Martinez,4,5,30,8,1,0,2,225,86,40,8,24,41,2,2,3,0,329,6,45,2,3,7
martija02,Javier Martinez,2,2,24,4,0,0,1,142,45,24,6,28,44,1,3,2,0,211,7,28,2,2,4
martipe02,Pedro Martinez,14,8,39,27,5,2,1,607,159,68,20,61,231,4,6,7,0,829,5,78,6,5,12
martira02,Ramon Martinez,8,5,30,17,1,0,1,370,108,51,12,57,108,2,3,5,1,530,5,58,4,4,9
martito02,Tom Martin,2,2,21,3,0,0,1,114,42,20,4,17,23,1,2,1,0,168,5,21,2,1,3
mathete01,Terry Mathews,2,2,22,3,0,0,1,122,43,21,6,18,23,2,1,1,0,178,6,22,3,2,3
mathetj01,T. J. Mathews,5,4,39,4,0,0,2,193,62,31,7,25,52,2,2,3,0,279,12,35,3,4,4
mccargr01,Greg McCarthy,2,2,23,3,0,0,1,118,36,20,5,20,41,1,2,2,0,172,5,22,2,1,3
mccurje01,Jeff McCurry,2,3,19,3,0,0,1,116,42,20,5,17,19,1,1,1,0,169,7,22,2,1,4
mcdilal01,Allen McDill,2,1,12,3,0,0,1,86,30,15,4,13,12,1,1,1,0,125,3,16,1,1,2
mcdowja01,Jack McDowell,6,5,27,14,1,0,1,303,115,53,13,33,70,2,3,3,0,441,5,58,5,3,8
mcelrch01,Chuck McElroy,4,3,44,4,0,0,2,194,64,28,5,23,56,1,2,2,0,274,13,30,2,2,7
mcmicgr01,Greg McMichael,3,3,30,3,0,0,2,146,48,21,6,17,42,3,2,2,0,210,9,24,3,2,4
meadobr01,Brian Meadows,9,10,41,23,1,0,2,455,185,82,17,43,76,3,5,4,1,664,7,87,9,4,14
mecirji01,Jim Mecir,4,3,40,4,0,0,1,211,66,32,7,28,64,3,3,3,0,299,13,35,3,2,7
medinra01,Rafael Medina,5,6,31,13,0,0,2,289,101,53,11,58,65,3,5,4,0,434,7,58,5,4,7
mendora01,Ramiro Mendoza,8,5,39,13,1,0,2,351,129,52,11,28,60,3,3,6,1,503,8,57,4,5,13
mercejo02,Jose Mercedes,4,5,24,10,1,0,1,247,84,41,12,27,38,2,2,3,0,352,5,45,2,3,8
merckke01,Kent Mercker,9,10,40,23,0,0,2,460,167,78,14,55,72,4,5,4,2,666,6,83,8,6,14
mesajo01,Jose Mesa,3,3,29,3,0,0,5,144,48,20,5,20,42,2,3,2,0,208,15,23,2,1,4
micelda01,Dan Miceli,5,4,43,4,0,0,2,209,67,33,9,30,64,3,4,2,0,300,13,37,3,3,6
michach01,Chris Michalak,2,1,11,3,0,0,1,83,30,14,3,11,21,1,1,1,0,122,3,16,1,1,2
milleku01,Kurt Miller,1,2,12,3,0,0,1,84,30,14,3,14,21,1,1,1,0,123,3,16,1,1,3
milletr01,Travis Miller,2,3,16,5,0,0,1,126,49,23,5,17,28,1,2,1,0,186,4,26,1,1,4
milletr02,Trever Miller,3,2,25,5,0,0,1,161,58,24,6,21,29,1,2,2,0,234,8,27,2,1,4
millsal01,Alan Mills,3,4,43,4,0,0,2,200,56,31,8,41,52,3,3,2,0,290,11,33,3,2,5
millwke01,Kevin Millwood,12,8,41,22,2,1,2,461,156,72,15,53,141,3,5,4,1,663,7,78,7,5,10
miltoer01,Eric Milton,8,10,41,23,1,0,2,452,166,85,20,60,92,2,3,3,0,664,7,90,4,5,10
mlickda01,Dave Mlicki,7,7,37,19,1,1,1,422,140,65,16,50,105,4,6,4,0,605,7,71,5,4,10
moehlbr01,Brian Moehler,12,11,42,28,2,2,2,568,198,89,24,57,105,2,4,4,0,805,6,96,4,5,19
mohlemi01,Mike Mohler,3,4,39,5,0,0,2,196,71,34,7,30,45,3,3,3,0,289,11,37,4,3,6
montgje01,Jeff Montgomery,3,4,36,4,0,0,13,173,57,28,8,20,50,2,2,2,0,247,24,30,2,2,5
mooretr01,Trey Moore,4,5,29,11,0,0,2,258,100,44,9,27,48,3,3,3,0,378,7,48,3,3,7
morgami01,Mike Morgan,4,5,24,13,0,0,1,254,89,45,10,31,51,3,3,4,0,368,4,48,4,2,8
mormaal01,Alvin Morman,2,2,18,3,0,0,1,91,31,15,4,14,22,1,1,1,0,133,4,17,1,1,2
morrima01,Matt Morris,8,7,33,20,2,0,1,426,135,54,11,50,100,4,4,5,1,596,5,61,7,4,16
moyerja01,Jamie Moyer,13,8,41,27,2,1,1,574,191,82,21,42,122,3,4,7,1,805,5,88,5,3,15
mulhote01,Terry Mulholland,5,4,40,8,0,0,2,255,81,36,8,30,55,3,3,3,0,365,9,43,4,3,8
mulligr01,Greg Mullins,1,1,10,3,0,0,1,77,26,12,3,9,22,1,1,1,0,111,3,14,1,1,2
munozbo01,Bobby Munoz,2,3,15,5,0,0,1,114,47,23,5,14,18,1,1,2,0,169,4,25,2,2,4
munozmi01,Mike Munoz,3,3,34,3,0,0,2,148,57,26,5,17,32,1,2,1,0,216,9,29,2,2,6
mussimi01,Mike Mussina,12,9,37,25,3,1,1,554,175,77,21,46,165,3,6,4,0,764,5,84,5,3,14
myersmi01,Mike Myers,2,3,47,4,0,0,2,166,55,26,7,25,49,2,2,3,0,241,12,29,3,2,6
myersra01,Randy Myers,2,2,24,3,0,0,8,112,35,16,4,16,37,1,2,1,0,160,13,17,2,1,3
myersro01,Rodney Myers,2,1,16,3,0,0,1,104,37,18,4,16,26,1,1,1,0,152,4,20,1,1,3
nagych01,Charles Nagy,12,9,39,27,2,0,1,559,207,96,24,59,118,6,4,6,0,810,5,103,6,5,16
naultda01,Dan Naulty,2,2,21,3,0,0,1,120,38,20,5,18,32,1,2,1,0,172,7,22,1,2,3
navarja01,Jaime Navarro,8,11,37,23,1,0,1,469,188,95,20,58,86,3,11,5,0,701,5,103,4,7,15
neaglde01,Denny Neagle,14,8,40,26,3,2,1,559,173,75,20,51,142,3,5,5,1,773,5,83,7,4,14
nelsoje01,Jeff Nelson,3,3,36,3,0,0,2,157,48,23,5,24,53,3,2,3,0,229,10,26,2,2,3
nenro01,Robb Nen,6,4,52,4,0,0,20,230,64,28,6,27,92,4,3,2,0,324,37,31,2,2,5
nitkocj01,C. J. Nitkowski,3,3,26,5,0,0,2,167,54,27,6,26,41,1,2,3,0,243,7,30,2,2,5
nomohi01,Hideo Nomo,7,7,29,18,1,0,1,368,108,59,14,56,132,2,7,4,2,528,4,62,6,3,7
nunezvl01,Vladimir Nunez,2,2,11,3,0,0,1,85,30,15,3,11,10,1,1,1,0,124,3,16,1,1,2
nyery01,Ryan Nye,1,2,10,3,0,0,1,82,31,14,3,11,19,1,1,1,0,120,3,15,1,1,2
ogeach01,Chad Ogea,6,5,25,12,1,0,1,266,94,48,11,30,57,2,2,4,1,386,4,51,2,3,6
ojalaki01,Kirt Ojala,4,6,35,11,1,0,1,303,102,48,12,47,60,3,4,3,0,442,7,54,5,3,10
olivaom01,Omar Olivares,7,8,38,20,1,0,1,438,156,71,16,68,82,3,4,5,0,643,7,78,4,4,18
oliveda02,Darren Oliver,7,6,26,16,1,0,1,326,116,52,14,44,59,2,3,4,1,478,4,59,3,3,10
olsongr01,Gregg Olson,4,4,38,4,0,0,9,188,58,27,6,25,50,2,2,2,0,266,19,30,3,2,6
oquismi01,Mike Oquist,7,9,40,22,1,0,2,465,174,92,21,55,99,3,4,6,0,680,7,96,5,5,15
oroscje01,Jesse Orosco,4,2,43,4,0,0,2,168,45,24,6,27,51,1,2,2,1,240,12,25,2,2,4
ortizru01,Russ Ortiz,5,5,30,12,0,0,2,276,93,47,11,43,77,2,3,4,0,403,7,51,4,3,8
osbordo01,Donovan Osborne,6,6,28,16,1,1,1,329,111,53,13,32,76,3,3,2,0,466,5,56,4,4,8
osunaan01,Antonio Osuna,5,3,39,4,0,0,3,194,54,26,7,27,72,2,2,2,0,273,14,29,3,2,5
paintla01,Lance Painter,3,2,32,4,0,0,1,150,47,24,6,24,41,2,2,2,0,217,6,27,2,2,4
palldo01,Donn Pall,2,2,19,4,0,0,1,123,45,21,5,13,29,1,2,1,0,176,6,22,2,1,4
paniajo01,Jose Paniagua,2,2,17,4,0,0,1,115,40,19,5,16,23,1,2,2,0,167,3,21,1,1,4
parkch01,Chan Ho Park,12,9,46,27,2,0,1,579,166,82,18,86,173,2,6,8,2,823,6,90,9,7,17
parquji01,Jim Parque,7,6,35,17,0,0,2,360,136,63,14,50,80,2,2,5,2,528,7,69,3,2,12
parrist01,Steve Parris,6,6,31,14,1,1,2,314,101,48,11,36,84,3,3,4,1,451,7,53,5,2,7
patribr01,Bronswell Patrick,4,3,27,6,0,0,1,203,71,34,8,25,43,1,2,2,0,291,7,36,3,2,7
pattebo01,Bob Patterson,2,2,30,3,0,0,1,119,41,20,5,14,37,2,1,1,0,172,6,21,2,2,3
patteda04,Danny Patterson,4,4,37,4,0,0,2,188,65,29,7,21,46,2,3,2,0,269,12,32,2,2,7
pavanca01,Carl Pavano,7,8,37,18,0,0,2,391,128,62,16,43,81,2,3,6,0,563,7,69,5,5,10
pavliro01,Roger Pavlik,2,2,11,5,0,0,1,112,39,18,5,16,23,1,1,1,0,163,2,20,1,1,3
pennibr01,Brad Pennington,1,1,10,3,0,0,1,75,25,13,3,15,14,1,1,1,0,109,3,14,1,1,2
percitr01,Troy Percival,3,4,42,4,0,0,18,190,48,28,7,30,86,2,3,3,0,271,29,30,2,2,3
perezca01,Carlos Perez,7,7,29,16,3,2,1,361,117,53,13,37,68,2,3,3,0,506,5,60,4,3,13
perezod01,Odalis Perez,2,2,13,3,0,0,1,95,32,15,4,12,15,1,1,1,0,137,3,17,1,1,3
perezyo01,Yorkis Perez,2,3,33,4,0,0,1,154,49,25,5,25,43,1,3,1,0,224,7,27,2,2,4
perisma01,Matt Perisho,3,4,25,9,0,0,2,207,83,41,9,36,42,1,3,4,1,312,6,45,3,2,6
persoro01,Robert Person,3,3,20,7,0,0,2,170,57,32,8,25,45,1,2,2,0,251,6,35,2,3,4
peterch01,Chris Peters,7,7,44,15,1,0,2,369,122,55,13,48,78,4,5,4,1,531,9,61,5,4,14
petkoma01,Mark Petkovsek,6,5,42,8,0,0,1,280,105,48,10,33,48,3,2,5,1,408,10,52,5,3,11
pettian01,Andy Pettitte,14,9,40,27,3,0,1,580,197,83,16,67,134,2,5,5,0,821,5,91,6,5,24
pichahi01,Hipolito Pichardo,6,7,46,12,0,0,5,327,118,57,12,43,59,4,3,4,0,479,15,63,4,3,13
pickeri01,Ricky Pickett,1,1,10,3,0,0,1,76,27,13,3,12,25,1,1,1,0,111,3,14,1,1,2
piscima01,Marc Pisciotta,3,3,28,4,0,0,1,150,47,23,5,27,34,2,3,2,0,219,8,25,2,2,4
pittsji01,Jim Pittsley,3,4,28,8,0,0,1,222,83,43,10,35,40,1,3,3,0,329,7,47,3,4,8
plesada01,Dan Plesac,3,3,45,3,0,0,3,161,50,25,6,19,62,2,2,1,0,229,11,27,2,2,4
plunker01,Eric Plunk,2,3,26,3,0,0,1,139,43,22,6,21,50,2,2,2,0,202,8,23,1,2,4
politcl01,Cliff Politte,5,5,28,11,0,0,2,241,88,43,10,34,45,2,3,3,1,353,7,48,4,2,6
ponsosi01,Sidney Ponson,7,7,37,16,0,0,2,358,134,64,15,39,75,2,4,3,1,518,8,68,4,4,11
pooleji02,Jim Poole,2,2,21,3,0,0,1,99,38,18,4,15,23,1,2,2,0,147,4,19,2,1,3
portuma01,Mark Portugal,8,7,35,20,2,0,2,423,152,69,19,35,86,2,4,4,0,601,6,74,6,4,11
powelbr01,Brian Powell,5,7,32,14,0,0,2,299,112,57,15,40,53,2,4,3,0,441,7,63,3,2,8
powelja04,Jay Powell,3,3,31,3,0,0,2,152,45,22,4,21,45,2,2,2,0,217,9,24,2,2,5
powelje01,Jeremy Powell,4,5,26,9,0,0,2,210,72,38,9,28,38,1,2,4,0,304,7,42,3,3,6
priesed01,Eddie Priest,4,4,25,8,0,0,2,194,73,33,8,22,10,1,2,2,0,280,6,36,2,2,6
prietar01,Ariel Prieto,4,5,22,11,0,0,1,229,88,41,9,36,51,2,3,3,1,343,4,46,3,2,8
pulsibi01,Bill Pulsipher,5,5,29,11,0,0,2,262,92,43,10,36,57,3,3,3,1,378,7,46,4,4,11
quantpa01,Paul Quantrill,4,5,45,5,0,0,3,220,84,28,8,22,50,3,2,2,0,318,15,33,4,3,8
radinsc01,Scott Radinsky,4,3,44,4,0,0,5,185,61,25,6,21,47,2,1,2,1,264,14,28,4,2,4
radkebr01,Brad Radke,12,11,39,27,3,1,1,579,203,90,24,44,134,2,3,6,1,815,5,98,6,5,14
raggibr01,Brady Raggio,2,2,16,5,0,0,1,123,53,23,4,16,21,1,2,2,0,182,5,25,1,2,4
rakerja01,Jason Rakers,1,1,10,3,0,0,1,78,26,13,3,11,0,1,1,1,0,113,3,14,1,1,2
ramirro01,Roberto Ramirez,2,2,16,3,0,0,1,98,31,16,4,16,35,1,2,1,0,142,4,18,1,1,3
rapppa01,Pat Rapp,9,11,39,24,1,1,2,468,170,86,18,85,103,5,10,7,0,697,6,92,6,6,19
rathfr02,Fred Rath,2,1,11,3,0,0,1,84,29,13,3,11,11,1,1,1,0,122,3,15,1,1,3
rathga01,Gary Rath,2,1,11,3,0,0,1,81,27,14,3,11,31,1,1,1,0,118,3,15,1,1,2
reedri01,Rick Reed,12,9,40,25,2,1,2,551,177,73,22,31,123,3,2,5,0,748,5,78,7,4,15
reedst01,Steve Reed,3,3,26,3,0,0,2,130,40,22,6,15,33,1,1,2,0,185,7,23,2,1,4
rekarbr01,Bryan Rekar,5,7,31,15,1,0,2,310,116,55,16,34,59,2,3,4,0,451,6,64,3,6,8
remlimi01,Mike Remlinger,8,10,52,20,1,0,2,437,136,73,18,73,139,3,9,6,1,635,8,80,8,5,12
reyesal01,Alberto Reyes,4,3,31,4,0,0,1,169,57,27,7,25,54,1,2,2,0,247,8,30,2,1,5
reyesca01,Carlos Reyes,3,3,23,4,0,0,1,155,57,26,6,21,31,2,2,2,0,226,7,28,2,2,5
reyesde01,Dennys Reyes,5,4,28,10,0,0,2,249,83,40,8,41,81,3,5,3,1,361,6,42,5,2,7
reynoar02,Armando Reynoso,7,5,27,15,1,0,1,306,106,49,11,36,56,3,3,5,1,439,5,53,4,3,9
reynosh01,Shane Reynolds,13,9,41,28,2,1,1,581,204,84,20,46,170,3,5,4,1,821,5,91,7,6,14
rhodear01,Arthur Rhodes,5,3,35,4,0,0,2,218,64,31,8,28,81,2,2,2,0,306,7,33,2,3,7
rincori01,Ricardo Rincon,3,4,40,4,0,0,5,190,55,27,7,27,68,2,2,2,1,271,15,32,3,2,6
riosda01,Danny Rios,2,2,12,3,0,0,1,88,32,15,4,13,17,1,1,1,0,129,3,17,1,1,3
rislebi01,Bill Risley,3,3,27,4,0,0,1,157,49,27,7,28,38,2,2,2,0,228,9,30,2,2,5
ritchto01,Todd Ritchie,2,2,20,3,0,0,1,134,50,23,5,17,30,1,3,1,0,197,7,25,1,1,3
ritzke01,Kevin Ritz,4,5,20,11,1,0,1,222,88,42,9,33,36,2,4,3,0,330,4,45,3,2,7
riverma01,Mariano Rivera,4,2,38,3,0,0,16,188,54,23,5,20,57,2,1,1,0,262,23,23,2,2,5
rizzoto01,Todd Rizzo,2,1,12,3,0,0,1,86,31,15,3,12,10,1,1,1,0,125,3,17,1,1,3
roberri02,Rich Robertson,2,3,13,6,0,0,1,127,47,24,5,22,22,1,2,2,0,189,2,27,1,2,4
rockejo01,John Rocker,2,3,26,4,0,0,2,135,37,20,5,22,52,2,3,2,0,193,8,21,2,1,4
rodrife01,Felix Rodriguez,2,2,28,4,0,0,2,157,52,28,5,28,39,1,3,2,1,232,11,29,2,2,4
rodrifr02,Frankie Rodriguez,5,6,29,12,0,0,1,284,103,52,10,38,57,2,4,3,0,416,6,58,3,3,8
rodrine01,Nerio Rodriguez,2,2,13,3,0,0,1,95,32,17,4,14,15,1,1,1,0,139,4,18,1,1,2
rodriri02,Rich Rodriguez,4,2,43,4,0,0,2,189,65,28,7,21,39,3,2,1,0,269,9,30,2,2,6
rogerke01,Kenny Rogers,11,8,42,26,3,1,1,571,186,85,19,68,107,2,5,7,1,808,6,96,5,5,22
rojasme01,Mel Rojas,4,3,33,4,0,0,4,168,56,30,7,23,51,2,2,2,0,242,15,31,2,2,5
roquera01,Rafael Roque,5,4,28,11,0,0,2,255,80,43,12,38,61,2,4,3,1,367,7,46,4,2,8
rosadjo01,Jose Rosado,8,9,39,22,2,1,2,478,162,81,20,53,112,3,5,5,1,688,5,89,4,5,13
rosebr01,Brian Rose,4,5,28,11,0,0,2,246,89,46,12,31,40,2,2,3,0,358,7,50,2,3,6
ruebema01,Matt Ruebel,2,2,19,4,0,0,1,121,45,22,5,16,25,1,2,2,0,179,4,25,1,2,3
rueteki01,Kirk Rueter,12,8,41,27,1,0,2,519,177,79,20,52,99,4,5,5,0,739,5,87,6,6,16
runyase01,Sean Runyan,2,3,38,4,0,0,1,154,50,24,6,24,39,2,3,2,0,224,7,26,2,3,5
ruschgl01,Glendon Rusch,7,11,38,22,1,1,2,456,181,89,21,49,96,1,2,5,0,669,6,94,4,4,15
ryanke01,Ken Ryan,2,2,21,3,0,0,1,121,40,21,4,22,28,2,2,2,0,177,7,22,2,2,3
saberbr01,Bret Saberhagen,10,7,39,23,0,0,2,442,155,70,19,32,85,2,4,5,0,626,6,75,4,4,10
sageraj01,A. J. Sager,4,3,27,5,0,0,2,196,73,35,8,23,35,3,2,2,0,286,6,38,3,3,7
saipemi01,Mike Saipe,3,4,25,8,0,0,2,199,80,35,10,19,11,1,2,3,0,291,6,38,3,2,5
sampsbe01,Benj Sampson,3,2,18,6,0,0,1,147,45,22,5,18,50,1,2,2,0,210,5,24,2,2,4
sanchje01,Jesus Sanchez,7,8,41,21,0,0,2,432,147,71,16,71,113,2,6,4,3,630,7,79,8,4,13
sandesc02,Scott Sanders,3,3,18,5,0,0,1,143,47,24,6,15,45,1,2,1,0,203,4,25,2,2,3
santaju01,Julio Santana,6,7,39,16,1,0,1,386,144,68,17,54,62,2,5,5,0,566,8,75,3,5,15
santama01,Marino Santana,2,2,12,3,0,0,1,87,30,14,3,14,33,1,2,1,0,127,3,15,1,1,3
santijo03,Jose Santiago,1,1,11,3,0,0,1,81,29,13,3,10,13,1,1,1,0,118,3,15,1,1,3
saundto01,Tony Saunders,7,11,42,26,1,0,2,514,165,82,16,94,153,2,4,6,1,751,6,89,7,7,17
scanlbo01,Bob Scanlan,2,2,19,3,0,0,1,113,37,17,5,15,12,1,2,1,0,164,5,19,2,2,3
schilcu01,Curt Schilling,13,11,41,28,8,1,1,651,189,83,21,54,252,3,8,5,0,887,5,89,9,6,16
schmija01,Jason Schmidt,10,11,42,28,1,0,2,568,198,90,20,70,138,3,10,6,1,819,6,99,9,4,17
schoupe01,Pete Schourek,4,6,25,12,0,0,1,250,84,43,12,31,64,1,3,3,0,360,5,48,3,3,7
seaneru01,Rudy Seanez,3,2,21,4,0,0,1,128,38,19,4,18,62,1,2,1,0,183,5,21,2,2,3
seleaa01,Aaron Sele,13,11,42,28,2,1,1,552,205,94,18,75,140,4,5,11,0,823,5,107,6,7,14
serafda01,Dan Serafini,5,4,29,9,1,0,1,235,90,44,9,30,45,1,3,2,0,345,6,47,3,4,6
servisc01,Scott Service,4,4,39,4,0,0,2,202,63,31,7,26,75,2,5,4,0,290,12,33,3,3,4
shawje01,Jeff Shaw,3,3,31,3,0,0,11,155,49,20,6,13,39,2,1,1,0,215,18,21,2,2,5
shousbr01,Brian Shouse,2,2,12,3,0,0,1,86,30,14,4,11,17,1,1,1,0,125,4,15,1,1,3
shueypa01,Paul Shuey,4,3,32,4,0,0,2,165,53,26,6,26,56,3,2,2,0,240,11,28,2,2,4
silvajo01,Jose Silva,7,7,35,16,1,0,2,348,128,58,11,39,77,3,3,3,1,502,6,65,6,5,10
simasbi01,Bill Simas,4,3,40,4,0,0,6,195,61,30,8,27,55,3,2,2,0,279,17,33,2,1,5
sinclst01,Steve Sinclair,2,2,16,3,0,0,1,98,32,16,3,12,18,1,1,1,0,141,4,17,1,1,3
sirotmi01,Mike Sirotka,11,10,43,24,3,0,2,510,200,89,22,43,104,2,4,3,1,732,7,101,5,5,19
slocuhe01,Heathcliff Slocumb,3,4,37,4,0,0,6,183,59,31,5,35,52,2,5,2,0,270,19,32,3,2,5
smallaa01,Aaron Small,4,3,27,3,0,0,1,152,55,24,5,21,27,2,2,2,0,221,8,27,2,2,6
smithpe02,Pete Smith,4,4,25,7,0,0,1,191,69,34,8,25,38,1,3,1,1,278,5,36,3,2,5
smithtr01,Travis Smith,1,1,10,3,0,0,1,79,26,13,3,9,16,1,1,1,0,114,3,14,1,1,2
smoltjo01,John Smoltz,13,6,34,23,3,1,1,504,150,62,14,43,173,4,5,3,1,690,4,68,6,3,13
snydejo02,John Snyder,7,4,31,14,1,0,2,310,112,52,14,31,63,2,3,3,0,444,7,56,3,4,9
sodowcl01,Clint Sodowsky,4,5,38,7,0,0,1,224,79,40,8,38,46,4,4,4,1,333,9,45,3,2,7
sparkst01,Steve Sparks,7,6,33,16,1,0,2,358,123,59,15,55,71,1,5,4,0,521,6,65,3,3,9
speieju01,Justin Speier,2,2,16,3,0,0,1,106,38,19,5,16,25,1,2,1,0,155,5,20,2,1,3
spencst02,Stan Spencer,4,3,24,8,0,0,2,208,70,34,9,19,74,1,2,2,0,296,6,37,2,2,5
spoljpa01,Paul Spoljaric,4,4,38,6,0,0,1,219,72,41,10,41,76,2,5,2,1,324,8,45,3,2,7
spradje01,Jerry Spradlin,4,5,46,4,0,0,2,220,69,34,8,22,68,2,4,2,1,307,13,37,3,2,6
sprinde01,Dennis Springer,5,8,32,16,1,0,1,363,123,67,20,53,52,1,5,7,0,529,7,73,3,4,10
sprinru01,Russ Springer,2,2,23,3,0,0,1,121,40,20,4,18,43,2,2,1,0,177,5,22,2,1,3
staniro01,Rob Stanifer,3,3,29,4,0,0,1,162,56,28,7,22,33,1,2,2,0,237,8,30,3,2,4
stantmi02,Mike Stanton,4,3,45,4,0,0,3,212,63,35,8,26,65,2,2,3,1,300,14,37,2,2,6
steenke01,Kennie Steenstra,1,1,11,3,0,0,1,80,29,13,3,10,26,1,1,1,0,116,3,15,1,1,2
steinbl01,Blake Stein,6,7,35,16,1,1,2,345,113,68,17,62,84,3,9,4,0,511,6,74,3,3,9
stephga01,Garrett Stephenson,5,5,26,12,1,0,1,253,85,42,9,36,58,1,2,3,1,364,5,46,3,3,6
steveda01,Dave Stevens,2,3,24,3,0,0,2,135,47,23,6,20,33,2,1,1,1,197,9,25,2,2,3
stiebda01,Dave Stieb,3,3,20,5,0,0,2,161,58,27,6,19,28,1,1,3,0,234,6,30,2,2,4
stoopji01,Jim Stoops,2,1,11,3,0,0,1,82,28,13,3,11,0,1,1,1,0,118,3,14,1,1,2
stottto01,Todd Stottlemyre,7,6,25,15,1,0,1,320,99,49,11,44,95,2,3,4,0,459,4,53,4,4,7
sullisc01,Scott Sullivan,5,4,45,4,0,0,2,259,80,42,11,30,77,4,4,5,0,369,11,45,3,3,7
suppaje01,Jeff Suppan,3,2,17,7,0,0,1,159,60,27,6,18,34,1,2,2,0,230,4,30,1,2,5
suzukma01,Mac Suzuki,4,4,25,9,0,0,2,208,76,37,8,31,46,2,2,2,0,306,6,41,2,2,5
swiftbi02,Bill Swift,9,8,37,20,0,0,2,395,160,77,18,47,65,2,3,6,2,590,6,86,4,4,15
swindgr01,Greg Swindell,3,3,25,3,0,0,1,144,46,22,6,15,34,1,1,1,0,202,5,24,2,1,4
tabakje01,Jeff Tabaka,2,3,25,4,0,0,1,149,44,22,6,22,39,2,2,3,0,215,6,25,2,2,5
tamje01,Jeff Tam,2,2,14,3,0,0,1,96,32,16,4,11,18,1,1,1,0,139,4,18,1,1,3
tapanke01,Kevin Tapani,13,8,38,25,1,1,1,521,184,87,22,53,111,4,6,4,1,747,5,91,8,6,13
tatisra01,Ramon Tatis,2,2,22,3,0,0,1,111,43,21,5,20,18,2,2,2,1,166,6,23,2,1,4
tavarju01,Julian Tavarez,5,4,48,4,0,0,1,234,85,36,7,29,42,5,2,4,0,338,10,40,4,4,11
taylobi04,Billy Taylor,4,5,45,4,0,0,14,201,65,30,6,26,59,4,1,3,0,289,27,34,2,3,6
telemam01,Amaury Telemaco,6,8,35,15,0,0,1,346,124,56,14,35,65,2,4,4,0,499,6,64,6,4,9
telfoan01,Anthony Telford,4,5,47,4,0,0,2,235,73,35,9,30,52,2,5,3,0,338,13,38,5,2,6
telghda01,Dave Telgheder,2,3,17,7,0,0,1,160,62,28,7,18,26,1,2,2,0,234,4,31,2,2,5
tessmja01,Jay Tessmer,2,2,12,3,0,0,1,89,28,14,3,12,23,1,1,1,0,127,3,15,1,1,2
tewksbo01,Bob Tewksbury,7,10,34,21,2,1,1,436,166,72,15,28,73,2,4,4,1,623,4,77,7,6,13
thompju02,Justin Thompson,11,12,42,28,3,0,1,590,189,85,19,70,134,3,4,3,0,829,5,94,7,7,17
thompma01,Mark Thompson,4,5,23,11,1,0,1,225,87,43,12,32,39,1,2,5,1,336,5,47,4,3,8
thomsjo01,John Thomson,8,10,38,23,2,0,2,480,177,82,18,51,105,1,4,4,1,686,6,87,8,4,18
thurmmi01,Mike Thurman,6,6,31,13,0,0,2,281,87,47,11,36,47,2,4,4,0,404,7,52,3,4,7
timlimi01,Mike Timlin,3,4,42,4,0,0,9,199,67,28,6,18,50,2,2,2,0,280,20,31,3,2,8
tomkobr01,Brett Tomko,12,10,43,26,1,0,2,543,168,85,20,60,140,4,7,6,1,766,6,91,9,5,12
trachst01,Steve Trachsel,11,9,40,27,1,0,1,552,187,90,25,67,134,4,4,6,1,792,5,94,7,7,15
trombmi01,Mike Trombley,4,4,49,4,0,0,2,244,77,37,10,32,74,3,4,3,0,349,13,39,2,2,7
urbinug01,Ugueth Urbina,5,4,40,5,0,0,13,203,53,26,7,29,85,2,2,1,1,285,25,29,2,2,5
valdeca01,Carlos Valdez,2,1,11,3,0,0,1,80,26,13,3,12,29,1,1,1,0,116,3,14,1,1,2
valdeef01,Efrain Valdez,1,1,11,3,0,0,1,81,29,13,3,10,12,1,1,1,0,116,3,14,1,1,2
valdeis01,Ismael Valdez,10,9,36,24,1,1,1,509,162,70,16,52,123,4,4,3,2,716,5,76,7,4,13
valdema01,Marc Valdes,3,3,26,6,0,0,1,180,60,31,6,27,34,2,3,3,0,263,5,34,2,3,5
vanpoto01,Todd Van Poppel,3,3,23,8,0,0,1,187,69,33,8,28,37,2,3,2,1,275,5,39,3,2,5
vanrybe01,Ben VanRyn,1,2,12,3,0,0,1,81,29,14,3,11,19,1,1,1,0,117,3,15,1,1,2
vazquja01,Javier Vazquez,6,11,42,23,0,0,2,451,167,89,23,58,120,3,3,8,0,659,7,94,7,4,14
verasda01,Dario Veras,2,2,15,3,0,0,1,96,34,17,4,14,21,1,1,1,0,141,5,18,1,1,3
veresda01,Dave Veres,3,3,42,4,0,0,3,206,68,29,7,26,64,2,3,3,1,297,13,32,3,2,5
villoro01,Ron Villone,2,2,25,3,0,0,1,131,43,22,5,26,29,1,2,2,0,193,7,23,2,1,4
wadete01,Terrell Wade,4,4,27,9,0,0,2,212,78,36,9,33,66,2,3,2,0,310,7,39,3,3,6
wagnebi02,Billy Wagner,4,4,39,4,0,0,12,186,50,25,7,28,99,1,2,2,0,263,25,27,3,1,5
wagnepa01,Paul Wagner,4,5,25,10,0,0,1,230,84,44,10,36,57,2,4,2,0,339,5,48,4,2,7
wainhda01,Dave Wainhouse,2,2,16,3,0,0,1,99,36,18,4,14,18,1,1,2,0,145,4,19,1,1,3
wakefti01,Tim Wakefield,12,10,40,26,2,1,1,549,183,91,25,72,127,3,5,11,1,797,5,105,3,7,14
walkeja01,Jamie Walker,3,3,25,5,0,0,1,150,57,28,7,18,32,1,2,2,0,221,7,30,2,2,4
walldo01,Donne Wall,4,4,25,7,0,0,1,194,64,29,7,22,46,1,2,2,1,276,6,32,2,2,5
wardbr01,Bryan Ward,2,2,19,4,0,0,1,117,41,18,5,13,25,1,1,1,0,168,5,20,1,1,4
wasdijo01,John Wasdin,5,5,37,9,0,0,1,278,98,48,13,30,58,4,2,3,0,402,9,53,3,4,5
washbja01,Jarrod Washburn,6,4,29,11,0,0,2,269,88,45,12,33,59,2,2,3,0,387,6,48,3,3,6
watsoal01,Allen Watson,6,7,29,16,1,0,1,326,122,60,16,40,75,1,5,4,1,478,5,65,4,4,9
weathda01,David Weathers,3,3,23,4,0,0,1,151,52,24,5,19,44,1,2,2,0,218,6,28,2,2,5
weaveer01,Eric Weaver,2,2,12,3,0,0,1,91,29,14,3,13,19,1,1,1,0,130,4,15,1,1,3
weberne01,Neil Weber,1,1,11,3,0,0,1,79,28,13,3,11,31,1,1,1,0,115,3,14,1,1,2
welchmi03,Mike Welch,2,3,17,5,0,0,1,129,47,23,6,15,30,1,1,2,0,187,4,25,2,1,4
wellsbo01,Bob Wells,3,2,26,4,0,0,1,171,63,32,9,19,38,1,1,2,0,249,7,35,2,2,4
wellsda01,David Wells,13,7,37,25,4,2,1,555,189,82,23,37,133,2,4,4,0,769,5,89,5,4,14
wendetu01,Turk Wendell,4,3,39,4,0,0,4,193,55,28,6,31,52,4,2,2,0,276,13,29,2,1,5
wengedo01,Don Wengert,3,5,26,8,0,0,1,219,88,41,11,27,41,2,2,3,0,325,7,44,2,2,7
westda01,David West,1,1,10,3,0,0,1,77,28,13,3,12,20,1,1,1,0,113,2,15,1,1,2
wettejo01,John Wetteland,4,3,41,4,0,0,19,185,51,23,7,19,70,2,2,1,0,258,31,26,2,2,4
whisema01,Matt Whisenant,3,2,38,4,0,0,2,173,56,28,5,28,43,1,4,3,0,251,11,31,2,3,6
whitega01,Gabe White,4,4,40,7,0,0,4,241,75,38,11,23,66,3,2,2,0,339,14,40,3,2,5
whitema02,Matt Whiteside,2,2,18,3,0,0,1,123,48,22,5,14,25,1,1,1,1,180,4,25,1,2,3
whiteri01,Rick White,3,4,27,6,0,0,1,185,61,29,7,22,36,2,2,2,0,265,8,31,2,2,5
wickmbo01,Bob Wickman,5,5,46,4,0,0,8,227,72,32,7,34,64,3,3,3,0,325,21,35,5,2,9
wilkima01,Marc Wilkins,3,2,23,3,0,0,1,121,38,19,4,18,31,2,2,2,0,173,7,20,2,1,4
willimi03,Mike Williams,3,3,22,5,0,0,1,158,53,23,5,20,45,2,3,2,0,226,5,27,2,2,3
willito02,Todd Williams,2,2,12,3,0,0,1,90,33,15,3,12,10,1,1,1,0,131,3,16,1,1,2
williwo02,Woody Williams,9,10,40,26,1,0,1,546,180,89,28,67,127,3,5,4,1,781,5,96,6,6,11
wilsotr01,Trevor Wilson,2,1,13,3,0,0,1,85,29,14,3,12,20,1,1,1,0,124,3,15,1,1,3
winchsc01,Scott Winchester,5,6,33,15,1,0,2,306,120,56,13,35,50,2,4,4,0,450,8,61,4,3,11
winstda01,Darrin Winston,2,2,19,4,0,0,1,115,40,20,6,12,18,1,1,2,0,166,4,22,2,1,3
witasja01,Jay Witasick,3,3,22,6,0,0,1,166,62,29,9,24,51,1,2,2,0,244,6,33,2,1,5
withesh01,Shannon Withem,1,1,10,3,0,0,1,80,27,13,3,11,17,1,1,1,0,116,3,14,1,1,2
wittbo01,Bobby Witt,5,5,21,11,1,0,1,235,90,41,11,32,50,2,2,2,0,346,5,45,2,2,7
wohlema01,Mark Wohlers,2,3,28,3,0,0,9,126,38,22,4,23,52,1,4,1,0,186,16,23,2,1,3
wolcobo01,Bob Wolcott,4,5,25,13,0,0,1,264,101,51,14,31,49,2,2,3,0,387,4,56,3,2,7
woodabr01,Brad Woodall,6,7,36,15,0,0,2,349,123,61,18,39,74,3,3,5,0,502,8,66,5,3,11
woodast01,Steve Woodard,9,9,40,20,0,0,2,427,148,69,17,33,119,3,3,7,1,604,7,75,3,4,11
woodke02,Kerry Wood,10,7,39,20,1,1,2,448,115,64,15,73,212,2,5,8,2,635,7,70,4,4,7
worreti01,Tim Worrell,3,3,25,5,0,0,1,159,53,26,6,19,43,1,2,2,0,231,6,28,2,2,4
wrighja01,Jamey Wright,9,12,42,28,1,0,2,547,214,109,21,82,76,3,6,10,2,814,5,120,8,5,22
wrighja02,Jaret Wright,11,9,42,25,1,1,2,511,174,86,19,73,122,3,5,8,0,745,6,93,5,6,14
yanes01,Esteban Yan,4,4,37,5,0,0,2,217,72,36,9,32,60,2,4,3,0,316,10,39,2,2,6
yoshima01,Masato Yoshii,6,7,38,21,1,0,2,431,141,66,18,47,99,4,5,5,1,613,7,71,7,4,12
youngti01,Tim Young,2,2,12,3,0,0,1,86,29,14,3,12,30,1,1,1,0,124,3,15,1,1,2
