playerID,playerName,W,L,G,GS,CG,SHO,SV,IPouts,H,ER,HR,BB,SO,IBB,WP,HBP,BK,BFP,GF,R,SH,SF,GIDP
abbotpa01,Paul Abbott,9,6,42,19,0,0,2,440,132,69,19,65,95,4,4,4,0,629,9,75,3,5,14
aceveju01,Juan Acevedo,4,5,39,6,0,0,3,228,77,39,10,30,44,4,3,2,1,329,13,41,3,2,7
adamste01,Terry Adams,5,5,45,4,0,0,4,222,72,35,8,35,58,2,4,1,0,324,16,40,3,2,7
aguilri01,Rick Aguilera,3,3,34,3,0,0,11,155,52,26,8,16,40,1,2,2,0,224,21,28,2,1,5
aldresc01,Scott Aldred,2,2,23,3,0,0,1,114,40,20,4,16,29,1,2,1,0,167,5,21,2,2,3
alfonan01,Antonio Alfonseca,4,5,46,4,0,0,16,203,74,32,7,27,44,3,1,2,1,296,28,35,3,2,8
almanar01,Armando Almanza,3,3,34,4,0,0,1,149,43,25,5,33,50,3,1,2,0,221,6,28,2,2,4
almanca01,Carlos Almanzar,3,4,38,4,0,0,1,192,70,35,9,24,50,2,2,3,0,283,9,37,2,2,6
alvarju01,Juan Alvarez,2,2,14,3,0,0,1,85,32,16,4,15,12,1,1,1,0,127,4,17,1,1,3
anderbr02,Brian Anderson,10,7,42,25,2,0,2,536,193,86,29,35,91,5,2,3,3,750,6,92,6,4,17
anderji02,Jimmy Anderson,6,9,41,20,1,0,2,411,151,75,14,57,68,3,6,6,0,607,7,83,5,4,18
anderma01,Matt Anderson,4,3,44,4,0,0,1,203,60,36,9,42,63,3,3,2,0,298,14,39,2,4,6
andrecl01,Clayton Andrews,3,3,18,5,0,0,1,137,55,27,7,19,24,1,1,1,0,204,5,29,2,2,4
ankieri01,Rick Ankiel,9,7,43,23,0,0,2,468,130,69,19,77,177,3,8,5,1,667,7,78,6,5,13
appieke01,Kevin Appier,12,10,40,23,1,1,2,486,169,85,20,80,109,6,6,6,1,726,6,95,5,5,13
armasto02,Tony Armas,7,8,34,16,0,0,2,336,99,56,13,55,70,3,4,4,0,485,7,62,6,4,10
arnolja01,Jamie Arnold,3,4,25,6,0,0,2,182,66,35,6,29,23,1,2,3,0,270,8,39,3,2,8
arrojro01,Rolando Arrojo,6,6,27,16,1,0,1,322,112,58,15,39,77,2,3,7,0,467,4,59,3,2,10
arroybr01,Bronson Arroyo,4,5,30,11,0,0,2,253,96,50,11,39,56,4,3,4,1,379,6,56,4,3,5
ashbyan01,Andy Ashby,9,7,29,18,2,1,1,383,130,59,16,35,81,4,4,4,0,542,4,63,6,2,12
astacpe01,Pedro Astacio,11,9,39,26,3,0,1,538,199,101,29,65,165,4,5,11,0,791,5,110,6,5,17
aybarma01,Manny Aybar,3,2,24,4,0,0,1,145,49,25,6,21,33,1,1,2,0,212,7,28,2,2,4
baldwja01,James Baldwin,11,8,40,25,1,0,1,502,179,90,27,62,108,3,6,7,1,730,5,96,5,5,16
balejo01,John Bale,2,1,11,3,0,0,1,82,28,15,4,12,36,1,1,1,0,121,3,17,1,1,2
barcelo01,Lorenzo Barcelo,3,3,21,4,0,0,1,142,47,24,6,16,34,1,2,1,0,205,5,26,1,2,4
batismi01,Miguel Batista,4,5,31,11,1,0,1,268,96,53,12,43,57,3,4,3,0,398,6,58,3,4,8
beckro01,Rod Beck,3,2,27,3,0,0,5,139,44,21,5,15,44,1,1,2,0,199,11,23,2,1,3
beirnke01,Kevin Beirne,2,3,23,5,0,0,1,155,53,30,7,21,42,1,2,2,0,227,6,33,2,3,5
belchti01,Tim Belcher,5,6,24,14,1,0,1,271,103,56,15,33,44,1,3,3,1,400,4,58,3,4,8
belinst01,Stan Belinda,2,2,17,3,0,0,1,102,34,19,6,15,32,2,1,1,0,150,7,20,2,1,3
belitto01,Todd Belitz,2,1,11,3,0,0,1,81,28,14,3,13,19,1,1,1,0,120,3,15,1,1,2
bellro01,Rob Bell,7,8,39,20,1,0,2,402,128,72,24,67,107,5,8,3,0,589,7,78,6,3,9
beltrri01,Rigo Beltran,3,3,27,7,0,0,2,184,72,35,9,30,53,2,2,2,0,275,7,38,2,2,5
benesal01,Alan Benes,3,3,22,4,0,0,1,145,53,26,6,22,27,1,3,2,0,214,8,29,2,1,4
benesan01,Andy Benes,10,9,36,23,1,0,1,471,164,83,24,61,120,2,5,3,0,685,5,88,7,5,12
benitar01,Armando Benitez,4,4,51,4,0,0,16,212,47,28,8,36,107,2,1,2,0,298,32,30,2,2,5
bensokr01,Kris Benson,10,11,42,27,2,0,2,572,182,88,20,78,153,5,4,7,0,824,6,99,6,6,19
bereja01,Jason Bere,6,5,29,13,0,0,2,268,95,51,11,40,69,1,4,4,0,396,6,55,2,4,7
bergmse01,Sean Bergman,6,5,29,13,0,0,1,275,115,61,15,33,50,2,3,3,0,413,5,63,3,3,10
bernead01,Adam Bernero,3,3,21,6,0,0,1,165,56,28,7,22,34,2,2,2,0,239,6,31,2,2,6
biddlro01,Rocky Biddle,4,4,27,9,0,0,2,219,83,42,10,29,22,2,3,2,0,323,7,47,2,3,6
blairwi01,Willie Blair,6,7,42,14,0,0,1,380,149,74,19,36,67,1,3,3,0,553,9,78,3,5,13
blankma01,Matt Blank,2,2,15,3,0,0,1,98,32,17,4,13,9,1,1,1,0,144,4,19,2,1,3
bochtdo01,Doug Bochtler,1,2,15,3,0,0,1,91,32,17,5,17,17,2,1,1,0,136,4,18,1,1,3
boehrbr01,Brian Boehringer,3,3,24,6,0,0,1,170,59,28,7,27,41,2,2,2,0,250,6,31,3,2,5
bohanbr01,Brian Bohanon,10,9,38,23,2,1,1,474,168,88,21,70,94,3,4,7,0,697,5,95,8,3,17
bonesri01,Ricky Bones,3,3,36,4,0,0,1,202,78,36,8,27,48,3,2,2,0,302,9,38,4,3,6
borbope02,Pedro Borbon,3,3,38,4,0,0,1,150,47,28,6,31,32,2,1,2,0,227,7,31,2,3,4
borkoda01,Dave Borkowski,3,4,19,7,0,0,1,163,61,33,7,28,31,1,2,2,0,245,4,37,2,2,5
bottari01,Ricky Bottalico,5,5,44,4,0,0,9,204,69,36,9,38,53,2,4,2,0,304,25,39,3,2,5
botteke01,Kent Bottenfield,6,5,28,14,0,0,1,299,100,49,12,45,68,2,2,3,0,439,5,53,5,4,6
boydja02,Jason Boyd,2,2,21,4,0,0,1,129,45,24,5,23,37,2,2,2,0,191,6,26,2,1,5
bradfch01,Chad Bradford,2,2,16,3,0,0,1,98,35,17,4,11,16,1,1,1,0,142,4,19,1,1,3
brantje01,Jeff Brantley,3,4,32,4,0,0,8,156,53,29,8,24,53,1,2,2,0,231,19,31,2,2,4
breale01,Leslie Brea,2,2,15,4,0,0,1,107,38,20,5,19,16,1,1,1,0,158,4,22,1,1,3
brewija01,Jamie Brewington,3,2,21,4,0,0,1,143,54,26,5,20,35,1,1,2,0,210,6,28,2,2,6
brocado01,Doug Brocail,4,3,37,3,0,0,1,173,54,26,6,19,52,2,2,2,0,246,10,28,3,2,5
brockch01,Chris Brock,5,6,37,9,0,0,1,254,88,45,14,34,61,1,4,3,1,371,9,48,3,2,7
broweji01,Jim Brower,4,4,29,10,0,0,1,244,93,46,13,37,43,2,3,3,0,364,6,50,3,2,6
brownke01,Kevin Brown,12,7,39,26,4,1,1,588,166,70,17,44,187,2,5,7,0,803,5,78,9,3,13
brownma04,Mark Brownson,2,2,11,4,0,0,1,93,36,18,5,11,20,1,1,1,0,138,3,19,2,1,3
bruneju01,Justin Brunette,2,1,11,3,0,0,1,83,30,15,3,13,9,1,1,1,0,123,3,16,1,1,2
bruskji01,Jim Bruske,2,2,15,3,0,0,1,98,35,18,5,15,13,1,1,1,0,145,3,20,1,1,3
buddimi01,Mike Buddie,2,1,12,3,0,0,1,84,31,15,4,10,16,1,1,1,0,123,3,16,1,1,2
buehrma01,Mark Buehrle,4,3,25,6,0,0,1,170,60,29,7,22,41,1,1,2,0,249,6,32,2,1,5
bulliki01,Kirk Bullinger,2,1,12,3,0,0,1,80,29,14,3,10,17,1,1,1,0,117,3,15,1,1,2
burbada01,Dave Burba,12,7,38,26,0,0,1,523,177,86,22,75,146,3,7,5,0,760,5,92,4,5,15
burkejo03,John Burkett,8,7,34,19,0,0,1,386,153,72,14,42,94,2,3,4,0,570,6,78,6,4,12
burneaj01,A. J. Burnett,6,7,32,15,0,0,2,326,105,56,12,56,77,4,3,3,0,477,6,61,5,4,8
byrdati01,Tim Byrdak,1,2,17,3,0,0,1,92,35,18,5,16,23,1,1,1,0,139,4,20,1,1,3
byrdpa01,Paul Byrd,7,8,30,17,1,0,1,350,119,65,19,44,69,2,4,6,1,511,5,72,4,3,9
cabrejo01,Jose Cabrera,3,3,33,4,0,0,2,173,63,31,8,19,43,2,2,2,0,253,12,33,2,3,4
cairnca01,Cameron Cairncross,2,2,14,3,0,0,1,89,32,15,4,12,26,1,1,1,0,130,3,17,1,1,3
cammaer01,Eric Cammack,2,2,13,3,0,0,1,92,29,16,4,16,25,1,1,1,0,135,3,18,1,1,3
carlybu01,Buddy Carlyle,2,2,12,4,0,0,1,94,32,18,4,14,23,1,1,1,0,137,3,20,1,1,3
carpech01,Chris Carpenter,9,9,39,22,2,0,1,475,179,92,22,64,109,2,5,5,0,701,6,99,4,4,15
carragi01,Giovanni Carrara,2,2,13,3,0,0,1,94,35,19,5,16,29,1,1,1,0,140,3,20,1,1,3
carrahe01,Hector Carrasco,2,2,21,3,0,0,1,112,42,20,4,17,28,1,2,1,0,165,6,22,1,2,4
castifr01,Frank Castillo,8,6,36,18,0,0,2,379,121,60,17,51,94,1,2,5,0,546,7,67,4,4,8
charlno01,Norm Charlton,2,2,15,3,0,0,1,92,30,17,4,18,23,1,2,1,0,137,4,18,1,1,3
chenbr01,Bruce Chen,5,5,34,15,0,0,2,347,104,57,17,43,102,3,4,3,0,492,7,60,5,3,8
choatra01,Randy Choate,2,2,17,3,0,0,1,102,33,18,5,15,24,1,1,1,0,150,5,20,1,1,3
chouibo01,Bobby Chouinard,3,3,25,3,0,0,1,136,45,22,5,15,30,2,2,1,0,196,6,25,2,2,4
chrisja01,Jason Christiansen,2,2,21,3,0,0,1,100,31,17,3,15,36,2,1,1,0,146,6,18,2,1,3
clarkma01,Mark Clark,4,6,22,11,0,0,1,231,94,51,12,27,46,2,3,3,0,347,4,53,3,3,5
clemema01,Matt Clement,11,13,43,28,0,0,1,548,181,98,20,99,145,4,14,11,0,821,6,111,9,5,20
clemero02,Roger Clemens,12,8,38,25,1,1,1,527,159,80,19,74,170,1,5,7,0,756,5,86,5,3,14
clontbr01,Brad Clontz,2,2,18,3,0,0,1,100,33,16,4,18,28,2,1,1,0,148,5,18,1,1,3
cocopa01,Pasqual Coco,4,3,25,7,0,0,2,192,66,34,8,31,25,2,3,3,0,283,7,37,2,2,6
coggida01,Dave Coggin,4,3,27,9,0,0,2,226,85,40,9,32,45,2,3,3,0,334,7,45,3,2,8
colonba01,Bartolo Colon,13,7,38,26,2,1,1,527,162,81,20,77,167,4,4,5,0,754,5,86,5,4,16
coneda01,David Cone,8,9,36,23,1,0,1,454,154,85,19,66,132,3,7,8,0,672,4,89,5,6,10
cookde01,Dennis Cook,5,3,44,3,0,0,2,177,57,30,8,27,60,2,2,3,1,258,10,31,2,2,5
coopebr01,Brian Cooper,6,7,32,15,1,1,2,323,118,62,17,46,46,2,3,4,0,479,6,68,4,4,10
cordefr01,Francisco Cordero,3,3,36,5,0,0,1,200,71,36,9,38,43,2,4,3,0,302,9,39,2,4,6
cordofr01,Francisco Cordova,7,8,30,18,1,0,1,365,126,63,14,44,82,4,3,3,1,526,4,67,5,4,11
cormirh01,Rheal Cormier,3,3,41,4,0,0,1,194,67,32,7,20,41,2,2,2,0,281,8,37,3,2,5
cornere01,Reid Cornelius,6,8,35,17,0,0,2,366,129,64,16,48,51,4,6,4,2,533,6,70,7,5,11
crabtti01,Tim Crabtree,4,4,46,4,0,0,1,213,76,36,7,27,51,3,3,2,0,310,15,39,2,3,7
crawfpa02,Paxton Crawford,4,3,23,7,0,0,1,184,60,30,6,27,37,2,2,3,0,267,6,34,2,3,5
creekdo01,Doug Creek,2,3,28,4,0,0,1,166,50,29,8,32,66,2,2,2,0,244,7,32,2,2,5
cressja01,Jack Cressend,2,2,14,3,0,0,1,97,37,17,4,14,14,1,1,1,0,142,4,19,1,1,4
crousri01,Rich Croushore,2,2,19,3,0,0,1,103,32,18,4,18,36,1,2,2,0,153,5,20,2,1,3
cruzne01,Nelson Cruz,3,3,24,5,0,0,1,156,54,27,7,19,40,2,2,2,0,227,8,28,2,2,4
cubilda01,Darwin Cubillan,2,2,15,3,0,0,1,102,41,20,5,17,20,1,1,1,0,153,4,22,1,2,3
cunnawi01,Will Cunnane,3,2,26,5,0,0,1,155,53,27,7,24,43,2,2,2,0,226,5,30,2,2,5
daalom01,Omar Daal,7,8,28,16,1,0,1,351,113,55,13,44,86,2,2,4,1,500,5,58,4,4,10
damicje01,Jeff D'Amico,9,7,37,18,1,1,2,431,134,57,15,45,92,4,5,5,0,609,7,64,7,4,13
damicje02,Jeff D'Amico,2,2,15,4,0,0,1,112,41,21,5,21,21,1,1,1,1,166,4,23,2,1,3
darenvi01,Vic Darensbourg,3,3,40,4,0,0,1,177,61,32,7,27,52,2,2,2,1,262,9,35,3,3,4
daveyto01,Tom Davey,2,2,16,3,0,0,1,101,34,16,4,14,22,1,1,2,0,148,4,18,1,1,3
davisdo02,Doug Davis,6,5,33,11,1,0,1,274,102,53,13,48,60,3,4,3,1,410,7,56,4,3,9
daviska01,Kane Davis,2,1,11,3,0,0,1,82,30,15,4,13,10,1,1,1,0,122,3,16,1,1,3
dejeami01,Mike DeJean,3,3,37,4,0,0,1,172,64,34,8,27,30,3,3,1,0,254,10,36,3,2,7
delosva01,Valerio De Los Santos,3,3,37,5,0,0,1,191,63,34,10,27,59,3,2,2,0,278,9,36,2,2,5
deltomi01,Miguel Del Toro,2,2,17,4,0,0,1,120,41,21,6,16,35,1,2,2,0,175,5,22,1,1,4
dempsry01,Ryan Dempster,11,10,44,28,1,0,2,581,189,91,26,96,171,5,6,7,0,851,6,100,5,6,15
depause01,Sean DePaula,2,2,16,3,0,0,1,104,35,19,4,17,37,1,1,1,0,154,4,20,1,1,3
desseel01,Elmer Dessens,7,5,39,12,1,0,2,337,128,56,11,36,65,4,3,3,0,491,8,61,7,5,10
dewitma01,Matt DeWitt,2,2,14,3,0,0,1,98,37,18,5,15,13,1,1,2,0,146,4,20,1,1,4
dicksja01,Jason Dickson,5,5,25,10,0,0,1,223,88,42,10,25,41,1,2,3,0,329,6,46,3,3,7
dingmcr01,Craig Dingman,2,2,13,3,0,0,1,93,36,17,4,12,21,1,1,1,0,136,4,18,1,1,3
dipotje01,Jerry Dipoto,2,2,23,3,0,0,2,120,41,20,5,17,30,2,2,1,0,174,9,21,1,2,4
doteloc01,Octavio Dotel,5,6,40,14,0,0,7,324,103,61,18,53,117,2,4,5,1,477,14,65,5,5,7
downssc01,Scott Downs,4,3,25,7,0,0,2,189,67,34,8,29,0,2,2,2,0,278,7,36,2,2,6
dreifda01,Darren Dreifort,11,10,40,26,1,1,1,523,167,86,22,72,148,2,11,9,2,756,5,96,8,3,15
drewti01,Tim Drew,4,3,26,8,0,0,2,200,77,37,9,33,29,2,2,3,0,299,7,41,2,3,6
durbich01,Chad Durbin,5,6,33,15,0,0,2,298,113,65,15,51,49,2,6,2,0,450,7,70,3,4,9
duvalmi01,Mike Duvall,2,2,15,3,0,0,1,92,33,16,4,15,12,1,1,1,0,136,4,17,1,1,4
eatonad01,Adam Eaton,7,6,37,18,0,0,2,394,132,65,15,59,88,3,4,3,0,572,7,68,3,4,13
eilanda01,Dave Eiland,4,5,28,12,0,0,1,238,97,48,10,28,36,1,2,4,0,360,5,53,2,3,5
einerda01,Darrell Einertson,2,2,14,3,0,0,1,94,34,16,4,12,7,1,1,1,0,138,4,18,1,1,3
elartsc01,Scott Elarton,13,7,49,22,1,0,2,518,168,86,21,70,135,2,6,6,0,754,9,96,6,6,13
eldreca01,Cal Eldred,7,6,33,19,1,0,1,367,129,70,17,61,95,2,6,4,0,547,6,76,4,3,11
embreal01,Alan Embree,3,4,43,4,0,0,2,182,57,31,7,25,51,2,2,3,0,263,12,32,3,3,5
endertr01,Trevor Enders,2,2,13,3,0,0,1,90,33,17,4,13,14,1,1,1,0,133,4,19,1,1,3
erdosto01,Todd Erdos,2,2,19,4,0,0,1,122,42,23,6,19,20,1,2,3,0,183,6,25,1,2,3
ericksc01,Scott Erickson,8,8,29,18,3,1,1,383,146,77,16,50,69,2,4,6,0,569,4,78,4,4,16
escobke01,Kelvim Escobar,10,10,43,21,1,0,2,467,166,90,19,72,122,3,4,5,0,690,8,97,4,5,13
estessh01,Shawn Estes,11,9,39,26,2,1,1,530,180,90,16,96,136,3,10,4,1,778,5,99,9,5,24
estraho01,Horacio Estrada,4,3,23,7,0,0,1,177,64,33,9,32,29,3,3,2,0,265,6,35,2,2,5
estrele01,Leo Estrella,2,1,11,3,0,0,1,83,31,15,4,10,17,1,1,1,0,122,3,16,1,1,2
etherse01,Seth Etherton,6,4,30,12,0,0,2,277,100,51,16,35,48,2,3,3,0,408,7,54,3,3,8
eyresc01,Scott Eyre,2,2,18,4,0,0,1,119,46,23,6,21,27,1,1,1,0,180,5,25,1,2,4
farnsky01,Kyle Farnsworth,4,6,32,9,0,0,1,247,90,48,14,41,60,3,3,3,0,371,6,52,4,3,6
fasseje01,Jeff Fassero,6,6,33,16,1,0,1,330,120,57,14,39,84,2,4,3,0,482,6,61,5,3,10
fernaal01,Alex Fernandez,6,6,27,14,0,0,1,298,102,46,11,33,60,2,2,3,0,427,5,50,4,3,10
fernaos01,Osvaldo Fernandez,5,5,31,13,1,0,2,287,90,46,10,39,45,3,3,3,1,410,6,49,3,3,12
fettemi01,Mike Fetters,4,3,31,4,0,0,2,155,48,26,7,26,41,2,2,2,0,225,11,28,2,1,5
figuene01,Nelson Figueroa,4,4,26,8,0,0,2,206,72,38,10,27,31,2,3,2,0,301,7,41,3,3,6
finlech01,Chuck Finley,11,9,39,27,2,0,1,554,177,89,20,85,168,3,9,5,0,798,5,96,5,4,17
fioreto01,Tony Fiore,2,2,14,3,0,0,1,97,36,18,4,15,16,1,1,1,0,144,4,20,1,1,3
floribr01,Bryce Florie,2,3,22,5,0,0,1,157,57,27,6,22,38,3,2,2,0,231,7,31,3,2,6
fordbe01,Ben Ford,3,3,20,6,0,0,1,147,53,28,6,21,21,1,2,3,0,216,5,30,2,2,6
forstsc01,Scott Forster,2,2,23,4,0,0,1,123,39,24,6,23,27,1,2,2,0,183,6,26,2,2,3
foulkke01,Keith Foulke,3,3,47,4,0,0,11,239,64,32,9,22,88,2,2,3,0,330,25,35,3,2,5
francjo01,John Franco,3,4,38,4,0,0,8,165,52,25,6,25,54,3,2,2,0,240,16,27,3,2,4
frankwa01,Wayne Franklin,2,2,18,4,0,0,1,108,38,19,4,17,33,1,1,2,0,161,4,21,1,2,3
frascjo01,John Frascatore,4,3,39,4,0,0,1,194,71,34,9,26,30,2,3,3,0,287,11,38,3,3,7
fultzaa01,Aaron Fultz,4,3,33,4,0,0,1,180,60,31,7,25,54,1,1,2,1,262,9,34,4,3,5
fussech01,Chris Fussell,4,5,29,10,0,0,2,250,93,52,14,48,54,3,4,3,0,375,6,56,3,4,9
fyhrimi01,Mike Fyhrie,2,3,24,5,0,0,1,168,60,26,7,20,40,2,1,1,0,244,6,28,2,2,5
gagneer01,Eric Gagne,6,6,34,17,0,0,2,344,112,60,18,61,92,2,4,4,0,508,6,65,5,3,9
garceri01,Rich Garces,5,3,39,4,0,0,2,199,57,29,7,27,59,3,2,2,0,283,8,31,2,2,4
garcifr02,Freddy Garcia,10,7,35,21,1,0,1,432,141,68,17,68,107,4,6,5,2,630,5,74,5,4,13
garcimi03,Mike Garcia,2,2,15,3,0,0,1,93,35,18,4,14,27,1,1,1,0,137,4,19,1,2,3
gardnma01,Mark Gardner,8,7,34,18,1,0,1,398,135,71,18,44,86,3,3,5,1,572,6,75,5,6,9
garibda01,Daniel Garibay,3,5,29,8,0,0,1,216,80,41,9,34,43,2,3,2,0,322,7,45,3,4,6
garlajo01,Jon Garland,5,7,31,13,0,0,2,282,104,55,13,48,55,2,4,3,0,421,7,61,2,3,8
gintema01,Matt Ginter,2,2,13,3,0,0,1,92,36,18,5,14,16,1,1,1,0,136,4,19,1,1,3
glaubke01,Keith Glauber,2,1,12,3,0,0,1,86,28,15,3,11,17,1,1,1,0,125,3,16,1,1,3
glavito02,Tom Glavine,15,9,41,28,2,1,1,601,198,86,19,64,128,6,2,4,0,848,5,91,10,6,17
glynnry01,Ryan Glynn,6,7,33,16,0,0,2,333,130,66,17,53,50,2,4,4,1,504,7,74,3,2,12
gomeswa01,Wayne Gomes,4,5,46,4,0,0,6,209,68,35,7,35,53,2,4,2,0,308,20,38,4,3,7
goodedw01,Dwight Gooden,4,3,23,10,0,0,1,230,80,40,10,33,48,2,2,3,0,337,4,44,2,3,6
graveda01,Danny Graves,6,4,48,4,0,0,14,247,74,33,8,35,49,4,3,2,0,351,30,37,4,3,9
greenja01,Jason Green,2,2,15,3,0,0,1,103,33,19,5,21,33,1,1,1,0,153,3,21,2,1,3
grillja01,Jason Grilli,4,3,25,7,0,0,2,195,72,34,8,26,25,2,2,3,0,287,7,37,3,2,6
grimsja01,Jason Grimsley,4,3,44,6,0,0,2,245,80,42,9,37,47,2,8,4,0,361,14,47,3,4,7
groombu01,Buddy Groom,4,3,47,4,0,0,2,174,61,31,6,22,41,2,2,1,0,254,9,34,3,3,6
grosski01,Kip Gross,2,3,19,5,0,0,1,134,50,25,7,20,27,2,2,2,0,200,6,28,2,2,5
guarded01,Eddie Guardado,4,4,46,4,0,0,3,181,56,30,9,26,54,3,2,2,0,260,15,32,2,2,5
gundeer01,Eric Gunderson,1,2,15,3,0,0,1,86,37,16,4,9,15,1,1,1,0,128,4,17,1,1,3
guthrma01,Mark Guthrie,2,2,20,3,0,0,1,107,35,18,4,15,32,1,2,1,0,156,5,20,2,1,3
guzmado01,Domingo Guzman,1,2,11,3,0,0,1,79,30,15,3,11,11,1,1,1,0,118,3,16,1,1,2
guzmage01,Geraldo Guzman,5,5,28,11,0,0,2,246,89,45,11,32,72,2,3,3,0,358,6,47,3,2,8
guzmaju01,Juan Guzman,4,4,21,9,0,0,1,202,67,34,9,27,56,2,3,2,0,293,5,38,3,2,6
hackmlu01,Luther Hackman,2,2,11,3,0,0,1,85,32,16,4,15,11,1,1,1,0,127,3,18,2,1,2
halamjo01,John Halama,11,9,41,24,1,1,1,484,186,85,18,55,89,2,4,5,1,704,7,94,5,7,19
hallaro01,Roy Halladay,6,6,32,13,1,0,1,302,118,65,15,52,59,1,5,3,0,461,6,71,3,3,10
hamiljo02,Joey Hamilton,5,5,24,12,0,0,1,257,91,47,9,38,52,2,2,3,0,376,4,49,3,3,8
hamptmi01,Mike Hampton,14,7,40,27,2,1,1,578,179,75,14,82,136,3,7,6,0,821,5,84,8,6,25
haneych01,Chris Haney,1,2,11,3,0,0,1,88,30,15,4,12,16,1,1,1,0,128,3,17,1,1,3
harnipe01,Pete Harnisch,9,7,33,21,2,1,1,428,138,68,20,47,89,2,5,3,0,608,4,72,5,4,10
harpetr01,Travis Harper,4,4,26,9,1,1,2,216,71,38,10,32,31,2,2,3,0,316,6,40,3,2,7
hasegsh01,Shigetoshi Hasegawa,6,4,46,4,0,0,4,239,81,38,11,32,51,3,3,2,1,345,16,41,3,3,9
hawkila01,LaTroy Hawkins,4,6,33,10,0,0,4,259,102,48,11,30,52,1,4,2,0,381,11,52,2,3,8
hayneji01,Jimmy Haynes,10,11,41,27,0,0,1,522,196,103,21,85,94,5,7,5,1,780,6,113,7,6,18
helliri01,Rick Helling,13,10,41,28,1,0,1,568,190,97,28,78,126,4,5,6,0,827,5,106,5,8,12
henrydo01,Doug Henry,3,2,24,3,0,0,1,122,38,20,5,23,32,1,2,2,0,178,8,21,2,1,4
hentgpa01,Pat Hentgen,11,10,40,27,1,0,1,525,191,93,24,71,103,3,5,4,1,766,5,100,7,7,16
heredfe01,Felix Heredia,5,3,47,4,0,0,2,182,58,32,7,30,56,2,3,2,0,265,13,35,3,2,6
heredgi01,Gil Heredia,12,9,40,26,1,0,1,527,193,87,21,48,96,4,3,6,0,758,6,97,4,4,13
hergema01,Matt Herges,6,4,40,6,0,0,2,254,81,38,9,32,59,3,3,4,0,363,12,42,5,3,9
hermadu01,Dustin Hermanson,10,11,40,25,1,0,3,520,184,87,20,61,105,4,4,5,1,752,7,98,9,6,13
hernali01,Livan Hernandez,11,9,40,25,3,1,1,569,203,88,22,68,132,4,3,4,1,824,6,98,9,6,16
hernaor01,Orlando Hernandez,12,9,38,25,2,0,1,527,161,86,24,60,134,2,3,6,0,745,5,91,4,6,10
hernaro01,Roberto Hernandez,3,4,46,4,0,0,17,202,65,30,7,28,58,2,2,3,0,294,32,33,4,2,6
hershor01,Orel Hershiser,4,5,20,11,0,0,1,219,77,43,8,32,40,2,3,6,0,325,3,44,3,3,7
hiljuer01,Erik Hiljus,1,1,12,3,0,0,1,83,29,15,4,12,9,1,1,1,0,121,3,16,1,1,3
hillke01,Ken Hill,3,4,17,8,0,0,1,167,59,31,6,29,31,1,2,2,0,247,3,33,2,3,6
hinchbr01,Brett Hinchliffe,1,2,12,3,0,0,1,88,32,17,5,14,11,1,1,1,0,131,3,18,1,1,3
hitchst01,Sterling Hitchcock,6,7,28,16,1,0,1,339,113,56,17,40,105,3,6,5,1,492,4,60,5,3,8
hodgeke01,Kevin Hodges,2,2,15,3,0,0,1,102,35,18,5,17,14,1,1,2,0,148,5,19,1,1,5
hoffmtr01,Trevor Hoffman,3,4,45,4,0,0,22,201,56,27,7,17,81,2,3,1,0,278,31,30,2,3,6
holmeda01,Darren Holmes,2,2,16,3,0,0,1,94,33,16,4,12,21,2,1,1,0,138,4,17,1,1,3
holtch01,Chris Holt,7,13,43,25,1,0,2,532,207,98,18,65,119,2,7,7,1,781,7,106,7,9,23
holtzmi01,Mike Holtz,3,3,36,4,0,0,1,143,49,27,5,22,44,2,2,2,0,210,7,29,2,2,5
holzema01,Mark Holzemer,2,2,19,3,0,0,1,112,44,22,5,14,24,1,2,1,0,167,6,23,2,1,4
housecr01,Craig House,2,2,15,3,0,0,1,98,33,18,5,20,17,1,1,2,0,146,4,19,1,1,3
howrybo01,Bob Howry,3,4,45,4,0,0,8,203,58,30,8,30,67,2,2,3,0,290,21,33,2,3,6
hudsoti01,Tim Hudson,15,6,41,25,1,1,2,534,157,82,19,75,158,4,7,6,0,759,6,89,4,5,16
irabuhi01,Hideki Irabu,6,6,27,15,1,0,1,310,111,59,15,36,79,1,5,4,1,451,5,61,3,3,7
isrinja01,Jason Isringhausen,4,3,37,4,0,0,12,186,60,29,7,28,51,3,3,2,0,272,23,32,2,2,6
jacquto01,Thomas Jacquez,2,2,13,3,0,0,1,88,32,16,4,12,23,1,1,1,0,128,3,18,1,1,3
jamesmi01,Mike James,3,2,28,4,0,0,2,150,45,24,6,23,42,1,2,2,0,215,7,26,2,1,5
jarvike01,Kevin Jarvis,5,5,34,15,0,0,2,332,133,67,21,36,59,3,3,4,0,489,6,74,5,3,10
jimenjo01,Jose Jimenez,4,5,35,8,0,0,7,231,78,40,8,32,51,3,4,4,0,338,17,44,4,3,7
johnsja02,Jason Johnson,5,8,31,15,0,0,1,328,117,69,17,54,73,2,4,4,0,491,6,75,3,4,9
johnsjo07,John Johnstone,3,4,36,3,0,0,1,168,55,29,8,20,48,3,2,2,0,241,8,30,3,2,4
johnsjo08,Jonathan Johnson,2,2,17,4,0,0,1,121,45,23,5,21,29,1,2,3,0,182,4,25,1,2,3
johnsma03,Mark Johnson,2,3,19,6,0,0,1,149,50,28,6,25,21,1,2,2,0,221,5,31,2,3,4
johnsmi02,Mike Johnson,5,5,35,11,0,0,1,268,95,55,14,44,59,2,5,5,0,402,7,58,3,2,6
johnsra05,Randy Johnson,14,7,40,27,6,2,1,617,167,70,21,63,289,2,4,6,1,841,5,79,8,4,13
jonesbo03,Bobby Jones,9,7,36,21,1,0,1,427,154,77,19,43,80,3,3,5,1,616,5,81,6,5,11
jonesbo04,Bobby Jones,3,3,17,7,0,0,1,151,54,29,7,27,36,1,2,2,0,228,4,32,2,2,4
jonesdo01,Doug Jones,4,3,39,4,0,0,3,206,75,32,7,19,49,3,2,2,0,297,15,34,2,2,6
jonesma02,Marcus Jones,3,3,25,7,0,0,2,187,67,34,8,28,18,2,2,2,0,275,7,37,2,2,6
jonesto02,Todd Jones,3,4,44,4,0,0,18,189,63,30,7,29,63,2,2,2,0,273,32,33,2,2,8
juddmi01,Mike Judd,4,4,25,8,0,0,2,198,71,38,10,31,59,2,3,3,0,292,6,41,2,2,6
kamiesc01,Scott Kamieniecki,2,3,22,4,0,0,1,126,42,23,5,23,26,1,2,2,0,186,6,25,2,1,4
karchma01,Matt Karchner,2,2,17,3,0,0,1,101,35,18,5,17,16,1,2,1,0,150,4,19,2,1,2
karlsc01,Scott Karl,5,5,21,12,0,0,1,236,94,42,9,29,34,2,3,3,0,350,3,48,4,2,9
karsast01,Steve Karsay,5,5,42,5,0,0,6,214,72,33,7,25,61,3,2,3,0,307,18,35,2,2,7
keislra01,Randy Keisler,2,2,16,4,0,0,1,120,45,23,5,19,20,1,1,1,0,177,4,25,1,1,4
kidama01,Masao Kida,1,1,16,3,0,0,1,97,36,18,4,14,23,1,2,1,0,143,5,20,1,1,3
kileda01,Darryl Kile,13,10,41,28,3,1,1,579,201,103,28,73,143,3,9,8,1,839,5,112,9,7,18
kimby01,Byung-Hyun Kim,4,4,39,5,0,0,5,199,55,34,8,39,97,3,3,5,1,294,15,37,2,2,4
kingra01,Ray King,3,2,23,4,0,0,1,123,37,19,5,18,28,1,2,1,0,176,5,21,1,1,4
kinnema01,Matt Kinney,5,4,29,11,0,0,2,249,83,44,12,42,47,2,4,2,0,365,7,48,2,4,9
klinest02,Steve Kline,4,4,55,4,0,0,5,219,71,34,8,31,66,3,3,3,0,317,19,36,2,2,9
kochbi01,Billy Koch,5,4,44,4,0,0,16,215,70,31,7,24,59,3,2,2,0,307,30,34,3,1,6
kohlmry01,Ryan Kohlmeier,2,2,19,4,0,0,4,118,42,19,4,19,25,1,1,1,0,174,9,21,1,1,4
kolbbr01,Brandon Kolb,2,2,14,3,0,0,1,97,34,17,4,16,26,1,2,1,0,142,4,18,1,1,3
kolbda01,Danny Kolb,2,2,12,3,0,0,1,87,32,16,3,13,13,1,1,1,0,129,3,17,1,1,3
larayo01,Yovanny Lara,2,2,12,3,0,0,1,85,29,15,3,15,13,1,1,1,0,125,3,16,1,1,3
larkian01,Andy Larkin,2,3,15,4,0,0,1,105,42,21,5,19,22,1,2,1,0,159,5,25,2,1,4
laxtobr01,Brett Laxton,2,2,16,4,0,0,1,121,45,23,5,20,32,1,2,2,0,180,4,25,2,2,5
leeda01,David Lee,2,2,16,3,0,0,1,99,33,17,4,17,26,1,1,2,0,146,5,19,1,1,3
leesa01,Sang-Hoon Lee,2,2,13,3,0,0,1,92,31,16,4,12,16,1,1,1,0,134,3,17,1,1,3
leiteal01,Al Leiter,13,8,38,25,2,1,1,544,164,77,17,71,163,4,4,8,1,774,5,83,8,6,15
leskacu01,Curt Leskanic,5,3,46,4,0,0,4,214,66,33,8,40,64,3,3,3,0,313,15,36,2,3,7
levinal01,Al Levine,3,3,40,6,0,0,2,251,84,39,10,35,36,3,3,2,0,364,10,43,3,4,8
levraal01,Allen Levrault,2,2,16,4,0,0,1,117,39,20,5,18,30,1,1,1,0,171,4,22,2,2,4
lidleco01,Cory Lidle,5,5,32,10,0,0,1,259,99,47,11,29,56,2,4,3,0,379,7,52,3,2,9
liebejo01,Jon Lieber,10,11,42,28,3,1,1,614,214,100,28,49,168,4,3,6,2,872,5,109,7,7,15
ligteke01,Kerry Ligtenberg,3,3,33,4,0,0,6,153,45,24,6,21,54,2,1,1,0,218,12,26,2,1,5
lillyte01,Ted Lilly,2,2,13,3,0,0,1,96,35,18,5,14,38,1,1,1,0,143,3,19,1,1,2
limajo01,Jose Lima,11,10,39,26,1,0,1,548,206,102,31,46,127,3,5,3,0,793,5,107,8,7,11
lincomi01,Mike Lincoln,3,5,22,9,0,0,1,185,78,40,10,26,27,1,2,2,0,279,5,42,2,3,6
linebsc01,Scott Linebrink,2,2,13,3,0,0,1,92,32,16,4,14,17,1,1,2,0,135,4,17,1,1,3
lirafe01,Felipe Lira,4,5,36,7,0,0,1,242,97,45,10,30,42,3,2,3,0,364,8,51,3,5,7
loaizes01,Esteban Loaiza,7,7,33,15,1,0,1,353,127,57,13,37,79,2,2,5,0,510,6,65,4,4,12
loiseri01,Rich Loiselle,3,3,28,4,0,0,2,143,48,25,6,28,37,3,1,2,0,215,11,27,2,2,4
loopebr01,Braden Looper,4,3,46,4,0,0,2,203,73,34,7,30,34,4,3,3,0,303,14,39,3,3,6
lopezal02,Albie Lopez,8,8,55,14,2,0,2,427,149,69,18,55,80,3,5,3,1,617,14,76,5,4,17
lopezro01,Rodrigo Lopez,4,5,27,10,0,0,2,221,90,44,10,33,47,2,2,2,0,329,7,47,2,3,7
lorraan01,Andrew Lorraine,2,2,14,4,0,0,1,108,38,19,5,15,22,1,1,1,0,157,3,21,2,1,3
lowede01,Derek Lowe,4,4,48,5,0,0,14,246,78,33,7,24,64,3,2,3,0,347,25,36,3,2,8
lowese01,Sean Lowe,4,3,40,6,0,0,1,220,76,38,9,37,51,2,3,4,0,323,9,41,3,3,8
luebbla01,Larry Luebbers,2,3,16,5,0,0,1,126,45,23,5,18,16,1,1,2,0,185,4,25,2,1,4
maddugr01,Greg Maddux,15,8,40,28,4,2,1,609,200,79,17,39,152,8,3,7,1,846,5,86,9,5,15
maddumi01,Mike Maddux,2,2,24,3,0,0,1,128,44,22,5,16,29,1,1,2,0,187,8,23,2,2,4
madurca01,Calvin Maduro,2,2,18,5,0,0,1,125,46,25,7,21,30,1,1,2,0,186,5,27,2,2,4
magnami01,Mike Magnante,3,3,34,3,0,0,1,152,54,25,5,23,29,3,2,2,0,226,8,27,3,2,4
mahayro01,Ron Mahay,2,2,18,3,0,0,1,118,39,21,6,19,35,1,2,1,0,173,5,22,1,2,3
mahompa01,Pat Mahomes,5,3,40,6,0,0,1,244,76,43,11,49,64,3,3,2,0,361,10,47,3,3,6
maireos01,Oswaldo Mairena,1,1,11,3,0,0,1,79,30,14,4,12,0,1,1,1,0,117,3,16,1,1,3
mannji01,Jim Mann,1,1,11,3,0,0,1,80,29,14,4,11,0,1,1,1,0,118,3,15,1,1,2
mantema01,Matt Mantei,2,2,31,4,0,0,9,153,41,25,5,29,65,1,3,3,0,222,18,27,2,1,4
manzajo01,Josias Manzanillo,3,3,28,4,0,0,1,166,53,27,7,26,44,2,2,2,0,240,7,29,3,2,6
marquja01,Jason Marquis,2,2,16,4,0,0,1,114,39,20,5,17,28,1,1,1,0,167,5,22,1,1,4
martipe02,Pedro Martinez,16,6,38,25,4,2,1,568,138,56,16,41,255,2,4,9,0,756,5,62,3,4,11
martira02,Ramon Martinez,9,7,35,20,0,0,2,373,125,71,15,59,92,3,2,6,0,552,6,76,3,5,9
martito02,Tom Martin,2,2,22,4,0,0,1,127,46,23,5,19,27,1,1,1,0,187,5,25,1,2,4
martiwi01,Willie Martinez,2,1,11,3,0,0,1,82,27,14,3,11,11,1,1,1,0,120,3,16,1,1,2
masaoon01,Onan Masaoka,2,3,27,3,0,0,1,140,42,23,6,26,44,1,2,2,0,205,6,25,1,1,4
mathetj01,T. J. Mathews,4,4,37,4,0,0,1,181,62,33,8,24,43,3,2,2,0,265,11,35,2,3,5
matthmi01,Mike Matthews,2,2,14,3,0,0,1,90,33,17,4,16,20,1,1,1,0,134,4,18,1,1,3
maureda01,Dave Maurer,2,2,15,3,0,0,1,99,34,17,4,13,29,1,1,2,0,144,3,19,1,1,3
maysjo01,Joe Mays,7,11,45,22,2,1,1,470,175,86,20,64,101,2,8,3,0,694,8,93,5,5,15
mcdilal01,Allen McDill,2,2,14,3,0,0,1,90,33,16,4,11,20,1,1,1,0,131,3,18,1,1,3
mcelrch01,Chuck McElroy,3,2,34,4,0,0,1,176,58,30,6,27,47,2,3,2,0,257,10,32,1,2,6
mcglike01,Kevin McGlinchy,2,2,21,3,0,0,1,112,38,17,4,17,36,2,1,1,0,163,7,19,2,1,3
mcknito01,Tony McKnight,5,4,28,10,1,0,2,239,81,40,10,27,52,2,3,3,0,351,7,45,3,3,7
mcmicgr01,Greg McMichael,2,2,18,3,0,0,1,102,35,18,5,15,23,2,1,1,0,149,5,19,1,1,3
meachru01,Rusty Meacham,1,1,11,3,0,0,1,81,30,15,4,11,16,1,1,1,0,119,3,16,1,1,3
meadobr01,Brian Meadows,7,7,28,16,1,0,1,337,134,63,15,32,47,2,3,3,0,494,4,67,6,4,9
mechegi01,Gil Meche,7,6,33,17,1,1,2,346,105,57,13,60,75,2,3,3,0,501,6,61,6,4,11
mecirji01,Jim Mecir,3,2,24,3,0,0,2,133,42,20,4,19,43,2,2,2,0,193,6,22,1,2,4
mendora01,Ramiro Mendoza,7,5,33,9,1,0,2,278,99,45,11,26,49,2,2,4,0,401,7,49,3,3,8
mercahe01,Hector Mercado,2,2,14,3,0,0,1,97,32,17,4,15,31,1,1,1,0,142,4,18,1,1,3
mercejo02,Jose Mercedes,9,6,37,15,1,0,2,351,123,57,14,49,55,2,3,3,0,513,9,63,5,5,13
merckke01,Kent Mercker,3,3,22,9,0,0,1,188,70,35,8,26,33,2,2,2,0,279,4,38,3,2,6
mesajo01,Jose Mesa,4,5,46,4,0,0,7,213,78,39,9,36,62,2,4,3,0,320,23,41,3,3,6
micelda01,Dan Miceli,4,4,36,3,0,0,1,168,54,28,6,24,49,2,2,2,0,242,11,30,2,2,6
milletr01,Travis Miller,3,3,42,4,0,0,1,190,72,30,6,27,56,2,3,2,0,284,9,33,2,2,5
milletr02,Trever Miller,2,1,16,3,0,0,1,94,35,17,4,15,20,1,1,2,0,140,4,18,1,1,3
millewa04,Wade Miller,6,7,34,15,1,0,2,349,121,65,16,48,99,2,3,4,0,509,7,71,4,3,11
millsal01,Alan Mills,2,2,27,3,0,0,1,130,41,22,6,26,31,2,2,2,0,192,6,24,1,2,4
millwke01,Kevin Millwood,12,10,42,28,1,0,1,571,175,87,22,57,164,3,5,4,0,802,5,94,7,4,11
miltoer01,Eric Milton,10,10,42,28,2,1,1,552,186,97,28,55,142,2,4,5,0,788,5,108,4,6,11
mlickda01,Dave Mlicki,8,9,33,20,1,0,1,399,146,72,17,48,74,2,3,5,0,590,5,78,4,5,11
moehlbr01,Brian Moehler,10,10,37,25,2,1,1,504,195,87,20,46,95,2,3,4,0,729,5,93,5,4,17
mohlemi01,Mike Mohler,1,2,17,2,0,0,1,90,31,16,4,13,20,1,1,1,0,132,5,17,1,1,3
molinga01,Gabe Molina,2,2,13,3,0,0,1,86,29,16,4,14,17,1,1,1,0,127,4,18,1,1,3
montgst01,Steve Montgomery,2,2,18,3,0,0,1,102,32,17,5,16,28,1,1,1,0,148,5,18,1,1,3
mooretr01,Trey Moore,4,6,27,11,0,0,2,233,97,44,11,32,46,2,3,4,1,351,6,49,3,2,6
moragda01,David Moraga,1,1,10,3,0,0,1,78,28,14,4,10,0,1,1,1,0,115,3,16,1,1,2
morgami01,Mike Morgan,6,5,36,10,0,0,2,266,108,51,12,35,44,3,2,3,0,393,8,55,4,3,11
morriji02,Jim Morris,2,2,15,3,0,0,1,90,30,16,4,14,26,1,1,1,0,132,4,18,1,1,3
morrima01,Matt Morris,3,3,21,5,0,0,2,156,52,25,5,19,36,2,1,2,0,225,6,26,2,1,5
motada01,Danny Mota,2,2,12,3,0,0,1,84,32,15,4,11,13,1,1,1,0,125,3,16,1,1,2
motagu01,Guillermo Mota,2,3,26,3,0,0,1,137,45,23,5,20,30,1,1,2,0,200,8,26,2,2,4
moyerja01,Jamie Moyer,10,8,34,22,1,0,1,465,165,80,19,41,99,2,3,5,1,664,4,85,4,3,15
muldema01,Mark Mulder,8,9,39,21,0,0,2,423,167,80,19,62,79,3,5,4,0,633,7,89,4,6,15
mulhote01,Terry Mulholland,7,6,46,14,1,0,2,357,136,61,15,35,65,5,3,3,0,522,11,66,6,4,13
mullesc01,Scott Mullen,2,2,14,3,0,0,1,92,32,16,4,12,21,1,1,1,0,134,4,17,1,1,3
munozmi01,Mike Munoz,2,2,19,3,0,0,1,95,35,17,4,13,16,1,1,1,0,139,5,18,1,1,4
munrope01,Peter Munro,2,3,24,6,0,0,1,168,68,32,6,26,35,1,2,3,0,251,6,35,2,2,7
murrada02,Dan Murray,2,2,15,3,0,0,1,107,37,19,6,16,30,1,1,1,0,157,4,21,2,1,3
mussimi01,Mike Mussina,12,10,40,27,4,1,1,590,197,86,22,45,173,2,4,3,0,825,5,92,7,6,18
myersmi01,Mike Myers,2,2,46,3,0,0,1,154,45,24,6,23,46,2,2,2,0,219,11,25,2,1,6
myersro01,Rodney Myers,2,1,16,3,0,0,1,96,35,17,4,12,23,1,1,1,0,141,3,18,1,1,3
myettaa01,Aaron Myette,1,2,11,3,0,0,1,86,28,15,4,16,16,1,1,1,0,128,3,16,1,1,3
nagych01,Charles Nagy,7,7,26,16,1,0,1,321,126,64,17,35,67,3,2,4,0,475,4,69,4,3,9
nathajo01,Joe Nathan,7,5,32,15,0,0,2,325,104,57,15,61,68,3,4,4,0,481,6,64,4,4,9
natiojo01,Joey Nation,4,4,26,8,0,0,2,205,70,37,9,32,44,2,2,3,0,301,7,40,3,3,7
navarja01,Jaime Navarro,3,4,17,8,0,0,1,172,71,35,9,25,25,1,3,3,0,261,3,40,1,2,6
neaglde01,Denny Neagle,8,7,29,16,1,0,1,340,111,61,17,38,80,2,4,4,1,486,4,62,5,4,8
nelsoje01,Jeff Nelson,5,3,43,4,0,0,1,185,51,27,5,36,63,2,3,3,0,271,10,30,3,2,5
nenro01,Robb Nen,4,4,45,4,0,0,19,194,55,26,6,22,84,2,3,2,0,274,33,29,3,2,5
newmaal02,Alan Newman,2,2,12,3,0,0,1,81,32,15,4,12,26,1,1,1,0,120,3,16,1,1,3
nichtch01,Chris Nichting,2,2,12,3,0,0,1,87,32,16,3,13,20,1,1,1,0,128,3,17,1,1,3
nickldo01,Doug Nickle,1,1,11,3,0,0,1,80,29,14,3,12,0,1,1,1,0,118,3,16,1,1,3
nitkocj01,C. J. Nitkowski,5,6,53,9,0,0,1,283,93,50,11,43,71,3,3,4,1,416,9,57,3,5,11
nomohi01,Hideo Nomo,9,10,39,25,1,0,1,508,167,88,25,81,161,2,11,4,1,740,5,93,6,4,11
nortoph01,Phil Norton,4,4,25,8,0,0,2,198,73,36,10,31,37,2,2,2,0,293,7,40,2,2,6
nunezvl01,Vladimir Nunez,4,7,30,13,0,0,1,279,101,57,13,43,64,2,5,3,1,414,7,63,5,4,7
oconnbr01,Brian O'Connor,2,2,15,4,0,0,1,114,38,20,5,20,19,1,2,2,0,169,4,23,2,1,3
ohkato01,Tomo Ohka,5,7,32,13,0,0,2,287,102,45,12,38,56,2,3,3,0,418,8,49,3,3,8
ohmanwi01,Will Ohman,2,1,12,3,0,0,1,82,29,15,3,13,14,1,1,1,0,121,3,16,1,1,3
olivaom01,Omar Olivares,6,6,30,15,1,0,1,334,125,66,12,55,60,1,4,5,0,500,5,70,2,5,14
oliveda02,Darren Oliver,6,8,33,20,1,0,1,398,152,79,16,52,70,3,4,5,1,588,5,83,6,4,15
olsongr01,Gregg Olson,3,2,23,3,0,0,4,118,38,19,5,16,31,1,1,1,0,170,11,21,1,1,3
ontivst02,Steve Ontiveros,2,2,15,4,0,0,1,114,42,21,5,17,6,1,2,1,0,168,4,22,1,1,4
oroscje01,Jesse Orosco,1,1,20,2,0,0,1,84,26,15,4,14,28,1,1,1,0,124,5,16,1,1,3
ortizra01,Ramon Ortiz,7,7,34,17,1,0,2,364,114,68,18,59,87,2,6,4,3,527,6,74,4,4,11
ortizru01,Russ Ortiz,13,10,42,26,1,0,1,539,173,92,23,100,149,3,8,6,0,796,6,102,9,6,14
osunaan01,Antonio Osuna,3,4,32,4,0,0,2,178,53,29,7,29,64,1,2,2,1,260,10,31,3,2,4
padilvi01,Vicente Padilla,2,4,21,4,0,0,1,125,48,23,5,20,25,2,1,1,0,188,5,26,3,2,4
paintla01,Lance Painter,3,3,39,5,0,0,1,196,66,34,8,27,55,2,3,2,0,284,9,37,4,2,6
palacvi01,Vicente Palacios,2,2,12,3,0,0,1,89,31,16,4,13,22,1,1,1,0,129,3,18,1,1,3
paniajo01,Jose Paniagua,4,4,45,4,0,0,3,220,68,34,7,37,66,2,4,5,0,320,14,36,3,3,8
parkch01,Chan Ho Park,13,10,42,28,2,0,1,581,175,89,22,98,179,4,9,10,1,844,5,97,9,6,17
parquji01,Jim Parque,11,9,42,27,1,0,1,519,197,89,21,71,106,2,3,9,3,773,5,102,5,5,18
parrajo01,Jose Parra,2,2,17,5,0,0,1,128,47,23,6,19,30,1,1,2,0,188,4,25,2,1,4
parrijo01,John Parrish,5,5,29,11,0,0,2,242,83,47,11,53,56,2,3,3,0,363,7,51,3,4,8
parrist01,Steve Parris,11,11,40,25,1,0,1,500,180,83,23,62,107,5,6,5,1,731,5,90,8,4,15
patteda04,Danny Patterson,3,2,39,4,0,0,1,178,69,31,7,19,34,2,2,2,0,260,11,33,2,2,7
pavanca01,Carl Pavano,8,7,31,18,0,0,1,365,123,59,13,43,80,2,2,6,1,527,5,65,5,4,10
penaje01,Jesus Pena,1,1,14,3,0,0,1,87,29,15,4,17,22,1,1,1,0,130,3,17,1,1,3
pennybr01,Brad Penny,8,7,37,18,0,0,2,368,124,65,15,59,82,4,4,5,1,540,7,71,5,3,11
percitr01,Troy Percival,4,4,38,3,0,0,16,166,45,28,7,28,60,2,2,2,0,239,25,29,2,2,4
perezca01,Carlos Perez,6,8,35,19,1,0,1,394,161,79,22,42,61,2,3,6,1,583,6,84,6,3,12
perezyo01,Yorkis Perez,2,2,25,3,0,0,1,117,38,20,5,19,33,1,2,1,0,172,6,22,2,2,3
perisma01,Matt Perisho,4,6,34,11,0,0,1,281,111,61,14,52,66,3,4,4,0,432,8,69,4,4,9
persoro01,Robert Person,9,7,43,22,1,0,2,477,145,74,19,83,149,2,6,5,1,692,8,80,6,7,12
peterch01,Chris Peters,2,3,17,5,0,0,1,139,50,24,6,19,30,1,2,2,0,205,4,26,2,2,5
petkoma01,Mark Petkovsek,5,3,42,5,0,0,2,218,79,36,8,23,33,3,2,3,0,315,12,39,4,2,7
pettian01,Andy Pettitte,14,9,39,26,2,0,1,544,196,91,18,75,114,3,3,4,1,798,5,99,6,5,22
pichahi01,Hipolito Pichardo,4,3,24,5,0,0,1,174,60,28,5,23,31,2,2,2,0,252,5,32,2,2,5
pineijo01,Joel Pineiro,2,2,16,4,0,0,1,121,44,22,5,20,19,1,1,1,0,180,5,24,1,2,3
plesada01,Dan Plesac,3,2,36,3,0,0,1,137,43,22,5,21,52,1,2,1,0,201,8,25,3,1,3
politcl01,Cliff Politte,5,4,28,10,0,0,1,242,81,41,11,39,65,2,4,2,0,354,6,45,3,2,8
ponsosi01,Sidney Ponson,10,11,43,27,4,0,2,590,208,104,28,73,124,2,5,3,0,849,6,112,4,5,17
pooleji02,Jim Poole,2,1,12,3,0,0,1,77,30,14,3,12,24,1,1,1,0,114,3,16,1,1,2
potelo01,Lou Pote,2,2,26,4,0,0,2,162,54,25,6,21,46,1,2,1,0,233,9,28,2,1,6
powelbr01,Brian Powell,3,3,21,8,0,0,1,181,66,33,10,25,30,1,2,2,0,268,5,37,2,2,5
powelja04,Jay Powell,3,3,28,3,0,0,2,138,47,24,4,24,41,2,2,1,0,204,9,25,2,1,4
powelje01,Jeremy Powell,3,5,21,9,0,0,1,186,71,35,9,26,33,1,2,3,0,276,5,40,4,2,5
prietar01,Ariel Prieto,3,4,24,9,0,0,1,199,78,36,8,28,39,2,2,2,0,297,6,40,3,2,6
prokolu01,Luke Prokopec,3,3,22,7,0,0,1,176,59,29,7,25,35,1,2,3,0,255,6,33,2,2,6
pulsibi01,Bill Pulsipher,4,5,24,10,0,0,1,217,81,42,11,32,41,2,3,2,0,324,5,46,4,3,8
quantpa01,Paul Quantrill,3,4,45,4,0,0,2,213,80,35,7,23,43,2,2,3,0,310,15,37,2,3,7
queveru01,Ruben Quevedo,5,8,33,13,1,0,2,294,103,63,17,53,69,3,3,3,0,444,7,69,4,3,7
radinsc01,Scott Radinsky,2,2,16,2,0,0,2,82,28,14,3,12,19,1,1,1,0,121,5,15,1,1,2
radkebr01,Brad Radke,11,13,41,28,3,1,1,586,219,94,24,45,121,2,5,5,0,836,5,100,6,4,16
rainst01,Steve Rain,3,3,27,4,0,0,1,157,56,28,8,25,54,1,3,2,0,231,6,30,2,2,5
rakerja01,Jason Rakers,2,2,15,3,0,0,1,109,43,21,5,15,23,1,2,1,0,161,4,23,1,1,3
ramirhe01,Hector Ramirez,2,2,14,3,0,0,1,95,32,17,4,14,14,1,1,1,0,138,4,18,1,1,3
ramsaro01,Robert Ramsay,2,3,25,5,0,0,1,160,52,26,6,32,33,2,3,2,0,236,6,29,2,2,5
rapppa01,Pat Rapp,8,10,40,25,0,0,1,474,173,90,18,78,99,4,7,6,0,708,6,99,3,5,18
ratlijo01,Jon Ratliff,1,1,10,3,0,0,1,76,26,13,3,10,0,1,1,1,0,111,3,14,1,1,2
reamebr01,Britt Reames,4,4,27,10,0,0,2,229,69,36,9,38,60,2,3,3,1,332,6,41,2,2,8
redmama01,Mark Redman,9,7,39,18,0,0,2,389,144,70,18,43,101,2,5,4,0,566,8,73,4,3,10
reedri01,Rick Reed,10,7,37,24,1,0,1,489,172,79,24,36,113,3,3,4,1,688,5,82,5,4,14
reedst01,Steve Reed,3,2,38,4,0,0,1,174,62,29,8,21,42,3,2,2,0,254,10,33,3,2,5
reichda01,Dan Reichert,7,7,40,15,1,0,2,368,129,68,13,72,73,2,9,5,0,550,10,76,4,5,18
rekarbr01,Bryan Rekar,7,9,41,21,1,0,1,458,177,80,21,44,87,2,5,5,0,667,7,89,4,7,13
remlimi01,Mike Remlinger,5,3,40,5,0,0,4,205,60,30,8,33,65,2,3,2,0,296,9,33,3,2,7
reyesal01,Alberto Reyes,2,2,16,3,0,0,1,93,28,16,4,15,32,1,1,1,0,135,5,17,1,1,3
reyesca01,Carlos Reyes,2,2,22,3,0,0,1,124,41,21,6,16,30,1,2,1,0,179,7,23,2,1,4
reyesde01,Dennys Reyes,3,2,38,4,0,0,1,164,51,27,6,32,54,1,4,2,0,243,9,32,3,2,5
reynoar02,Armando Reynoso,10,9,39,24,1,0,1,474,166,85,19,58,81,5,5,6,1,685,5,90,8,5,12
reynosh01,Shane Reynolds,9,8,33,21,1,1,1,441,163,73,18,38,120,2,4,4,0,634,4,79,6,5,14
rhodear01,Arthur Rhodes,4,5,41,4,0,0,2,193,54,33,8,32,73,3,3,1,0,277,8,35,2,2,6
riedljo01,John Riedling,2,2,15,3,0,0,1,100,32,17,4,15,41,1,1,1,0,145,4,19,1,1,3
rigbybr01,Brad Rigby,2,2,14,3,0,0,1,90,35,16,4,11,12,1,1,1,0,134,4,18,1,1,3
rigdopa01,Paul Rigdon,6,5,31,13,0,0,2,290,97,50,15,38,67,4,3,3,0,422,7,54,4,5,7
riggaje01,Jerrod Riggan,1,1,10,3,0,0,1,79,28,14,3,10,12,1,1,1,0,116,3,15,1,1,2
rincori01,Ricardo Rincon,2,2,28,3,0,0,2,118,36,19,5,19,35,2,1,1,0,171,7,21,1,1,4
ritchto01,Todd Ritchie,10,8,41,24,1,0,1,511,182,84,21,52,112,3,6,4,1,731,6,94,6,4,18
riverlu02,Luis Rivera,1,1,11,3,0,0,1,79,27,14,3,11,0,1,1,1,0,115,3,15,1,1,2
riverma01,Mariano Rivera,5,3,45,4,0,0,20,207,56,28,6,23,53,2,2,2,0,290,33,29,3,2,5
robergr01,Grant Roberts,2,2,16,4,0,0,1,115,42,21,5,17,27,1,1,1,0,170,4,23,1,2,3
rockejo01,John Rocker,3,3,42,4,0,0,13,178,47,25,6,37,83,3,4,2,1,262,24,29,2,1,4
rodrife01,Felix Rodriguez,3,3,46,4,0,0,2,217,67,32,7,36,75,2,3,3,1,316,15,36,3,3,5
rodrifr02,Frankie Rodriguez,3,3,22,5,0,0,1,168,67,33,8,24,33,2,2,2,0,251,6,35,1,2,6
rodrijo02,Jose Rodriguez,2,1,12,3,0,0,1,82,27,14,3,12,13,1,1,1,0,120,3,16,1,1,2
rodriri02,Rich Rodriguez,2,2,31,3,0,0,1,144,56,28,7,19,30,2,2,2,0,215,7,31,2,2,5
rogerke01,Kenny Rogers,11,9,38,25,2,0,1,531,186,87,17,60,105,2,3,7,1,763,5,93,4,4,21
romerjc01,J. C. Romero,4,6,31,12,0,0,2,267,103,53,11,40,71,2,3,3,1,396,7,58,4,3,9
roquera01,Rafael Roque,2,2,15,4,0,0,1,108,38,20,6,18,27,1,1,1,0,161,3,22,1,1,3
rosadjo01,Jose Rosado,5,6,25,13,1,0,1,287,95,47,12,33,67,1,3,4,0,414,4,53,3,2,8
rosebr01,Brian Rose,6,7,31,16,0,0,1,312,116,57,16,41,58,4,3,4,1,463,6,63,3,3,8
rueteki01,Kirk Rueter,11,9,40,26,1,0,1,505,188,85,23,55,77,4,3,4,0,733,5,94,10,6,17
ruffijo01,Johnny Ruffin,2,2,12,3,0,0,1,88,33,16,4,12,15,1,1,1,0,130,3,18,1,1,3
runyase01,Sean Runyan,1,2,16,3,0,0,1,84,27,14,4,13,19,1,1,1,0,122,3,15,1,2,2
rupery01,Ryan Rupe,7,7,33,19,0,0,1,366,135,72,18,46,81,3,4,8,0,542,5,78,3,6,10
ruschgl01,Glendon Rusch,9,10,39,22,1,0,2,468,169,76,18,44,121,2,3,5,0,672,7,84,6,5,13
ryanbj01,B. J. Ryan,3,3,27,4,0,0,1,147,43,27,6,29,53,1,2,1,0,215,7,28,2,2,4
ryanja04,Jason Ryan,2,3,18,5,0,0,1,136,52,26,8,18,24,1,2,2,0,202,5,28,1,2,4
sanchje01,Jesus Sanchez,8,10,52,24,1,1,1,482,171,92,25,79,116,6,6,5,1,714,8,99,7,9,13
santajo01,Johan Santana,3,4,29,7,0,0,1,231,86,46,10,42,55,1,3,2,1,345,8,49,2,3,8
santaju01,Julio Santana,3,4,27,7,0,0,1,204,72,40,10,32,45,2,2,3,0,301,7,43,2,2,7
santijo03,Jose Santiago,5,4,33,4,0,0,2,195,66,31,8,24,36,2,2,3,0,284,12,35,2,3,6
sasakka01,Kazuhiro Sasaki,3,4,33,4,0,0,11,167,46,26,8,26,71,2,2,2,0,241,20,29,2,2,4
sauersc01,Scott Sauerbeck,4,3,46,4,0,0,2,208,65,31,7,44,68,4,4,2,1,307,10,34,3,2,9
sauveri01,Rich Sauveur,2,2,13,3,0,0,1,88,32,15,4,10,21,1,1,1,0,128,4,17,1,1,3
scanlbo01,Bob Scanlan,1,1,11,3,0,0,1,76,27,14,3,11,9,1,1,1,0,112,3,15,1,1,2
schilcu01,Curt Schilling,8,6,27,16,4,1,1,374,116,55,14,29,116,1,3,3,0,516,4,57,6,3,10
schmija01,Jason Schmidt,6,7,27,16,1,0,1,341,120,58,13,48,83,3,4,3,1,502,4,63,4,3,10
schoesc01,Scott Schoeneweis,7,8,46,19,1,1,2,449,163,86,19,59,71,3,4,5,2,656,8,94,3,5,21
schoupe01,Pete Schourek,5,9,36,19,0,0,1,372,135,68,19,48,86,3,4,4,0,543,6,75,4,4,11
schrest01,Steve Schrenk,2,3,20,4,0,0,1,124,40,23,5,17,31,1,1,2,0,181,6,24,2,1,3
seaneru01,Rudy Seanez,3,2,25,3,0,0,2,121,36,20,4,17,40,1,1,1,0,175,7,21,1,1,3
seelbch02,Chris Seelbach,1,2,10,3,0,0,1,78,28,14,3,10,16,1,1,1,0,113,3,15,1,1,2
seleaa01,Aaron Sele,14,9,40,27,2,1,1,556,204,95,17,67,139,5,5,7,0,813,5,101,4,6,17
serafda01,Dan Serafini,5,6,38,12,0,0,2,296,116,57,13,42,45,3,3,4,0,444,8,62,7,4,9
servisc01,Scott Service,3,3,29,3,0,0,2,150,54,29,7,24,49,2,2,2,0,224,10,31,2,3,4
shawje01,Jeff Shaw,3,4,40,4,0,0,15,178,61,28,7,17,40,2,1,2,0,257,27,30,2,1,4
shueypa01,Paul Shuey,4,3,41,4,0,0,2,194,57,30,7,30,76,3,3,2,0,280,12,32,2,2,5
sikorbr01,Brian Sikorski,3,4,23,7,0,0,1,186,68,34,10,32,48,2,2,2,0,280,6,39,2,2,4
silvajo01,Jose Silva,7,8,42,15,1,0,2,349,137,67,13,43,83,4,4,4,1,521,10,75,6,4,10
simasbi01,Bill Simas,4,3,43,4,0,0,3,198,65,30,8,25,46,4,2,2,0,285,12,33,3,3,7
sirotmi01,Mike Sirotka,11,10,39,26,2,0,1,537,196,83,22,54,112,2,5,3,1,770,5,98,5,5,19
skrmema01,Matt Skrmetta,2,2,13,3,0,0,1,89,32,17,4,12,21,1,1,1,0,131,3,18,1,1,3
slocuhe01,Heathcliff Slocumb,2,2,22,3,0,0,1,117,39,19,4,22,30,2,2,1,0,175,7,21,2,2,3
slusajo01,Joe Slusarski,3,4,32,4,0,0,2,188,65,31,7,22,45,2,3,2,0,272,9,33,2,2,5
smithbr03,Brian Smith,1,1,11,3,0,0,1,82,29,15,4,11,18,1,1,1,0,119,3,16,1,1,3
smithch06,Chuck Smith,6,6,34,16,1,0,2,361,114,54,11,53,119,3,5,4,1,516,7,61,4,5,12
smithda06,Dan Smith,2,2,13,5,0,0,1,109,40,21,5,16,27,1,1,1,0,161,3,22,2,2,3
snydejo02,John Snyder,7,10,36,22,1,0,1,414,161,87,18,63,74,5,7,7,0,627,5,94,5,6,13
sparkje01,Jeff Sparks,2,2,16,3,0,0,1,108,31,18,4,23,46,1,2,2,0,160,4,20,1,1,3
sparkst01,Steve Sparks,6,6,30,16,1,0,1,347,122,60,13,48,63,1,5,5,0,512,6,67,2,4,9
sparkst02,Steve Sparks,2,1,11,3,0,0,1,82,28,15,3,13,12,1,1,1,0,121,3,16,1,1,3
speieju01,Justin Speier,3,3,32,4,0,0,1,187,59,30,9,27,60,2,3,2,0,272,10,33,2,3,5
spencse01,Sean Spencer,2,2,13,3,0,0,1,87,31,16,4,13,26,1,2,1,0,128,3,17,1,1,3
spencst02,Stan Spencer,4,6,28,12,0,0,2,264,94,47,14,30,77,2,2,3,1,384,6,53,4,2,7
spoljpa01,Paul Spoljaric,2,2,18,3,0,0,1,107,36,19,5,19,35,1,1,1,0,159,4,22,2,1,3
spradje01,Jerry Spradlin,2,2,24,3,0,0,1,126,42,22,5,16,38,2,2,3,0,184,6,24,2,1,3
sprinde01,Dennis Springer,3,6,24,11,1,0,1,251,96,46,11,34,35,2,3,4,0,369,5,51,4,3,8
sprinru01,Russ Springer,3,3,37,4,0,0,1,180,56,31,8,31,58,3,2,2,0,264,8,33,2,2,4
spurgja01,Jay Spurgeon,3,3,22,7,0,0,1,175,61,32,8,29,26,1,3,3,0,258,6,34,2,2,6
staniro01,Rob Stanifer,2,2,14,3,0,0,1,94,36,17,4,13,14,1,1,1,0,141,4,21,1,1,3
stantmi02,Mike Stanton,3,3,46,4,0,0,1,193,67,32,7,23,66,2,2,2,0,279,12,35,2,3,5
stechge01,Gene Stechschulte,2,2,17,4,0,0,1,114,38,21,6,19,17,1,2,1,0,168,5,23,1,2,3
steinbl01,Blake Stein,7,6,32,17,1,0,1,365,113,63,19,65,86,2,7,5,0,533,5,69,4,4,12
stephga01,Garrett Stephenson,12,8,42,24,2,1,2,503,177,85,24,60,107,2,3,6,1,728,6,92,6,6,12
steveda01,Dave Stevens,1,1,12,3,0,0,1,82,29,15,4,12,22,1,1,1,0,120,4,16,1,1,2
stottto01,Todd Stottlemyre,8,6,31,17,0,0,1,346,121,60,16,47,92,2,3,4,1,504,5,64,4,3,8
stricsc01,Scott Strickland,3,3,30,4,0,0,3,156,47,25,6,21,56,2,2,2,0,225,10,27,2,2,4
stronjo01,Joe Strong,2,2,16,3,0,0,1,101,37,19,4,16,28,1,1,1,0,150,4,20,1,1,3
stullev01,Everett Stull,3,3,22,6,0,0,1,161,53,30,7,30,39,2,3,3,0,239,5,33,2,2,5
sturtta01,Tanyon Sturtze,4,2,23,7,0,0,1,182,59,27,7,21,45,1,2,2,0,261,7,30,2,1,5
sullisc01,Scott Sullivan,4,5,53,4,0,0,2,268,77,39,11,34,75,4,4,6,0,379,13,43,3,3,8
suppaje01,Jeff Suppan,9,9,43,27,2,1,1,572,207,101,28,68,107,4,6,5,1,827,6,105,6,5,20
suzukma01,Mac Suzuki,7,9,44,22,1,1,2,482,170,82,21,77,109,4,9,4,0,713,7,91,4,3,14
swindgr01,Greg Swindell,3,4,44,4,0,0,1,204,65,29,8,23,57,3,1,2,0,290,12,32,4,2,5
tamje01,Jeff Tam,3,3,40,5,0,0,2,206,69,30,7,22,39,4,2,2,0,292,12,33,2,3,8
tapanke01,Kevin Tapani,9,10,37,24,1,0,1,502,182,91,24,45,115,2,3,6,0,721,5,96,6,5,13
tavarju01,Julian Tavarez,7,4,48,8,1,0,2,298,106,52,11,43,54,6,3,6,1,440,11,57,4,3,10
taylobi04,Billy Taylor,2,2,19,3,0,0,3,96,34,18,4,14,28,2,1,1,0,142,8,19,1,1,3
telemam01,Amaury Telemaco,3,3,22,5,0,0,1,143,49,27,7,18,34,1,2,2,0,209,4,29,2,2,4
telfoan01,Anthony Telford,4,4,46,4,0,0,2,217,76,34,8,27,56,2,3,3,1,316,13,39,3,3,7
tessmja01,Jay Tessmer,2,1,13,3,0,0,1,87,33,16,4,12,17,1,1,1,0,128,4,18,1,1,3
thompma01,Mark Thompson,2,2,17,4,0,0,1,121,41,21,5,20,28,1,2,2,0,179,4,24,2,1,4
thurmmi01,Mike Thurman,6,9,33,19,0,0,1,359,127,66,14,51,68,4,4,5,0,529,5,75,6,5,10
timlimi01,Mike Timlin,3,3,28,3,0,0,6,136,43,21,5,18,37,2,1,2,0,197,14,23,2,1,5
tolarke01,Kevin Tolar,1,1,11,3,0,0,1,79,26,14,3,11,29,1,1,1,0,116,3,15,1,1,3
tollbbr01,Brian Tollberg,5,6,34,16,1,0,2,357,127,55,14,39,78,4,3,5,1,517,7,64,5,2,10
tomkobr01,Brett Tomko,5,5,28,12,0,0,1,293,98,51,14,36,71,4,3,3,0,423,6,56,5,3,7
trachst01,Steve Trachsel,6,7,27,16,1,0,1,334,120,63,16,42,75,2,3,3,1,485,4,66,4,5,10
trombmi01,Mike Trombley,3,4,47,4,0,0,6,206,68,34,11,30,66,3,4,3,0,301,21,35,3,2,5
tucketj01,T. J. Tucker,4,4,26,8,0,0,2,197,72,37,11,27,17,2,3,2,0,291,7,40,2,2,6
turnbde01,Derrick Turnbow,2,2,21,4,0,0,1,141,46,25,7,31,29,1,2,2,0,211,8,27,1,2,5
urbinug01,Ugueth Urbina,2,2,24,3,0,0,9,119,33,19,4,18,57,1,2,1,0,170,15,20,1,1,3
valdeis01,Ismael Valdez,5,6,24,14,1,0,1,291,104,49,13,33,69,2,3,3,0,421,4,52,3,3,8
valdema01,Marc Valdes,3,4,29,4,0,0,2,160,60,29,6,24,33,1,2,3,0,238,9,34,2,2,6
vanpoto01,Todd Van Poppel,4,4,32,6,0,0,2,208,68,34,8,34,59,2,3,2,0,304,8,37,3,2,5
vazquja01,Javier Vazquez,10,10,42,28,2,1,1,566,206,95,24,62,159,6,4,6,0,823,5,105,8,4,16
venafmi01,Mike Venafro,3,3,44,4,0,0,1,181,63,28,6,23,34,2,1,3,0,262,11,31,3,3,7
veresda01,Dave Veres,3,4,47,4,0,0,13,208,68,32,8,27,64,3,3,3,1,299,30,34,3,2,7
villabr01,Brandon Villafuerte,2,1,11,3,0,0,1,83,28,15,3,13,6,1,1,1,0,122,3,16,1,1,3
villeis01,Ismael Villegas,2,1,11,3,0,0,1,81,28,15,4,12,16,1,1,1,0,119,3,16,1,1,2
villoro01,Ron Villone,8,8,40,18,1,0,2,396,129,72,16,70,78,3,5,6,0,585,8,78,8,5,11
vizcalu01,Luis Vizcaino,2,2,15,3,0,0,1,106,38,20,5,17,29,1,1,2,0,158,4,22,1,1,3
vogelry01,Ryan Vogelsong,2,2,12,3,0,0,1,87,29,14,4,12,32,1,1,1,0,126,4,16,1,1,3
vosbeed01,Ed Vosberg,2,2,19,3,0,0,1,108,37,18,5,19,34,1,1,1,0,159,4,20,1,1,3
wagnebi02,Billy Wagner,3,3,29,3,0,0,9,138,36,21,6,20,70,1,3,1,0,198,17,22,2,1,3
wainhda01,Dave Wainhouse,2,2,15,3,0,0,1,95,37,18,5,14,17,1,1,1,0,141,5,20,1,1,4
wakefti01,Tim Wakefield,7,8,42,15,0,0,4,384,132,72,20,53,86,2,3,5,0,567,13,80,3,6,10
walkeke01,Kevin Walker,4,3,36,5,0,0,1,179,51,30,7,31,51,3,2,3,0,261,8,33,3,2,5
walkepe01,Pete Walker,1,1,11,3,0,0,1,81,31,15,4,12,9,1,1,1,0,120,3,17,1,1,3
wallaje01,Jeff Wallace,3,2,29,4,0,0,1,144,45,27,6,34,39,1,3,2,0,218,6,29,2,2,4
walldo01,Donne Wall,4,3,33,4,0,0,1,174,48,26,7,24,41,2,2,1,0,245,9,28,2,1,5
wardbr01,Bryan Ward,1,2,18,3,0,0,1,99,40,19,5,11,23,1,1,1,0,146,5,21,1,1,3
wasdijo01,John Wasdin,3,3,26,5,0,0,1,173,61,31,9,17,46,2,2,2,0,249,7,33,2,2,4
washbja01,Jarrod Washburn,7,5,32,15,0,0,1,329,100,54,16,46,68,2,3,3,0,467,6,59,3,4,10
watsoal01,Allen Watson,2,2,17,4,0,0,1,118,44,22,5,17,30,1,2,1,0,175,5,24,1,2,3
watsoma01,Mark Watson,2,2,12,3,0,0,1,86,32,15,3,11,15,1,1,1,0,126,3,17,1,1,3
weathda01,David Weathers,4,4,43,4,0,0,2,215,74,34,9,29,54,3,1,2,0,312,12,36,3,2,7
weaveer01,Eric Weaver,2,2,17,3,0,0,1,106,37,20,5,20,21,1,2,1,0,159,5,22,1,1,3
weaveje01,Jeff Weaver,10,12,42,26,1,0,2,538,188,94,25,55,124,3,3,13,1,776,6,100,5,7,15
weberbe01,Ben Weber,2,2,14,3,0,0,1,96,32,16,4,11,19,1,1,1,0,139,3,18,1,1,3
wellsbo01,Bob Wells,3,4,48,4,0,0,4,227,73,36,10,21,55,2,2,3,0,321,13,40,3,3,5
wellsda01,David Wells,15,8,40,27,6,1,1,578,209,94,23,37,143,2,5,6,0,818,5,101,5,5,16
wellski01,Kip Wells,7,8,35,18,0,0,2,349,133,67,15,60,83,3,6,4,1,525,7,74,3,4,13
wendetu01,Turk Wendell,5,4,50,4,0,0,2,221,64,33,8,34,65,5,2,3,1,317,11,35,3,2,4
wengedo01,Don Wengert,1,2,14,3,0,0,1,96,38,19,5,13,20,1,1,1,0,143,4,20,1,1,3
westbja01,Jake Westbrook,3,4,21,6,0,0,1,160,63,30,7,23,6,2,2,2,0,237,6,33,2,2,5
wettejo01,John Wetteland,4,4,41,4,0,0,19,181,62,29,8,21,58,2,1,2,0,264,30,32,2,3,5
wheelda01,Dan Wheeler,2,3,18,6,0,0,1,142,52,26,6,20,40,2,2,2,0,211,5,28,2,2,4
whisema01,Matt Whisenant,2,2,22,3,0,0,1,111,34,19,4,21,25,1,3,1,0,162,7,21,1,2,4
whitega01,Gabe White,5,3,44,4,0,0,3,217,67,31,9,19,72,2,2,2,0,304,13,33,2,3,5
whitema02,Matt Whiteside,3,3,22,4,0,0,1,132,47,24,6,18,33,2,2,1,0,194,6,27,2,1,4
whiteri01,Rick White,3,3,25,3,0,0,1,148,54,24,5,19,34,2,1,2,0,217,6,27,1,2,4
wickmbo01,Bob Wickman,2,4,29,3,0,0,10,136,46,21,4,21,33,2,1,1,0,199,18,23,3,1,5
wilkima01,Marc Wilkins,3,3,36,4,0,0,1,180,56,31,6,34,43,2,3,4,0,267,9,34,3,3,6
willibr01,Brian Williams,2,2,19,3,0,0,1,121,43,21,4,19,26,1,2,2,0,179,5,22,2,2,3
willije01,Jeff Williams,2,1,12,3,0,0,1,89,31,17,4,16,12,1,1,1,0,131,3,18,1,1,3
willima06,Matt Williams,2,2,13,3,0,0,1,88,29,16,4,17,20,1,1,1,0,130,3,17,1,1,3
willimi03,Mike Williams,4,4,44,4,0,0,11,198,61,32,8,33,73,3,2,2,0,288,28,35,2,3,6
willisc01,Scott Williamson,7,7,46,8,0,0,7,300,79,42,10,57,121,5,11,3,0,431,17,46,4,3,9
williwo02,Woody Williams,9,8,35,22,2,0,1,486,157,77,24,58,110,3,5,3,0,690,5,82,5,5,13
wilsokr01,Kris Wilson,2,2,19,4,0,0,1,130,47,22,5,16,22,2,1,1,0,188,5,24,2,1,5
wilsopa02,Paul Wilson,3,5,25,9,0,0,1,220,66,35,7,27,61,2,2,3,0,314,6,38,3,3,5
winchsc01,Scott Winchester,1,2,11,4,0,0,1,87,33,15,4,10,14,1,1,1,0,128,3,17,1,1,3
wisema01,Matt Wise,4,4,25,9,0,0,2,214,75,39,10,27,38,2,2,2,0,312,6,41,2,3,6
witasja01,Jay Witasick,6,6,30,16,0,0,1,318,122,61,15,54,79,3,4,5,1,483,6,68,4,4,10
wittbo01,Bobby Witt,3,4,18,8,1,0,1,178,70,35,8,28,37,1,3,2,0,266,4,39,2,2,7
wohlema01,Mark Wohlers,2,2,19,3,0,0,1,116,34,21,5,27,29,1,2,1,0,172,6,23,2,1,3
wolfra02,Randy Wolf,10,10,43,26,1,0,2,539,184,93,24,79,148,2,4,7,0,786,6,100,8,6,15
woodast01,Steve Woodard,6,6,27,15,1,0,1,306,114,54,14,23,72,3,3,4,1,439,4,57,4,3,9
woodke02,Kerry Wood,8,7,34,19,1,0,2,397,109,68,16,74,147,2,5,7,1,577,6,72,5,4,9
worreti01,Tim Worrell,3,3,37,4,0,0,2,186,62,28,7,25,54,3,2,2,0,271,13,31,3,2,4
wrighja01,Jamey Wright,7,8,36,22,0,0,1,457,159,77,16,77,80,4,6,10,1,670,5,85,5,5,19
wrighja02,Jaret Wright,6,6,27,15,1,0,1,303,103,57,13,50,71,2,3,4,0,446,4,61,2,3,10
wunscke01,Kelly Wunsch,4,3,39,4,0,0,1,167,51,26,6,25,48,1,1,2,0,241,7,28,1,2,5
yanes01,Esteban Yan,6,7,52,12,0,0,1,355,131,72,18,45,95,2,5,8,1,527,13,74,5,5,10
yarnaed01,Ed Yarnall,3,2,18,5,0,0,1,140,49,25,6,22,29,1,1,2,0,206,5,27,2,1,4
yoshima01,Masato Yoshii,8,10,37,24,1,0,1,473,170,88,24,52,92,4,3,4,1,677,5,90,7,6,16
youngda01,Danny Young,1,2,11,3,0,0,1,79,28,15,4,14,0,1,1,1,0,117,3,16,1,1,2
youngti01,Tim Young,2,1,13,3,0,0,1,86,30,15,4,12,27,1,1,1,0,126,3,17,1,1,2
zerbech01,Chad Zerbe,2,1,11,3,0,0,1,84,29,15,4,11,26,1,1,1,0,122,3,16,1,1,3
zimmeje02,Jeff Zimmerman,5,4,42,4,0,0,2,206,63,33,9,27,65,2,2,2,1,297,11,36,2,4,5
zitoba01,Barry Zito,7,6,33,14,1,1,2,330,90,48,11,52,97,3,3,3,0,469,7,52,3,2,10
