playerID,playerName,W,L,G,GS,CG,SHO,SV,IPouts,H,ER,HR,BB,SO,IBB,WP,HBP,BK,BFP,GF,R,SH,SF,GIDP
abbotpa01,Paul Abbott,5,4,22,11,0,0,1,233,75,43,10,39,52,2,4,3,0,342,4,44,2,2,6
acevejo01,Jose Acevedo,5,5,25,11,0,0,1,231,81,42,12,30,51,2,3,3,0,336,5,45,4,2,6
aceveju01,Juan Acevedo,3,4,38,4,0,0,8,193,62,26,6,24,40,3,2,3,0,276,18,31,3,3,6
adamste01,Terry Adams,7,7,46,15,0,0,1,372,123,59,10,49,93,3,6,3,1,534,11,65,6,2,13
affelje01,Jeremy Affeldt,4,4,30,8,0,0,1,220,76,36,8,32,61,3,3,3,1,322,6,38,2,2,6
ainswku01,Kurt Ainsworth,3,4,24,7,0,0,2,189,60,28,7,26,39,2,2,3,0,271,6,31,3,2,5
alfonan01,Antonio Alfonseca,3,4,45,4,0,0,14,204,70,30,7,26,50,3,2,3,0,296,31,33,3,2,7
almanar01,Armando Almanza,3,3,37,4,0,0,1,155,45,25,7,29,59,2,2,1,0,222,7,27,2,2,4
almanca01,Carlos Almanzar,2,2,18,3,0,0,1,108,36,17,4,13,26,1,1,1,0,155,5,18,1,2,3
alvarju01,Juan Alvarez,2,3,28,4,0,0,1,134,43,22,6,21,32,1,1,2,0,194,7,24,2,2,4
alvarvi01,Victor Alvarez,2,2,16,4,0,0,1,118,39,19,5,14,30,1,1,1,0,169,4,20,1,1,4
alvarwi01,Wilson Alvarez,4,4,28,9,0,0,2,230,79,39,11,34,56,3,2,3,0,337,6,43,3,3,6
anderbr02,Brian Anderson,6,8,37,20,1,0,1,418,155,72,21,31,68,3,3,3,2,592,5,78,5,5,13
anderji02,Jimmy Anderson,8,11,37,23,1,0,1,447,169,82,16,61,59,6,5,6,0,662,5,88,6,5,18
anderma01,Matt Anderson,2,2,23,3,0,0,3,110,36,19,4,17,33,2,2,1,0,159,10,21,1,2,3
appieke01,Kevin Appier,11,10,39,26,1,0,1,513,166,76,20,65,126,4,7,8,0,729,5,83,4,6,14
armasto02,Tony Armas,10,11,40,26,0,0,1,497,150,79,19,78,135,8,9,7,1,713,5,86,8,4,14
arrojro01,Rolando Arrojo,4,4,31,9,0,0,2,250,79,40,8,28,56,2,2,6,0,357,7,43,4,2,8
arroybr01,Bronson Arroyo,4,4,23,8,0,0,1,192,70,32,7,28,37,3,2,2,0,282,4,37,3,3,5
asencmi01,Miguel Asencio,5,6,38,16,0,0,2,343,122,59,15,54,52,3,5,4,0,504,10,63,3,5,12
ashbyan01,Andy Ashby,9,9,38,21,1,0,2,446,150,67,17,49,88,4,3,6,0,635,6,73,6,4,13
astacpe01,Pedro Astacio,9,8,38,23,2,0,2,468,160,79,23,54,130,4,3,11,1,674,6,84,6,5,12
austije01,Jeff Austin,2,2,16,3,0,0,1,100,35,16,4,15,27,1,2,1,0,146,5,18,1,2,3
aybarma01,Manny Aybar,2,2,17,3,0,0,1,103,34,16,4,14,22,1,1,2,0,149,4,18,1,1,3
backebr01,Brandon Backe,2,2,14,3,0,0,1,97,33,16,4,13,14,1,1,2,0,140,4,17,1,1,3
bacsimi02,Mike Bacsik,5,4,29,10,1,0,2,252,91,41,10,29,43,3,2,4,0,366,7,45,4,3,8
baezda01,Danys Baez,9,8,51,17,1,0,4,415,128,64,14,64,114,5,5,7,1,598,12,70,3,5,11
baileco01,Cory Bailey,3,3,30,4,0,0,1,163,54,25,5,28,38,3,2,2,0,236,9,27,2,2,7
baldwja01,James Baldwin,7,8,35,19,0,0,1,401,147,70,20,44,82,3,3,6,0,578,6,75,5,3,14
bankswi01,Willie Banks,2,2,21,4,0,0,1,135,40,20,5,17,33,1,2,2,0,191,8,22,1,1,4
barcelo01,Lorenzo Barcelo,2,2,14,3,0,0,1,92,32,15,3,10,18,1,1,1,0,132,3,16,1,1,2
batismi01,Miguel Batista,9,9,47,22,1,0,1,474,145,73,16,65,97,3,7,7,1,676,8,82,6,5,15
bauerri01,Rick Bauer,4,5,34,6,0,0,2,216,73,34,10,28,38,3,3,3,0,310,9,38,2,2,8
bechlst01,Steve Bechler,2,2,12,3,0,0,1,84,28,14,4,12,15,1,1,1,0,122,3,15,1,1,2
beckejo02,Josh Beckett,7,7,36,18,0,0,2,352,102,53,14,48,124,3,5,3,0,500,7,60,5,3,7
bedarer01,Erik Bedard,1,1,11,3,0,0,1,78,27,12,3,10,28,1,1,1,0,113,3,14,1,1,2
beimejo01,Joe Beimel,4,6,39,10,0,0,1,258,91,44,9,39,48,5,3,4,0,379,8,48,4,2,8
beirnke01,Kevin Beirne,3,2,21,5,0,0,1,147,49,24,6,22,33,2,2,2,0,214,6,27,2,2,4
bellro01,Rob Bell,6,6,31,17,0,0,1,346,128,70,20,50,82,2,7,3,0,512,5,75,4,5,9
beltrfr01,Francis Beltran,2,2,14,3,0,0,1,96,32,16,4,18,24,1,1,1,0,140,4,18,2,1,3
benesal01,Alan Benes,5,4,31,9,0,0,2,242,84,40,10,33,58,2,3,2,0,350,9,45,3,3,8
benesan01,Andy Benes,7,6,32,17,1,0,1,344,113,57,18,55,83,2,2,5,0,503,5,64,5,5,8
benitar01,Armando Benitez,3,3,45,4,0,0,19,198,50,26,8,29,83,2,2,2,0,277,31,28,2,2,5
benoijo01,Joaquin Benoit,5,5,31,12,0,0,2,289,100,51,10,54,63,3,5,4,0,433,7,54,4,3,7
bensokr01,Kris Benson,7,6,34,19,0,0,2,376,133,61,15,48,87,5,3,4,1,544,5,67,5,3,12
bereja01,Jason Bere,6,9,32,19,1,0,1,362,122,63,15,46,102,3,5,3,0,523,5,70,4,5,9
bernead01,Adam Bernero,4,5,32,10,0,0,1,276,105,52,13,30,60,2,4,4,1,403,8,57,3,4,8
beverja01,Jason Beverlin,3,5,26,8,0,0,2,198,71,34,8,25,34,2,3,2,0,287,6,38,2,2,5
biddlro01,Rocky Biddle,4,5,33,10,0,0,1,250,84,42,11,36,59,3,4,4,0,364,7,48,2,2,7
boehrbr01,Brian Boehringer,3,4,40,5,0,0,2,202,61,30,7,29,54,4,2,2,0,288,11,33,3,2,5
borbope02,Pedro Borbon,3,3,38,3,0,0,1,144,48,24,6,22,42,3,1,3,0,210,6,26,2,3,4
borlato02,Toby Borland,2,2,15,3,0,0,1,95,33,16,4,12,21,1,1,2,0,138,4,17,1,1,3
borowjo01,Joe Borowski,4,4,40,5,0,0,2,217,69,30,8,25,75,3,2,2,0,306,12,33,3,2,6
bottari01,Ricky Bottalico,2,3,29,3,0,0,2,134,43,21,6,20,37,2,2,2,0,194,9,23,2,2,3
bowiemi01,Micah Bowie,2,2,14,3,0,0,1,93,31,14,4,14,20,1,1,1,0,134,4,15,1,1,3
bowlebr01,Brian Bowles,2,2,16,3,0,0,1,107,32,17,4,17,34,1,2,2,0,155,5,18,1,1,3
boydja02,Jason Boyd,2,2,19,3,0,0,1,117,41,21,5,19,27,2,2,1,0,171,5,24,2,2,4
bradfch01,Chad Bradford,4,3,43,4,0,0,2,199,68,28,6,15,53,3,1,3,0,281,12,30,2,2,7
brazede01,Dewon Brazelton,4,4,26,8,0,0,2,207,69,33,9,28,29,2,2,3,0,295,7,36,2,2,7
brockch01,Chris Brock,3,2,24,4,0,0,1,149,52,24,7,19,31,1,2,2,0,215,6,26,1,2,4
brohatr01,Troy Brohawn,2,2,20,3,0,0,1,98,34,16,4,13,19,1,1,2,0,142,4,17,1,1,3
broweji01,Jim Brower,3,4,25,5,0,0,1,174,57,28,7,27,41,2,2,3,0,254,7,31,3,1,5
brownke01,Kevin Brown,5,4,24,12,1,0,1,260,78,37,9,25,81,2,2,4,0,363,4,39,4,1,8
buddimi01,Mike Buddie,2,2,24,4,0,0,1,145,48,23,5,21,30,3,2,2,0,211,6,25,2,2,4
buehrma01,Mark Buehrle,15,10,46,28,3,1,2,623,197,85,23,55,120,5,4,6,2,860,6,93,8,4,20
bukviry01,Ryan Bukvich,2,2,19,4,0,0,1,115,38,19,4,19,28,2,1,2,0,169,4,21,2,2,3
burbada01,Dave Burba,4,3,19,9,0,0,1,193,70,35,7,27,53,1,2,2,0,283,3,38,2,2,4
burkejo03,John Burkett,10,8,38,24,1,1,1,490,168,73,18,53,128,6,4,6,1,702,5,80,5,5,12
burneaj01,A. J. Burnett,10,10,41,25,3,2,2,541,149,76,16,82,161,5,9,7,0,762,6,84,8,5,14
bynummi01,Mike Bynum,3,2,20,5,0,0,1,142,50,23,5,20,27,2,2,2,0,207,5,25,2,2,4
byrdpa01,Paul Byrd,12,10,42,25,3,1,2,544,188,83,26,43,104,3,3,6,1,763,6,93,4,8,15
cabrejo01,Jose Cabrera,6,6,48,8,0,0,2,269,100,50,14,32,56,5,3,5,0,396,14,55,5,4,6
callami01,Mickey Callaway,4,4,28,10,0,0,2,234,74,37,10,28,51,2,3,4,0,336,7,42,3,2,8
carpech01,Chris Carpenter,6,7,30,17,1,0,1,357,131,60,16,46,80,2,3,6,0,520,4,67,3,3,12
carragi01,Giovanni Carrara,5,3,41,5,0,0,1,234,73,33,11,28,55,3,2,3,0,333,8,35,4,2,5
cartela02,Lance Carter,2,2,14,3,0,0,1,106,33,15,4,12,27,1,1,1,0,150,5,17,1,1,3
cassisc01,Scott Cassidy,3,3,32,4,0,0,1,175,51,31,8,26,43,2,2,4,0,251,9,32,3,3,5
castifr01,Frank Castillo,8,10,38,20,0,0,2,422,141,71,16,49,97,4,2,6,1,604,5,77,3,6,8
cerdaja01,Jaime Cerda,2,2,21,4,0,0,1,116,36,17,4,17,31,1,1,2,0,168,5,19,1,2,3
chacosh01,Shawn Chacon,6,10,36,21,0,0,2,414,137,76,22,68,93,5,3,7,1,609,6,83,5,3,12
chenbr01,Bruce Chen,2,3,23,6,0,0,1,158,49,25,7,21,45,2,2,1,0,226,4,28,2,2,4
chiassc01,Scott Chiasson,2,2,12,3,0,0,1,86,30,15,4,13,17,1,1,1,0,125,3,16,1,1,2
childma01,Matt Childers,2,2,13,3,0,0,1,91,32,16,4,14,17,1,1,1,0,132,3,17,1,1,3
choatra01,Randy Choate,2,2,22,3,0,0,1,124,35,20,4,21,30,1,2,3,0,179,8,22,1,1,4
chrisja01,Jason Christiansen,2,2,16,3,0,0,1,86,29,13,3,10,20,1,1,1,0,123,4,14,1,1,3
clemema01,Matt Clement,10,11,41,27,1,1,1,538,161,84,18,86,167,5,10,9,0,778,5,91,10,4,15
clemero02,Roger Clemens,12,6,37,24,0,0,1,498,157,75,17,60,167,3,9,6,0,706,5,81,4,4,13
cocopa01,Pasqual Coco,2,2,11,3,0,0,1,82,27,13,3,13,13,1,1,1,0,120,3,15,1,1,2
coggida01,Dave Coggin,4,5,30,10,0,0,1,241,78,39,7,40,59,3,5,4,0,350,6,42,3,2,8
colomje01,Jesus Colome,3,4,26,4,0,0,1,154,53,28,7,28,36,3,3,2,0,228,9,31,3,2,4
colonba01,Bartolo Colon,10,7,32,20,2,0,1,421,136,61,15,58,121,3,3,2,0,601,4,66,7,3,15
condrcl01,Clay Condrey,3,3,20,6,0,0,1,151,46,22,5,18,32,2,2,2,0,214,5,24,2,2,5
cookaa01,Aaron Cook,4,3,24,8,0,0,2,192,68,31,7,24,25,2,2,3,0,277,6,33,2,2,7
cookde01,Dennis Cook,2,2,25,3,0,0,1,110,37,17,4,16,25,1,1,2,0,159,5,19,1,1,3
coopebr01,Brian Cooper,3,4,24,8,0,0,1,197,71,35,10,25,27,2,2,2,0,286,6,39,3,3,5
cordefr01,Francisco Cordero,2,2,26,4,0,0,3,145,45,20,5,21,38,2,2,2,0,206,10,23,1,1,4
coreybr01,Bryan Corey,1,1,10,3,0,0,1,76,25,12,3,9,0,1,1,1,0,109,3,13,1,1,2
coreyma02,Mark Corey,2,2,15,3,0,0,1,94,36,17,5,14,26,1,1,2,0,138,4,18,1,1,3
cormirh01,Rheal Cormier,4,4,39,4,0,0,1,177,59,30,6,23,44,3,2,3,0,256,8,32,2,2,6
cornena01,Nate Cornejo,5,7,30,13,1,0,2,276,109,49,12,38,41,3,3,4,0,412,6,55,3,2,9
creekdo01,Doug Creek,2,2,25,3,0,0,1,119,35,19,5,24,42,2,2,2,0,175,7,21,1,2,4
cressja01,Jack Cressend,2,2,25,3,0,0,1,141,49,23,6,19,31,2,2,2,0,204,6,25,2,2,4
crudami01,Mike Crudale,3,2,29,5,0,0,1,159,48,21,5,17,50,2,2,2,0,225,8,23,2,3,4
cruzju02,Juan Cruz,4,6,35,10,0,0,2,262,79,39,10,44,73,3,2,5,0,378,9,45,4,4,7
cruzne01,Nelson Cruz,4,4,40,6,0,0,1,228,77,36,10,26,62,3,3,5,0,331,11,39,3,3,6
cunnawi01,Will Cunnane,2,2,21,4,0,0,1,130,46,22,5,19,38,2,1,2,0,189,5,24,2,1,4
cyrer01,Eric Cyr,2,2,12,3,0,0,1,87,29,14,3,13,17,1,1,1,0,125,3,16,1,1,3
daalom01,Omar Daal,9,8,39,21,0,0,1,432,142,67,18,49,91,3,2,4,1,613,6,72,7,4,15
damicje01,Jeff D'Amico,7,8,35,18,1,1,1,390,134,67,17,38,88,6,3,4,0,556,6,71,6,4,10
darenvi01,Vic Darensbourg,2,3,34,3,0,0,1,160,58,28,7,22,39,3,1,2,0,235,10,29,2,2,5
daveyto01,Tom Davey,2,2,22,3,0,0,1,118,40,19,4,16,36,2,2,2,0,171,5,21,1,2,3
davisdo02,Doug Davis,6,7,29,15,1,0,1,327,123,55,11,45,63,2,4,4,1,480,5,60,4,4,11
davisja02,Jason Davis,3,3,22,7,0,0,2,173,55,26,6,20,45,2,2,2,1,247,6,28,2,2,5
daviska01,Kane Davis,2,2,22,3,0,0,1,117,39,20,5,19,35,2,2,1,0,172,5,21,2,2,3
dawlejo01,Joey Dawley,1,1,10,3,0,0,1,75,25,12,3,9,107,1,1,1,0,107,3,13,1,1,2
dayza01,Zach Day,3,2,21,5,0,0,1,145,43,22,5,19,34,2,2,2,0,207,5,25,2,2,4
dejeami01,Mike DeJean,3,4,47,4,0,0,8,210,64,29,7,34,57,5,5,3,0,304,22,32,3,2,6
deloslu02,Luis de los Santos,4,5,26,8,0,0,2,205,78,37,10,23,29,2,2,4,0,299,7,40,2,3,6
delosva01,Valerio De Los Santos,3,3,31,4,0,0,1,161,47,24,6,23,41,2,2,2,0,229,8,26,2,3,4
dempsry01,Ryan Dempster,8,7,30,19,1,0,1,383,131,70,16,58,105,3,3,5,0,562,4,72,5,4,12
depause01,Sean DePaula,2,2,12,3,0,0,1,84,30,15,4,13,27,1,1,1,0,123,3,16,1,1,2
desseel01,Elmer Dessens,8,9,41,25,1,0,1,504,175,72,22,48,96,5,4,5,1,710,6,78,7,4,15
dewitma01,Matt DeWitt,2,2,14,3,0,0,1,93,32,14,4,13,19,2,1,1,0,135,5,16,1,1,3
diggibe01,Ben Diggins,4,5,28,9,0,0,2,222,76,40,9,37,41,3,4,3,1,326,7,44,4,3,7
donnebr01,Brendan Donnelly,2,2,27,4,0,0,1,148,41,20,5,19,57,2,2,2,0,209,7,22,2,1,3
doteloc01,Octavio Dotel,5,4,47,6,0,0,4,252,66,30,9,33,106,2,3,3,0,351,14,34,3,4,5
douglse01,Sean Douglass,3,5,27,10,0,0,1,224,76,40,10,39,59,2,3,3,0,328,6,44,3,2,7
dresery01,Ryan Drese,8,8,39,20,1,0,2,402,155,78,14,57,95,3,7,5,0,594,7,83,4,6,11
drewti01,Tim Drew,2,2,16,5,0,0,1,127,47,22,6,16,21,1,2,2,0,186,4,26,2,2,4
drisktr01,Travis Driskill,7,7,35,14,0,0,2,340,123,58,16,41,66,2,4,6,0,495,9,62,3,3,9
duboser01,Eric DuBose,2,2,12,3,0,0,1,85,29,13,3,10,20,1,1,1,0,122,3,14,1,1,3
duckwbr01,Brandon Duckworth,8,8,40,22,0,0,2,447,145,78,19,61,138,6,7,7,0,649,6,83,7,4,9
duffma01,Matt Duff,2,1,12,3,0,0,1,84,26,13,3,14,17,1,1,1,0,121,3,14,1,1,2
duncaco01,Courtney Duncan,2,2,15,3,0,0,1,91,30,15,4,14,32,1,1,1,0,132,5,16,1,1,2
durbich01,Chad Durbin,4,6,24,12,1,0,1,251,94,46,12,33,43,1,3,4,0,367,4,51,2,3,9
durocja01,Jayson Durocher,2,2,25,4,0,0,1,147,38,20,5,21,48,2,2,2,0,207,7,22,1,1,5
eatonad01,Adam Eaton,5,4,25,12,1,0,1,270,85,44,12,37,72,2,3,4,0,386,5,47,3,3,7
eckener01,Eric Eckenstahler,2,2,13,3,0,0,1,88,32,14,3,10,42,1,1,1,0,127,3,15,1,1,2
eischjo01,Joey Eischen,4,2,33,4,0,0,2,162,50,21,5,21,49,3,3,2,0,230,10,24,2,2,5
elderda01,Dave Elder,2,2,16,4,0,0,1,110,34,17,4,17,36,2,1,1,0,158,4,19,1,1,3
ellisro02,Robert Ellis,2,2,12,5,0,0,1,105,39,19,4,13,14,1,1,1,0,153,3,20,2,2,3
embreal01,Alan Embree,2,3,28,3,0,0,1,134,41,21,5,16,49,1,1,2,0,189,7,23,2,2,4
ennisjo01,John Ennis,4,3,25,7,0,0,2,192,65,30,7,26,15,2,2,2,0,276,7,33,3,2,6
ericksc01,Scott Erickson,6,9,37,20,2,1,2,410,160,77,17,58,61,3,4,6,0,606,6,86,4,5,16
escobke01,Kelvim Escobar,4,5,40,7,1,0,9,233,70,36,9,36,73,3,2,3,0,336,21,40,2,2,5
estessh01,Shawn Estes,5,5,24,13,1,0,1,269,91,45,7,46,61,3,4,4,0,392,4,48,3,4,12
eyresc01,Scott Eyre,2,2,18,3,0,0,1,96,33,14,3,15,25,1,1,1,0,139,4,16,1,1,3
farnsje01,Jeff Farnsworth,3,3,29,5,0,0,1,181,74,32,6,23,23,4,3,2,0,269,9,34,2,2,6
farnsky01,Kyle Farnsworth,3,4,36,4,0,0,1,172,56,30,8,27,62,3,2,2,0,250,11,33,2,3,4
fasseje01,Jeff Fassero,3,2,22,4,0,0,2,120,40,18,5,14,34,1,1,1,0,172,6,20,1,1,4
felicpe01,Pedro Feliciano,2,2,12,3,0,0,1,85,30,14,3,10,19,1,1,1,0,122,3,15,1,1,3
fernaja01,Jared Fernandez,3,4,26,9,0,0,1,213,76,34,8,30,46,2,3,4,0,312,7,39,2,2,5
fettemi01,Mike Fetters,2,2,24,3,0,0,2,114,36,18,4,20,31,2,2,2,0,166,8,20,1,1,4
fieldna01,Nate Field,2,1,12,3,0,0,1,83,29,14,4,11,14,1,1,1,0,120,3,15,1,1,3
figuene01,Nelson Figueroa,4,6,31,11,0,0,1,280,96,46,13,37,55,4,4,4,0,407,6,51,6,3,7
fikacje01,Jeremy Fikac,4,4,38,4,0,0,1,188,60,30,9,26,56,4,3,3,0,272,9,35,2,2,5
filebo01,Bob File,2,2,18,3,0,0,1,104,32,17,4,14,18,2,1,2,0,148,5,18,1,1,4
finlech01,Chuck Finley,8,6,28,16,1,0,1,330,108,54,12,43,99,3,3,3,0,470,4,59,4,3,10
fioreto01,Tony Fiore,5,4,33,5,0,0,1,216,64,31,8,32,44,3,2,3,0,309,8,34,3,2,6
fitzgbr01,Brian Fitzgerald,2,1,12,3,0,0,1,84,30,14,4,10,10,1,1,1,0,123,3,15,1,1,2
florera01,Randy Flores,2,3,17,5,0,0,1,128,49,23,6,17,15,2,2,2,0,187,5,25,2,1,4
foggjo01,Josh Fogg,9,9,45,23,0,0,2,481,162,76,21,57,98,8,3,7,0,687,8,82,5,4,16
fossuca01,Casey Fossum,5,4,37,11,0,0,2,284,98,42,11,31,83,2,3,5,0,410,10,50,2,3,8
fostejo01,John Foster,2,2,12,3,0,0,1,84,28,14,4,13,26,1,1,1,0,123,3,15,1,1,3
foulkke01,Keith Foulke,3,4,46,4,0,0,13,215,60,28,7,18,64,2,2,3,0,295,27,29,3,1,6
foxch02,Chad Fox,2,2,18,3,0,0,1,101,28,14,4,16,38,2,1,2,0,146,4,15,1,1,2
frankry01,Ryan Franklin,6,4,40,9,0,0,1,306,101,46,13,26,63,3,2,4,0,434,11,51,4,4,6
frankwa01,Wayne Franklin,4,4,31,8,0,0,2,220,69,34,8,38,55,2,2,3,0,319,7,37,3,2,6
fredeke01,Kevin Frederick,2,2,13,3,0,0,1,94,31,16,4,15,12,1,1,1,0,136,4,18,1,1,3
fuentbr01,Brian Fuentes,2,2,21,4,0,0,1,119,37,19,5,18,52,1,1,2,0,171,6,21,1,2,4
fultzaa01,Aaron Fultz,3,2,34,3,0,0,1,158,54,26,6,20,45,2,1,2,0,227,9,28,2,2,5
fyhrimi01,Mike Fyhrie,3,3,23,5,0,0,1,173,56,27,6,21,39,2,2,3,0,248,5,28,2,2,5
gagneer01,Eric Gagne,4,4,37,9,0,0,13,247,74,35,11,28,87,2,2,4,0,347,20,39,3,3,6
garceri01,Rich Garces,3,2,26,3,0,0,1,126,38,21,5,16,34,2,1,2,0,181,5,22,2,2,3
garcifr02,Freddy Garcia,14,8,42,28,2,1,1,594,186,87,22,65,148,5,5,5,1,837,5,92,6,6,17
garcire01,Reynaldo Garcia,1,1,11,3,0,0,1,78,28,13,4,10,16,1,1,1,0,113,3,15,1,1,2
gardnle01,Lee Gardner,2,2,14,3,0,0,1,96,30,15,4,13,17,1,1,2,0,139,4,17,1,1,3
garlajo01,Jon Garland,10,11,47,25,1,1,2,519,175,84,21,77,98,3,5,7,0,749,8,95,4,5,24
georgch02,Chris George,4,7,27,12,1,0,2,250,94,44,11,25,37,2,3,3,1,361,6,47,3,3,7
germafr01,Franklyn German,2,2,13,3,0,0,1,88,27,13,3,11,30,1,1,1,0,126,3,14,1,1,2
gintema01,Matt Ginter,3,2,27,4,0,0,1,171,59,28,7,22,37,2,2,3,0,247,9,32,1,2,6
glavito02,Tom Glavine,14,8,41,28,2,1,1,569,181,73,20,67,109,7,3,5,0,798,5,81,8,6,18
glovega01,Gary Glover,7,7,46,16,0,0,2,373,122,66,17,45,67,3,5,6,0,538,11,72,5,3,7
gomeswa01,Wayne Gomes,2,2,20,3,0,0,1,111,37,19,4,17,27,2,2,2,0,162,6,20,2,1,3
gordoto01,Tom Gordon,2,2,21,3,0,0,4,115,33,17,4,14,49,1,1,1,0,163,9,18,1,1,3
graveda01,Danny Graves,6,4,50,5,0,0,18,253,84,36,8,27,50,5,3,3,0,357,32,38,3,3,8
greisse01,Seth Greisinger,4,4,29,11,0,0,2,238,87,41,9,28,29,3,2,3,0,344,7,44,3,2,6
grimsja01,Jason Grimsley,3,4,44,4,0,0,1,202,63,30,7,29,50,4,5,2,0,289,14,33,2,2,7
groombu01,Buddy Groom,3,3,45,4,0,0,3,183,56,24,6,16,49,2,1,2,0,253,14,26,2,2,6
gryboke01,Kevin Gryboski,3,2,30,4,0,0,1,152,49,23,6,28,31,3,2,3,0,223,7,24,2,1,5
guarded01,Eddie Guardado,4,3,46,4,0,0,14,194,54,27,8,22,66,2,2,2,0,271,25,29,3,2,4
guthrma01,Mark Guthrie,4,3,39,4,0,0,1,158,47,23,6,21,52,2,3,2,0,223,8,25,1,2,6
hackmlu01,Luther Hackman,4,4,37,7,0,0,1,222,75,35,8,33,42,2,4,3,1,323,9,38,3,3,7
halamjo01,John Halama,7,5,31,12,0,0,1,292,111,45,12,31,56,3,2,3,0,423,8,52,3,3,10
hallaro01,Roy Halladay,13,8,44,27,1,1,2,581,191,76,13,59,143,4,6,6,1,821,7,91,7,3,18
hamiljo02,Joey Hamilton,5,7,36,13,0,0,2,309,110,55,11,40,67,2,4,5,0,450,9,58,5,3,9
hammoch01,Chris Hammond,4,3,34,4,0,0,1,184,50,21,5,25,53,4,2,2,0,260,6,25,3,2,6
hamptmi01,Mike Hampton,9,11,38,25,1,0,1,506,191,98,20,77,89,5,7,7,1,754,5,105,5,6,22
hancojo01,Josh Hancock,2,2,17,5,0,0,1,124,40,19,5,15,38,1,1,2,0,177,5,21,2,1,3
haneych01,Chris Haney,2,2,19,4,0,0,1,118,40,19,4,14,19,2,1,2,0,170,6,20,1,2,4
haranaa01,Aaron Harang,6,5,33,14,0,0,2,298,98,49,11,49,79,3,3,4,0,436,7,53,4,4,9
harpetr01,Travis Harper,4,6,31,8,0,0,2,228,85,40,11,27,48,2,2,5,0,337,10,44,3,3,6
hasegsh01,Shigetoshi Hasegawa,5,4,37,4,0,0,2,194,61,28,6,26,40,4,2,2,0,274,12,30,2,2,8
hawkila01,LaTroy Hawkins,4,3,46,4,0,0,7,210,66,29,6,25,53,2,4,2,0,296,19,32,2,3,7
hayneji01,Jimmy Haynes,11,11,41,27,0,0,1,524,186,85,19,76,104,8,6,5,0,761,5,93,8,6,20
helliri01,Rick Helling,10,10,38,25,1,0,1,502,179,86,26,56,115,4,5,5,0,725,5,93,6,6,12
hendrma01,Mark Hendrickson,3,2,21,6,0,0,1,156,46,23,5,19,32,2,1,2,0,220,4,25,2,2,5
henrios01,Oscar Henriquez,2,2,20,4,0,0,1,117,34,19,5,17,33,2,2,2,0,167,6,20,1,1,3
hentgpa01,Pat Hentgen,4,5,22,10,0,0,1,228,77,38,10,31,43,2,2,2,0,327,4,41,3,2,7
heredfe01,Felix Heredia,3,3,39,4,0,0,1,165,55,26,6,26,38,2,3,2,0,241,10,30,2,2,5
hergema01,Matt Herges,4,4,41,4,0,0,2,199,69,29,7,27,49,5,2,3,0,290,13,31,4,2,5
hermadu01,Dustin Hermanson,4,4,17,8,0,0,1,173,63,30,8,21,33,1,2,2,0,252,3,33,2,2,5
hernaad01,Adrian Hernandez,2,3,19,6,0,0,1,144,46,24,7,21,35,2,3,2,0,209,5,26,2,1,4
hernaca03,Carlos Hernandez,7,6,37,17,0,0,2,355,115,55,13,58,99,4,3,4,1,516,7,58,4,2,9
hernali01,Livan Hernandez,11,12,40,27,3,1,1,575,211,97,19,65,121,5,4,4,0,830,5,104,10,8,20
hernaor01,Orlando Hernandez,7,7,33,19,1,0,2,407,127,62,19,41,105,3,4,6,0,576,5,67,3,4,6
hernaro01,Roberto Hernandez,3,4,37,3,0,0,13,168,60,26,6,18,42,2,3,2,0,241,24,29,3,1,6
hernaru03,Runelvys Hernandez,6,5,32,13,0,0,2,298,104,48,11,32,61,2,3,3,0,427,7,50,3,3,10
herreal01,Alex Herrera,2,2,12,3,0,0,1,85,27,13,3,10,31,1,1,1,0,122,3,14,1,1,2
hiljuer01,Erik Hiljus,5,4,30,12,0,0,2,267,94,45,13,34,70,2,3,2,0,388,7,50,3,2,6
hillje02,Jeremy Hill,2,2,13,3,0,0,1,91,29,14,4,14,21,1,1,1,0,131,4,15,1,1,3
hitchst01,Sterling Hitchcock,3,3,19,6,0,0,1,158,62,28,6,20,38,2,2,2,0,236,6,31,2,2,4
hodgetr01,Trey Hodges,2,2,13,3,0,0,1,95,34,15,4,10,15,1,1,1,0,137,3,17,2,1,3
hoffmtr01,Trevor Hoffman,3,4,41,4,0,0,19,178,53,25,6,18,69,2,3,2,0,250,28,27,2,2,4
holmeda01,Darren Holmes,3,3,29,4,0,0,1,153,46,20,5,15,47,2,1,2,0,215,7,22,2,1,5
holtzmi01,Mike Holtz,2,2,30,3,0,0,1,117,38,19,4,20,36,2,2,2,0,171,6,22,2,2,3
howarbe01,Ben Howard,3,3,22,7,0,0,2,166,56,28,8,30,42,2,2,2,0,243,5,31,2,2,5
howrybo01,Bob Howry,2,3,26,3,0,0,2,125,42,20,5,15,34,2,2,2,0,181,9,22,2,2,3
hudsolu01,Luke Hudson,2,2,12,3,0,0,1,86,28,14,3,13,31,1,1,1,0,123,3,15,1,1,2
hudsoti01,Tim Hudson,14,8,42,28,2,1,1,612,194,78,19,64,147,6,7,7,1,854,5,88,7,6,22
irabuhi01,Hideki Irabu,3,4,24,6,0,0,5,154,58,27,8,16,37,2,2,2,0,222,10,29,2,2,5
ishiika01,Kazuhisa Ishii,10,8,39,20,0,0,2,410,123,65,17,84,124,4,5,4,0,602,7,72,5,4,10
isrinja01,Jason Isringhausen,4,3,42,4,0,0,16,193,54,25,5,23,66,2,2,2,0,270,28,28,3,2,5
izquiha02,Hansel Izquierdo,3,2,20,5,0,0,1,132,45,21,5,22,27,2,1,3,0,194,5,23,2,2,5
jacksmi02,Michael Jackson,3,3,38,4,0,0,2,173,59,26,7,18,34,2,2,3,0,246,10,28,3,2,6
jamesde01,Delvin James,3,4,26,9,0,0,2,210,75,37,9,28,34,2,3,3,1,303,7,39,2,2,9
jamesmi01,Mike James,2,2,20,3,0,0,1,101,34,17,4,14,26,1,1,2,0,146,6,18,1,1,4
jarvike01,Kevin Jarvis,5,6,26,14,0,0,1,286,98,48,16,27,62,3,2,3,0,406,4,53,3,2,7
jennija01,Jason Jennings,12,7,42,24,1,0,2,481,171,79,20,62,109,3,7,7,0,697,7,86,7,4,19
jensery01,Ryan Jensen,9,7,42,22,1,0,2,446,156,73,18,60,91,4,4,6,0,646,7,78,5,5,12
jimenja01,Jason Jimenez,1,1,10,3,0,0,1,77,27,12,3,10,0,1,1,1,0,111,3,14,1,1,2
jimenjo01,Jose Jimenez,4,5,47,4,0,0,16,201,67,30,7,20,44,3,2,2,0,286,33,33,3,2,6
johnsja02,Jason Johnson,7,11,36,21,1,0,1,434,149,71,20,56,97,3,5,7,0,629,5,81,3,4,15
johnsjo08,Jonathan Johnson,2,2,16,3,0,0,1,101,34,17,4,15,35,1,1,2,0,148,4,19,1,1,2
johnsra05,Randy Johnson,17,6,40,27,4,2,1,624,162,66,20,61,289,2,5,10,1,843,5,73,7,4,15
jonesbo03,Bobby Jones,7,9,32,20,1,0,1,390,156,71,21,32,73,3,3,3,0,572,5,79,5,4,9
jonesbo04,Bobby Jones,2,2,19,5,0,0,1,141,45,23,5,22,36,1,1,2,0,204,5,25,2,2,4
jonesto02,Todd Jones,3,3,45,4,0,0,5,201,70,32,8,24,61,2,2,2,0,288,16,34,3,2,6
josepke01,Kevin Joseph,2,2,14,3,0,0,1,93,33,15,4,13,5,1,1,2,0,134,4,16,1,1,3
juliojo01,Jorge Julio,4,4,38,4,0,0,8,189,58,25,6,25,53,2,4,2,0,272,23,29,2,2,5
jungeer01,Eric Junge,3,2,16,4,0,0,1,122,42,18,4,15,35,1,1,1,0,176,5,20,2,1,4
karsast01,Steve Karsay,5,5,48,4,0,0,7,220,73,31,7,26,58,7,2,2,0,314,21,34,4,3,6
kayeju01,Justin Kaye,1,1,11,3,0,0,1,80,28,13,3,10,23,1,1,1,0,116,3,14,1,1,3
kellekr01,Kris Keller,1,1,11,3,0,0,1,78,26,13,3,11,14,1,1,1,0,113,3,14,1,1,2
kennejo04,Joe Kennedy,9,10,42,25,2,1,2,526,181,86,21,52,103,2,5,10,1,749,6,96,4,7,17
kentst01,Steven Kent,2,3,25,4,0,0,1,165,59,29,6,29,37,1,2,2,1,244,7,32,2,2,6
kershja01,Jason Kershner,2,1,13,3,0,0,1,84,27,13,3,12,33,1,2,1,0,121,3,14,1,1,2
kileda01,Darryl Kile,8,6,28,17,1,0,1,368,121,50,14,36,92,2,3,7,0,521,4,54,6,4,10
kimby01,Byung-Hyun Kim,5,4,51,4,0,0,15,237,60,30,8,33,96,3,3,5,0,332,30,32,3,2,6
kimsu01,Sun-Woo Kim,3,3,26,7,0,0,1,200,71,31,6,27,39,4,3,3,0,290,7,33,3,2,6
kingra01,Ray King,3,3,50,4,0,0,1,189,58,27,6,25,51,4,2,2,0,268,11,28,3,2,6
kinnema01,Matt Kinney,4,6,30,12,0,0,2,267,96,44,13,42,57,2,5,3,0,393,6,49,3,4,7
klinest02,Steve Kline,3,3,47,4,0,0,5,184,56,24,5,22,45,3,2,2,0,258,14,26,2,2,7
knighbr01,Brandon Knight,2,2,13,3,0,0,1,92,34,17,4,12,21,1,1,1,0,133,4,18,1,1,3
knottga01,Gary Knotts,3,2,20,4,0,0,1,125,37,20,6,18,33,1,1,2,0,179,5,21,1,1,4
kochbi01,Billy Koch,6,4,54,4,0,0,21,236,71,35,8,33,71,4,3,4,0,338,39,37,4,2,6
kolbda01,Danny Kolb,3,3,24,4,0,0,1,128,40,20,4,23,28,2,3,2,0,187,7,23,2,2,4
komiysa01,Satoru Komiyama,2,3,20,4,0,0,1,136,50,23,6,15,34,2,1,2,0,198,7,25,1,2,4
koplomi01,Mike Koplove,4,3,32,4,0,0,1,173,50,25,5,23,48,3,2,2,0,245,8,28,3,2,4
kozlobe01,Ben Kozlowski,4,3,26,8,0,0,2,202,67,33,9,34,35,2,2,3,0,293,7,36,2,2,6
lackejo01,John Lackey,8,6,35,16,1,0,2,351,121,52,12,38,75,2,6,5,1,503,7,59,2,4,11
lawrebr02,Brian Lawrence,10,9,45,23,1,1,2,524,182,74,16,48,125,6,3,8,1,745,7,84,7,4,19
leecl02,Cliff Lee,4,4,26,8,0,0,2,200,61,30,7,30,39,2,2,2,1,287,7,33,3,2,6
leiteal01,Al Leiter,11,10,39,26,1,1,1,528,166,71,19,58,149,4,3,7,1,744,5,83,9,4,13
levinal01,Al Levine,4,4,37,4,0,0,2,190,61,28,7,29,34,3,2,2,0,275,12,31,3,4,6
lewisco01,Colby Lewis,3,3,22,6,0,0,1,159,56,28,6,28,39,2,2,2,0,235,6,30,2,1,5
lidgebr01,Brad Lidge,2,2,15,4,0,0,1,107,37,17,4,17,39,1,1,2,0,156,4,19,2,1,3
lidleco01,Cory Lidle,9,8,41,24,1,1,1,518,171,76,19,43,105,5,6,7,1,722,6,84,4,4,15
liebejo01,Jon Lieber,9,7,33,21,3,0,1,456,155,67,18,27,102,3,2,4,1,635,4,73,8,6,11
ligteke01,Kerry Ligtenberg,3,4,39,4,0,0,2,191,55,26,7,30,55,4,2,1,0,272,15,28,2,2,5
lillyte01,Ted Lilly,4,4,26,11,0,0,1,237,80,41,11,31,70,2,4,4,1,343,5,45,2,3,5
limajo01,Jose Lima,5,7,26,13,1,0,1,273,105,54,16,28,45,2,2,3,0,396,5,59,3,5,7
lincomi01,Mike Lincoln,3,4,36,5,0,0,1,197,69,28,8,25,44,3,2,2,0,283,7,32,2,2,7
linebsc01,Scott Linebrink,2,2,19,4,0,0,1,116,39,20,4,17,33,2,1,2,0,170,5,22,1,2,3
lloydgr01,Graeme Lloyd,3,3,29,3,0,0,1,133,45,21,4,16,30,1,1,2,0,191,8,23,2,2,4
loaizes01,Esteban Loaiza,9,9,38,22,2,1,1,460,185,85,19,39,90,3,2,6,0,670,5,90,4,5,15
lohseky01,Kyle Lohse,10,9,43,24,1,1,2,486,167,80,23,60,112,3,7,8,0,704,7,87,4,5,13
loopebr01,Braden Looper,3,4,52,4,0,0,5,225,69,32,8,30,48,3,2,2,0,318,19,34,2,2,8
lopezal02,Albie Lopez,3,4,23,8,1,0,1,195,68,31,7,23,44,2,2,1,0,278,7,33,2,2,8
lopezro01,Rodrigo Lopez,10,8,41,20,1,0,2,462,144,67,18,52,108,4,3,5,1,648,7,73,3,4,13
lorraan01,Andrew Lorraine,2,2,16,4,0,0,1,113,43,20,6,15,24,1,1,1,0,166,5,22,2,1,3
louxsh01,Shane Loux,4,5,27,8,0,0,2,207,74,36,9,23,33,2,3,3,0,299,7,40,2,2,6
lowede01,Derek Lowe,13,9,62,20,1,1,14,535,158,65,14,46,122,5,5,9,0,733,28,68,6,3,20
lowese01,Sean Lowe,3,2,18,4,0,0,1,127,44,20,5,16,26,1,2,2,0,184,4,23,1,2,4
lukasma01,Mark Lukasiewicz,2,2,18,3,0,0,1,102,35,17,4,15,35,1,1,1,0,149,5,18,1,1,3
lundqda01,David Lundquist,1,2,13,3,0,0,1,85,30,14,3,12,20,1,1,1,0,123,4,16,1,1,2
lyonbr01,Brandon Lyon,4,5,28,12,0,0,1,265,97,48,13,27,45,2,2,3,0,382,5,51,3,4,8
macdomi01,Mike MacDougal,2,2,13,4,0,0,1,95,31,15,4,13,25,1,2,1,0,136,3,17,1,1,3
maddugr01,Greg Maddux,13,7,39,26,1,1,1,536,172,64,15,35,123,7,2,5,0,735,5,70,9,5,16
madurca01,Calvin Maduro,5,6,30,12,0,0,1,276,93,47,13,37,50,2,2,3,0,396,7,51,2,2,8
magnami01,Mike Magnante,2,2,30,3,0,0,1,131,47,21,5,15,17,2,2,2,0,189,7,23,1,2,4
mahayro01,Ron Mahay,2,1,16,3,0,0,1,102,32,17,5,17,35,1,1,1,0,147,4,19,1,1,3
mahompa01,Pat Mahomes,3,3,26,4,0,0,1,167,58,29,7,30,36,3,2,1,0,246,6,32,2,2,5
maireos01,Oswaldo Mairena,2,3,21,4,0,0,1,126,45,21,6,16,25,1,2,1,0,183,6,23,2,1,4
mallebr01,Brian Mallette,2,1,12,3,0,0,1,83,28,14,4,11,23,1,1,1,0,120,3,15,1,1,2
mannji01,Jim Mann,2,2,17,3,0,0,1,110,35,17,4,14,30,1,1,3,0,158,6,19,1,1,3
mantema01,Matt Mantei,2,2,23,3,0,0,2,117,36,19,5,20,42,1,2,2,0,170,8,20,1,1,3
manzajo01,Josias Manzanillo,2,2,22,3,0,0,1,116,36,18,4,16,31,1,1,2,0,165,7,19,2,2,4
marotmi01,Mike Maroth,7,8,36,17,0,0,2,380,133,61,11,39,58,3,4,4,0,538,7,66,5,4,16
marquja01,Jason Marquis,7,8,42,19,0,0,2,400,133,64,18,57,98,4,4,4,1,580,9,71,5,4,12
marteda01,Damaso Marte,2,2,37,4,0,0,4,177,52,26,7,20,72,2,2,3,0,249,10,28,2,2,5
martipe02,Pedro Martinez,13,5,37,23,2,1,1,509,125,54,13,35,221,2,4,10,0,682,5,59,3,3,10
martito02,Tom Martin,1,1,13,3,0,0,1,82,29,14,3,12,17,1,1,1,0,119,3,16,1,1,2
mateoju01,Julio Mateo,2,2,15,4,0,0,1,108,35,17,4,16,25,1,1,1,0,157,5,18,1,1,3
mathetj01,T. J. Mathews,2,2,17,3,0,0,1,106,36,16,4,12,25,2,1,1,0,151,5,18,1,1,3
matthmi01,Mike Matthews,2,2,17,4,0,0,1,107,33,16,4,16,28,2,1,1,0,154,4,17,1,1,3
maureda01,Dave Maurer,1,2,11,3,0,0,1,79,28,13,3,10,18,1,1,1,0,114,3,14,1,1,2
mayda02,Darrell May,5,8,36,16,1,1,2,343,122,61,19,43,82,3,3,3,0,499,8,66,3,4,10
maysjo01,Joe Mays,8,9,32,19,1,1,1,395,135,62,16,42,67,2,6,3,0,564,5,67,4,4,13
meadobr01,Brian Meadows,4,7,29,14,1,0,2,291,110,49,13,25,44,5,3,3,0,415,6,53,3,3,10
mecirji01,Jim Mecir,4,4,40,4,0,0,2,193,62,29,6,26,56,3,3,3,0,279,9,32,3,2,5
mendora01,Ramiro Mendoza,6,4,40,5,0,0,3,241,82,35,8,20,52,2,2,3,0,341,9,39,2,3,8
mercahe01,Hector Mercado,3,3,31,5,0,0,1,160,50,25,6,28,55,2,3,2,0,232,7,28,2,2,4
merckke01,Kent Mercker,3,2,28,4,0,0,1,138,51,24,8,22,34,2,1,2,0,204,5,27,1,1,4
mesajo01,Jose Mesa,4,4,47,4,0,0,18,204,64,28,6,30,60,3,4,3,0,295,30,31,3,2,5
micelda01,Dan Miceli,2,2,16,3,0,0,1,92,31,15,3,11,24,1,1,1,0,133,5,16,1,1,3
michach01,Chris Michalak,2,2,15,3,0,0,1,102,37,16,4,14,13,1,1,1,0,148,4,17,1,1,3
middlja01,Jason Middlebrook,4,4,26,9,0,0,2,211,66,34,9,29,51,2,2,3,1,303,6,36,3,2,6
milleju01,Justin Miller,7,5,35,14,0,0,2,310,102,55,12,57,66,3,5,7,0,457,7,61,3,4,12
millema01,Matt Miller,1,1,12,3,0,0,1,79,30,13,3,10,14,1,1,1,0,115,3,14,1,1,2
milletr01,Travis Miller,1,2,18,3,0,0,1,95,34,15,3,13,23,1,1,1,0,139,5,17,1,1,3
millewa04,Wade Miller,12,7,37,24,1,0,1,496,152,68,19,62,145,5,5,5,0,697,5,75,7,5,14
millwke01,Kevin Millwood,12,9,41,27,1,0,1,539,168,76,19,56,143,6,5,5,0,757,5,84,8,4,14
miltoer01,Eric Milton,11,8,38,25,1,1,1,506,171,85,25,40,124,1,4,5,0,714,5,91,4,5,11
mlickda01,Dave Mlicki,6,7,31,15,0,0,1,301,109,54,14,38,58,3,4,5,0,444,5,59,4,4,8
moehlbr01,Brian Moehler,4,5,24,11,0,0,1,235,94,40,10,20,39,1,2,2,0,342,5,45,3,2,7
molinga01,Gabe Molina,2,2,14,3,0,0,1,93,28,14,4,13,12,1,1,1,0,132,4,15,1,1,3
morenju02,Juan Moreno,2,2,17,3,0,0,1,97,26,16,4,19,25,1,2,1,0,140,4,17,1,1,3
morgami01,Mike Morgan,2,2,24,3,0,0,1,131,49,22,5,16,22,2,2,2,0,191,7,24,2,1,4
morrima01,Matt Morris,15,8,44,26,1,1,2,560,188,75,15,55,154,4,4,8,0,793,7,81,8,6,17
mossda01,Damian Moss,9,6,42,21,0,0,2,444,120,62,17,73,94,4,8,5,1,625,8,70,8,3,15
motagu01,Guillermo Mota,2,3,36,4,0,0,1,180,54,29,7,24,46,3,2,2,0,257,9,32,3,2,5
moyerja01,Jamie Moyer,13,8,41,27,2,1,1,568,174,77,23,48,118,4,3,7,0,784,5,85,5,7,14
muldema01,Mark Mulder,15,8,41,27,2,1,1,570,182,80,19,56,134,4,6,7,1,798,5,88,6,5,17
mulhote01,Terry Mulholland,3,3,22,6,0,0,1,168,66,28,7,16,29,2,1,3,0,247,6,31,2,2,6
mullesc01,Scott Mullen,3,3,28,4,0,0,1,139,47,21,5,18,23,2,1,2,0,201,7,23,2,2,5
munrope01,Peter Munro,5,5,31,12,0,0,2,275,100,41,8,32,51,3,3,4,0,397,6,47,5,2,9
murrahe01,Heath Murray,2,3,18,4,0,0,1,112,41,20,5,18,25,2,1,2,0,165,5,22,1,1,4
mussimi01,Mike Mussina,13,10,39,26,2,1,1,562,179,80,21,41,167,2,5,5,0,773,5,86,5,5,13
myersbr01,Brett Myers,6,6,32,13,1,0,2,298,101,47,13,39,47,3,3,5,1,427,7,52,5,3,12
myersmi01,Mike Myers,3,3,43,3,0,0,2,140,42,21,4,22,41,2,1,3,0,202,10,22,2,1,4
myersro01,Rodney Myers,2,2,20,3,0,0,1,119,44,20,4,16,22,1,2,2,0,174,6,23,1,1,4
myettaa01,Aaron Myette,4,6,30,14,0,0,1,260,97,58,13,49,73,2,4,7,0,395,6,62,3,4,9
nagych01,Charles Nagy,3,5,24,9,0,0,1,203,89,43,10,21,32,2,2,2,0,303,6,47,3,3,6
nancesh01,Shane Nance,2,2,12,3,0,0,1,86,27,14,3,12,23,1,1,1,0,124,3,15,1,1,2
nathajo01,Joe Nathan,1,1,10,3,0,0,1,81,25,13,3,14,17,1,1,1,0,116,3,14,1,1,2
neaglde01,Denny Neagle,8,9,39,23,1,0,1,448,159,83,23,55,106,4,4,7,1,656,5,88,6,6,10
nealbl01,Blaine Neal,3,2,22,4,0,0,1,129,43,19,4,18,40,2,2,1,0,187,5,21,2,1,4
nelsoje01,Jeff Nelson,3,3,35,3,0,0,2,159,38,23,5,30,64,2,3,3,0,228,9,24,2,2,4
nenro01,Robb Nen,4,3,48,4,0,0,22,206,57,26,6,21,84,4,2,2,0,286,36,27,3,2,5
neugeni01,Nick Neugebauer,4,7,32,13,0,0,2,274,90,45,13,56,78,3,5,3,1,405,7,50,4,3,8
nichtch01,Chris Nichting,2,2,22,4,0,0,1,128,47,21,6,12,32,1,1,2,0,184,5,22,2,1,4
nickldo01,Doug Nickle,2,2,14,3,0,0,1,93,34,16,3,14,14,1,1,1,0,137,4,17,1,1,3
nitkocj01,C. J. Nitkowski,2,2,16,3,0,0,1,97,32,15,3,15,25,1,1,1,0,141,3,17,1,1,4
nomohi01,Hideo Nomo,12,8,41,28,1,1,1,560,167,82,24,86,179,4,7,4,0,796,5,90,9,5,14
nomurta01,Takahito Nomura,2,2,16,3,0,0,1,94,29,16,4,18,17,2,1,2,0,138,3,18,1,1,3
nunezjo02,Jose Nunez,2,2,17,3,0,0,1,95,30,14,3,12,29,1,1,1,0,136,4,15,1,1,3
nunezvl01,Vladimir Nunez,4,5,45,6,0,0,6,251,77,35,9,32,60,2,2,2,0,355,18,40,4,4,6
obermwe01,Wes Obermueller,3,4,26,8,0,0,2,194,71,33,9,23,36,2,2,2,0,281,7,36,2,2,5
ohkato01,Tomo Ohka,9,8,41,24,1,0,2,488,169,67,18,44,99,5,4,6,1,689,7,76,8,5,13
oliveda02,Darren Oliver,5,6,26,14,1,0,1,272,109,51,12,37,52,2,3,5,1,403,4,56,2,3,11
olsenke01,Kevin Olsen,3,4,26,9,0,0,1,215,70,33,7,32,50,2,3,2,1,310,6,36,4,2,8
oropeed01,Eddie Oropesa,2,2,24,3,0,0,1,118,43,23,5,20,26,2,1,2,0,175,5,24,2,1,3
oroscje01,Jesse Orosco,2,2,29,3,0,0,1,114,37,17,5,16,36,1,1,1,0,165,6,19,1,1,3
ortizra01,Ramon Ortiz,12,9,41,27,2,0,1,567,179,86,28,68,134,3,7,7,2,803,5,95,5,5,15
ortizru01,Russ Ortiz,13,9,41,27,1,0,1,567,171,79,17,86,136,4,6,4,0,807,5,87,10,5,17
osbordo01,Donovan Osborne,2,2,14,3,0,0,1,98,33,16,4,14,24,1,1,1,0,142,3,17,2,1,3
ostinji01,Jimmy Osting,3,4,27,8,0,0,2,202,71,34,9,32,38,2,2,2,0,296,7,37,3,2,6
osunaan01,Antonio Osuna,4,3,34,4,0,0,4,177,57,28,5,25,59,3,1,3,1,257,12,31,3,2,4
oswalro01,Roy Oswalt,15,8,45,26,1,0,2,579,180,72,17,50,182,4,3,6,0,802,7,79,8,6,18
padilvi01,Vicente Padilla,11,10,51,21,1,1,2,508,168,70,15,51,110,5,5,9,1,720,9,78,8,4,19
paniajo01,Jose Paniagua,2,2,33,3,0,0,2,157,51,26,7,23,41,2,2,3,0,229,11,28,1,2,4
parkch01,Chan Ho Park,10,8,35,23,1,0,1,467,138,77,18,75,140,3,6,12,1,676,4,79,7,4,13
paronch01,Chad Paronto,2,3,24,4,0,0,1,137,47,22,5,16,28,1,2,2,0,199,8,25,1,2,4
parquji01,Jim Parque,3,4,19,8,0,0,1,175,65,34,9,24,32,1,1,3,1,259,4,36,2,2,5
parrajo01,Jose Parra,2,2,15,3,0,0,1,95,32,15,4,15,19,1,1,1,0,138,4,16,1,1,3
parrist01,Steve Parris,6,7,28,16,0,0,1,318,124,57,16,42,60,4,4,3,0,470,5,60,4,3,11
patteda04,Danny Patterson,2,2,19,3,0,0,1,98,35,15,3,9,15,1,1,2,0,139,5,16,2,1,4
pattejo02,John Patterson,4,3,25,8,0,0,2,201,65,30,9,21,72,2,3,3,0,285,6,33,2,2,5
pavanca01,Carl Pavano,4,4,25,10,0,0,1,221,83,35,8,24,51,2,2,4,1,320,5,40,3,2,6
pearcjo01,Josh Pearce,4,3,26,8,0,0,2,203,74,34,8,28,4,2,2,3,0,296,7,38,4,2,6
pearsja01,Jason Pearson,1,1,11,3,0,0,1,78,26,12,3,9,56,1,1,1,0,112,3,13,1,1,2
pearste01,Terry Pearson,2,1,11,3,0,0,1,83,29,14,4,10,18,1,1,1,0,120,3,15,1,1,3
peavyja01,Jake Peavy,7,7,35,16,0,0,2,340,119,55,13,39,103,4,4,4,1,493,7,60,5,3,9
pembeda01,Dave Pember,2,2,16,4,0,0,1,117,37,19,5,17,21,1,2,1,0,169,4,21,2,1,3
pennybr01,Brad Penny,8,8,36,23,1,1,1,446,150,70,16,54,108,5,4,4,0,636,5,78,6,3,15
percitr01,Troy Percival,4,3,39,4,0,0,19,174,46,22,6,25,70,2,3,2,0,244,26,24,2,1,4
perezod01,Odalis Perez,12,10,45,25,2,1,2,555,171,76,18,45,134,4,4,4,2,761,7,80,9,6,16
perezol01,Oliver Perez,6,6,34,14,0,0,2,321,92,47,14,52,112,3,4,5,0,461,7,51,5,3,10
perezyo01,Yorkis Perez,2,2,20,3,0,0,1,114,35,17,5,17,33,1,2,1,0,165,6,20,1,1,3
perisma01,Matt Perisho,2,2,15,4,0,0,1,103,41,19,5,17,18,1,1,2,0,154,3,22,1,1,3
persoro01,Robert Person,7,6,30,18,1,0,1,368,108,61,16,59,103,2,5,5,0,526,4,65,4,4,8
pettian01,Andy Pettitte,11,7,34,21,2,0,1,440,158,63,11,42,107,3,3,5,1,629,5,73,5,4,16
phelptr01,Travis Phelps,2,3,27,4,0,0,2,153,45,24,6,25,46,1,3,3,1,221,8,26,2,2,4
phillja03,Jason Phillips,4,4,26,9,0,0,2,216,71,35,9,31,39,2,2,4,1,313,6,38,2,3,5
pichahi01,Hipolito Pichardo,2,2,14,2,0,0,1,85,30,14,3,11,15,1,1,2,0,123,3,15,1,1,3
pickfke01,Kevin Pickford,2,3,21,6,0,0,1,147,52,25,6,24,27,2,2,2,0,216,5,28,2,2,4
pinedlu01,Luis Pineda,2,3,23,4,0,0,1,137,41,22,5,26,40,2,2,2,0,199,7,24,2,2,4
pineijo01,Joel Pineiro,11,7,44,21,1,1,2,480,149,62,17,49,114,2,6,6,0,671,9,69,4,6,16
plesada01,Dan Plesac,3,2,31,3,0,0,1,119,33,18,5,20,52,2,1,1,0,170,5,20,1,1,3
politcl01,Cliff Politte,3,3,31,4,0,0,1,169,48,25,6,21,55,2,2,2,0,237,8,26,2,2,4
ponsosi01,Sidney Ponson,7,9,37,24,3,0,1,491,170,79,23,57,109,2,4,4,0,700,5,86,3,3,15
porzimi01,Mike Porzio,3,2,22,4,0,0,1,139,44,23,7,21,35,2,2,2,0,200,6,25,1,2,5
potelo01,Lou Pote,2,2,28,4,0,0,1,175,53,26,7,24,43,2,2,2,0,250,9,28,2,3,5
powelbr01,Brian Powell,4,5,27,10,0,0,2,234,83,40,12,30,40,2,3,3,0,340,6,44,2,3,6
powelja04,Jay Powell,3,3,34,4,0,0,2,160,52,23,6,24,36,3,2,2,0,232,8,28,2,1,5
prattan01,Andy Pratt,1,1,11,3,0,0,1,79,26,13,3,12,13,1,1,1,0,115,3,14,1,1,2
prinzbr01,Bret Prinz,2,2,22,3,0,0,2,109,37,18,4,17,24,1,2,1,0,159,8,19,2,1,3
priorma01,Mark Prior,7,7,36,17,1,0,2,368,109,52,15,42,157,2,3,6,0,520,7,56,4,4,8
prokolu01,Luke Prokopec,5,7,31,13,0,0,1,288,105,54,17,32,58,2,3,5,1,422,6,57,3,4,7
puffebr01,Brandon Puffer,3,3,32,5,0,0,1,180,58,29,5,29,41,4,2,3,0,262,10,31,3,2,6
quantpa01,Paul Quantrill,5,3,51,4,0,0,2,211,75,28,5,20,47,4,1,3,0,301,14,31,3,2,8
queveru01,Ruben Quevedo,7,10,38,21,1,1,2,414,148,77,23,68,100,5,5,4,0,616,6,87,6,4,10
radkebr01,Brad Radke,9,7,32,20,2,1,1,423,151,67,16,27,83,1,3,6,0,591,4,72,5,4,10
rauchjo01,Jon Rauch,4,3,26,9,0,0,2,201,66,35,9,28,43,3,2,3,1,292,6,39,2,2,5
reamebr01,Britt Reames,3,4,33,8,0,0,1,220,73,38,9,37,71,3,2,3,0,323,6,43,3,2,7
redditi01,Tim Redding,5,6,32,14,0,0,2,290,102,51,13,42,86,3,4,3,1,423,6,57,4,4,8
redmama01,Mark Redman,8,11,40,22,1,0,2,487,171,77,16,46,96,3,7,5,1,694,6,86,5,5,14
reedri01,Rick Reed,10,7,38,23,1,0,1,465,167,71,24,29,101,2,3,6,1,656,5,79,3,4,10
reedst01,Steve Reed,2,2,24,3,0,0,1,120,39,17,4,13,27,2,1,2,0,171,6,19,2,1,4
reichda01,Dan Reichert,4,5,27,9,0,0,1,235,83,42,9,38,46,2,5,4,0,344,6,48,3,3,11
reitsch01,Chris Reitsma,6,10,39,19,1,0,1,413,149,66,17,43,79,5,4,5,0,598,7,78,6,5,10
rekarbr01,Bryan Rekar,3,6,22,11,0,0,1,231,89,44,10,23,44,2,3,3,0,338,4,48,2,3,7
remlimi01,Mike Remlinger,4,3,47,4,0,0,2,195,55,24,6,26,72,2,2,2,0,274,7,27,3,1,6
reyesal01,Alberto Reyes,2,2,17,3,0,0,1,107,32,16,4,14,39,1,1,2,0,153,6,17,1,1,3
reyesde01,Dennys Reyes,4,4,32,7,0,0,1,193,68,34,8,33,50,2,4,2,0,285,6,38,2,2,6
reynoar02,Armando Reynoso,2,2,10,4,0,0,1,89,32,15,4,10,14,1,1,1,0,129,2,17,1,1,3
reynosh01,Shane Reynolds,7,7,28,16,1,0,1,340,125,56,16,33,70,3,3,3,0,488,4,62,5,3,11
rhodear01,Arthur Rhodes,6,3,46,4,0,0,2,197,51,24,6,19,82,2,2,1,0,266,9,26,2,1,5
riedljo01,John Riedling,3,3,27,4,0,0,1,156,44,21,5,24,37,3,2,2,0,223,8,23,3,1,5
riggaje01,Jerrod Riggan,3,2,25,4,0,0,1,139,52,24,5,21,33,3,3,1,0,204,7,26,2,2,4
rijojo01,Jose Rijo,4,4,31,8,0,0,1,220,80,36,10,23,37,2,2,2,0,320,8,40,3,1,6
rincoju01,Juan Rincon,2,3,21,6,0,0,1,156,62,27,7,19,35,1,2,2,0,228,5,30,2,2,5
rincori01,Ricardo Rincon,2,2,27,3,0,0,1,120,34,17,4,15,40,2,1,1,0,169,6,18,1,2,3
riskeda01,David Riske,3,3,32,4,0,0,2,162,49,26,7,30,63,3,2,3,0,237,9,28,2,2,5
ritchto01,Todd Ritchie,7,11,34,21,1,1,1,427,160,78,18,45,85,3,6,5,0,626,5,88,6,5,12
riverma01,Mariano Rivera,3,4,36,3,0,0,16,166,46,22,5,15,53,2,1,2,0,229,24,24,2,1,4
roajo01,Joe Roa,5,5,29,11,0,0,2,262,93,41,11,22,44,3,2,3,1,373,7,44,3,3,8
robergr01,Grant Roberts,3,2,26,4,0,0,1,153,50,22,5,19,41,3,1,2,0,220,6,24,2,2,4
roberje02,Jeriome Robertson,2,2,15,4,0,0,1,101,35,16,5,13,19,2,2,1,0,146,4,18,2,2,3
roberna01,Nate Robertson,2,2,15,4,0,0,1,107,39,19,5,14,10,1,1,2,0,156,4,20,1,1,3
roberwi01,Willis Roberts,5,5,38,7,0,0,2,228,79,36,8,31,52,2,3,4,0,335,13,39,2,3,6
rockejo01,John Rocker,2,3,26,3,0,0,3,122,39,21,5,24,50,2,2,2,1,181,10,23,2,2,3
rodnefe01,Fernando Rodney,2,2,17,3,0,0,1,104,38,17,4,14,17,1,1,1,0,152,5,19,2,1,3
rodrife01,Felix Rodriguez,5,4,48,4,0,0,1,201,54,28,6,28,69,2,2,3,0,282,10,29,2,2,5
rodrifr03,Francisco Rodriguez,2,2,12,3,0,0,1,88,28,13,3,11,77,1,1,1,0,125,4,14,1,1,2
rodrijo02,Jose Rodriguez,1,2,12,3,0,0,1,80,28,13,3,12,7,1,1,1,0,117,3,15,1,1,2
rodrine01,Nerio Rodriguez,1,1,11,3,0,0,1,81,27,13,3,10,12,1,1,1,0,116,3,14,1,1,2
rodriri02,Rich Rodriguez,2,2,26,3,0,0,1,108,38,18,4,15,24,1,1,2,0,158,5,21,1,1,4
rodriri03,Ricardo Rodriguez,5,4,29,10,0,0,2,248,81,42,10,33,47,3,3,6,0,358,7,45,2,2,9
rogerke01,Kenny Rogers,10,8,39,25,1,0,1,516,186,84,19,60,93,3,4,7,1,746,5,93,3,4,21
romerjc01,J. C. Romero,5,4,39,7,0,0,1,219,70,32,7,31,61,2,4,3,0,312,8,36,2,2,8
rueteki01,Kirk Rueter,12,9,41,27,0,0,1,538,188,77,21,56,70,5,3,3,0,762,5,86,8,6,22
rupery01,Ryan Rupe,6,9,32,18,1,0,1,360,127,71,18,38,93,2,6,9,0,523,5,78,3,5,8
ruschgl01,Glendon Rusch,9,12,42,28,2,0,1,550,202,92,23,56,138,3,5,6,1,792,5,99,10,5,18
ryanbj01,B. J. Ryan,3,3,43,4,0,0,2,178,54,29,7,32,58,3,2,3,0,259,9,32,2,1,5
saarlki01,Kirk Saarloos,7,7,34,15,1,1,2,317,118,58,13,35,66,5,3,5,0,458,7,62,5,3,12
sabatcc01,CC Sabathia,13,9,45,29,1,0,2,569,172,92,18,85,151,3,6,5,2,808,6,98,5,7,17
sabeler01,Erik Sabel,2,2,15,3,0,0,1,90,33,15,4,9,15,1,1,1,0,130,4,16,1,1,3
sadleca01,Carl Sadler,2,2,18,4,0,0,1,107,33,17,4,15,43,1,2,1,0,152,4,18,1,1,3
sanchdu01,Duaner Sanchez,2,1,11,3,0,0,1,81,27,13,3,11,19,1,1,1,0,117,3,14,1,1,2
sanchje01,Jesus Sanchez,2,2,12,5,0,0,1,106,37,19,5,16,24,1,1,1,0,156,3,21,1,2,3
santajo01,Johan Santana,6,5,35,12,0,0,2,314,98,46,11,49,111,2,8,3,1,451,8,52,3,4,8
santaju01,Julio Santana,3,4,26,4,0,0,1,160,50,23,7,24,39,2,2,2,0,229,6,26,2,1,5
santijo03,Jose Santiago,3,3,32,3,0,0,1,164,59,28,6,18,31,2,1,2,0,238,7,29,2,2,5
santovi01,Victor Santos,2,3,23,5,0,0,1,147,49,26,6,28,36,2,2,2,0,219,6,28,2,2,4
sasakka01,Kazuhiro Sasaki,3,4,42,4,0,0,19,183,48,25,7,21,71,3,3,3,0,255,30,28,2,2,4
sauersc01,Scott Sauerbeck,4,3,47,4,0,0,1,186,57,27,5,34,71,4,3,2,1,267,11,30,2,1,7
schilcu01,Curt Schilling,16,7,42,27,4,1,1,628,189,80,26,33,246,2,5,3,0,843,5,83,6,4,13
schmija01,Jason Schmidt,11,7,39,23,1,1,2,476,138,67,14,69,163,3,8,3,0,675,6,75,7,4,12
schoesc01,Scott Schoeneweis,7,7,35,15,0,0,1,342,120,60,14,45,58,3,2,6,1,496,5,65,2,4,14
seaneru01,Rudy Seanez,2,3,23,4,0,0,1,126,37,21,5,21,49,1,3,1,0,182,5,23,2,1,4
sedlash01,Shawn Sedlacek,5,6,32,13,0,0,2,299,110,57,15,40,60,3,4,5,0,437,7,61,5,5,8
seleaa01,Aaron Sele,10,7,36,23,1,1,1,479,172,76,18,49,88,3,4,6,0,687,5,82,5,7,14
seoja01,Jae Weong Seo,1,1,11,3,0,0,1,78,25,12,3,10,37,1,1,1,0,112,3,13,1,1,2
sheetbe01,Ben Sheets,11,13,44,27,1,0,2,564,204,90,22,62,138,8,6,8,0,810,6,97,8,3,17
shielja01,Jason Shiell,1,1,11,3,0,0,1,78,29,13,3,11,9,1,1,1,0,113,3,14,1,1,2
shielsc01,Scot Shields,3,3,24,4,0,0,1,156,43,21,5,23,34,1,2,2,0,219,8,23,2,1,6
shousbr01,Brian Shouse,2,2,16,3,0,0,1,95,31,16,4,14,21,1,1,2,0,138,5,17,1,1,3
shueypa01,Paul Shuey,3,2,27,3,0,0,1,136,41,20,4,22,47,2,2,2,0,197,6,23,2,2,4
silvaca01,Carlos Silva,4,2,38,5,0,0,2,207,72,30,6,21,34,3,2,3,0,294,11,33,4,2,8
silvajo01,Jose Silva,3,2,18,4,0,0,1,119,45,20,5,14,24,2,2,2,0,174,5,23,2,1,3
simonja01,Jason Simontacchi,9,6,37,18,0,0,2,394,126,60,16,50,67,4,3,5,0,558,7,65,5,4,12
smallaa01,Aaron Small,1,1,10,3,0,0,1,75,26,12,3,10,22,1,1,1,0,108,3,13,1,1,2
smithbu02,Bud Smith,5,6,29,13,1,0,2,276,100,48,11,34,52,4,2,3,1,401,6,52,5,3,8
smithda06,Dan Smith,2,2,23,4,0,0,2,146,42,22,6,21,37,1,2,2,0,206,7,24,2,2,5
smithmi06,Mike Smith,3,4,24,7,0,0,1,176,62,31,6,26,24,2,2,4,0,260,6,34,3,2,4
smithro03,Roy Smith,2,2,16,4,0,0,1,117,39,19,5,19,25,1,1,2,0,171,4,21,1,1,3
smithtr01,Travis Smith,5,4,28,11,0,0,2,242,92,46,11,30,46,2,3,4,0,352,6,48,5,2,7
smoltjo01,John Smoltz,3,3,42,5,0,0,18,209,60,30,7,21,75,2,2,2,0,288,26,32,2,2,7
smythst01,Steve Smyth,4,5,27,10,0,0,2,211,77,40,11,26,40,2,3,3,0,307,6,43,3,4,6
soriara01,Rafael Soriano,3,5,28,10,0,0,2,237,77,38,10,28,54,2,3,2,0,340,7,41,3,2,6
sosajo02,Jorge Sosa,4,6,34,12,0,0,2,278,85,49,13,46,44,2,4,3,0,402,10,52,2,4,7
sparkst01,Steve Sparks,9,10,39,24,3,0,1,512,193,87,18,54,87,3,7,8,1,750,6,98,4,6,15
speieju01,Justin Speier,4,3,38,4,0,0,1,185,54,29,8,20,52,3,3,3,1,261,7,30,2,2,4
spoonti01,Tim Spooneybarger,2,2,30,4,0,0,1,158,46,22,5,24,35,3,2,2,0,225,8,24,2,2,6
sprinde01,Dennis Springer,1,2,10,3,0,0,1,80,28,13,3,9,11,1,1,1,0,116,3,14,1,1,2
standja01,Jason Standridge,1,1,12,3,0,0,1,87,30,14,4,14,12,1,1,1,0,127,4,15,1,1,3
stantmi02,Mike Stanton,5,3,50,4,0,0,2,212,69,28,6,26,56,3,3,2,0,300,14,31,3,4,7
starkde01,Denny Stark,8,5,37,15,0,0,2,338,103,54,18,52,58,3,3,4,0,487,6,61,3,4,10
stechge01,Gene Stechschulte,3,3,29,3,0,0,2,144,46,23,6,22,32,2,2,2,0,207,7,26,2,2,4
steinbl01,Blake Stein,3,4,23,7,0,0,1,192,62,36,9,34,53,1,3,2,0,281,5,37,2,2,6
stephga01,Garrett Stephenson,5,5,24,11,1,0,1,229,79,38,9,29,50,1,2,4,0,331,5,41,3,2,6
stephjo03,John Stephens,4,6,31,12,0,0,2,277,95,50,13,33,79,3,3,4,0,398,7,52,3,4,7
stewasc01,Scott Stewart,4,3,43,4,0,0,6,186,55,27,6,21,62,3,2,2,0,264,13,30,2,2,4
stoneri01,Ricky Stone,3,3,40,5,0,0,2,194,65,29,8,27,52,2,2,2,0,280,10,32,3,2,6
stottto01,Todd Stottlemyre,3,4,22,8,0,0,1,184,65,32,9,23,44,2,2,2,0,266,5,34,2,2,5
stranpa02,Pat Strange,2,2,12,3,0,0,1,90,29,14,3,10,17,1,1,1,0,129,4,15,1,1,3
stricsc01,Scott Strickland,4,5,47,4,0,0,4,203,60,29,7,30,68,4,3,3,0,293,15,32,2,2,4
stullev01,Everett Stull,3,4,25,8,0,0,2,193,66,32,7,34,43,3,3,3,0,283,6,35,3,2,6
sturtta01,Tanyon Sturtze,8,12,45,25,2,0,2,568,210,99,24,73,113,3,7,8,1,829,8,105,5,6,20
sullisc01,Scott Sullivan,4,4,47,4,0,0,1,222,74,37,10,27,67,5,2,4,0,320,11,40,2,3,6
suppaje01,Jeff Suppan,9,12,41,27,2,1,1,561,200,99,26,65,102,4,7,8,1,813,5,108,5,7,15
suzukma01,Mac Suzuki,2,3,15,6,0,0,1,139,46,25,5,24,34,2,4,2,0,204,3,27,2,1,5
swindgr01,Greg Swindell,2,3,30,3,0,0,1,137,46,23,7,11,36,2,1,1,0,194,8,24,2,2,3
tallebr01,Brian Tallet,4,3,26,8,0,0,2,202,64,30,7,25,31,2,2,3,0,288,7,33,2,2,6
tamje01,Jeff Tam,2,3,34,3,0,0,1,156,55,24,4,18,26,4,2,2,0,224,9,25,2,2,7
tankede01,Dennis Tankersley,3,4,27,9,0,0,2,214,75,42,10,41,50,3,3,4,0,316,7,44,3,2,7
tavarju01,Julian Tavarez,10,9,43,22,0,0,2,450,167,79,13,67,77,6,5,10,1,670,7,89,8,4,18
tayloaa01,Aaron Taylor,2,2,12,3,0,0,1,84,30,14,4,9,32,1,1,1,0,121,3,15,1,1,2
tejermi01,Michael Tejera,6,6,40,13,0,0,2,329,112,53,13,46,74,3,3,5,0,476,7,56,4,3,10
telfoan01,Anthony Telford,2,2,19,3,0,0,1,110,40,19,5,15,29,1,1,2,0,162,5,21,1,1,3
tessmja01,Jay Tessmer,1,1,11,3,0,0,1,76,25,12,3,10,12,1,1,1,0,110,3,13,1,1,2
teutna01,Nate Teut,3,3,19,5,0,0,1,140,51,24,5,18,23,2,2,2,0,203,5,25,2,1,4
thomsjo01,John Thomson,5,6,28,13,1,0,2,289,98,45,13,30,62,4,2,3,0,416,6,53,5,4,7
thurmco01,Corey Thurman,3,3,29,5,0,0,1,184,59,29,8,33,49,2,3,2,0,269,6,31,2,1,5
thurmmi01,Mike Thurman,3,4,19,8,0,0,1,186,72,33,7,24,39,2,2,2,0,274,4,36,3,3,6
timlimi01,Mike Timlin,3,3,29,3,0,0,1,147,48,23,6,16,29,2,2,2,0,208,8,24,1,1,5
tollbbr01,Brian Tollberg,5,5,27,14,0,0,1,297,116,51,13,29,58,3,3,3,0,433,5,55,5,5,8
tomkobr01,Brett Tomko,9,8,44,22,2,0,2,495,172,82,24,56,103,7,4,4,0,712,8,88,6,6,13
torresa01,Salomon Torres,4,4,27,9,0,0,2,224,73,33,8,30,30,2,2,4,0,320,7,36,3,2,8
towerjo01,Josh Towers,4,5,22,9,0,0,1,225,90,39,12,15,32,1,2,3,0,322,5,42,2,3,7
trachst01,Steve Trachsel,10,10,39,25,1,1,1,487,161,71,20,58,110,5,4,3,0,692,5,81,8,5,14
trombmi01,Mike Trombley,1,2,16,2,0,0,1,86,30,15,4,12,28,1,1,1,0,126,6,16,2,1,2
trujijj01,J. J. Trujillo,1,2,11,3,0,0,1,79,27,13,3,13,19,1,1,1,0,115,3,14,1,1,2
tucketj01,T. J. Tucker,4,3,32,5,0,0,2,171,61,27,7,25,37,4,3,2,0,249,10,30,3,2,5
urbinug01,Ugueth Urbina,2,4,35,4,0,0,14,171,49,24,7,19,77,3,2,1,0,239,22,26,2,2,4
valdeis01,Ismael Valdez,5,7,28,14,1,0,1,302,112,50,12,30,61,2,2,4,0,433,5,54,2,2,9
vanceco01,Cory Vance,3,2,19,5,0,0,1,138,45,22,6,20,10,1,2,2,0,198,5,24,2,1,4
vanhean01,Andy Van Hekken,4,5,28,9,1,1,2,232,86,35,8,23,13,2,3,3,0,334,7,39,3,3,7
vanpoto01,Todd Van Poppel,3,3,38,4,0,0,1,205,66,32,9,31,75,2,4,2,0,297,12,34,2,2,4
vazquja01,Javier Vazquez,11,11,41,28,2,1,1,600,202,86,23,48,170,6,4,4,0,840,5,94,10,5,16
venafmi01,Mike Venafro,3,3,37,3,0,0,1,148,51,24,5,19,23,2,2,3,0,216,9,27,2,2,5
veresda01,Dave Veres,4,5,48,4,0,0,7,213,62,31,9,30,62,2,4,3,0,302,22,33,3,2,7
villabr01,Brandon Villafuerte,2,2,22,4,0,0,1,125,42,18,5,17,31,2,1,2,0,181,7,20,1,1,4
villoro01,Ron Villone,5,6,34,9,0,0,1,248,87,46,10,35,54,2,2,4,0,361,7,50,3,3,9
vizcalu01,Luis Vizcaino,4,3,44,4,0,0,3,208,60,30,8,26,67,3,3,3,1,293,15,32,2,2,6
vosbeed01,Ed Vosberg,1,1,14,3,0,0,1,77,25,12,3,12,22,1,1,1,0,111,3,13,1,1,2
voylebr01,Brad Voyles,2,2,19,4,0,0,1,121,39,21,5,20,34,1,1,2,0,176,5,22,2,1,3
wagnebi02,Billy Wagner,4,4,46,4,0,0,17,204,54,27,7,25,84,2,4,3,0,283,31,29,2,2,6
wakefti01,Tim Wakefield,8,7,42,13,0,0,3,396,116,54,14,49,107,3,4,8,1,558,9,62,3,5,11
walkeja01,Jamie Walker,2,2,29,4,0,0,1,139,41,21,7,14,45,1,1,2,0,197,8,23,1,1,3
walkeke01,Kevin Walker,2,2,17,3,0,0,1,92,27,14,3,15,31,2,1,1,0,133,4,16,1,1,2
walkepe01,Pete Walker,7,5,38,14,0,0,2,338,116,54,14,41,65,4,3,3,1,482,8,59,4,4,12
walkety01,Tyler Walker,2,2,15,4,0,0,1,113,38,18,5,15,23,1,1,1,0,164,5,20,1,1,3
walldo01,Donne Wall,2,2,21,3,0,0,1,117,38,20,5,15,25,2,1,1,0,167,7,21,2,1,3
washbja01,Jarrod Washburn,13,8,41,26,1,0,2,547,171,74,21,57,121,3,4,5,1,765,5,79,4,5,11
watsoma01,Mark Watson,2,1,11,3,0,0,1,81,30,14,3,11,8,1,1,1,0,118,3,15,1,1,2
wayneju01,Justin Wayne,4,5,28,9,0,0,2,222,72,36,9,32,49,2,3,3,1,320,7,40,2,3,7
weathda01,David Weathers,4,3,42,4,0,0,1,197,62,27,7,28,49,4,2,2,0,280,9,30,3,3,8
weaveje01,Jeff Weaver,6,6,25,14,1,0,2,321,110,49,12,29,74,3,2,6,0,458,4,54,4,3,8
weberbe01,Ben Weber,5,3,42,4,0,0,3,209,66,28,6,24,40,3,2,3,0,295,11,31,2,2,9
wellsbo01,Bob Wells,3,3,38,3,0,0,2,178,66,31,8,16,40,2,1,3,0,257,11,33,2,2,4
wellsda01,David Wells,13,8,37,24,2,1,1,503,181,75,18,35,112,2,4,5,0,714,5,85,5,5,12
wellski01,Kip Wells,11,12,47,26,1,0,2,527,183,80,20,73,122,8,9,8,0,766,6,93,7,6,19
westbja01,Jake Westbrook,3,4,24,7,0,0,1,199,76,36,8,22,38,3,2,3,0,290,5,39,2,3,6
whitega01,Gabe White,4,3,41,3,0,0,1,175,55,27,7,16,48,2,1,2,0,246,8,28,2,2,5
whiteri01,Rick White,3,3,23,3,0,0,1,127,40,18,4,13,30,2,1,1,0,180,6,20,2,1,4
wickmbo01,Bob Wickman,3,2,31,3,0,0,11,145,49,21,5,15,45,1,1,2,0,207,19,23,1,1,4
wiggisc01,Scott Wiggins,1,1,11,3,0,0,1,80,28,13,3,10,27,1,1,1,0,115,3,14,1,1,3
willida07,David Williams,4,6,30,14,0,0,2,288,87,45,13,42,58,3,3,5,1,411,6,49,3,4,8
willije01,Jeff Williams,2,2,15,3,0,0,1,97,35,18,4,17,19,1,1,1,0,142,4,19,1,1,3
willimi03,Mike Williams,3,4,37,4,0,0,14,171,51,24,6,25,45,2,2,2,0,244,24,27,3,2,5
willisc01,Scott Williamson,3,4,34,5,0,0,4,188,49,26,6,34,74,3,5,2,0,267,11,29,3,2,5
williwo02,Woody Williams,8,5,29,16,2,0,1,349,100,43,13,34,84,3,3,4,0,480,5,47,4,2,11
wilsokr01,Kris Wilson,3,2,18,5,0,0,1,137,54,25,8,14,26,1,1,2,0,201,5,28,1,2,5
wilsopa02,Paul Wilson,7,10,44,24,1,0,2,514,185,88,23,59,111,3,5,11,1,749,7,97,4,7,16
wisema01,Matt Wise,2,2,13,4,0,0,1,103,34,16,5,12,29,1,1,1,0,147,4,18,1,1,3
witasja01,Jay Witasick,3,2,31,5,0,0,1,188,62,27,6,25,58,2,2,3,0,271,7,30,2,2,6
wohlema01,Mark Wohlers,3,3,38,4,0,0,3,190,61,31,7,26,45,2,4,2,0,273,14,34,2,2,5
wolfra02,Randy Wolf,10,9,41,26,2,1,1,551,166,75,20,62,155,5,3,8,0,769,5,82,8,6,15
woodast01,Steve Woodard,2,2,17,5,0,0,1,131,51,23,6,12,26,1,2,2,1,191,4,25,2,1,4
woodke02,Kerry Wood,11,9,42,27,2,1,2,563,149,80,20,93,202,4,7,11,1,798,5,86,8,5,15
worreti01,Tim Worrell,4,3,48,4,0,0,1,202,60,26,6,27,54,3,2,2,0,287,13,29,3,3,5
wrighda02,Dan Wright,11,10,43,25,1,1,2,503,174,91,25,66,111,3,8,6,1,733,7,100,6,8,15
wrighja01,Jamey Wright,5,4,21,11,0,0,1,235,78,39,9,40,48,3,3,6,0,343,4,42,3,2,9
wrighja02,Jaret Wright,4,4,24,10,0,0,1,191,75,40,7,37,38,2,2,3,0,289,5,43,2,3,5
wunscke01,Kelly Wunsch,3,2,32,3,0,0,1,128,38,21,5,20,32,1,1,3,0,186,6,22,2,1,4
yanes01,Esteban Yan,4,5,36,5,0,0,8,198,69,32,9,22,55,1,3,3,0,288,22,36,2,2,5
yoshima01,Masato Yoshii,5,8,38,16,1,0,1,364,135,59,17,34,67,3,4,4,0,520,6,66,4,4,13
zambrca01,Carlos Zambrano,5,7,37,13,0,0,2,305,93,47,11,54,84,3,5,4,0,444,7,54,6,2,9
zambrvi01,Victor Zambrano,7,6,41,9,0,0,2,291,94,50,12,49,71,3,6,4,0,425,13,55,5,4,8
zerbech01,Chad Zerbe,3,2,32,4,0,0,1,170,56,25,5,20,29,2,2,3,0,243,10,28,3,2,7
zitoba01,Barry Zito,16,7,44,29,1,1,2,602,167,75,20,75,173,3,4,9,1,839,5,82,7,5,14
