playerID,playerName,W,L,G,GS,CG,SHO,SV,IPouts,H,ER,HR,BB,SO,IBB,WP,HBP,BK,BFP,GF,R,SH,SF,GIDP
accarje01,Jeremy Accardo,2,3,21,4,0,0,1,122,39,19,4,14,23,1,1,2,0,175,5,20,1,1,4
acevejo01,Jose Acevedo,3,5,30,10,0,0,1,233,91,45,12,22,50,3,2,3,1,341,6,47,2,4,6
adamsmi03,Mike Adams,2,2,20,3,0,0,1,112,36,16,4,14,31,1,1,1,0,160,6,18,2,1,3
adamste01,Terry Adams,2,2,19,3,0,0,1,102,39,19,4,13,21,1,1,2,0,149,5,19,1,1,3
adkinjo01,Jon Adkins,2,2,18,3,0,0,1,106,40,18,5,13,20,1,1,1,0,154,6,19,1,1,4
affelje01,Jeremy Affeldt,3,3,30,6,0,0,3,174,63,29,6,23,42,2,3,2,1,255,10,33,2,2,6
alfonan01,Antonio Alfonseca,3,2,31,3,0,0,1,136,46,20,4,18,29,2,2,2,0,195,5,22,3,1,6
almanar01,Armando Almanza,2,2,15,3,0,0,1,83,28,13,4,12,25,1,1,1,0,121,4,15,1,1,3
almanca01,Carlos Almanzar,2,2,19,3,0,0,1,103,34,17,4,12,21,1,2,2,0,148,5,18,1,1,3
alvarab01,Abe Alvarez,1,2,11,3,0,0,1,82,31,14,4,10,9,1,1,1,0,119,3,15,1,1,2
alvarwi01,Wilson Alvarez,3,3,21,6,0,0,1,154,50,24,6,14,43,1,1,2,0,217,4,25,3,2,4
anderbr02,Brian Anderson,4,6,27,13,1,0,1,272,110,50,15,26,39,2,2,2,0,395,5,56,3,3,10
anderja01,Jason Anderson,2,1,12,3,0,0,1,85,27,14,3,14,13,1,1,1,0,123,3,15,1,1,3
anderma01,Matt Anderson,2,2,15,3,0,0,1,90,33,16,4,13,12,1,1,2,0,133,5,18,1,1,3
aquingr01,Greg Aquino,2,2,26,4,0,0,4,133,45,23,6,19,40,1,2,3,0,195,10,25,2,1,4
armasto02,Tony Armas,7,7,35,19,0,0,2,356,113,60,17,58,75,5,4,5,1,518,6,63,4,3,10
arroybr01,Bronson Arroyo,11,9,44,25,0,0,2,533,177,85,19,48,106,4,5,13,1,759,6,96,5,4,13
astacez01,Ezequiel Astacio,4,6,32,12,0,0,2,266,101,47,16,28,70,2,3,3,1,389,8,51,3,4,6
astacpe01,Pedro Astacio,5,4,28,11,0,0,2,248,84,38,9,35,46,3,4,3,0,357,6,41,4,2,7
atchisc01,Scott Atchison,2,2,15,3,0,0,1,94,31,15,4,11,39,1,1,1,0,134,4,16,1,1,3
ayalalu01,Luis Ayala,6,6,48,4,0,0,2,210,72,27,7,15,45,2,2,4,0,293,14,29,4,2,8
aybarma01,Manny Aybar,2,2,18,4,0,0,1,111,40,19,5,12,37,1,1,2,0,161,4,20,1,1,3
backebr01,Brandon Backe,9,7,46,19,1,0,2,423,144,70,18,61,97,3,5,4,1,611,9,75,7,2,13
baezda01,Danys Baez,4,4,46,4,0,0,18,204,62,28,7,26,52,2,2,3,0,291,32,32,3,2,6
bajenje01,Jeff Bajenaru,1,2,13,3,0,0,1,85,31,14,3,10,21,1,1,1,0,122,4,15,1,1,2
bakersc02,Scott Baker,5,5,30,11,0,0,2,256,82,38,9,26,53,2,2,3,0,361,6,41,3,3,7
baldwja01,James Baldwin,2,2,14,3,0,0,1,100,37,17,5,12,13,1,1,2,0,147,4,19,1,1,3
bartocl01,Cliff Bartosh,2,2,21,3,0,0,1,112,39,18,6,16,33,1,1,2,0,163,5,20,2,1,4
batismi01,Miguel Batista,5,5,32,9,1,0,8,242,84,39,9,31,51,2,4,2,0,350,16,42,3,2,8
bauerri01,Rick Bauer,2,1,15,3,0,0,1,104,35,18,4,13,23,1,1,2,0,149,4,19,1,1,4
bautide01,Denny Bautista,4,5,29,11,0,0,2,246,88,43,8,33,51,2,4,4,1,358,6,46,3,2,8
baylijo01,Jonah Bayliss,2,2,14,3,0,0,1,94,29,15,4,11,28,1,1,2,0,135,5,16,1,1,3
bazaryo01,Yorman Bazardo,2,1,11,3,0,0,1,81,29,13,3,10,19,1,1,1,0,117,3,15,1,1,3
beanco01,Colter Bean,1,1,11,3,0,0,1,78,26,12,3,10,25,1,1,1,0,112,3,13,1,1,2
beckejo02,Josh Beckett,11,9,40,25,1,1,1,504,150,70,15,59,164,3,5,6,0,702,5,76,7,3,15
bedarer01,Erik Bedard,7,9,39,22,0,0,2,439,149,69,14,63,128,2,5,6,1,639,6,76,3,5,12
beimejo01,Joe Beimel,1,2,16,3,0,0,1,92,35,15,4,13,17,1,1,1,0,134,4,16,1,1,3
belisma01,Matt Belisle,4,5,38,7,0,0,2,216,80,35,9,22,49,3,2,4,0,314,10,39,3,2,6
bellhe01,Heath Bell,2,3,28,4,0,0,1,152,55,25,6,15,49,2,1,2,0,218,7,27,2,1,5
bellro01,Rob Bell,4,3,20,8,0,0,1,189,67,33,9,23,29,1,3,3,0,276,5,37,2,2,5
benitar01,Armando Benitez,2,3,28,3,0,0,11,139,36,19,5,19,41,1,1,1,0,193,17,20,1,1,4
benoijo01,Joaquin Benoit,4,5,31,11,0,0,1,266,84,44,12,35,79,1,2,4,0,383,6,48,2,4,5
bensokr01,Kris Benson,9,8,38,22,1,0,2,458,154,72,19,45,91,5,5,5,0,654,6,79,5,4,13
bentzch01,Chad Bentz,1,2,16,3,0,0,1,88,30,16,4,13,15,1,1,1,0,128,3,17,1,1,3
bergmja01,Jason Bergmann,2,2,17,4,0,0,1,114,35,17,4,16,40,1,1,2,0,164,4,18,1,1,3
bernead01,Adam Bernero,3,3,27,4,0,0,1,155,58,28,7,18,38,2,1,2,0,226,7,30,2,2,4
betanra01,Rafael Betancourt,4,4,41,4,0,0,2,195,62,27,7,19,72,3,2,1,0,274,11,29,2,1,4
blantjo01,Joe Blanton,9,9,44,23,1,0,2,493,150,70,19,55,97,3,4,5,1,691,7,76,3,5,13
bondeje01,Jeremy Bonderman,11,13,42,27,2,1,1,534,182,91,22,61,141,3,6,6,1,766,5,98,6,4,17
bookech01,Chris Booker,1,1,11,3,0,0,1,78,28,13,3,11,15,1,1,1,0,113,3,15,1,1,2
bootcch01,Chris Bootcheck,2,3,19,5,0,0,2,146,51,23,6,16,23,1,2,2,0,210,5,25,2,2,4
borowjo01,Joe Borowski,2,3,26,3,0,0,4,132,40,21,5,16,31,1,1,1,0,187,11,22,2,1,3
bottari01,Ricky Bottalico,3,3,31,4,0,0,1,155,48,24,6,22,40,2,3,3,0,223,7,26,2,2,4
bowyetr01,Travis Bowyer,2,2,13,3,0,0,1,92,31,15,4,10,38,1,1,1,0,131,4,16,1,1,3
boyerbl01,Blaine Boyer,3,2,25,4,0,0,1,135,42,20,4,18,40,1,2,2,0,192,5,21,2,1,4
bradfch01,Chad Bradford,3,3,29,3,0,0,1,127,41,20,4,15,26,3,1,3,0,181,6,21,2,1,4
brazede01,Dewon Brazelton,4,7,27,12,0,0,1,264,94,51,11,48,47,2,3,5,0,398,5,57,3,3,9
brazoyh01,Yhency Brazoban,4,5,43,4,0,0,7,197,62,32,8,27,55,3,2,3,0,283,18,35,4,2,6
breslcr01,Craig Breslow,2,2,15,3,0,0,1,101,33,15,4,16,26,1,1,1,0,147,4,17,1,1,3
britoeu01,Eude Brito,4,4,26,8,0,0,2,197,64,30,7,26,45,2,2,3,1,282,6,33,2,2,6
brocado01,Doug Brocail,4,3,38,4,0,0,1,195,71,33,5,26,52,2,3,3,0,288,10,36,3,2,6
brookfr01,Frank Brooks,1,2,12,3,0,0,1,81,26,13,4,10,28,1,1,1,0,116,3,14,1,1,2
broweji01,Jim Brower,3,3,31,3,0,0,1,146,48,21,5,20,35,2,3,2,0,209,7,24,3,1,5
brownke01,Kevin Brown,7,6,27,15,0,0,1,318,114,54,10,29,78,2,5,5,0,456,4,55,3,4,10
broxtjo01,Jonathan Broxton,2,2,15,3,0,0,1,100,32,16,3,16,47,1,1,1,0,145,4,18,1,1,3
brunebr01,Brian Bruney,3,3,32,4,0,0,4,158,52,29,6,31,54,2,2,3,0,235,11,31,2,1,4
buehrma01,Mark Buehrle,13,9,42,28,2,1,1,616,214,84,22,44,129,3,2,6,1,857,5,97,6,5,24
bukviry01,Ryan Bukvich,2,1,13,3,0,0,1,84,26,14,3,15,24,1,1,1,0,121,4,15,1,1,3
bulgeja01,Jason Bulger,2,2,13,3,0,0,1,91,32,15,3,11,25,1,1,1,0,131,4,16,1,1,3
bullibr01,Bryan Bullington,1,1,11,3,0,0,1,78,26,13,3,9,16,1,1,1,0,113,3,14,1,1,2
bumpna01,Nate Bump,2,3,28,4,0,0,1,154,55,25,6,20,27,2,1,3,0,223,6,27,2,1,6
burgoam01,Ambiorix Burgos,3,4,34,5,0,0,2,177,57,27,6,25,60,1,4,3,1,256,9,29,2,2,5
burneaj01,A. J. Burnett,10,10,42,25,2,1,2,530,157,74,14,67,168,2,9,7,0,743,6,83,6,5,18
burnsmi01,Mike Burns,2,2,20,4,0,0,1,122,40,20,5,13,26,1,1,3,0,176,6,21,1,1,3
bushda01,Dave Bush,7,9,38,20,1,0,2,415,141,65,18,34,81,3,3,9,0,588,6,71,4,4,11
byrdati01,Tim Byrdak,2,2,22,4,0,0,1,114,37,18,4,19,39,1,2,2,0,167,4,19,2,1,3
byrdpa01,Paul Byrd,10,9,41,24,1,0,2,510,181,75,20,29,94,2,3,6,0,713,6,83,6,5,14
cabreda01,Daniel Cabrera,10,10,42,25,1,0,2,477,149,80,16,84,127,3,9,7,1,701,6,88,4,5,11
cabrefe01,Fernando Cabrera,2,2,18,4,0,0,1,126,38,17,4,15,43,1,1,1,0,178,5,19,1,1,4
cainma01,Matt Cain,5,4,30,11,1,0,2,260,67,36,9,34,60,2,3,3,0,364,7,39,3,2,7
calerki01,Kiko Calero,3,2,36,4,0,0,2,171,47,24,7,20,61,2,2,2,0,238,8,25,2,1,4
calica01,Carmen Cali,2,1,13,3,0,0,1,87,32,15,4,13,22,1,1,1,0,127,4,16,1,1,3
campijo01,Jorge Campillo,2,2,18,5,0,0,1,131,43,20,5,16,21,1,1,2,0,188,5,22,2,1,4
campsh01,Shawn Camp,2,3,27,4,0,0,1,167,65,29,6,16,36,2,2,3,0,244,7,33,2,2,6
capeljo01,Jose Capellan,2,2,16,4,0,0,1,103,38,17,4,12,27,1,1,1,0,149,5,18,2,1,3
cappsma01,Matt Capps,2,2,12,3,0,0,1,84,29,13,3,9,23,1,1,1,0,120,3,14,1,1,3
capuach01,Chris Capuano,13,11,45,27,0,0,2,538,176,84,25,72,146,5,4,10,2,776,6,92,10,4,14
carlybu01,Buddy Carlyle,2,2,14,3,0,0,1,96,33,16,4,11,29,1,1,1,0,138,3,18,1,1,3
carpech01,Chris Carpenter,15,6,43,27,3,2,2,594,178,74,20,45,175,2,5,6,0,807,6,80,6,5,18
carradj01,D. J. Carrasco,7,7,45,14,1,0,2,358,129,60,13,52,59,4,6,6,1,524,11,66,4,4,14
carragi01,Giovanni Carrara,5,3,42,4,0,0,1,199,62,29,6,29,50,3,2,3,0,286,11,31,4,2,6
carrahe01,Hector Carrasco,4,4,39,6,0,0,2,211,57,27,7,30,59,3,3,4,0,296,9,30,3,2,6
cartela02,Lance Carter,3,3,34,3,0,0,3,183,61,29,8,17,28,2,1,2,0,259,15,30,2,3,5
carvama01,Marcos Carvajal,2,3,27,4,0,0,1,161,53,27,7,20,47,1,2,2,0,231,7,28,2,2,5
cassisc01,Scott Cassidy,2,2,14,3,0,0,1,93,33,15,4,10,30,1,1,1,0,133,4,17,1,1,3
castifr01,Frank Castillo,3,4,25,7,0,0,2,182,60,30,7,26,43,2,2,2,0,263,7,32,2,2,6
cerdaja01,Jaime Cerda,2,3,24,3,0,0,1,118,38,19,4,20,29,2,2,2,0,172,6,21,2,2,3
chacigu01,Gustavo Chacin,10,8,44,24,0,0,2,497,170,72,17,57,98,3,4,7,0,710,7,79,6,7,17
chacosh01,Shawn Chacon,6,6,40,12,0,0,9,302,95,48,12,46,63,3,5,6,0,441,18,51,4,2,8
chenbr01,Bruce Chen,10,8,42,23,1,0,2,484,153,70,24,52,111,2,3,6,1,684,7,78,4,4,12
childma01,Matt Childers,2,1,11,3,0,0,1,81,28,13,3,10,11,1,1,1,0,118,3,14,1,1,2
choatra01,Randy Choate,2,2,21,3,0,0,1,100,34,17,3,15,27,2,1,2,0,146,5,18,1,1,3
chrisja01,Jason Christiansen,2,2,21,3,0,0,1,89,30,14,3,14,20,1,1,1,0,130,4,15,1,1,3
chulkvi01,Vinnie Chulk,2,3,40,4,0,0,1,201,67,31,8,26,41,2,3,2,0,287,9,34,2,2,6
clausbr01,Brandon Claussen,8,10,41,23,0,0,2,455,164,75,20,56,108,4,4,6,1,667,6,84,7,5,12
clemema01,Matt Clement,10,9,40,26,1,0,1,516,160,81,19,66,149,3,10,11,0,740,5,86,5,4,16
clemero02,Roger Clemens,12,7,39,26,1,0,1,536,144,58,14,56,167,4,4,5,0,733,5,65,6,4,12
coffeto01,Todd Coffey,3,2,32,4,0,0,1,165,68,26,6,14,24,2,2,3,0,241,8,29,2,2,5
colomje01,Jesus Colome,3,3,29,3,0,0,1,155,50,24,6,23,40,2,3,2,0,226,10,27,2,1,4
colonba01,Bartolo Colon,15,9,41,27,2,0,1,570,187,86,25,50,139,2,3,4,1,794,5,92,6,5,17
colonro01,Roman Colon,3,3,22,5,0,0,1,146,54,24,6,16,34,1,2,2,0,212,6,26,2,2,4
contrjo01,Jose Contreras,11,7,41,24,1,0,2,500,149,74,18,67,135,2,12,7,1,709,6,81,5,3,13
cookaa01,Aaron Cook,7,5,33,15,1,0,1,338,131,53,11,38,38,4,5,5,0,493,5,58,4,3,14
coopebr01,Brian Cooper,2,2,16,4,0,0,1,118,39,19,4,15,17,1,1,2,0,168,4,20,2,1,3
corcoti02,Tim Corcoran,2,2,17,4,0,0,1,120,38,20,4,17,23,1,2,2,0,172,5,21,1,1,4
cordech01,Chad Cordero,4,4,48,4,0,0,16,218,60,27,8,25,67,2,2,2,0,306,28,31,2,2,5
cordefr01,Francisco Cordero,3,3,46,4,0,0,18,199,59,27,5,28,74,2,2,3,0,285,30,29,3,2,4
cormila01,Lance Cormier,4,4,38,5,0,0,1,211,78,39,9,34,50,3,3,3,0,312,8,42,3,2,7
cormirh01,Rheal Cormier,4,3,39,3,0,0,1,165,52,26,6,18,38,2,2,2,0,233,8,27,2,1,6
correke01,Kevin Correia,4,5,31,11,0,0,1,245,85,41,12,37,59,2,3,4,0,359,7,44,5,3,9
corteda01,David Cortes,3,2,28,4,0,0,2,152,51,24,7,13,36,2,2,2,0,215,8,25,2,2,4
cottsne01,Neal Cotts,4,3,42,5,0,0,1,188,53,27,7,30,58,3,3,3,0,268,8,31,1,2,7
crainje01,Jesse Crain,6,4,43,5,0,0,1,207,57,27,7,26,25,3,2,3,0,291,10,30,4,2,8
creekdo01,Doug Creek,2,2,18,3,0,0,1,106,37,18,5,14,27,1,1,1,0,154,5,19,1,1,3
croweji01,Jim Crowell,1,1,12,3,0,0,1,80,31,14,3,8,9,1,1,1,0,117,3,15,1,1,2
cruzju02,Juan Cruz,3,3,26,4,0,0,1,146,48,24,6,22,48,2,2,3,0,214,9,27,2,2,5
darenvi01,Vic Darensbourg,2,2,18,3,0,0,1,108,40,17,4,12,14,1,1,1,0,156,4,18,2,2,3
davieky01,Kyle Davies,6,6,33,13,0,0,2,286,102,48,10,46,65,4,4,3,0,422,7,51,3,2,8
davisdo02,Doug Davis,10,10,43,28,1,0,1,573,174,81,20,76,167,4,4,5,1,814,5,87,9,4,16
davisja02,Jason Davis,4,4,21,9,0,0,1,212,80,36,9,26,43,1,3,3,0,312,4,41,3,2,6
daviska01,Kane Davis,2,2,15,3,0,0,1,99,30,15,4,14,22,1,1,1,0,142,4,16,1,1,3
dayza01,Zach Day,3,4,19,9,0,0,1,191,67,30,7,26,32,2,3,3,0,277,3,33,2,2,7
dejeami01,Mike DeJean,2,3,25,4,0,0,1,134,40,19,4,16,44,1,2,2,0,190,7,21,2,1,3
delarjo01,Jorge De La Rosa,2,3,25,5,0,0,1,149,53,24,4,30,36,2,3,2,0,222,7,27,2,2,5
delcama01,Manny Delcarmen,2,2,14,3,0,0,1,91,30,14,3,13,29,1,1,1,0,131,3,15,1,1,3
delosva01,Valerio De Los Santos,2,2,21,3,0,0,1,110,38,19,4,17,26,2,2,2,0,161,4,20,1,1,3
demarch01,Chris Demaria,2,2,13,3,0,0,1,90,33,15,4,11,33,1,1,1,0,130,4,16,1,1,3
dempsry01,Ryan Dempster,4,4,38,8,0,0,10,229,74,34,7,39,66,3,3,3,0,335,20,38,4,1,8
depaujo01,Jorge De Paula,1,2,12,3,0,0,1,88,29,14,4,10,13,1,1,1,0,126,3,15,1,1,3
desseel01,Elmer Dessens,3,3,25,8,0,0,1,202,70,31,8,22,42,2,2,2,0,290,5,34,2,2,7
devinjo01,Joey Devine,2,2,12,3,0,0,1,85,29,14,4,12,14,1,1,1,0,123,3,15,1,1,2
dickera01,R. A. Dickey,4,4,22,8,0,0,1,196,75,36,9,23,40,1,3,3,0,288,5,40,2,2,6
dinarle01,Lenny DiNardo,2,2,18,4,0,0,1,120,41,18,4,15,34,1,1,2,0,173,5,21,2,1,4
dingmcr01,Craig Dingman,3,3,24,4,0,0,2,131,44,21,5,18,30,1,1,2,0,187,8,23,2,1,4
dohmasc01,Scott Dohmann,2,2,26,4,0,0,1,136,44,23,6,20,49,1,1,1,0,197,8,24,1,1,3
dominju01,Juan Dominguez,4,5,29,10,0,0,1,239,85,38,11,29,51,1,2,3,1,347,6,42,2,2,7
donnebr01,Brendan Donnelly,5,3,40,4,0,0,1,182,55,26,7,20,61,2,2,2,0,257,10,27,2,2,4
doteloc01,Octavio Dotel,3,2,22,3,0,0,5,112,30,17,5,15,47,1,1,1,0,158,10,17,1,1,3
douglse01,Sean Douglass,5,6,35,14,0,0,2,315,108,58,14,45,71,4,3,4,0,455,8,62,3,4,10
downssc01,Scott Downs,5,5,32,13,0,0,1,287,101,47,12,35,71,2,3,4,0,415,5,53,2,2,9
dresery01,Ryan Drese,7,7,30,16,1,0,1,331,122,54,10,37,51,3,3,6,0,481,5,60,3,4,12
drisktr01,Travis Driskill,1,2,11,3,0,0,1,78,29,13,3,7,19,1,1,1,0,112,3,14,1,1,2
duboser01,Eric DuBose,3,4,19,7,0,0,1,162,52,29,7,25,33,1,2,2,0,236,4,31,1,1,5
duchsju01,Justin Duchscherer,5,4,42,4,0,0,2,232,69,30,8,22,67,3,2,3,0,322,13,32,4,2,7
duckwbr01,Brandon Duckworth,2,3,19,6,0,0,1,141,54,27,7,19,29,2,2,3,0,208,4,29,2,1,4
dukeza01,Zach Duke,8,5,34,14,0,0,2,318,104,39,9,32,76,3,3,4,0,445,7,43,4,2,13
eatonad01,Adam Eaton,9,8,35,21,0,0,1,424,145,68,17,46,110,4,5,6,0,611,5,76,6,5,10
eischjo01,Joey Eischen,2,2,32,3,0,0,1,132,43,20,4,17,35,3,2,3,0,192,8,22,3,1,3
elartsc01,Scott Elarton,9,8,41,25,1,0,2,486,166,81,27,49,94,3,5,6,1,697,6,89,4,7,13
eldreca01,Cal Eldred,3,2,29,3,0,0,2,149,50,21,6,19,42,2,2,2,0,214,9,23,3,2,5
embreal01,Alan Embree,2,2,27,3,0,0,1,110,37,18,4,10,26,1,1,1,0,157,5,20,2,1,3
ericksc01,Scott Erickson,3,4,26,9,0,0,1,202,72,36,10,30,18,1,2,3,0,296,7,38,3,3,7
escobke01,Kelvim Escobar,5,5,25,12,0,0,1,272,85,40,9,35,86,2,4,4,0,386,5,42,2,2,7
esposmi01,Mike Esposito,4,4,27,8,0,0,2,207,75,34,9,28,21,2,2,3,0,301,7,37,3,2,6
estessh01,Shawn Estes,9,8,35,22,1,0,1,421,153,78,18,63,79,2,4,5,1,616,5,84,9,5,20
etherse01,Seth Etherton,4,4,26,9,0,0,2,206,70,35,9,25,38,2,2,3,1,297,6,38,3,3,5
evelada01,Dana Eveland,2,2,21,4,0,0,1,127,47,21,4,18,29,2,1,2,0,184,4,23,1,1,5
eyresc01,Scott Eyre,3,3,54,4,0,0,1,190,54,27,6,26,57,1,3,2,0,270,10,28,3,2,5
falkebr01,Brian Falkenborg,2,2,14,3,0,0,1,96,36,17,4,13,24,1,1,2,0,141,4,18,1,1,3
farnsky01,Kyle Farnsworth,2,2,30,3,0,0,3,136,39,20,5,19,55,1,2,2,0,192,10,22,2,1,3
fasseje01,Jeff Fassero,3,5,35,7,0,0,1,215,75,34,8,26,48,2,2,2,0,308,9,38,4,2,6
feldmsc01,Scott Feldman,2,2,13,3,0,0,1,92,31,14,3,10,14,1,1,1,0,132,4,15,1,1,3
fieldna01,Nate Field,2,2,18,3,0,0,1,98,33,16,4,14,22,1,1,1,0,141,6,18,1,1,3
florera01,Randy Flores,3,2,28,4,0,0,1,141,45,21,5,15,45,1,2,3,0,200,6,24,2,2,5
florero01,Ron Flores,2,2,14,3,0,0,1,89,30,13,3,9,22,1,1,1,0,127,4,14,1,1,3
floydga01,Gavin Floyd,4,3,23,8,0,0,1,189,63,35,7,29,43,2,2,4,0,277,5,37,2,2,5
foggjo01,Josh Fogg,8,9,40,24,0,0,1,468,174,81,20,51,76,7,3,7,1,677,5,89,6,5,17
foppeje01,Jesse Foppert,3,3,20,7,0,0,1,164,52,26,7,31,45,2,3,2,0,239,4,29,2,3,5
fossuca01,Casey Fossum,7,11,40,22,0,0,2,437,158,82,21,57,115,4,6,11,1,646,6,91,5,4,11
fostejo01,John Foster,3,2,30,4,0,0,1,128,41,20,5,18,37,1,1,2,0,184,6,22,2,1,3
foulkke01,Keith Foulke,4,3,35,3,0,0,11,166,50,25,7,16,50,2,1,4,0,235,24,25,2,2,3
foxch02,Chad Fox,2,2,15,3,0,0,1,88,27,15,3,15,37,1,1,1,0,127,4,15,1,1,3
francje01,Jeff Francis,11,10,43,25,0,0,2,478,188,90,22,59,112,4,4,7,0,704,7,94,6,7,14
francjo01,John Franco,2,3,24,3,0,0,1,106,37,18,4,15,26,1,1,1,0,155,6,19,1,1,3
frankry01,Ryan Franklin,7,12,39,25,1,1,1,513,184,89,25,54,84,3,3,7,1,738,5,93,4,5,15
frankwa01,Wayne Franklin,2,2,16,4,0,0,1,108,37,19,5,16,23,1,1,2,0,158,3,22,2,1,3
frasoja01,Jason Frasor,4,4,44,4,0,0,4,208,65,30,7,28,57,2,2,3,0,294,14,33,2,2,8
fuentbr01,Brian Fuentes,3,4,47,4,0,0,9,199,59,29,7,28,77,3,4,5,0,286,21,31,4,2,6
fultzaa01,Aaron Fultz,3,3,43,4,0,0,1,196,58,28,7,24,50,2,2,3,0,276,11,31,3,2,6
gagneer01,Eric Gagne,2,2,24,3,0,0,10,119,29,16,4,12,64,1,2,2,0,164,15,16,2,1,2
gallomi01,Mike Gallo,2,2,30,3,0,0,1,120,41,18,5,16,25,2,1,2,0,173,5,20,2,1,4
garcifr02,Freddy Garcia,12,8,41,26,1,0,1,551,180,84,23,56,132,3,11,6,1,773,5,89,5,5,18
garcija01,Santiago Casilla,1,1,12,3,0,0,1,83,27,14,3,12,15,1,1,1,0,119,4,15,1,1,2
gardnle01,Lee Gardner,2,2,12,3,0,0,1,85,31,14,4,9,13,1,1,1,0,124,3,16,1,1,2
garlajo01,Jon Garland,13,10,42,28,1,1,1,584,193,89,26,58,104,3,4,6,0,816,5,96,7,6,20
gassnda01,Dave Gassner,4,3,26,8,0,0,2,193,66,31,7,20,16,2,2,3,0,277,6,34,2,2,5
gaudich01,Chad Gaudin,3,4,26,7,0,0,1,176,73,32,8,22,39,2,2,3,0,262,6,35,2,3,5
gearyge01,Geoff Geary,3,2,31,4,0,0,1,175,59,28,7,21,41,3,2,2,0,252,10,31,2,2,5
germafr01,Franklyn German,3,2,36,4,0,0,2,171,58,27,7,33,37,2,3,3,0,253,11,30,2,2,7
gintema01,Matt Ginter,2,3,19,6,0,0,1,156,60,27,7,15,24,2,1,3,0,227,4,29,2,1,5
glavito02,Tom Glavine,10,11,40,27,1,1,1,542,188,76,16,58,89,6,2,3,0,773,5,83,11,5,17
glovega01,Gary Glover,5,5,30,11,0,0,2,254,92,43,11,28,66,2,3,4,0,367,7,46,4,3,7
glynnry01,Ryan Glynn,3,4,22,7,0,0,1,168,60,28,8,20,42,1,2,3,0,244,6,31,2,2,4
gobblji01,Jimmy Gobble,4,4,25,9,0,0,1,220,79,40,10,27,35,2,2,2,0,320,6,42,3,3,6
gonzaed01,Edgar Gonzalez,2,2,12,4,0,0,1,93,39,18,5,12,20,1,1,2,0,137,3,19,2,1,3
gonzaje01,Geremi Gonzalez,3,3,22,7,0,0,1,184,66,34,8,23,33,1,2,3,0,267,5,35,1,3,5
gonzami02,Mike Gonzalez,3,3,36,4,0,0,2,164,45,22,5,24,66,1,3,2,0,232,9,23,2,2,5
goodan01,Andrew Good,2,2,12,3,0,0,1,96,33,16,5,9,22,1,1,1,0,138,3,17,1,1,3
gordoto01,Tom Gordon,5,4,50,4,0,0,3,216,56,27,7,25,74,3,2,2,0,297,13,29,3,2,6
gorzeto01,Tom Gorzelanny,2,2,17,5,0,0,1,123,44,21,5,15,17,1,1,2,0,177,4,22,2,1,4
goslimi01,Mike Gosling,3,4,23,7,0,0,1,175,62,28,7,26,26,2,2,2,0,256,6,31,3,1,6
grabojo02,John Grabow,3,3,41,4,0,0,1,173,61,29,7,24,52,3,2,2,0,250,7,32,3,1,5
gramaal01,Alex Graman,1,1,11,3,0,0,1,78,30,14,3,10,10,1,1,1,0,114,3,15,1,1,2
graveda01,Danny Graves,2,3,21,4,0,0,5,124,48,20,6,11,19,2,1,2,0,180,10,24,1,1,5
greggke01,Kevin Gregg,3,3,33,5,0,0,1,205,69,34,7,26,58,2,5,3,0,297,10,35,2,2,6
greinza01,Zack Greinke,7,13,44,27,1,0,2,516,196,93,23,46,110,2,4,10,1,750,6,98,5,4,13
greisse01,Seth Greisinger,3,4,25,9,0,0,2,202,78,34,10,21,43,2,2,3,0,292,6,38,2,2,6
grillja01,Jason Grilli,3,4,21,8,0,0,1,182,63,31,8,23,29,1,2,3,0,261,5,34,2,2,6
grimsja01,Jason Grimsley,2,3,24,3,0,0,1,115,40,19,5,17,23,2,2,2,0,168,5,22,2,1,4
groombu01,Buddy Groom,2,2,25,3,0,0,1,110,42,18,4,12,22,1,1,1,0,160,7,19,1,1,3
gryboke01,Kevin Gryboski,2,2,24,3,0,0,1,103,37,17,3,16,17,2,2,1,0,151,5,19,1,1,4
guarded01,Eddie Guardado,3,3,37,4,0,0,15,169,50,23,7,16,53,2,2,1,0,238,26,25,2,2,3
guerrma02,Matt Guerrier,2,3,30,5,0,0,1,189,64,28,7,21,40,2,2,3,0,271,9,31,3,1,4
guthrje01,Jeremy Guthrie,2,1,12,3,0,0,1,89,30,14,4,11,16,1,1,1,0,127,3,15,1,1,3
halamjo01,John Halama,3,3,21,7,0,0,1,171,62,28,7,17,28,1,1,3,0,248,5,31,2,2,6
hallaro01,Roy Halladay,10,6,32,19,3,1,1,432,137,56,14,26,111,2,3,5,1,592,5,60,3,2,14
halsebr01,Brad Halsey,7,10,41,21,0,0,2,432,167,73,17,40,77,3,3,7,1,630,7,85,8,5,14
hammoch01,Chris Hammond,4,2,36,4,0,0,1,173,57,25,7,15,37,1,1,2,0,244,10,27,2,2,5
hamptmi01,Mike Hampton,7,6,28,16,1,0,1,331,118,50,10,40,55,2,3,2,1,474,4,53,5,3,12
hamulti01,Tim Hamulack,1,1,12,3,0,0,1,78,29,13,4,9,16,1,1,1,0,113,3,14,1,1,2
hancojo01,Josh Hancock,2,2,15,4,0,0,1,113,38,17,5,13,20,1,2,1,0,163,4,19,1,1,3
hansecr01,Craig Hansen,2,1,12,3,0,0,1,82,29,13,3,9,22,1,1,1,0,119,3,14,1,1,2
haranaa01,Aaron Harang,10,11,43,27,1,0,2,549,192,85,22,50,140,4,6,7,0,782,6,90,10,5,14
harderi01,Rich Harden,9,6,35,20,1,0,1,425,122,57,12,56,131,3,5,3,0,594,5,63,4,4,13
harenda01,Dan Haren,11,10,45,25,2,0,2,529,177,78,20,49,130,4,5,6,0,743,7,87,5,5,19
harikti01,Tim Harikkala,2,2,19,3,0,0,1,111,36,18,5,13,19,1,1,1,0,158,5,20,1,1,3
harpetr01,Travis Harper,4,4,38,4,0,0,1,208,71,37,9,23,45,4,2,3,0,297,9,39,3,2,7
harrije02,Jeff Harris,4,5,27,9,0,0,2,230,73,36,10,28,36,2,2,3,0,328,6,39,2,2,7
harvich01,Chad Harville,2,2,20,3,0,0,1,101,34,17,4,15,26,1,2,2,0,147,5,19,1,1,4
hasegsh01,Shigetoshi Hasegawa,3,4,39,4,0,0,2,190,62,30,6,20,33,2,1,2,0,270,13,31,2,2,6
hawkila01,LaTroy Hawkins,3,3,35,3,0,0,5,153,49,21,5,15,45,2,2,1,0,217,12,23,2,1,3
heilmaa01,Aaron Heilman,4,5,36,9,0,0,3,261,80,38,9,35,81,3,2,4,0,369,10,42,3,2,10
helliri01,Rick Helling,4,3,25,8,0,0,1,193,58,27,6,23,57,2,2,3,0,272,6,28,2,2,6
hendrma01,Mark Hendrickson,10,10,40,26,1,0,1,498,200,94,21,45,80,3,4,4,1,729,5,104,5,6,16
hennebr01,Brad Hennessey,6,8,37,18,0,0,2,374,133,62,14,52,70,3,4,4,1,547,7,67,4,3,13
hennse01,Sean Henn,4,5,27,8,0,0,2,202,74,36,9,31,14,2,2,3,0,295,7,39,2,2,6
henslcl01,Clay Hensley,2,2,22,5,0,0,1,153,44,20,4,18,32,2,2,2,0,215,5,23,2,2,5
heredfe01,Felix Heredia,1,2,17,3,0,0,1,90,30,15,3,12,17,1,1,1,0,131,4,16,1,1,3
hergema01,Matt Herges,2,2,21,3,0,0,3,104,40,19,4,12,21,1,1,2,0,153,8,20,2,1,4
hermadu01,Dustin Hermanson,3,4,33,7,0,0,11,197,63,28,7,22,46,3,2,2,0,279,17,31,3,2,6
hernafe02,Felix Hernandez,6,6,33,13,0,0,2,323,91,44,10,33,105,2,4,4,0,446,7,47,3,3,9
hernali01,Livan Hernandez,12,10,41,28,4,1,1,622,209,90,22,65,139,8,3,9,1,880,5,94,10,6,19
hernaor01,Orlando Hernandez,9,7,35,18,0,0,2,375,125,62,15,49,98,2,4,8,1,543,6,65,3,4,10
hernaro01,Roberto Hernandez,5,4,44,4,0,0,2,189,61,27,7,29,51,3,3,2,0,273,11,31,5,2,5
hernaru03,Runelvys Hernandez,8,10,39,21,0,0,2,422,146,77,16,58,76,2,4,6,0,614,6,81,3,5,12
hillri01,Rich Hill,3,3,21,6,0,0,1,155,52,28,6,24,41,2,1,2,0,227,5,30,2,1,5
hoffmtr01,Trevor Hoffman,3,4,38,4,0,0,18,173,52,23,5,14,57,1,2,2,0,241,26,25,2,2,4
horgajo01,Joe Horgan,2,2,18,3,0,0,1,96,35,17,4,14,22,1,1,2,0,142,4,18,1,1,3
houltdj01,D. J. Houlton,6,7,38,14,0,0,2,329,119,57,15,42,75,3,3,6,0,482,8,61,7,4,8
howeljp01,J. P. Howell,5,6,34,15,0,0,2,299,99,54,12,46,72,2,5,6,0,437,7,59,4,3,11
howrybo01,Bob Howry,5,4,43,4,0,0,2,195,55,26,6,18,50,1,1,2,0,269,12,28,2,2,5
hudsolu01,Luke Hudson,7,7,33,15,0,0,2,305,94,54,13,52,67,3,5,7,0,442,6,57,5,4,11
hudsoti01,Tim Hudson,11,7,37,24,2,1,1,521,171,71,15,51,106,4,4,8,0,734,5,75,7,3,18
hughetr01,Travis Hughes,2,2,15,3,0,0,1,95,35,16,4,13,21,1,1,1,0,139,3,17,1,1,3
ishiika01,Kazuhisa Ishii,7,7,31,18,1,0,1,347,107,59,14,65,76,3,4,4,0,504,4,64,6,4,11
isrinja01,Jason Isringhausen,3,3,43,4,0,0,19,183,49,23,5,24,57,3,2,2,0,258,28,25,3,1,5
jacksed01,Edwin Jackson,5,4,27,10,0,0,2,223,77,40,9,33,41,2,3,3,1,325,6,42,2,3,7
jamesch03,Chuck James,2,2,12,3,0,0,1,86,28,13,3,11,27,1,1,1,0,122,3,14,1,1,2
jarvike01,Kevin Jarvis,1,2,10,3,0,0,1,79,29,14,3,10,13,1,1,1,0,115,2,15,1,1,2
jenksbo01,Bobby Jenks,2,2,23,4,0,0,3,137,43,20,5,17,58,2,2,2,0,196,8,22,2,1,3
jennija01,Jason Jennings,8,9,34,21,1,0,1,426,159,77,16,68,90,6,6,5,0,635,5,83,6,3,15
jensery01,Ryan Jensen,3,3,20,6,0,0,1,147,54,26,7,16,29,1,1,2,0,213,5,28,2,2,4
johnsja02,Jason Johnson,8,11,41,27,1,0,1,547,202,93,20,55,97,4,10,6,0,787,5,101,5,6,20
johnsjo09,Josh Johnson,2,2,17,5,0,0,1,125,41,19,4,19,33,1,1,2,0,179,4,21,2,1,4
johnsmi03,Mike Johnston,1,2,13,3,0,0,1,84,31,14,4,11,22,1,1,1,0,123,3,16,1,1,3
johnsra05,Randy Johnson,13,9,40,26,3,1,1,567,166,75,22,41,199,3,3,9,1,776,5,84,5,5,11
johnsty01,Tyler Johnson,2,1,12,3,0,0,1,81,27,12,3,11,36,1,1,1,0,116,3,14,1,1,3
jonesgr01,Greg Jones,1,1,12,3,0,0,1,83,29,13,3,11,27,1,1,1,0,119,4,14,1,1,2
jonesto02,Todd Jones,3,4,40,4,0,0,12,187,61,25,5,18,56,2,2,3,0,265,20,28,3,2,6
journji01,Jimmy Journell,1,2,12,3,0,0,1,82,28,13,3,13,23,1,1,1,0,118,3,15,1,1,3
juliojo01,Jorge Julio,3,5,47,4,0,0,8,206,67,36,10,29,59,3,5,3,0,298,21,39,2,2,5
karnuja01,Jason Karnuth,1,1,11,3,0,0,1,77,26,12,3,9,0,1,1,1,0,111,3,13,1,1,2
karsast01,Steve Karsay,2,2,16,3,0,0,1,99,37,17,4,11,18,1,1,1,0,144,6,18,1,1,3
kazmisc01,Scott Kazmir,9,9,44,25,0,0,2,489,153,74,14,83,155,3,6,8,1,712,7,82,5,6,12
keislra01,Randy Keisler,3,3,24,6,0,0,1,176,62,32,8,26,42,2,2,2,0,259,6,35,2,2,5
kennejo04,Joe Kennedy,5,5,26,12,0,0,1,262,92,41,10,32,60,4,2,4,0,381,5,45,3,3,8
kensilo01,Logan Kensing,2,2,12,3,0,0,1,90,34,16,4,12,15,1,1,1,0,132,3,17,1,1,3
kidama01,Masao Kida,1,1,11,3,0,0,1,79,29,13,3,9,12,1,1,1,0,113,3,14,1,1,3
kimby01,Byung-Hyun Kim,6,8,44,15,0,0,4,364,123,62,13,49,92,5,6,9,1,534,11,66,5,5,9
kimsu01,Sun-Woo Kim,5,4,30,11,1,0,1,266,94,43,11,31,57,3,4,5,0,386,5,48,4,2,9
kingra01,Ray King,3,3,46,3,0,0,1,152,47,21,4,20,33,1,2,2,0,216,9,23,1,1,5
kinnema01,Matt Kinney,2,2,14,5,0,0,1,119,44,20,5,16,30,1,2,2,0,174,3,23,2,1,4
klinest02,Steve Kline,3,3,45,4,0,0,2,179,55,26,7,25,36,3,2,2,1,255,14,29,2,2,6
kolbda01,Danny Kolb,3,5,42,4,0,0,11,178,63,29,6,24,36,3,3,2,0,258,21,31,2,1,8
kooda01,Dae-Sung Koo,2,2,20,3,0,0,1,107,35,17,4,15,34,1,1,2,0,155,4,18,1,2,3
koplomi01,Mike Koplove,3,3,36,4,0,0,1,175,57,28,6,22,36,3,2,4,0,251,10,30,3,2,7
koronjo01,John Koronka,3,4,24,7,0,0,2,180,63,31,7,23,34,1,2,2,1,262,6,33,2,2,5
kuoho01,Hung-Chih Kuo,2,2,13,3,0,0,1,85,28,14,3,12,47,1,1,1,0,122,3,15,1,1,2
lackejo01,John Lackey,12,9,42,27,1,1,1,556,193,83,18,61,157,4,11,9,1,797,5,90,4,4,15
lawrebr02,Brian Lawrence,9,12,41,27,1,0,1,533,190,88,20,51,101,6,3,8,0,764,5,92,6,6,17
leagubr01,Brandon League,2,2,20,4,0,0,1,135,47,23,6,19,21,1,2,2,0,195,5,25,1,1,4
ledezwi01,Wil Ledezma,5,6,32,12,0,0,1,277,102,51,12,37,52,2,3,4,1,405,7,56,3,4,9
leecl02,Cliff Lee,14,7,43,27,1,0,2,540,178,86,23,60,141,2,5,5,0,769,6,93,4,6,12
lehrju01,Justin Lehr,2,2,23,4,0,0,1,137,45,22,5,19,27,2,2,2,0,198,7,24,2,2,4
leicejo01,Jon Leicester,3,2,19,4,0,0,1,120,40,20,5,17,32,1,1,2,0,173,5,21,2,1,4
leiteal01,Al Leiter,6,5,25,14,0,0,1,276,84,42,9,48,65,3,2,5,0,404,4,45,3,3,7
lerewan01,Anthony Lerew,2,2,13,3,0,0,1,90,31,14,3,12,17,1,1,1,0,129,4,15,1,1,3
levinal01,Al Levine,2,2,20,3,0,0,1,109,41,18,5,13,14,1,1,1,0,158,5,19,1,1,3
lidgebr01,Brad Lidge,4,4,48,4,0,0,15,209,54,25,6,26,105,2,4,3,0,289,26,27,3,2,4
lidleco01,Cory Lidle,10,9,38,23,1,1,1,469,169,77,16,41,97,4,5,6,0,669,5,87,7,6,17
liebejo01,Jon Lieber,13,10,42,26,1,0,2,549,200,86,24,33,119,4,5,5,0,774,6,93,8,5,14
ligteke01,Kerry Ligtenberg,2,2,21,3,0,0,1,104,40,20,5,12,27,2,1,1,0,153,6,20,1,1,2
lillyte01,Ted Lilly,9,9,36,23,1,0,1,427,138,73,20,58,115,2,4,4,2,620,5,76,3,4,9
limajo01,Jose Lima,9,10,42,24,1,0,1,477,184,94,26,49,78,3,4,6,0,696,6,99,6,5,14
linebsc01,Scott Linebrink,5,3,47,4,0,0,1,210,58,25,6,23,69,2,3,2,0,288,9,27,2,2,7
liriafr01,Francisco Liriano,3,4,24,8,0,0,2,187,60,31,8,21,94,1,2,2,0,265,6,33,2,2,6
liriape01,Pedro Liriano,2,2,14,3,0,0,1,93,32,16,4,12,20,1,1,1,0,134,4,17,1,1,2
loaizes01,Esteban Loaiza,10,8,40,24,0,0,1,509,176,79,17,48,142,3,5,6,0,723,6,80,6,5,16
loeka01,Kameron Loe,6,5,36,8,0,0,2,238,78,35,8,28,39,3,2,3,0,340,9,40,3,2,7
lohseky01,Kyle Lohse,9,11,40,26,1,0,1,506,195,84,22,48,92,4,5,7,1,734,5,91,5,6,16
loopebr01,Braden Looper,3,4,42,4,0,0,13,187,65,27,6,20,37,2,2,3,0,270,29,29,3,1,6
lopezaq01,Aquilino Lopez,2,2,18,3,0,0,2,100,31,15,4,15,30,1,1,2,0,144,6,17,1,1,3
lopezja02,Javier Lopez,2,2,28,3,0,0,1,109,38,20,4,15,22,2,1,2,0,159,5,21,1,1,4
lopezro01,Rodrigo Lopez,12,10,44,26,1,0,1,542,194,89,24,55,112,3,5,6,1,782,6,98,4,5,15
lowede01,Derek Lowe,12,11,42,28,1,1,1,561,201,88,20,59,114,3,4,7,1,811,5,107,8,5,20
lowryno01,Noah Lowry,11,9,44,25,1,0,2,524,168,76,19,62,145,2,3,6,0,745,7,82,8,3,15
lyonbr01,Brandon Lyon,2,3,22,3,0,0,4,120,47,21,5,13,26,2,1,2,0,178,10,23,2,1,3
macdomi01,Mike MacDougal,4,4,40,4,0,0,9,184,62,27,6,24,61,2,4,3,0,265,24,31,2,1,6
maddugr01,Greg Maddux,12,11,41,27,2,0,1,562,196,87,25,32,119,4,5,7,0,782,5,94,11,6,16
madribo01,Bobby Madritsch,4,4,24,8,0,0,1,212,65,32,7,26,47,2,2,3,0,300,6,34,2,1,7
madsory01,Ryan Madson,6,4,47,5,0,0,1,233,74,33,9,23,66,3,4,4,0,327,9,36,3,3,8
mahayro01,Ron Mahay,2,2,29,3,0,0,1,146,49,23,6,20,39,2,2,1,0,212,7,25,2,1,4
maholpa01,Paul Maholm,5,4,29,10,0,0,2,249,74,35,8,32,55,2,2,4,0,353,7,37,2,2,9
mainejo01,John Maine,4,5,28,10,0,0,2,225,75,40,10,35,41,2,2,3,1,329,6,43,2,3,7
majewga01,Gary Majewski,4,4,44,5,0,0,2,214,71,30,6,28,41,3,2,4,0,310,13,34,3,3,7
mantema01,Matt Mantei,2,2,23,3,0,0,3,116,36,21,5,19,39,1,2,2,0,169,8,22,1,1,3
marcush01,Shaun Marcum,2,2,13,3,0,0,1,89,29,13,3,11,16,1,1,1,0,127,4,14,1,1,3
marotmi01,Mike Maroth,11,13,41,28,1,0,1,559,210,94,25,49,96,2,6,7,0,798,5,104,6,7,18
marquja01,Jason Marquis,11,10,44,26,1,0,2,551,189,83,24,64,102,3,7,7,1,785,7,93,5,5,21
marteda01,Damaso Marte,3,3,41,3,0,0,3,164,47,24,6,27,59,3,2,2,0,235,11,24,2,2,5
martipe02,Pedro Martinez,13,8,40,26,2,1,1,560,154,72,18,48,193,2,4,8,0,761,5,74,6,4,11
martito02,Tom Martin,1,1,17,3,0,0,1,82,27,13,4,11,23,1,1,1,0,117,3,14,1,1,2
mateoju01,Julio Mateo,3,4,41,4,0,0,1,227,70,32,10,17,52,3,2,5,0,318,9,34,3,3,5
matthmi01,Mike Matthews,2,2,18,3,0,0,1,90,31,16,4,13,17,1,2,1,0,132,4,17,1,1,3
mayda02,Darrell May,3,5,17,9,1,0,1,191,73,36,11,18,38,1,1,1,0,277,3,38,1,2,5
maysjo01,Joe Mays,6,8,38,19,1,0,2,395,162,74,18,37,49,2,4,4,0,575,7,82,4,3,14
mcbrima01,Macay McBride,2,2,17,3,0,0,1,99,35,16,3,12,46,1,1,1,0,143,4,18,1,1,3
mccarbr01,Brandon McCarthy,5,4,30,11,0,0,2,272,88,42,13,27,67,2,2,3,1,386,6,45,3,2,8
mccluse01,Seth McClung,6,7,36,13,0,0,2,298,95,58,15,52,79,2,4,5,0,439,7,62,2,4,6
mcgowdu01,Dustin McGowan,3,4,26,8,0,0,2,206,71,36,9,24,49,1,4,5,0,298,6,39,2,3,5
meadobr01,Brian Meadows,3,3,43,4,0,0,1,209,75,33,7,18,40,4,3,1,0,299,9,37,3,4,6
mechegi01,Gil Meche,9,8,37,22,1,0,1,425,149,74,19,58,93,2,4,4,0,618,6,80,3,4,12
mecirji01,Jim Mecir,2,4,37,4,0,0,1,151,48,22,5,19,42,2,1,3,0,218,9,25,2,2,4
meddebr01,Brandon Medders,3,2,20,4,0,0,1,123,36,17,4,15,44,1,1,2,0,174,6,19,1,1,3
mendora01,Ramiro Mendoza,2,2,14,3,0,0,1,84,31,14,3,8,14,1,1,1,0,121,4,15,1,1,3
merckke01,Kent Mercker,3,2,46,4,0,0,2,178,56,25,7,22,47,2,2,3,0,255,11,27,2,2,5
meredcl01,Cla Meredith,2,1,11,3,0,0,1,81,29,14,3,11,0,1,1,1,0,118,3,15,1,1,2
mesajo01,Jose Mesa,3,4,40,4,0,0,15,175,63,28,7,23,36,2,2,2,0,255,27,30,4,3,6
messera01,Randy Messenger,2,2,22,4,0,0,1,134,45,22,5,24,32,3,1,1,0,196,6,24,2,2,4
micelda01,Dan Miceli,2,3,25,3,0,0,1,123,39,19,5,16,41,2,1,2,0,177,6,20,2,1,3
milleju01,Justin Miller,2,2,12,5,0,0,1,103,39,19,5,14,19,1,1,2,0,151,3,20,1,1,4
millema02,Matt Miller,2,2,26,3,0,0,1,134,39,18,4,17,42,3,1,3,0,188,6,20,1,1,5
milletr02,Trever Miller,2,2,41,3,0,0,1,154,50,23,5,24,42,3,2,4,0,225,10,26,2,2,5
millewa04,Wade Miller,7,7,30,17,0,0,1,342,109,54,12,51,89,1,4,4,0,497,5,58,4,4,8
millwke01,Kevin Millwood,9,9,39,25,1,0,1,506,168,70,17,52,134,3,3,5,0,718,5,78,8,4,15
miltoer01,Eric Milton,9,10,42,27,0,0,1,517,192,101,32,54,121,4,5,5,0,759,5,106,7,5,9
mitrese01,Sergio Mitre,4,5,27,9,1,0,1,221,82,40,10,27,45,2,4,4,0,325,7,42,3,2,7
moehlbr01,Brian Moehler,6,8,39,17,0,0,2,377,151,62,14,36,73,5,2,4,0,547,8,65,8,4,12
morrima01,Matt Morris,12,9,40,26,2,1,1,525,182,83,23,42,112,3,3,6,1,740,5,92,9,5,18
motagu01,Guillermo Mota,3,3,36,4,0,0,2,183,55,29,6,22,58,3,2,2,0,259,11,30,2,2,4
moyerja01,Jamie Moyer,10,8,39,25,1,0,1,516,183,85,24,51,97,3,3,7,0,744,5,89,6,5,13
muldema01,Mark Mulder,13,8,40,26,3,1,1,555,187,82,19,60,111,2,8,8,0,781,5,87,7,4,25
mulhote01,Terry Mulholland,3,3,30,5,0,0,1,192,75,32,8,20,26,2,2,3,0,278,10,35,3,2,8
muntesc01,Scott Munter,3,2,26,4,0,0,1,135,47,19,4,15,13,1,1,2,0,192,5,22,2,1,5
mussimi01,Mike Mussina,11,8,37,24,1,1,1,485,171,78,20,40,134,2,4,5,0,684,5,82,5,4,15
myersbr01,Brett Myers,12,9,43,29,1,0,1,566,188,90,26,65,159,4,5,8,2,811,5,96,8,4,12
myersmi01,Mike Myers,3,2,35,4,0,0,1,132,42,20,5,17,25,2,1,2,0,189,8,22,1,1,5
nageocl01,Clint Nageotte,2,2,13,4,0,0,1,94,35,16,3,14,16,1,1,2,0,138,3,18,1,1,3
nathajo01,Joe Nathan,5,3,47,4,0,0,18,200,50,25,6,24,87,2,3,2,0,275,28,26,2,2,4
nealbl01,Blaine Neal,2,2,20,3,0,0,1,110,43,18,4,13,24,2,1,1,0,161,5,20,1,2,4
nelsoje01,Jeff Nelson,2,3,30,4,0,0,1,133,40,21,5,23,41,1,2,2,0,192,8,23,2,1,4
nippedu01,Dustin Nippert,4,3,27,8,0,0,2,207,63,33,8,33,48,2,3,3,0,299,7,36,2,2,6
nitkocj01,C. J. Nitkowski,2,2,14,3,0,0,1,83,31,14,3,11,16,1,1,2,0,121,3,15,1,1,3
nomohi01,Hideo Nomo,7,9,31,18,0,0,1,347,125,73,17,54,78,3,4,3,0,511,5,73,6,5,7
novoaro01,Roberto Novoa,3,3,29,4,0,0,1,150,52,24,6,21,47,2,2,2,0,219,7,26,2,2,3
nunezfr01,Franklin Nunez,2,2,13,3,0,0,1,86,28,14,3,12,24,1,1,1,0,124,3,16,1,1,3
nunezle01,Juan Carlos Oviedo,3,3,27,4,0,0,1,160,63,31,7,18,30,2,2,2,0,234,7,32,2,2,5
obermwe01,Wes Obermueller,4,5,27,11,0,0,1,244,91,44,10,33,40,2,3,4,0,362,5,48,3,3,7
ohkato01,Tomo Ohka,7,7,33,19,1,0,1,384,146,59,16,31,75,4,5,4,0,552,5,65,4,3,13
ohmanwi01,Will Ohman,3,2,32,4,0,0,1,140,41,20,6,21,48,2,3,2,0,201,7,22,2,1,4
olsensc01,Scott Olsen,4,4,26,8,0,0,2,197,67,31,9,26,66,2,2,2,0,285,6,35,2,2,6
ortizra01,Ramon Ortiz,9,10,41,23,1,0,1,470,178,84,25,49,89,3,5,7,1,682,8,91,5,6,15
ortizru01,Russ Ortiz,9,8,33,21,1,0,1,410,140,75,16,70,80,4,4,4,0,608,4,78,6,6,11
orvelch01,Chad Orvella,3,3,25,4,0,0,1,153,49,23,5,21,43,2,1,2,0,220,6,26,2,2,3
osorifr01,Franquelis Osoria,2,2,20,4,0,0,1,122,41,19,5,13,21,1,1,2,0,174,5,21,2,1,4
osunaan01,Antonio Osuna,2,2,16,3,0,0,1,88,31,15,3,12,25,1,1,1,0,129,4,16,1,1,2
oswalro01,Roy Oswalt,16,10,43,29,2,1,1,614,204,78,18,48,167,4,5,8,1,854,5,84,9,5,18
otsukak01,Akinori Otsuka,4,4,43,4,0,0,2,189,54,25,6,27,65,4,1,2,0,270,11,27,3,1,6
oxsprch01,Chris Oxspring,2,2,13,3,0,0,1,93,30,14,4,12,30,1,1,1,0,133,3,16,1,1,3
padilju01,Juan Padilla,3,2,21,4,0,0,1,134,42,20,5,17,24,1,1,2,0,192,5,22,2,1,4
padilvi01,Vicente Padilla,9,10,36,22,0,0,1,435,144,71,19,56,99,6,3,9,0,630,5,75,7,4,13
papeljo01,Jonathan Papelbon,3,2,21,5,0,0,1,147,49,21,6,20,49,2,2,2,0,211,5,23,2,1,4
parkch01,Chan Ho Park,5,6,27,13,0,0,1,263,93,48,12,40,57,1,3,7,1,389,5,53,3,3,9
parrijo01,John Parrish,2,2,22,3,0,0,1,124,38,18,4,24,40,2,3,2,0,182,5,20,2,2,4
pattejo02,John Patterson,8,8,43,25,1,0,2,510,159,73,20,64,160,8,6,7,1,725,6,78,5,4,9
pavanca01,Carl Pavano,8,7,31,19,1,1,1,396,140,58,14,31,81,5,3,7,1,560,4,65,5,4,12
peavyja01,Jake Peavy,12,8,41,26,1,1,1,547,157,65,19,58,186,4,3,8,1,757,5,72,5,5,14
pennha01,Hayden Penn,5,5,30,11,0,0,2,247,89,43,10,36,36,3,4,3,1,361,7,47,3,2,7
pennybr01,Brad Penny,8,8,38,22,1,0,2,449,153,67,16,41,105,3,3,4,1,632,6,71,6,3,13
peraljo01,Joel Peralta,2,2,21,4,0,0,1,127,39,20,5,16,37,1,2,1,0,181,6,21,2,1,3
percitr01,Troy Percival,2,3,26,3,0,0,9,124,36,19,6,17,33,2,1,2,0,177,17,21,1,1,3
perezod01,Odalis Perez,7,7,33,20,0,0,1,404,133,60,17,35,94,3,3,3,1,561,4,65,8,2,14
perezol01,Oliver Perez,8,7,35,20,1,0,1,403,117,64,19,68,145,2,3,6,0,579,5,68,6,4,11
perisma01,Matt Perisho,2,2,18,3,0,0,1,89,29,14,3,13,25,1,1,1,0,128,4,15,1,1,3
pettian01,Andy Pettitte,13,8,40,25,0,0,1,530,163,64,16,42,147,2,4,3,0,728,5,72,6,4,15
phelpto01,Tommy Phelps,2,2,21,4,0,0,1,119,41,19,4,15,27,2,1,2,0,172,5,21,1,1,4
pineijo01,Joel Pineiro,8,10,38,24,1,0,1,509,182,92,20,55,111,3,5,6,1,728,5,94,4,6,18
politcl01,Cliff Politte,4,3,44,4,0,0,2,190,55,26,8,22,56,3,2,3,0,266,11,28,2,3,5
ponsosi01,Sidney Ponson,8,10,35,22,2,1,1,439,179,84,17,49,76,3,7,5,1,645,5,90,4,5,20
powelja04,Jay Powell,2,1,15,3,0,0,1,86,30,14,3,13,18,1,1,1,0,125,4,16,1,1,3
prinzbr01,Bret Prinz,2,2,14,3,0,0,1,88,30,14,4,12,20,1,1,1,0,127,4,15,1,1,3
priorma01,Mark Prior,10,7,37,23,1,0,1,474,142,68,19,52,183,3,4,5,1,669,5,70,6,4,9
proctsc01,Scott Proctor,3,2,26,4,0,0,1,153,53,27,8,20,40,2,2,2,1,223,9,29,1,2,4
puffebr01,Brandon Puffer,1,2,13,3,0,0,1,90,33,15,4,13,13,1,1,1,0,132,4,17,1,1,3
pulsibi01,Bill Pulsipher,1,1,12,3,0,0,1,80,27,13,3,10,6,1,1,1,0,115,3,14,1,1,2
putzjj01,J. J. Putz,4,4,40,4,0,0,3,184,62,28,8,23,46,2,2,3,0,265,14,31,3,2,6
quallch01,Chad Qualls,5,3,43,4,0,0,1,206,67,29,7,21,52,2,2,4,0,291,10,32,3,2,7
quantpa01,Paul Quantrill,2,2,23,2,0,0,1,109,41,17,3,10,16,2,1,1,0,156,5,19,1,1,4
radkebr01,Brad Radke,9,9,39,26,2,1,1,539,193,79,24,25,109,2,3,6,0,750,5,86,5,6,12
rakeraa01,Aaron Rakers,2,2,14,3,0,0,1,97,32,15,4,10,27,1,1,1,0,138,3,16,1,1,3
ramirel01,Elizardo Ramirez,3,4,25,7,0,0,1,190,72,34,9,23,27,2,3,3,0,278,7,36,3,2,6
ramirer01,Erasmo Ramirez,2,2,21,3,0,0,1,120,40,19,5,10,19,1,1,2,0,170,5,20,2,1,3
ramirho01,Horacio Ramirez,9,8,40,24,1,0,2,504,171,80,22,62,75,6,4,4,1,714,6,86,9,4,22
rasneda01,Darrell Rasner,2,2,15,4,0,0,1,110,35,17,4,12,20,1,1,2,0,157,4,18,2,1,3
rauchjo01,Jon Rauch,3,3,19,4,0,0,1,135,39,20,5,16,36,2,2,2,0,190,5,21,2,1,3
raych01,Chris Ray,2,3,25,4,0,0,1,140,43,20,5,18,50,2,1,2,0,201,6,22,2,1,4
reamebr01,Britt Reames,1,1,11,3,0,0,1,82,30,14,3,10,16,1,1,1,0,119,3,15,1,1,3
redditi01,Tim Redding,4,5,23,10,0,0,1,213,79,38,8,28,43,2,2,3,0,314,4,41,4,2,7
redmama01,Mark Redman,8,11,39,25,2,0,1,500,176,85,19,55,101,4,6,4,2,712,5,89,7,5,18
reedst01,Steve Reed,2,3,30,3,0,0,1,139,50,23,6,16,25,2,1,3,0,200,8,24,2,1,5
regilni01,Nick Regilio,2,3,17,4,0,0,1,108,38,18,4,15,24,1,1,2,0,157,4,19,1,1,3
reitsch01,Chris Reitsma,4,4,49,4,0,0,6,209,75,32,7,17,45,3,2,2,0,297,17,34,2,2,7
remlimi01,Mike Remlinger,2,2,19,3,0,0,1,93,31,16,4,14,31,1,1,1,0,135,5,17,1,1,2
resopch01,Chris Resop,2,2,16,3,0,0,1,104,37,18,4,14,28,1,2,1,0,150,5,19,1,1,3
reyesal01,Alberto Reyes,3,3,35,4,0,0,2,169,42,22,6,20,61,2,2,3,0,234,9,23,2,1,4
reyesan01,Anthony Reyes,2,2,17,5,0,0,1,124,37,19,5,14,41,1,2,2,0,176,4,20,2,1,3
reyesde01,Dennys Reyes,3,3,28,6,0,0,1,176,64,30,6,29,47,2,3,2,1,261,6,33,2,2,5
rhodear01,Arthur Rhodes,3,3,33,3,0,0,2,148,48,21,6,18,47,2,1,2,0,212,10,24,2,1,4
riedljo01,John Riedling,3,2,28,3,0,0,1,139,50,25,5,21,27,2,3,2,0,206,6,28,2,2,4
rileyma01,Matt Riley,2,2,14,5,0,0,1,115,37,21,5,21,29,1,1,1,0,168,3,22,1,1,4
rincoju01,Juan Rincon,6,5,49,4,0,0,1,218,59,28,5,29,80,2,3,3,0,305,12,31,3,2,5
rincori01,Ricardo Rincon,3,2,40,3,0,0,1,141,45,22,5,23,36,2,2,2,0,205,6,23,2,1,4
ringro01,Royce Ring,2,2,15,3,0,0,1,93,30,15,3,14,21,1,1,1,0,134,3,16,1,1,3
riskeda01,David Riske,4,3,44,4,0,0,3,207,59,29,9,23,61,2,2,3,0,289,18,30,3,2,6
riverma01,Mariano Rivera,5,3,48,4,0,0,23,211,57,23,5,17,69,1,1,3,0,289,35,25,2,1,6
roberna01,Nate Robertson,9,11,42,27,1,0,2,534,187,90,25,62,122,3,6,6,1,768,6,100,6,7,20
rodnefe01,Fernando Rodney,2,3,26,4,0,0,3,141,46,21,5,19,46,2,2,2,0,202,11,22,2,1,4
rodrife01,Felix Rodriguez,2,2,27,3,0,0,1,128,42,20,4,20,32,1,2,2,0,185,7,21,1,1,4
rodrifr03,Francisco Rodriguez,4,3,45,4,0,0,14,207,50,26,7,29,95,2,4,2,0,288,24,27,2,2,4
rodriri03,Ricardo Rodriguez,5,5,28,12,0,0,1,258,93,43,12,29,39,1,3,3,1,374,5,48,3,2,7
rodriwa01,Wandy Rodriguez,8,8,37,17,0,0,2,365,126,66,16,48,75,3,3,6,2,526,7,70,4,3,14
rogerke01,Kenny Rogers,12,8,39,25,1,1,1,516,190,78,17,49,90,2,3,7,1,742,5,86,6,4,18
romerjc01,J. C. Romero,4,3,45,4,0,0,1,182,55,27,6,33,51,4,3,4,0,267,9,30,3,1,6
rueteki01,Kirk Rueter,6,7,32,19,0,0,1,379,147,69,14,46,34,3,2,2,0,556,5,74,5,5,14
rupejo01,Josh Rupe,2,2,16,4,0,0,1,119,38,18,4,14,26,1,2,2,0,170,4,20,2,1,4
ruschgl01,Glendon Rusch,6,6,41,16,1,0,2,372,140,59,12,41,91,4,2,3,1,544,7,65,8,5,11
ryanbj01,B. J. Ryan,3,4,49,4,0,0,10,205,56,26,5,28,97,3,2,2,0,290,23,27,2,2,4
saarlki01,Kirk Saarloos,8,8,44,20,1,1,2,425,150,67,13,49,56,5,2,8,0,610,8,71,4,3,17
sabatcc01,CC Sabathia,12,9,40,26,1,0,1,541,172,82,19,61,141,3,5,7,1,761,5,86,6,4,16
sanchdu01,Duaner Sanchez,4,4,49,4,0,0,3,225,74,33,8,29,56,3,4,4,0,323,17,36,4,2,7
sandeda01,David Sanders,1,1,12,3,0,0,1,79,27,13,3,10,15,1,1,1,0,114,3,14,1,1,2
santaer01,Ervin Santana,10,8,38,19,1,1,2,392,134,64,16,46,96,3,4,7,0,566,7,69,3,4,10
santajo01,Johan Santana,14,7,45,27,1,1,1,603,156,71,21,48,221,2,7,5,0,807,6,75,5,3,12
santaju01,Julio Santana,3,3,25,4,0,0,1,136,42,22,6,18,54,2,2,1,0,195,7,23,2,2,4
santijo03,Jose Santiago,1,2,12,3,0,0,1,83,31,13,3,10,13,1,1,1,0,119,3,14,1,1,3
santovi01,Victor Santos,7,10,39,21,1,0,1,419,150,71,18,56,92,6,5,6,0,618,7,81,5,4,10
sauersc01,Scott Sauerbeck,2,2,29,4,0,0,1,126,41,20,5,19,40,2,2,3,0,183,6,22,1,1,4
saundjo01,Joe Saunders,4,3,26,8,0,0,2,199,68,33,9,24,28,2,3,3,0,285,7,35,2,2,6
schilcu01,Curt Schilling,8,5,28,13,1,0,3,309,105,48,11,21,100,1,2,3,0,432,8,48,3,3,6
schmija01,Jason Schmidt,12,7,37,24,2,1,1,499,139,72,15,62,172,3,6,5,1,701,5,74,6,5,9
schmost01,Steve Schmoll,3,3,28,4,0,0,2,148,49,24,5,20,30,2,1,2,0,213,8,27,3,2,4
schoesc01,Scott Schoeneweis,4,4,36,7,0,0,1,192,67,31,7,26,45,2,2,3,0,279,7,34,2,1,6
seaneru01,Rudy Seanez,4,3,34,4,0,0,1,168,50,23,6,21,76,2,3,2,0,237,8,25,2,1,4
seaybo01,Bobby Seay,2,2,18,3,0,0,1,100,35,16,4,13,26,1,1,1,0,144,5,17,1,1,3
seleaa01,Aaron Sele,7,9,35,20,1,0,1,385,152,71,17,50,54,3,4,6,1,569,5,77,3,7,13
seoja01,Jae Weong Seo,7,6,31,17,1,0,1,351,121,51,13,33,68,4,2,3,0,496,5,55,8,3,10
shackbr01,Brian Shackelford,2,2,22,4,0,0,1,119,36,17,4,13,24,1,2,3,0,169,5,19,1,1,4
sheetbe01,Ben Sheets,9,9,35,22,2,0,1,489,152,63,19,29,155,2,6,4,0,670,5,72,6,3,9
sherrge01,George Sherrill,3,2,21,3,0,0,1,111,35,18,4,13,38,1,2,2,0,158,4,19,1,1,3
shielsc01,Scot Shields,6,5,44,5,0,0,3,243,71,32,7,28,80,3,5,3,0,341,10,35,3,2,6
shousbr01,Brian Shouse,3,2,40,4,0,0,1,164,53,25,6,18,38,3,1,2,0,234,9,28,2,2,5
silvaca01,Carlos Silva,10,8,45,23,1,0,2,530,205,77,21,29,70,3,4,5,1,737,7,84,5,3,25
simpsal01,Allan Simpson,2,2,16,3,0,0,1,97,32,16,4,14,34,1,1,2,0,140,4,18,1,1,3
siscoan01,Andy Sisco,3,4,38,5,0,0,1,195,61,28,7,31,65,2,2,2,0,281,8,30,2,2,7
smallaa01,Aaron Small,7,3,29,9,1,0,2,252,85,38,9,28,41,1,2,4,0,360,6,40,3,2,7
smithtr01,Travis Smith,2,2,15,4,0,0,1,102,38,18,5,12,23,1,1,1,0,148,4,19,1,1,3
smoltjo01,John Smoltz,9,6,64,19,1,0,19,533,165,67,16,40,149,5,5,3,1,729,29,69,7,3,15
snellia01,Ian Snell,3,3,24,7,0,0,1,181,61,31,7,29,47,2,3,2,0,263,6,33,2,2,5
snydeky01,Kyle Snyder,2,3,19,6,0,0,1,153,61,27,6,15,25,1,2,2,0,223,5,29,1,2,5
soriara01,Rafael Soriano,2,2,14,3,0,0,1,88,27,14,3,9,38,1,1,1,0,125,4,14,1,1,2
sosajo02,Jorge Sosa,8,6,43,15,0,0,1,356,115,50,14,56,82,5,4,2,0,515,8,56,4,3,10
speieju01,Justin Speier,3,4,44,4,0,0,3,193,57,27,8,20,54,3,2,3,0,272,19,29,3,2,5
speiery01,Ryan Speier,2,2,18,4,0,0,1,113,38,17,4,16,15,1,2,2,0,164,6,19,2,1,3
sprinru01,Russ Springer,3,3,35,4,0,0,1,163,51,26,7,20,47,2,2,2,0,233,7,29,2,1,4
spurlch01,Chris Spurling,3,3,35,4,0,0,1,181,56,27,7,19,25,3,2,2,0,254,7,30,2,3,7
standja01,Jason Standridge,2,3,21,4,0,0,1,125,46,21,6,18,23,2,2,2,0,182,5,22,2,1,5
stantmi02,Mike Stanton,2,2,20,2,0,0,1,97,30,14,3,13,24,1,1,1,0,139,6,16,1,1,3
staufti01,Tim Stauffer,5,6,33,14,0,0,2,303,110,52,12,36,60,2,2,4,0,438,7,56,3,2,10
stemlst01,Steve Stemle,2,2,13,3,0,0,1,91,31,15,3,11,27,1,1,1,0,130,3,16,1,1,3
stoneri01,Ricky Stone,2,2,24,3,0,0,1,130,50,23,6,14,24,1,2,2,0,189,6,25,1,1,4
streehu01,Huston Street,4,3,38,5,0,0,8,199,54,25,6,23,65,2,2,2,0,276,19,27,2,2,6
stricsc01,Scott Strickland,1,2,12,3,0,0,1,81,27,13,3,10,20,1,1,1,0,115,3,14,1,1,2
sturtta01,Tanyon Sturtze,5,3,36,5,0,0,1,212,72,37,9,28,44,2,3,4,0,307,8,40,2,2,7
suppaje01,Jeff Suppan,13,9,41,26,0,0,1,525,183,77,22,58,101,2,5,7,1,753,5,89,8,5,20
switzjo01,Jon Switzer,1,1,11,3,0,0,1,82,28,13,3,12,21,1,1,1,0,119,3,15,1,1,2
tadanka01,Kazuhito Tadano,2,2,12,3,0,0,1,98,34,15,4,11,23,1,1,1,0,141,3,17,1,1,3
takatsh01,Shingo Takatsu,2,2,19,3,0,0,3,102,30,14,4,12,28,1,1,1,0,145,9,15,1,1,3
tallebr01,Brian Tallet,1,2,11,3,0,0,1,82,29,13,3,10,11,1,1,1,0,119,3,15,1,1,2
taschja01,Jack Taschner,2,2,18,4,0,0,1,110,33,16,4,16,31,1,1,1,0,157,5,17,1,1,3
tavarju01,Julian Tavarez,4,3,47,4,0,0,3,190,62,26,5,20,43,2,2,4,0,270,13,29,3,2,8
tejedro01,Rob Tejeda,5,4,32,11,0,0,2,264,75,39,8,45,74,3,3,5,1,379,8,42,3,2,8
tejermi01,Michael Tejera,1,1,12,3,0,0,1,79,28,13,3,11,20,1,1,1,0,115,3,14,1,1,2
telemam01,Amaury Telemaco,1,2,17,3,0,0,1,106,33,17,5,12,23,1,1,1,0,151,4,18,1,1,4
thompbr01,Brad Thompson,3,2,27,4,0,0,1,162,50,23,6,17,30,2,1,3,0,229,6,26,2,1,6
thompde01,Derek Thompson,3,3,24,7,0,0,2,185,61,29,6,26,46,2,2,2,0,264,6,31,2,2,6
thompju02,Justin Thompson,1,1,11,3,0,0,1,77,27,13,3,9,12,1,1,1,0,110,3,14,1,1,2
thomsjo01,John Thomson,7,7,31,19,1,0,1,383,138,59,13,34,82,3,3,4,0,544,4,65,4,4,13
thornma01,Matt Thornton,2,3,32,4,0,0,1,170,54,28,8,34,53,2,3,1,0,249,9,30,2,2,6
timlimi01,Mike Timlin,5,3,50,4,0,0,4,211,72,28,6,17,53,3,2,3,0,299,13,31,3,3,6
tomkobr01,Brett Tomko,9,10,39,25,2,0,2,508,182,82,20,52,98,6,6,5,0,731,5,89,6,3,13
torresa01,Salomon Torres,5,5,49,5,0,0,2,241,75,31,8,27,52,4,3,4,0,338,15,36,4,2,10
towerjo01,Josh Towers,12,10,43,26,1,0,2,528,202,81,22,31,93,3,2,8,1,751,6,91,4,6,16
trachst01,Steve Trachsel,6,6,24,14,0,0,1,290,97,44,12,35,56,3,3,3,1,415,4,49,4,4,7
tsaoch01,Chin-hui Tsao,2,2,14,3,0,0,1,97,34,16,5,12,20,1,1,2,0,140,5,17,1,1,3
tucketj01,T. J. Tucker,2,2,21,3,0,0,1,115,43,18,4,10,22,1,1,2,0,166,5,20,1,1,3
turnbde01,Derrick Turnbow,4,2,37,4,0,0,12,179,49,22,6,22,58,2,4,2,0,250,23,24,1,1,6
urbinug01,Ugueth Urbina,4,3,37,4,0,0,5,168,43,26,7,25,66,2,2,2,0,238,13,27,2,2,3
valdeis01,Ismael Valdez,4,4,23,10,0,0,1,218,84,37,11,24,35,3,2,3,1,319,4,41,3,3,7
valenjo04,Joe Valentine,2,2,18,3,0,0,1,107,34,19,5,19,26,1,1,2,0,157,6,20,1,1,3
valvejo01,Jose Valverde,3,3,39,4,0,0,7,185,50,25,7,24,77,2,3,2,0,260,19,27,3,2,4
vanbuje01,Jermaine Van Buren,2,2,12,3,0,0,1,86,26,13,3,14,14,1,1,1,0,123,3,14,1,1,3
vargacl01,Claudio Vargas,8,7,40,17,0,0,1,387,131,67,21,50,91,5,6,7,0,562,6,71,5,3,9
vargaja01,Jason Vargas,6,5,32,12,1,0,2,275,89,43,9,36,72,3,2,4,0,398,6,45,4,2,7
vasqujo01,Jorge Vasquez,2,2,13,3,0,0,1,90,31,14,4,11,28,1,1,1,0,130,3,16,1,1,3
vazquja01,Javier Vazquez,11,11,41,27,2,1,1,561,185,92,27,48,167,4,8,6,1,790,5,96,8,5,15
verlaju01,Justin Verlander,4,4,27,8,0,0,2,204,72,34,8,25,38,2,3,3,0,295,7,36,2,2,6
villaos01,Oscar Villarreal,2,2,19,3,0,0,1,103,33,17,4,14,25,2,2,1,0,149,4,18,2,1,3
villoro01,Ron Villone,3,3,22,5,0,0,1,143,43,23,5,22,40,1,2,3,0,207,6,26,2,2,4
vizcalu01,Luis Vizcaino,4,4,47,4,0,0,1,200,66,30,9,25,51,3,4,2,0,286,13,33,3,2,6
vogelry01,Ryan Vogelsong,4,5,31,9,0,0,1,237,83,43,9,36,51,3,3,5,0,352,9,46,3,3,7
volqued01,Edinson Volquez,3,4,21,6,0,0,1,152,59,29,6,22,33,1,2,3,0,224,5,31,2,2,5
waechdo01,Doug Waechter,7,10,40,21,0,0,2,432,160,81,25,45,81,4,4,5,1,627,7,90,4,4,11
wagnebi02,Billy Wagner,4,3,46,4,0,0,17,202,48,23,7,18,83,2,2,3,0,274,32,25,2,1,5
wagnery01,Ryan Wagner,3,3,33,4,0,0,1,164,59,28,6,23,44,2,3,3,0,241,7,30,2,2,5
wainwad01,Adam Wainwright,1,1,11,3,0,0,1,80,27,13,3,9,0,1,1,1,0,115,3,14,1,1,2
wakefti01,Tim Wakefield,12,10,41,26,1,0,1,556,181,89,26,60,128,3,7,10,0,793,5,100,3,5,14
walkeja01,Jamie Walker,3,3,42,3,0,0,1,164,56,24,6,15,39,2,2,2,0,235,10,26,2,1,3
walkeke01,Kevin Walker,2,2,14,3,0,0,1,86,30,14,3,12,18,1,1,1,0,124,4,16,1,1,3
walkepe01,Pete Walker,4,4,30,6,0,0,2,206,68,31,9,27,35,1,2,2,0,295,7,33,2,2,6
walkety01,Tyler Walker,4,3,40,4,0,0,7,186,66,29,8,24,50,3,2,2,0,270,16,31,3,3,6
wangch01,Chien-Ming Wang,7,6,35,15,0,0,2,355,117,54,12,35,49,3,4,5,0,502,7,60,4,4,14
wasdijo01,John Wasdin,4,4,29,8,0,0,2,225,83,39,11,24,43,2,2,3,0,326,6,42,2,2,5
washbja01,Jarrod Washburn,9,9,38,24,1,1,1,486,168,70,20,46,90,2,4,7,0,687,5,76,4,5,16
weathda01,David Weathers,4,3,40,4,0,0,5,192,61,29,6,25,51,2,2,2,0,274,16,30,3,2,5
weaveje01,Jeff Weaver,11,10,43,28,1,1,1,580,200,91,24,49,132,4,5,13,0,824,5,99,7,5,16
webbbr01,Brandon Webb,10,12,43,28,1,0,1,593,187,82,18,73,158,6,11,7,1,841,5,92,10,5,22
webbjo01,John Webb,3,4,26,7,0,0,2,191,67,33,8,28,41,2,2,3,0,278,7,36,2,2,5
weberbe01,Ben Weber,2,2,17,3,0,0,1,98,38,17,4,13,18,1,1,1,0,144,5,18,1,1,3
welleto01,Todd Wellemeyer,3,2,22,4,0,0,1,132,43,23,6,25,45,1,2,1,0,193,6,25,2,1,4
wellsda01,David Wells,11,7,37,24,1,0,1,493,184,76,19,21,89,1,3,6,1,692,5,80,5,5,15
wellski01,Kip Wells,8,11,40,26,1,0,1,494,164,84,19,77,124,6,6,8,0,729,5,90,8,6,14
westbja01,Jake Westbrook,12,11,43,27,2,0,1,561,190,86,17,57,101,3,4,7,0,793,6,97,5,5,23
wheelda01,Dan Wheeler,3,3,39,4,0,0,2,189,54,25,7,19,57,2,1,3,0,263,11,26,3,2,6
whitega01,Gabe White,2,2,17,3,0,0,1,97,34,16,5,8,21,1,1,1,0,139,4,17,1,1,2
whitema02,Matt Whiteside,1,1,11,3,0,0,1,78,27,13,4,11,25,1,1,1,0,113,3,14,1,1,2
whitema03,Matt White,3,4,25,7,0,0,2,186,63,30,7,24,34,2,2,3,0,268,7,33,2,2,5
whiteri01,Rick White,4,5,43,4,0,0,2,205,76,33,7,25,38,5,3,3,0,299,13,37,5,3,8
wickmbo01,Bob Wickman,2,3,37,4,0,0,15,173,57,24,7,20,42,2,1,2,0,245,22,25,2,2,7
willida07,David Williams,9,9,39,20,1,1,2,404,130,65,17,53,90,5,3,7,0,580,7,71,6,3,14
willido03,Dontrelle Willis,15,10,44,29,3,2,1,611,197,77,16,59,152,4,4,7,1,853,5,86,9,4,19
willije02,Jerome Williams,8,7,33,18,0,0,1,381,119,58,14,48,77,2,3,10,1,546,5,63,7,6,11
willira01,Randy Williams,2,2,20,3,0,0,1,109,37,18,4,15,30,2,1,1,0,157,5,19,1,1,3
willisc01,Scott Williamson,2,2,20,3,0,0,1,105,30,16,4,15,42,1,2,2,0,151,5,17,1,1,3
willito02,Todd Williams,4,4,41,4,0,0,1,195,62,28,6,22,32,2,3,3,0,276,9,31,2,2,9
williwo02,Woody Williams,9,9,36,23,0,0,1,461,159,75,18,46,104,2,5,6,0,663,5,80,6,4,9
wilsocj01,C. J. Wilson,3,5,25,7,0,0,2,176,68,32,7,21,35,2,3,2,0,257,6,35,2,2,6
wilsopa02,Paul Wilson,5,6,26,15,0,0,1,301,112,54,14,33,61,3,3,5,0,441,4,57,4,3,8
wisema01,Matt Wise,3,3,33,5,0,0,1,186,51,28,6,22,53,2,2,3,0,262,8,30,2,2,5
witasja01,Jay Witasick,2,2,26,3,0,0,1,133,42,19,5,20,44,2,2,2,0,193,7,22,2,1,4
wolfra02,Randy Wolf,7,6,29,17,1,0,1,340,115,54,16,38,87,3,3,5,0,486,4,58,5,3,10
woodke02,Kerry Wood,5,5,25,12,0,0,1,266,75,40,12,37,103,1,3,5,0,376,4,41,4,3,6
woodmi01,Mike Wood,5,7,37,12,0,0,2,305,113,53,14,39,54,4,5,6,0,447,8,59,4,3,12
woodsja01,Jake Woods,2,2,20,4,0,0,1,119,41,19,6,13,28,1,2,2,0,172,6,21,1,1,3
woodyma01,Mark Woodyard,2,2,12,3,0,0,1,85,28,13,3,9,16,1,1,1,0,120,3,14,1,1,2
worreti01,Tim Worrell,3,3,31,3,0,0,6,142,46,20,5,15,37,2,1,2,0,202,13,23,2,2,3
wrighja01,Jamey Wright,7,10,40,21,1,0,2,435,159,77,17,67,83,4,3,10,1,647,6,86,4,3,15
wrighja02,Jaret Wright,8,6,32,17,0,0,1,329,111,52,10,44,81,3,4,5,0,477,5,58,4,4,11
wuertmi01,Michael Wuertz,4,3,43,4,0,0,1,198,57,30,7,32,77,3,4,2,0,282,10,33,3,2,6
wunscke01,Kelly Wunsch,2,2,24,3,0,0,1,109,31,17,4,18,33,1,1,2,0,158,5,18,1,1,3
yabuke01,Keiichi Yabu,3,2,26,4,0,0,1,158,55,25,6,21,39,2,2,4,0,229,8,28,2,2,5
yanes01,Esteban Yan,3,3,39,4,0,0,2,200,69,32,8,26,47,3,4,2,0,290,14,35,3,3,5
youngch03,Chris Young,10,7,42,23,0,0,2,443,146,70,18,43,122,3,4,6,0,632,7,76,4,4,9
zambrca01,Carlos Zambrano,13,8,42,28,1,0,1,592,163,75,17,78,175,5,6,10,1,826,5,82,8,5,17
zambrvi01,Victor Zambrano,7,9,37,20,0,0,1,418,135,65,13,67,95,2,7,10,1,614,6,72,5,5,13
zitoba01,Barry Zito,11,11,42,29,1,0,1,590,175,89,22,76,144,2,4,9,0,834,5,96,7,7,16
