playerID,playerName,W,L,G,GS,CG,SHO,SV,IPouts,H,ER,HR,BB,SO,IBB,WP,HBP,BK,BFP,GF,R,SH,SF,GIDP
aardsda01,David Aardsma,3,2,26,4,0,0,1,141,46,25,6,22,47,2,2,2,0,206,6,26,2,2,3
abreuwi01,Winston Abreu,2,2,21,4,0,0,1,122,45,22,6,15,33,1,2,1,0,178,4,24,1,1,4
accarje01,Jeremy Accardo,3,4,40,4,0,0,9,187,59,27,6,22,48,2,2,2,1,266,19,29,2,2,5
acostma01,Manny Acosta,2,2,19,4,0,0,1,112,33,17,4,17,38,1,1,1,0,159,5,18,1,1,4
adkinjo01,Jon Adkins,2,2,17,3,0,0,1,92,32,15,3,11,15,1,1,1,0,133,4,16,1,1,3
affelje01,Jeremy Affeldt,4,3,42,4,0,0,1,172,55,28,5,28,44,4,3,2,0,250,9,31,2,3,6
albaljo01,Jonathan Albaladejo,2,2,16,3,0,0,1,98,30,15,4,10,33,1,1,1,0,140,3,16,1,1,3
alberma01,Matt Albers,5,8,38,14,0,0,2,314,115,59,14,44,66,4,5,5,0,465,7,64,5,5,10
alfonan01,Antonio Alfonseca,3,2,35,4,0,0,3,151,59,27,5,23,23,3,1,2,0,224,9,28,1,2,5
aquingr01,Greg Aquino,2,2,22,3,0,0,1,110,39,19,5,16,36,1,2,2,0,161,6,21,1,1,4
ariasal02,Alberto Arias,2,2,13,3,0,0,1,88,31,15,3,12,12,1,1,1,0,127,3,16,1,1,3
armasto02,Tony Armas,6,7,34,16,0,0,1,317,113,60,15,44,70,4,4,7,0,470,6,64,5,5,8
arroybr01,Bronson Arroyo,10,11,42,27,1,0,1,565,193,84,23,54,132,5,5,9,0,806,5,93,7,5,13
ascanjo01,Jose Ascanio,2,2,16,3,0,0,1,103,35,17,4,12,26,1,1,1,0,149,5,19,1,1,3
atchisc01,Scott Atchison,2,2,20,4,0,0,1,120,42,20,5,14,35,1,2,2,0,173,5,21,1,2,4
ayalalu01,Luis Ayala,3,3,29,4,0,0,1,138,48,21,5,13,29,1,1,2,0,198,7,22,2,2,4
backebr01,Brandon Backe,5,4,26,11,0,0,1,235,78,37,9,33,42,1,2,3,0,341,5,40,3,2,6
bacsimi02,Mike Bacsik,5,7,38,15,0,0,2,322,123,57,18,30,41,3,4,5,0,470,6,62,3,4,11
baekch01,Cha-Seung Baek,6,5,32,13,1,0,2,287,102,49,11,26,64,2,3,4,0,414,6,53,2,2,7
baezda01,Danys Baez,2,4,33,4,0,0,5,153,49,28,6,24,32,2,1,3,0,224,14,28,2,1,5
baileho02,Homer Bailey,6,5,33,12,0,0,2,258,84,46,9,42,52,2,3,4,1,377,7,50,3,5,9
bakersc02,Scott Baker,8,9,39,21,1,0,1,421,162,72,17,33,100,3,2,5,0,604,6,76,5,4,13
balejo01,John Bale,2,2,22,4,0,0,1,133,47,21,4,17,45,2,2,2,0,194,5,23,2,2,4
balfogr01,Grant Balfour,2,2,18,3,0,0,1,107,38,19,4,17,41,1,1,1,0,157,5,20,1,2,3
banksjo01,Josh Banks,2,2,18,5,0,0,1,123,45,21,5,14,10,1,1,2,0,179,4,23,1,2,4
bannibr01,Brian Bannister,10,8,42,21,1,0,2,444,142,68,15,47,71,3,5,6,0,629,7,73,3,5,12
baronda01,Daniel Barone,3,4,26,7,0,0,1,180,67,32,9,25,26,2,2,2,0,262,6,34,2,2,7
barryke01,Kevin Barry,2,2,13,3,0,0,1,85,30,15,3,12,23,1,1,1,0,125,4,16,1,1,2
batismi01,Miguel Batista,11,9,49,24,1,0,5,516,187,84,17,71,109,4,10,6,1,758,12,92,6,5,19
bautide01,Denny Bautista,2,2,16,4,0,0,1,102,39,19,3,14,23,1,1,2,0,151,4,21,1,1,3
baylijo01,Jonah Bayliss,3,3,27,4,0,0,1,137,50,26,6,20,35,2,2,2,0,202,8,28,1,1,4
bazaryo01,Yorman Bazardo,3,2,20,5,0,0,1,133,44,21,5,14,30,1,2,2,0,192,6,23,1,2,5
beanco01,Colter Bean,1,2,12,3,0,0,1,80,28,14,3,12,14,1,1,1,0,116,3,15,1,1,2
beckejo02,Josh Beckett,15,8,42,26,1,0,1,546,171,82,21,52,166,2,6,7,0,763,5,87,4,3,15
bedarer01,Erik Bedard,11,8,41,25,0,0,1,512,155,71,16,60,181,2,4,5,0,718,5,76,4,5,14
beimejo01,Joe Beimel,3,3,48,4,0,0,2,196,65,29,5,23,34,3,3,2,1,279,8,31,3,2,8
belisma01,Matt Belisle,8,8,54,20,1,0,2,461,177,83,20,44,107,4,6,7,1,670,10,88,6,6,14
bellhe01,Heath Bell,4,4,47,4,0,0,2,225,69,31,6,25,81,2,3,2,0,315,11,34,3,2,8
bellro01,Rob Bell,3,3,24,4,0,0,1,154,63,28,7,21,25,2,2,2,0,229,6,31,2,2,4
benitar01,Armando Benitez,3,3,29,3,0,0,5,133,44,22,6,22,43,1,1,1,0,194,11,25,2,2,4
benneje01,Jeff Bennett,4,3,23,6,0,0,1,165,57,27,7,18,59,2,2,2,0,239,5,29,2,2,5
benoijo01,Joaquin Benoit,4,3,43,5,0,0,2,221,64,33,7,29,77,2,2,2,0,314,11,36,2,2,5
bergmja01,Jason Bergmann,6,6,44,17,0,0,2,377,123,66,18,49,99,4,4,5,0,543,9,69,6,4,9
betanra01,Rafael Betancourt,4,3,45,4,0,0,2,208,59,26,6,15,73,3,1,1,0,283,11,28,2,2,4
billich01,Chad Billingsley,9,6,43,17,0,0,1,382,121,55,13,60,112,3,5,4,0,551,8,59,6,3,13
birkiku01,Kurt Birkins,3,3,26,4,0,0,1,148,55,28,5,20,40,1,2,3,0,219,6,30,2,1,4
bisenjo01,Joe Bisenius,1,1,12,3,0,0,1,79,27,13,3,10,38,1,1,1,0,115,3,14,1,1,2
blackni01,Nick Blackburn,2,2,14,3,0,0,1,94,36,16,4,10,20,1,1,1,0,137,4,18,1,1,3
blacktr01,Travis Blackley,3,3,28,8,0,0,2,196,68,34,8,26,36,2,2,2,1,285,7,36,3,2,6
blantjo01,Joe Blanton,13,10,44,28,2,1,1,587,211,93,18,50,116,4,4,5,1,830,5,98,4,7,18
blevije01,Jerry Blevins,2,2,13,3,0,0,1,84,30,14,3,10,15,1,1,1,0,122,3,16,1,1,2
bondeje01,Jeremy Bonderman,11,9,40,25,1,0,1,515,181,87,19,51,148,5,7,4,1,736,5,93,3,4,16
bonsebo01,Boof Bonser,9,10,43,24,0,0,2,472,173,82,23,54,125,3,4,5,1,687,6,89,4,4,13
bookech01,Chris Booker,1,2,13,3,0,0,1,78,27,13,3,10,25,1,1,1,0,113,3,14,1,1,2
bootcch01,Chris Bootcheck,3,3,33,5,0,0,1,194,69,34,7,22,45,2,3,3,0,280,10,36,2,3,7
borkoda01,Dave Borkowski,4,3,40,4,0,0,1,203,69,35,8,27,55,5,2,3,0,295,11,38,2,3,5
borowjo01,Joe Borowski,3,4,45,4,0,0,18,190,65,31,7,22,53,3,2,2,0,275,28,33,2,2,4
bowiemi01,Micah Bowie,4,3,31,7,0,0,1,192,60,31,7,27,46,1,1,2,0,275,6,32,3,3,7
boyerbl01,Blaine Boyer,2,1,15,3,0,0,1,84,31,14,3,11,21,1,1,1,0,122,3,15,1,1,2
bradeda01,Dallas Braden,4,7,34,12,0,0,2,263,101,51,10,31,64,2,4,3,1,388,7,55,4,2,7
bradfch01,Chad Bradford,4,4,49,4,0,0,2,188,68,27,4,16,34,3,1,3,0,271,10,30,3,2,6
braunry01,Ryan Braun,2,2,23,4,0,0,1,138,50,26,5,20,27,1,2,1,0,203,6,28,2,3,4
braybi01,Bill Bray,3,2,21,3,0,0,1,107,39,18,4,13,32,1,1,1,0,156,5,20,1,1,3
brazoyh01,Yhency Brazoban,1,2,15,2,0,0,2,79,27,14,3,11,24,1,1,1,0,116,5,15,1,1,2
brittch01,Chris Britton,2,2,21,3,0,0,1,112,35,17,4,13,26,1,1,1,0,160,5,19,1,1,3
broadla01,Lance Broadway,2,2,17,4,0,0,1,120,37,19,4,16,59,1,1,1,0,172,4,20,1,1,4
brocado01,Doug Brocail,4,3,41,4,0,0,1,191,62,29,6,23,41,2,2,2,0,275,10,33,2,2,5
broweji01,Jim Brower,1,1,14,3,0,0,1,81,30,14,3,11,18,1,1,2,0,118,3,16,1,1,3
brownan01,Andrew Brown,3,3,25,4,0,0,1,142,45,23,4,20,47,2,3,2,0,205,6,25,2,1,4
broxtjo01,Jonathan Broxton,4,3,53,4,0,0,2,228,67,31,7,29,97,3,4,2,0,322,13,34,2,2,7
brunebr01,Brian Bruney,3,3,36,4,0,0,2,159,50,26,6,32,47,2,3,3,0,235,10,28,2,3,5
buchhcl01,Clay Buchholz,4,3,26,7,1,0,2,193,58,29,6,26,69,2,2,3,0,275,6,32,2,2,6
buchhta01,Taylor Buchholz,5,6,35,11,0,0,1,273,95,48,11,25,61,3,3,3,0,390,6,52,4,4,9
bucknbi02,Billy Buckner,4,4,27,8,0,0,1,206,73,35,8,29,35,2,2,2,0,296,6,37,2,2,9
buehrma01,Mark Buehrle,10,9,40,25,2,0,1,543,198,84,22,41,102,5,2,5,1,765,5,90,6,5,18
bukviry01,Ryan Bukvich,2,2,26,4,0,0,1,128,42,22,5,22,21,1,2,2,0,189,5,24,2,2,4
bulgeja01,Jason Bulger,2,1,13,3,0,0,1,85,29,14,3,12,30,1,1,1,0,123,4,15,1,1,3
bullibr01,Bryan Bullington,3,4,23,7,0,0,1,164,62,28,7,19,22,1,2,2,0,239,5,30,2,2,6
burgoam01,Ambiorix Burgos,2,2,28,3,0,0,3,136,45,23,6,20,43,1,3,3,1,199,10,25,1,2,4
burneaj01,A. J. Burnett,10,8,37,22,2,0,1,466,140,69,17,58,155,3,6,8,0,659,5,75,3,3,17
burrebr01,Brian Burres,5,6,41,13,0,0,1,311,113,59,12,50,80,2,5,4,0,462,10,61,3,2,8
burtoja01,Jared Burton,3,3,28,4,0,0,1,141,40,21,5,21,41,2,2,2,0,201,7,23,2,1,5
bushda01,Dave Bush,10,10,42,26,1,0,1,516,183,90,23,39,124,3,4,11,0,736,6,95,6,4,12
byrdati01,Tim Byrdak,3,2,30,4,0,0,1,142,46,23,5,25,47,2,2,2,0,209,5,26,2,2,4
byrdpa01,Paul Byrd,11,8,40,25,1,1,1,508,204,86,22,30,81,3,4,6,0,736,5,96,4,5,13
cabreda01,Daniel Cabrera,9,13,44,28,1,0,1,537,171,100,19,98,160,4,9,10,1,796,5,106,8,6,18
cabrefe01,Fernando Cabrera,2,2,20,3,0,0,1,109,35,20,5,17,39,1,2,1,0,158,6,21,1,1,3
cainma01,Matt Cain,9,12,45,27,1,0,1,553,158,82,16,77,158,3,9,6,1,781,6,86,8,5,13
calerki01,Kiko Calero,3,3,37,3,0,0,1,152,49,25,5,21,48,2,2,2,0,219,8,26,1,2,4
calica01,Carmen Cali,2,2,19,3,0,0,1,106,37,18,4,18,22,2,2,2,0,156,5,19,1,1,3
camerke01,Kevin Cameron,3,2,30,4,0,0,1,162,52,24,4,27,45,3,2,2,0,237,10,27,2,2,5
campijo01,Jorge Campillo,2,2,14,3,0,0,1,95,35,17,4,12,19,1,1,1,0,139,4,18,1,1,3
campsh01,Shawn Camp,3,3,36,3,0,0,1,156,66,29,6,17,38,3,2,3,0,232,7,32,2,2,7
capeljo01,Jose Capellan,2,2,23,3,0,0,1,119,40,20,6,15,33,2,1,2,0,172,6,22,2,1,3
cappsma01,Matt Capps,5,4,53,4,0,0,6,223,71,30,8,17,59,5,2,3,0,311,20,33,4,2,6
capuach01,Chris Capuano,8,9,37,22,1,0,1,456,160,76,20,51,126,3,6,7,1,659,4,82,8,4,13
carlybu01,Buddy Carlyle,7,6,38,16,0,0,2,329,118,59,16,35,77,5,3,3,0,475,7,64,7,4,11
carmofa01,Roberto Hernandez,12,10,52,23,1,0,2,528,175,75,16,56,118,4,5,9,1,745,10,80,4,5,22
carpech01,Chris Carpenter,6,4,21,11,1,1,1,252,77,35,8,19,73,1,2,3,0,349,3,36,4,2,7
carrahe01,Hector Carrasco,3,2,29,4,0,0,1,161,51,26,6,22,43,2,3,2,0,233,9,28,1,2,5
carvama01,Marcos Carvajal,1,1,13,3,0,0,1,83,29,14,3,11,22,1,1,1,0,122,4,15,1,1,3
casseja01,Jack Cassel,3,3,25,7,0,0,1,180,68,29,6,19,29,2,2,2,0,260,5,31,2,2,6
castrfa01,Fabio Castro,2,2,19,4,0,0,1,114,33,18,4,18,33,1,1,2,0,164,6,19,1,1,4
catetr01,Troy Cate,2,2,16,3,0,0,1,100,35,16,4,14,24,1,1,1,0,145,4,17,1,1,3
cavazan01,Andy Cavazos,2,2,17,3,0,0,1,106,39,20,5,17,23,1,2,2,0,157,4,23,2,2,3
chacigu01,Gustavo Chacin,6,4,25,12,0,0,1,249,86,43,12,30,45,2,2,4,0,360,4,44,3,2,8
chacosh01,Shawn Chacon,4,4,37,8,0,0,1,238,77,38,10,36,56,4,2,5,0,348,7,40,5,3,7
chambjo03,Joba Chamberlain,2,2,19,4,0,0,1,115,33,16,4,13,61,1,1,2,0,163,4,18,1,1,3
chenbr01,Bruce Chen,2,2,15,5,0,0,1,119,45,23,7,14,27,1,1,1,0,173,4,24,1,1,3
cherrro01,Rocky Cherry,2,2,15,3,0,0,1,100,34,18,4,16,18,1,1,2,0,146,3,19,1,1,3
chicoma01,Matt Chico,7,8,44,22,0,0,2,441,158,74,20,62,82,3,6,5,0,648,7,82,5,7,12
choatra01,Randy Choate,1,1,15,3,0,0,1,79,30,13,3,9,16,1,1,1,0,115,3,14,1,1,2
chulkvi01,Vinnie Chulk,3,3,37,4,0,0,1,161,52,25,5,19,41,2,2,2,0,230,8,27,2,2,5
clarkda06,Darren Clarke,1,1,12,3,0,0,1,78,27,13,3,10,16,1,1,1,0,113,3,14,1,1,2
clemero02,Roger Clemens,7,6,30,16,0,0,1,338,99,47,9,35,93,2,4,4,0,471,4,49,4,3,10
clippty01,Tyler Clippard,5,4,31,10,0,0,2,228,79,40,10,35,48,2,3,3,1,333,7,43,2,2,7
coffeto01,Todd Coffey,3,3,43,4,0,0,2,176,70,30,8,19,42,3,3,3,0,260,10,32,2,1,7
collawi01,Willie Collazo,2,1,13,3,0,0,1,84,29,14,3,12,0,1,1,1,0,121,3,15,1,1,3
colomje01,Jesus Colome,4,3,35,4,0,0,1,173,58,27,6,23,37,2,3,2,0,252,10,30,2,3,5
colonba01,Bartolo Colon,7,7,31,16,1,0,1,334,129,62,15,28,79,2,2,4,0,485,5,65,5,3,10
colyest01,Steve Colyer,1,2,13,3,0,0,1,80,30,13,3,11,21,1,1,1,0,117,3,14,1,1,2
condrcl01,Clay Condrey,4,2,29,4,0,0,1,157,60,26,5,17,28,2,1,3,0,229,9,28,2,2,5
contrjo01,Jose Contreras,10,11,39,24,1,1,1,503,179,89,18,55,110,3,8,10,0,733,5,97,5,7,14
cookaa01,Aaron Cook,8,9,39,23,1,0,1,493,182,78,15,44,64,6,2,6,0,703,5,85,6,4,22
corcoti02,Tim Corcoran,2,3,17,5,0,0,1,128,43,22,5,21,24,2,1,2,0,186,4,24,1,1,5
cordech01,Chad Cordero,4,4,51,4,0,0,19,213,66,30,9,24,62,3,2,2,0,304,33,32,3,2,5
cordefr01,Francisco Cordero,3,3,41,4,0,0,17,176,52,25,5,22,76,2,2,2,0,251,27,26,2,2,5
coreybr01,Bryan Corey,2,1,16,3,0,0,1,94,30,15,3,12,23,1,1,1,0,134,3,16,1,1,3
cormila01,Lance Cormier,5,6,38,10,0,0,1,262,99,49,13,42,55,5,4,3,0,387,8,53,3,3,10
cormirh01,Rheal Cormier,1,1,16,3,0,0,1,81,31,14,4,9,16,1,1,1,0,118,4,15,1,1,3
corpama01,Manny Corpas,4,3,47,4,0,0,7,205,65,27,7,20,55,2,2,3,0,287,18,30,2,2,8
correke01,Kevin Correia,4,5,45,8,0,0,1,264,84,39,9,35,70,3,2,3,0,380,9,41,3,3,6
cottsne01,Neal Cotts,2,2,27,3,0,0,1,117,38,20,5,17,33,2,1,2,0,171,6,20,1,2,4
coutljo01,Jon Coutlangus,3,2,32,4,0,0,1,137,44,23,5,23,41,1,3,2,0,201,6,24,2,2,5
crainje01,Jesse Crain,3,3,27,3,0,0,1,124,41,19,5,13,25,1,1,2,0,177,7,21,2,1,4
cruzju02,Juan Cruz,4,3,34,6,0,0,1,194,56,30,7,32,75,2,2,5,1,282,9,34,2,2,5
danksjo01,John Danks,7,10,42,20,0,0,2,402,149,74,21,51,104,4,4,5,0,591,7,80,6,4,12
davidda01,Dave Davidson,1,1,12,3,0,0,1,80,29,14,3,10,0,1,1,1,0,118,3,15,1,1,2
davieky01,Kyle Davies,5,8,32,15,0,0,1,281,111,58,14,45,69,2,5,4,0,425,6,62,4,2,7
davisdo02,Doug Davis,10,10,41,27,1,0,1,524,178,86,19,81,139,4,6,5,1,768,5,93,10,4,18
davisja02,Jason Davis,3,2,22,3,0,0,1,131,48,22,4,18,28,1,2,2,0,192,6,25,2,2,5
daviska01,Kane Davis,2,2,15,3,0,0,1,91,32,15,4,14,22,1,1,1,0,133,3,16,1,1,3
dayde01,Dewon Day,2,2,15,3,0,0,1,94,35,17,3,14,15,1,1,2,0,138,4,18,1,1,3
dejonjo01,Jordan De Jong,2,2,13,3,0,0,1,88,31,15,3,12,21,1,1,1,0,129,4,17,1,1,3
delaceu01,Frankie De La Cruz,2,2,13,3,0,0,1,88,32,15,3,12,20,1,2,1,0,127,4,16,1,1,3
delarjo01,Jorge De La Rosa,7,9,43,18,0,0,2,382,144,73,17,61,85,5,5,4,1,568,8,76,3,4,13
delcama01,Manny Delcarmen,2,2,34,4,0,0,1,160,52,24,5,20,49,2,1,2,0,229,7,26,2,2,4
dempsry01,Ryan Dempster,3,5,45,4,0,0,13,196,63,33,6,30,58,3,3,2,0,285,30,35,3,2,6
depauju01,Julio DePaula,2,2,17,4,0,0,1,107,41,20,5,14,13,1,1,2,0,157,5,21,1,1,4
desalma01,Matt DeSalvo,4,4,28,9,0,0,2,208,75,36,7,32,23,2,3,4,0,307,6,39,2,2,7
desseel01,Elmer Dessens,3,4,32,8,0,0,1,210,72,37,8,25,41,2,2,2,0,305,6,39,3,2,6
detwiro01,Ross Detwiler,1,1,12,3,0,0,1,80,27,13,3,10,29,1,1,1,0,115,3,14,1,1,2
devinjo01,Joey Devine,2,2,16,3,0,0,1,92,31,15,3,17,27,1,2,1,0,134,4,16,1,1,3
dinarle01,Lenny DiNardo,6,7,41,15,0,0,1,344,127,58,13,45,54,3,3,4,0,496,9,66,5,4,18
dohmasc01,Scott Dohmann,3,2,26,3,0,0,1,131,45,22,5,22,38,2,1,2,0,190,7,24,2,2,4
donnebr01,Brendan Donnelly,3,2,27,3,0,0,1,122,39,19,4,14,33,1,2,2,0,176,6,21,1,1,3
doteloc01,Octavio Dotel,2,2,16,3,0,0,1,88,30,15,3,13,32,1,1,1,0,128,5,17,1,1,3
dovede01,Dennis Dove,1,1,12,3,0,0,1,80,29,14,3,10,8,1,1,1,0,117,3,15,1,1,2
downssc01,Scott Downs,4,3,42,5,0,0,1,183,57,26,6,24,54,2,3,2,0,261,8,29,1,2,6
doyneco01,Cory Doyne,1,1,13,3,0,0,1,81,29,14,3,11,11,1,1,1,0,119,3,15,1,1,2
drisktr01,Travis Driskill,1,2,12,3,0,0,1,82,30,14,3,9,19,1,1,1,0,119,3,15,1,1,3
duchsju01,Justin Duchscherer,3,2,24,3,0,0,2,116,37,18,4,11,37,1,1,1,0,164,6,18,1,1,3
duckwbr01,Brandon Duckworth,3,4,24,6,0,0,1,169,64,30,6,25,28,2,4,2,0,251,5,34,2,2,5
dukeza01,Zach Duke,7,9,35,20,1,0,1,410,169,71,14,40,68,4,3,5,1,595,5,76,5,4,19
dumatph01,Phil Dumatrait,3,5,30,10,0,0,2,209,91,44,10,30,27,2,2,3,0,314,7,46,3,3,6
durbich01,Chad Durbin,6,6,39,14,0,0,2,322,111,54,15,40,55,3,3,5,0,467,9,58,2,5,9
durbijd01,J. D. Durbin,5,5,30,10,1,0,2,234,83,41,8,37,46,3,3,3,0,345,7,45,3,2,8
eatonad01,Adam Eaton,10,8,41,23,0,0,1,439,167,87,22,58,93,4,5,8,0,651,6,91,6,5,12
elartsc01,Scott Elarton,5,6,27,14,0,0,1,267,97,55,16,33,41,1,3,4,0,393,4,57,2,3,9
embreal01,Alan Embree,3,3,47,4,0,0,5,187,63,29,6,19,52,3,1,2,0,268,15,31,2,3,5
ennisjo01,John Ennis,2,2,18,5,0,0,1,121,45,21,5,15,37,1,1,2,0,177,4,22,1,1,4
escobke01,Kelvim Escobar,12,9,42,25,1,0,1,526,170,73,14,57,146,3,7,4,0,736,6,81,5,4,19
evelada01,Dana Eveland,2,2,18,4,0,0,1,114,44,22,4,18,31,1,2,2,0,171,4,23,1,1,3
eyresc01,Scott Eyre,2,3,43,3,0,0,1,168,56,26,6,27,55,3,3,2,0,245,10,27,2,2,6
eyrewi01,Willie Eyre,3,4,33,5,0,0,1,201,76,35,8,27,36,3,3,3,0,296,10,38,3,2,6
falkebr01,Brian Falkenborg,2,2,18,3,0,0,1,105,38,17,4,13,29,1,1,2,0,152,4,19,1,1,3
farnsky01,Kyle Farnsworth,3,3,44,4,0,0,3,183,59,30,8,25,58,2,3,2,1,265,12,32,2,2,4
feierry01,Ryan Feierabend,3,6,30,10,0,0,1,235,94,46,11,32,42,2,3,4,1,348,6,48,2,3,7
feldmsc01,Scott Feldman,2,3,28,4,0,0,1,149,52,26,5,24,27,2,2,3,1,220,7,27,1,2,5
felicpe01,Pedro Feliciano,4,3,47,4,0,0,1,187,55,26,5,26,59,2,2,3,0,269,9,28,2,2,6
fieldna01,Nate Field,1,1,13,3,0,0,1,78,29,13,3,11,30,1,1,1,0,114,3,14,1,1,2
florera01,Randy Flores,3,2,45,4,0,0,1,168,63,28,5,19,50,1,2,2,0,248,8,31,3,2,5
florero01,Ron Flores,2,2,20,3,0,0,1,110,36,17,4,15,28,2,1,1,0,159,6,18,1,1,3
floydga01,Gavin Floyd,4,5,31,12,0,0,1,268,104,51,16,35,58,2,3,5,0,400,7,57,3,4,9
foggjo01,Josh Fogg,9,9,41,25,0,0,1,472,182,86,21,54,85,8,3,8,0,697,5,94,5,5,14
fossuca01,Casey Fossum,5,6,31,12,0,0,1,253,96,52,12,33,59,2,3,6,0,381,5,56,2,4,7
francfr01,Frank Francisco,2,3,34,4,0,0,1,166,55,28,5,28,45,2,4,2,0,243,9,30,3,2,4
francje01,Jeff Francis,13,10,44,28,1,1,1,569,201,92,21,63,133,8,2,8,0,818,5,98,6,6,20
frankry01,Ryan Franklin,4,4,34,6,0,0,1,199,67,30,8,19,36,2,2,2,0,282,6,33,2,2,6
frasoja01,Jason Frasor,3,4,39,4,0,0,2,174,54,28,6,22,58,1,2,2,0,249,10,30,2,2,4
fuentbr01,Brian Fuentes,3,4,45,4,0,0,12,184,51,27,7,25,65,2,3,5,0,262,25,29,2,2,5
fultzaa01,Aaron Fultz,3,2,35,3,0,0,1,149,48,23,5,20,40,2,2,2,0,214,8,24,2,2,4
gabbaka01,Kason Gabbard,5,5,32,11,0,0,2,253,84,43,9,41,52,2,4,4,0,367,7,46,3,2,10
gagneer01,Eric Gagne,2,2,18,3,0,0,1,103,37,18,4,13,42,1,1,1,0,150,7,19,1,1,3
galarar01,Armando Galarraga,2,2,18,5,0,0,1,125,42,21,5,18,27,1,1,2,0,182,5,23,1,2,4
gallase01,Sean Gallagher,2,2,15,3,0,0,1,100,36,18,4,16,10,1,1,1,0,148,4,19,1,1,3
gallayo01,Yovani Gallardo,8,6,37,15,0,0,2,344,111,52,11,40,106,3,4,3,0,491,7,56,4,3,11
garcian01,Anderson Garcia,1,1,11,3,0,0,1,77,27,13,3,9,0,1,1,1,0,111,3,14,1,1,2
garcifr02,Freddy Garcia,7,6,28,16,0,0,1,329,118,57,15,30,75,3,5,4,0,471,4,59,3,3,9
garciha01,Harvey Garcia,2,2,15,3,0,0,1,96,34,16,4,13,38,1,1,1,0,140,3,17,1,1,3
garcija01,Santiago Casilla,3,2,29,4,0,0,2,153,47,25,6,21,51,3,3,2,0,220,7,27,1,2,4
gardnle01,Lee Gardner,3,3,36,4,0,0,2,184,62,24,5,18,43,2,2,2,0,264,10,27,2,2,5
garlajo01,Jon Garland,12,9,41,26,1,1,1,556,200,89,20,46,93,4,3,5,0,787,5,97,5,6,18
garzama01,Matt Garza,6,8,35,15,0,0,2,320,121,52,12,42,83,3,4,4,0,470,7,59,2,4,11
gaudich01,Chad Gaudin,10,10,59,22,1,0,2,510,171,82,18,85,125,6,4,6,1,749,10,90,3,6,19
gearyge01,Geoff Geary,4,3,44,4,0,0,1,202,72,31,7,22,42,3,2,4,0,291,9,35,3,2,9
germaju01,Justin Germano,7,8,40,18,0,0,2,377,128,62,14,40,76,4,3,6,0,539,8,68,4,2,14
gieseda01,Dan Giese,2,2,14,3,0,0,1,88,30,15,4,10,24,1,1,1,0,127,4,16,1,1,3
glavito02,Tom Glavine,11,8,41,26,1,0,1,519,184,82,18,54,90,4,2,5,0,740,5,86,8,4,17
glovega01,Gary Glover,4,4,35,5,0,0,2,189,69,33,8,22,45,2,2,2,0,274,9,35,2,2,6
gobblji01,Jimmy Gobble,3,3,42,5,0,0,1,183,66,29,8,25,54,3,3,2,0,267,10,33,2,2,6
gonzaed01,Edgar Gonzalez,6,5,36,11,0,0,1,287,102,50,14,28,60,3,4,4,1,412,7,53,3,3,10
gonzaen01,Enrique Gonzalez,2,2,14,5,0,0,1,112,40,20,4,13,22,1,1,1,0,162,3,22,2,1,3
gonzami02,Mike Gonzalez,2,2,25,3,0,0,4,116,34,16,3,20,42,1,1,1,0,167,10,17,1,1,3
gordoto01,Tom Gordon,3,3,34,3,0,0,7,147,46,23,6,18,47,2,2,2,0,210,13,24,2,2,4
gorzeto01,Tom Gorzelanny,10,9,45,25,1,1,2,510,173,77,16,62,113,4,5,9,1,738,7,82,6,7,15
goslimi01,Mike Gosling,2,2,20,4,0,0,1,126,46,21,5,24,31,3,1,2,0,188,5,24,2,1,5
grabojo02,John Grabow,3,3,44,4,0,0,1,173,58,28,6,23,49,2,2,2,0,251,10,30,3,2,5
greense01,Sean Green,3,3,38,4,0,0,1,187,67,29,5,27,44,3,2,3,0,272,9,32,3,3,7
greggke01,Kevin Gregg,3,4,42,5,0,0,9,224,71,34,8,30,72,1,4,4,0,322,20,37,2,2,5
greinza01,Zack Greinke,5,6,38,12,0,0,1,295,107,46,11,30,77,3,3,4,1,424,7,51,3,3,9
grillja01,Jason Grilli,4,3,41,4,0,0,1,211,71,35,7,28,47,2,3,4,0,307,11,38,2,3,6
gronkle01,Lee Gronkiewicz,1,1,12,3,0,0,1,81,27,13,3,10,16,1,1,1,0,116,3,14,1,1,3
guarded01,Eddie Guardado,2,2,19,3,0,0,4,97,33,16,4,10,27,1,1,1,0,140,8,17,1,1,3
guerrma02,Matt Guerrier,3,3,44,4,0,0,1,227,73,30,8,23,53,2,4,3,0,320,11,32,2,3,6
guthrje01,Jeremy Guthrie,6,6,43,18,0,0,2,429,142,66,18,45,102,3,6,5,1,607,8,71,4,5,14
gutieju01,J. C. Gutierrez,3,3,22,6,0,0,1,156,56,27,6,17,39,2,2,2,0,225,5,29,2,2,4
guzmaan01,Angel Guzman,2,3,22,7,0,0,1,166,60,30,6,24,52,1,4,3,0,243,5,32,2,2,5
gwynma01,Marcus Gwyn,1,1,12,3,0,0,1,83,30,14,4,12,12,1,1,1,0,121,3,16,1,1,2
haegech01,Charlie Haeger,2,2,15,3,0,0,1,100,34,17,4,16,17,1,1,1,0,146,5,19,1,1,3
hallaro01,Roy Halladay,13,7,41,26,4,1,1,580,192,80,16,38,124,4,4,5,0,797,5,84,3,5,21
hamelco01,Cole Hamels,12,7,43,24,1,0,2,507,154,73,22,49,173,4,5,4,0,706,6,78,6,6,12
hammeja01,Jason Hammel,4,6,34,13,0,0,1,282,110,56,12,41,68,2,4,3,1,417,6,58,3,2,8
hampsju01,Justin Hampson,3,3,27,4,0,0,1,160,54,24,5,18,35,2,1,2,0,229,7,26,2,1,5
hancojo01,Josh Hancock,2,2,21,3,0,0,1,117,38,19,5,13,25,1,1,1,0,167,6,20,2,1,4
hanrajo01,Joel Hanrahan,6,5,32,12,0,0,2,251,89,45,11,47,65,2,3,2,0,374,6,48,3,2,6
hansade01,Devern Hansack,2,3,18,5,0,0,1,124,41,20,5,16,29,1,1,2,0,179,4,22,1,1,4
happja01,J. A. Happ,3,4,27,7,0,0,2,189,68,33,8,24,66,2,2,2,0,275,7,35,2,2,6
haranaa01,Aaron Harang,13,8,43,28,2,1,1,596,196,87,23,49,181,4,8,7,1,834,5,92,9,6,14
harderi01,Rich Harden,4,3,22,8,0,0,1,190,51,28,6,26,66,1,2,2,0,266,4,29,2,2,6
harenda01,Dan Haren,12,10,43,28,1,0,1,584,193,81,23,48,161,4,8,6,0,821,5,91,3,5,14
harikti01,Tim Harikkala,3,3,27,7,0,0,2,181,69,30,7,21,30,2,2,2,0,263,7,33,2,2,6
hartke01,Kevin Hart,2,2,14,3,0,0,1,93,30,14,3,12,41,1,1,1,0,133,3,16,1,1,3
hawkila01,LaTroy Hawkins,3,4,41,4,0,0,1,172,61,27,6,19,31,2,2,1,0,246,8,28,2,2,5
heilmaa01,Aaron Heilman,5,5,50,4,0,0,2,229,67,32,7,24,65,2,3,4,0,321,14,36,4,2,6
hendrma01,Mark Hendrickson,5,7,35,14,0,0,1,317,124,57,12,30,69,2,3,2,0,464,5,63,6,3,9
hennebr01,Brad Hennessey,4,4,36,7,0,0,5,209,69,32,8,27,36,2,2,4,0,300,12,35,3,2,7
hennse01,Sean Henn,2,3,23,5,0,0,1,138,51,26,6,25,30,1,1,2,0,207,6,28,1,1,4
henslcl01,Clay Hensley,5,5,30,13,0,0,1,279,92,47,9,41,59,3,3,2,0,403,5,49,4,2,10
hergema01,Matt Herges,3,2,33,4,0,0,1,165,57,25,6,20,31,2,1,2,0,237,9,28,2,2,6
hernafe02,Felix Hernandez,12,10,43,26,1,1,1,545,189,85,20,54,163,4,8,5,1,773,6,90,5,3,18
hernali01,Livan Hernandez,9,9,40,24,1,0,1,501,189,85,22,61,83,4,3,6,1,733,5,88,11,6,16
hernaor01,Orlando Hernandez,9,7,36,20,0,0,1,407,118,62,18,54,118,3,3,7,1,576,5,67,6,4,9
hernaro01,Roberto Hernandez,2,2,22,3,0,0,1,107,35,18,4,14,27,1,2,1,0,154,7,19,2,1,3
hernayo01,Yoel Hernandez,2,2,16,3,0,0,1,99,36,17,4,9,28,1,1,1,0,143,5,18,1,1,3
hillri01,Rich Hill,9,9,44,25,1,0,2,505,151,78,23,61,158,3,3,8,1,714,6,85,8,4,13
hillsh01,Shawn Hill,5,6,35,16,0,0,2,341,111,52,11,34,73,3,3,5,0,484,6,56,4,3,10
hirshja01,Jason Hirsh,6,8,38,18,1,0,2,368,119,65,18,52,81,5,5,4,1,534,6,69,5,4,10
hochelu01,Luke Hochevar,2,2,18,5,0,0,1,123,41,19,5,15,16,1,2,2,0,178,4,21,2,1,4
hoeyja02,Jim Hoey,2,3,21,4,0,0,1,117,41,22,4,19,26,1,1,2,0,172,4,24,1,2,4
hoffmtr01,Trevor Hoffman,3,4,42,4,0,0,20,173,52,24,5,16,48,2,1,1,0,243,26,25,2,2,4
houltdj01,D. J. Houlton,2,2,17,4,0,0,1,117,41,19,5,14,28,1,1,2,0,169,4,21,2,1,3
howeljp01,J. P. Howell,4,7,31,14,0,0,1,276,106,54,11,38,76,2,4,5,0,410,6,58,3,3,10
howrybo01,Bob Howry,5,5,54,4,0,0,4,216,67,31,7,19,64,2,2,2,0,302,18,32,3,2,5
huberjo01,Jon Huber,2,2,16,3,0,0,1,98,32,15,3,12,24,1,1,1,0,141,4,17,1,1,4
hudsolu01,Luke Hudson,4,5,26,10,0,0,1,212,73,38,8,32,43,2,3,4,0,309,5,42,2,2,8
hudsoti01,Tim Hudson,12,10,43,28,1,1,1,575,196,86,16,58,117,7,5,8,1,816,5,92,8,4,20
hugheph01,Phil Hughes,6,5,35,14,0,0,2,301,95,50,11,39,82,2,4,4,0,431,7,54,3,3,9
huller01,Eric Hull,2,2,13,3,0,0,1,85,28,14,3,11,23,1,1,1,0,122,3,15,1,1,3
humbeph01,Philip Humber,2,2,18,5,0,0,1,123,42,21,5,15,16,1,1,2,0,178,5,22,1,1,4
igawake01,Kei Igawa,4,5,32,12,0,0,2,266,95,50,13,42,67,2,4,4,1,394,6,53,2,2,8
isrinja01,Jason Isringhausen,4,3,44,4,0,0,17,186,49,26,7,29,54,3,2,2,0,265,28,28,2,2,5
jacksed01,Edwin Jackson,6,10,49,22,1,0,2,439,168,84,16,76,109,3,6,5,1,666,9,95,5,6,12
jamesch03,Chuck James,11,8,44,23,0,0,2,463,149,72,25,58,114,4,3,4,1,663,6,76,8,5,9
janssca01,Casey Janssen,4,5,38,7,0,0,3,215,73,32,7,20,37,2,3,3,0,306,10,35,2,2,7
jenksbo01,Bobby Jenks,3,4,45,4,0,0,18,196,57,28,5,22,69,4,3,2,0,274,30,30,3,2,6
jennija01,Jason Jennings,5,9,33,19,1,0,1,385,135,68,15,51,87,4,6,3,0,561,5,72,6,5,12
jimenke01,Kelvin Jimenez,3,2,24,4,0,0,1,139,54,27,4,17,25,1,1,2,0,205,8,28,2,1,5
jimenub01,Ubaldo Jimenez,5,5,36,15,0,0,2,314,95,51,12,44,85,4,4,5,0,453,7,57,4,3,9
johnsji04,Jim Johnson,1,2,12,3,0,0,1,81,30,14,3,11,5,1,1,1,0,118,3,15,1,1,2
johnsjo09,Josh Johnson,5,5,28,12,0,0,1,258,84,39,8,40,73,4,3,3,0,373,5,44,5,2,8
johnsra05,Randy Johnson,7,5,27,15,1,0,1,311,99,52,13,27,101,2,2,5,1,436,4,55,4,3,7
johnsty01,Tyler Johnson,2,3,37,4,0,0,1,145,44,24,6,22,38,2,2,3,0,210,7,25,2,1,4
jonesgr01,Greg Jones,2,1,15,3,0,0,1,89,32,15,4,12,15,1,1,1,0,130,5,16,1,1,3
jonesto02,Todd Jones,2,4,42,4,0,0,18,180,62,28,5,18,35,3,2,2,0,257,28,29,2,1,6
juliojo01,Jorge Julio,2,3,39,4,0,0,3,167,52,27,7,22,55,2,4,2,0,240,12,29,2,2,5
jurrjja01,Jair Jurrjens,5,4,32,10,0,0,2,235,74,39,9,29,36,2,3,3,0,335,7,42,2,3,8
karstje01,Jeff Karstens,3,4,21,7,0,0,1,158,58,29,7,19,18,2,3,2,0,231,5,31,2,2,4
kazmisc01,Scott Kazmir,11,9,44,28,0,0,1,549,173,76,17,80,203,3,8,6,0,788,5,85,5,5,14
keislra01,Randy Keisler,3,3,27,7,0,0,1,181,67,31,8,23,32,2,2,2,0,264,6,35,2,2,6
kendrky01,Kyle Kendrick,9,6,39,17,0,0,2,372,133,58,15,31,52,3,2,6,0,526,7,61,4,3,14
kenneia01,Ian Kennedy,4,4,29,8,0,0,2,215,67,33,8,29,60,2,2,3,0,308,7,36,2,2,6
kennejo04,Joe Kennedy,2,2,17,3,0,0,1,96,32,15,3,12,27,1,1,1,0,139,4,17,1,1,3
kensilo01,Logan Kensing,2,2,19,3,0,0,1,108,34,17,4,16,39,2,1,2,0,157,4,18,2,1,3
keppebo01,Bobby Keppel,1,2,13,4,0,0,1,93,35,16,4,13,15,1,1,1,0,136,3,17,1,1,3
kimby01,Byung-Hyun Kim,5,5,25,12,0,0,1,242,92,48,10,32,67,3,4,5,0,359,4,50,4,3,8
kingra01,Ray King,2,2,24,3,0,0,1,96,36,16,4,13,19,1,1,1,0,139,5,17,1,1,4
klinest02,Steve Kline,3,3,43,3,0,0,1,156,56,25,5,22,26,2,2,2,0,230,11,27,3,1,5
kolbda01,Danny Kolb,2,2,19,3,0,0,1,93,35,16,3,13,18,1,2,1,0,136,6,17,1,1,4
kominsh01,Shane Komine,2,2,13,3,0,0,1,90,30,15,4,11,4,1,1,1,0,130,3,16,1,1,3
koplomi01,Mike Koplove,1,1,14,3,0,0,1,84,29,14,3,11,16,1,1,1,0,122,4,15,1,1,3
koronjo01,John Koronka,4,5,26,11,0,0,1,234,89,44,9,30,35,2,3,3,1,345,5,46,3,3,6
kuoho01,Hung-Chih Kuo,3,5,32,9,0,0,1,220,74,40,7,34,77,3,2,3,0,321,7,42,3,2,6
kuwatma01,Masumi Kuwata,2,2,17,3,0,0,1,103,36,19,5,16,18,2,1,1,0,151,4,21,1,2,3
lackejo01,John Lackey,13,9,42,27,2,1,1,580,188,76,16,57,166,3,10,9,0,817,5,85,4,3,18
laffeaa01,Aaron Laffey,6,5,33,11,0,0,2,263,94,44,8,27,46,2,3,4,1,377,7,47,3,3,10
lannajo01,John Lannan,5,4,31,10,0,0,2,239,82,39,9,34,23,2,3,3,0,347,7,42,3,2,9
laraju01,Juan Lara,1,1,13,3,0,0,1,79,27,13,3,10,20,1,1,1,0,115,3,14,1,1,3
lawrebr02,Brian Lawrence,4,5,25,10,0,0,1,221,84,40,8,24,42,2,2,3,0,325,5,42,2,2,7
leagubr01,Brandon League,2,2,20,3,0,0,1,108,37,17,4,14,22,1,2,2,0,156,4,19,1,1,4
ledezwi01,Wil Ledezma,2,2,18,5,0,0,1,128,46,21,5,18,30,1,1,2,0,188,4,24,1,2,3
leecl02,Cliff Lee,8,7,32,18,1,0,1,364,131,65,17,38,81,2,4,5,0,531,4,70,3,4,9
leicejo01,Jon Leicester,3,4,25,7,0,0,1,176,62,33,7,24,30,1,2,3,0,257,6,35,2,2,5
lerewan01,Anthony Lerew,3,4,29,8,0,0,2,202,72,36,9,30,43,3,3,3,0,296,7,39,4,2,6
lestejo01,Jon Lester,6,4,32,14,0,0,1,299,103,50,12,47,76,2,4,4,0,436,6,53,3,6,8
lewisco01,Colby Lewis,2,2,23,4,0,0,1,136,51,25,6,16,29,2,1,2,0,200,6,26,2,2,5
lewisje01,Jensen Lewis,2,2,21,4,0,0,1,123,40,18,4,15,48,1,1,2,0,177,5,20,2,1,3
lidgebr01,Brad Lidge,3,4,47,4,0,0,14,196,58,31,8,27,90,3,5,3,0,284,25,33,4,2,4
liebejo01,Jon Lieber,6,7,28,15,1,0,1,323,121,55,14,24,71,4,2,4,0,463,4,59,4,3,9
lillyte01,Ted Lilly,13,10,44,28,0,0,1,540,171,84,25,64,152,4,6,4,1,767,5,91,7,6,13
linceti01,Tim Lincecum,7,6,41,19,0,0,2,411,121,64,13,59,142,4,7,4,0,587,7,69,5,6,10
lindsma01,Matt Lindstrom,3,3,38,4,0,0,1,177,59,26,5,20,55,2,3,2,0,253,7,29,2,2,5
linebsc01,Scott Linebrink,3,3,30,3,0,0,1,134,43,20,5,16,43,2,2,1,0,190,6,21,1,1,4
litscje01,Jesse Litsch,7,8,39,17,0,0,2,359,125,55,14,40,54,3,3,6,0,517,7,62,4,4,14
littlwe01,Wes Littleton,3,3,30,4,0,0,2,161,50,25,6,19,27,1,1,3,0,228,8,26,1,2,6
livinbo01,Bobby Livingston,5,5,33,12,0,0,2,271,111,49,12,24,42,2,3,4,1,397,7,53,4,2,8
lizra01,Radhames Liz,3,3,23,7,0,0,1,162,54,29,6,30,47,2,3,2,0,240,7,32,2,2,4
loaizes01,Esteban Loaiza,5,5,24,12,0,0,1,254,93,46,10,26,60,2,2,3,0,369,4,47,4,3,8
loeka01,Kameron Loe,7,9,42,19,0,0,2,393,152,73,14,48,69,4,5,4,0,582,7,81,3,4,12
loewead01,Adam Loewen,5,4,30,13,0,0,1,267,86,45,8,49,72,2,3,5,1,394,6,50,2,3,9
loganbo02,Boone Logan,3,2,38,4,0,0,1,161,59,29,6,23,37,2,2,2,0,237,8,31,2,3,6
lohseky01,Kyle Lohse,5,5,28,13,0,0,1,273,100,46,10,28,57,3,2,4,0,395,5,48,5,2,8
loopebr01,Braden Looper,11,10,63,18,0,0,5,454,159,77,17,47,77,4,2,5,1,651,20,81,6,6,15
lopezaq01,Aquilino Lopez,2,2,15,3,0,0,1,100,34,17,4,13,20,1,1,2,0,145,5,18,1,1,3
lopezja02,Javier Lopez,3,2,36,4,0,0,1,140,45,21,5,21,31,2,1,3,0,202,8,24,1,1,5
lopezro01,Rodrigo Lopez,7,8,31,17,0,0,1,351,133,64,16,36,73,3,3,3,0,511,5,69,3,4,8
lowede01,Derek Lowe,11,10,41,26,1,0,1,531,178,78,17,49,119,2,3,4,1,748,5,88,6,3,19
lowema01,Mark Lowe,2,1,14,3,0,0,1,87,27,14,3,12,32,1,1,1,0,125,3,15,1,1,3
lowryno01,Noah Lowry,10,9,38,23,1,0,1,465,155,74,16,68,96,3,4,6,0,675,5,79,10,5,17
lugoru01,Ruddy Lugo,3,2,30,4,0,0,1,158,48,25,4,25,33,2,2,2,0,228,9,27,2,3,5
lyonbr01,Brandon Lyon,4,4,49,4,0,0,3,207,70,30,6,22,41,3,2,2,0,295,15,33,3,2,6
macdomi01,Mike MacDougal,3,3,34,3,0,0,2,145,49,25,5,23,44,2,3,2,0,213,9,27,1,1,5
maddugr01,Greg Maddux,10,9,40,24,1,0,1,480,171,74,15,27,88,4,4,5,0,672,5,78,10,6,13
madsory01,Ryan Madson,4,4,34,6,0,0,1,200,73,33,8,24,52,3,4,3,1,293,7,36,3,2,5
mahayro01,Ron Mahay,2,2,29,3,0,0,1,131,42,20,5,20,39,2,1,1,0,189,5,22,2,1,4
maholpa01,Paul Maholm,9,11,42,25,1,0,1,508,189,89,19,60,105,4,4,8,0,737,6,96,9,5,22
mainejo01,John Maine,11,9,44,25,1,1,2,499,147,76,21,67,149,3,4,5,0,709,6,83,7,4,9
majewga01,Gary Majewski,2,3,25,3,0,0,1,115,48,21,4,13,19,2,1,2,0,170,6,22,1,2,4
marcush01,Shaun Marcum,8,6,45,19,0,0,2,411,136,67,20,49,108,3,3,5,0,587,9,70,3,3,13
marmoca01,Carlos Marmol,4,4,35,6,0,0,1,206,56,30,7,37,78,2,3,3,1,297,6,32,3,2,4
marotmi01,Mike Maroth,4,4,22,9,0,0,1,199,83,40,11,20,35,1,2,3,0,296,4,44,2,2,6
marquja01,Jason Marquis,11,11,42,27,1,0,1,521,181,94,23,65,92,4,4,10,1,761,5,103,9,3,18
marshja01,Jay Marshall,2,3,29,4,0,0,1,141,51,26,5,21,19,3,2,3,0,208,8,28,2,1,5
marshse01,Sean Marshall,7,8,37,19,0,0,1,369,128,62,16,48,78,3,5,4,0,537,6,69,6,3,11
marteda01,Damaso Marte,3,3,44,3,0,0,1,159,47,23,5,25,60,2,2,2,1,227,9,26,2,2,5
martica03,Carlos Martinez,1,2,13,3,0,0,1,84,29,14,4,11,26,1,1,1,0,121,3,15,1,1,2
martipe02,Pedro Martinez,6,4,24,12,0,0,1,256,75,38,9,23,89,2,2,4,0,358,4,41,3,3,6
martito02,Tom Martin,2,2,28,3,0,0,1,128,46,22,5,16,25,2,1,2,0,187,6,24,1,1,4
masseni01,Nick Masset,3,3,24,4,0,0,1,143,54,27,5,23,23,2,2,2,0,212,6,28,2,2,5
mastnto01,Tom Mastny,4,3,33,4,0,0,2,168,59,28,6,26,49,4,3,2,0,247,11,30,2,2,5
mateoju01,Julio Mateo,3,2,20,3,0,0,1,108,37,17,4,11,20,2,1,2,0,157,4,18,1,1,3
matsuda01,Daisuke Matsuzaka,11,9,44,23,1,0,2,490,156,80,19,63,161,2,5,9,0,702,7,83,4,3,14
mcbetma01,Marcus McBeth,2,2,19,3,0,0,1,105,37,18,4,13,29,1,2,1,0,153,5,19,2,1,3
mcbrima01,Macay McBride,2,2,28,3,0,0,1,121,40,20,4,19,34,1,2,1,0,176,5,22,2,1,4
mccarbr01,Brandon McCarthy,6,9,47,16,0,0,1,362,122,62,16,48,80,4,5,3,1,525,9,66,4,4,10
mccleza01,Zach McClellan,2,2,15,3,0,0,1,96,36,16,3,12,29,1,1,1,0,139,3,17,1,1,3
mccluse01,Seth McClung,2,3,18,5,0,0,1,125,44,23,5,22,29,1,2,2,0,187,5,27,1,2,3
mcgowdu01,Dustin McGowan,9,9,45,21,1,1,2,451,141,74,15,60,126,4,10,5,0,646,8,81,2,6,12
mcleama01,Marty McLeary,2,1,13,3,0,0,1,90,31,15,4,11,16,1,1,1,0,130,3,16,1,1,3
mclemma02,Mark McLemore,3,2,22,4,0,0,1,128,44,21,5,18,41,2,2,2,0,188,6,22,1,1,3
mechegi01,Gil Meche,10,10,44,28,1,0,1,558,188,86,21,70,137,3,4,5,1,798,5,97,4,5,17
meddebr01,Brandon Medders,3,3,29,3,0,0,1,141,48,22,6,20,36,1,2,2,0,205,7,24,2,1,4
meloajo01,Jon Meloan,2,2,13,3,0,0,1,89,30,16,3,14,24,1,1,1,0,129,4,17,1,1,3
mendolu01,Luis Mendoza,3,3,22,6,0,0,1,155,51,24,6,18,24,1,2,3,0,222,6,26,2,2,5
meredcl01,Cla Meredith,5,4,49,4,0,0,1,215,73,30,7,18,54,3,2,3,1,304,11,34,2,2,8
mesajo01,Jose Mesa,2,3,35,3,0,0,3,149,49,25,6,22,27,2,2,2,0,217,12,28,2,3,6
messera01,Randy Messenger,2,3,33,4,0,0,1,156,61,28,6,22,33,2,2,2,0,231,8,30,2,2,5
meyerda02,Dan Meyer,3,3,22,6,0,0,1,154,55,28,6,21,31,1,3,2,0,225,6,31,2,2,4
millean01,Andrew Miller,6,6,36,13,0,0,2,289,100,52,11,50,76,2,4,6,1,434,8,57,4,3,8
milleja03,Jason Miller,2,1,13,3,0,0,1,82,30,15,3,11,11,1,1,1,0,120,3,16,1,1,2
milleju01,Justin Miller,4,2,34,4,0,0,1,166,53,26,6,21,68,3,2,2,0,238,7,28,2,1,4
millema02,Matt Miller,1,1,13,3,0,0,1,79,25,13,3,10,20,1,1,1,0,114,3,13,1,1,3
milletr02,Trever Miller,2,2,46,3,0,0,1,157,50,25,6,23,51,3,2,3,0,228,9,27,2,2,4
millewa04,Wade Miller,3,4,25,9,0,0,1,205,74,38,9,33,45,2,3,3,0,305,5,40,3,2,5
millwke01,Kevin Millwood,10,11,40,25,1,0,1,496,183,85,18,53,120,3,4,6,0,720,5,91,4,4,16
miltoer01,Eric Milton,4,6,26,14,0,0,1,270,102,49,14,26,54,2,3,3,0,396,4,55,4,2,5
minerza01,Zach Miner,4,4,28,7,0,0,1,190,67,30,6,24,40,2,2,1,0,273,6,33,3,2,6
mischpa01,Pat Misch,2,4,24,6,0,0,1,161,59,26,6,18,35,2,1,2,0,233,5,28,2,2,6
mitrese01,Sergio Mitre,6,9,44,21,0,0,2,421,159,73,14,45,80,4,5,9,0,619,8,81,5,7,15
moehlbr01,Brian Moehler,3,5,26,7,0,0,1,196,79,36,8,19,36,2,1,2,0,288,9,38,3,2,8
moralfr01,Franklin Morales,5,5,32,11,0,0,2,249,80,39,8,30,57,2,2,4,0,356,7,42,4,3,8
morilju01,Juan Morillo,2,1,13,3,0,0,1,84,30,15,4,10,22,1,1,1,0,122,3,16,1,1,2
morrima01,Matt Morris,6,7,28,16,1,0,1,330,120,60,12,31,61,3,2,6,1,480,4,64,5,3,10
morrobr01,Brandon Morrow,3,3,35,5,0,0,1,175,54,28,5,36,59,3,3,2,0,257,9,30,3,2,5
moseldu01,Dustin Moseley,4,4,36,8,0,0,1,237,88,40,8,25,42,2,4,3,0,339,9,42,2,2,9
motagu01,Guillermo Mota,3,2,34,4,0,0,1,166,55,29,6,20,47,2,2,2,0,240,8,30,2,1,4
moyerja01,Jamie Moyer,11,8,39,23,1,0,1,469,171,82,21,47,96,3,3,5,0,676,5,86,7,5,14
moylape01,Peter Moylan,4,3,45,5,0,0,1,214,62,27,7,25,54,5,2,4,0,300,10,32,3,3,8
mujiced01,Edward Mujica,2,2,16,3,0,0,1,103,40,18,4,9,20,1,1,1,0,149,4,19,1,1,3
muldema01,Mark Mulder,5,5,23,11,0,0,1,223,88,44,10,27,38,1,3,3,0,328,4,46,4,2,10
munizca01,Carlos Muniz,1,1,12,3,0,0,1,79,26,13,3,10,23,1,1,1,0,115,3,14,1,1,2
munozar01,Arnie Munoz,2,2,14,3,0,0,1,84,29,14,3,13,12,1,1,1,0,124,3,15,1,1,2
muntesc01,Scott Munter,2,2,20,3,0,0,1,98,37,17,3,14,10,1,1,1,0,143,5,18,2,1,4
murphbi02,Bill Murphy,2,2,14,3,0,0,1,86,30,14,3,13,7,1,1,1,0,125,3,15,1,1,3
murraaj01,A. J. Murray,2,3,20,5,0,0,1,134,44,22,6,19,28,1,1,2,0,195,6,24,2,1,4
mussene01,Neal Musser,2,2,18,4,0,0,1,113,42,19,5,16,27,2,2,1,0,165,4,20,1,1,4
mussimi01,Mike Mussina,10,8,37,23,1,0,1,448,163,74,16,35,110,2,3,5,0,635,5,79,4,4,16
myersbr01,Brett Myers,5,4,29,10,0,0,5,245,78,38,11,28,84,2,3,2,0,348,10,40,3,2,6
myersmi01,Mike Myers,2,2,26,3,0,0,1,102,35,18,4,13,19,1,1,2,0,148,5,20,1,1,3
nathajo01,Joe Nathan,4,3,46,4,0,0,19,200,51,24,5,20,86,2,2,2,0,274,32,25,2,2,4
neshepa01,Pat Neshek,5,3,43,4,0,0,1,193,49,27,7,23,78,3,2,2,0,267,10,29,2,3,5
newmajo01,Josh Newman,1,1,12,3,0,0,1,79,27,13,3,9,43,1,1,1,0,115,3,14,1,1,2
nippedu01,Dustin Nippert,2,3,25,5,0,0,1,148,52,27,6,21,41,1,2,1,0,215,6,29,1,1,5
nolasri01,Ricky Nolasco,5,5,28,11,0,0,1,237,87,41,10,26,52,3,3,4,0,346,5,46,4,4,6
nunezle01,Juan Carlos Oviedo,3,4,29,7,0,0,1,196,72,32,9,20,48,2,2,2,0,283,7,36,2,2,7
obermwe01,Wes Obermueller,3,4,27,8,0,0,1,202,75,38,8,34,36,3,2,3,0,302,6,42,2,3,7
oflaher01,Eric O'Flaherty,4,2,35,4,0,0,1,162,54,27,5,21,36,2,3,3,0,235,7,29,2,2,5
ohkato01,Tomo Ohka,5,6,29,14,0,0,1,290,106,52,13,31,49,2,4,3,0,422,5,56,4,3,10
ohlenro01,Ross Ohlendorf,2,2,13,3,0,0,1,86,29,14,3,10,43,1,1,1,0,124,4,15,1,1,3
ohmanwi01,Will Ohman,2,3,41,3,0,0,1,148,46,24,5,23,50,2,2,2,0,217,8,25,2,1,4
okajihi01,Hideki Okajima,3,3,36,4,0,0,2,176,51,24,6,18,57,2,1,2,0,247,8,26,3,2,5
oliveda02,Darren Oliver,3,2,38,4,0,0,1,191,59,29,7,21,50,2,2,2,0,271,10,31,2,3,5
olsensc01,Scott Olsen,10,12,45,27,0,0,1,514,187,93,24,76,139,3,7,4,0,761,6,107,9,5,15
olsonga01,Garrett Olson,4,5,31,10,0,0,2,234,86,44,9,44,60,2,3,3,1,348,7,47,2,3,9
ortizra01,Ramon Ortiz,3,3,15,7,0,0,1,149,58,28,8,17,27,2,1,3,0,221,3,31,2,2,4
ortizru01,Russ Ortiz,3,5,28,10,0,0,1,227,90,45,11,34,36,2,2,4,0,340,6,49,3,3,6
orvelch01,Chad Orvella,2,2,17,3,0,0,1,95,36,18,4,16,22,1,1,2,0,144,4,20,1,1,3
osorifr01,Franquelis Osoria,2,3,22,3,0,0,1,124,46,21,5,14,21,2,1,2,0,181,4,23,1,1,5
oswalro01,Roy Oswalt,12,8,41,26,1,0,1,558,191,71,15,45,139,4,3,6,1,785,5,75,7,4,17
otsukak01,Akinori Otsuka,2,3,32,3,0,0,6,138,43,19,4,16,39,2,1,1,0,195,13,21,2,1,4
owenshe01,Henry Owens,2,2,19,4,0,0,2,111,35,17,4,15,25,1,2,1,0,160,6,19,1,1,3
owingmi01,Micah Owings,7,7,42,20,1,1,2,409,133,66,17,46,95,3,5,9,0,586,7,73,6,4,12
padilvi01,Vicente Padilla,8,9,36,22,0,0,1,418,150,75,17,57,95,3,3,9,1,617,5,82,4,4,13
papeljo01,Jonathan Papelbon,3,3,40,4,0,0,16,184,45,22,6,19,82,1,2,3,0,253,25,23,1,1,4
parkch01,Chan Ho Park,4,4,24,10,0,0,1,223,79,40,10,28,52,3,3,4,0,327,4,44,4,2,6
paronch01,Chad Paronto,3,2,34,4,0,0,1,151,52,23,5,20,26,3,2,2,0,218,8,25,2,2,6
parrama01,Manny Parra,2,2,20,5,0,0,1,140,47,23,5,19,46,1,2,2,0,203,5,25,2,2,4
parrijo01,John Parrish,2,1,14,3,0,0,1,90,36,15,3,14,22,1,2,1,0,133,4,16,1,1,3
pattejo02,John Patterson,4,5,25,12,0,0,1,238,78,42,9,30,68,3,4,3,0,344,4,42,3,3,5
pattotr01,Troy Patton,3,4,24,7,0,0,1,170,55,28,7,20,36,2,2,3,0,245,6,30,2,2,5
paulife01,Felipe Paulino,4,3,24,7,0,0,1,170,61,30,8,21,32,2,2,2,0,247,5,32,2,2,5
pavanca01,Carl Pavano,4,3,24,8,0,0,1,195,75,33,8,16,33,2,2,3,0,282,5,37,2,2,7
peavyja01,Jake Peavy,13,9,43,28,1,0,1,583,165,74,17,58,211,6,4,6,0,803,5,78,5,5,14
pegueja01,Jailen Peguero,2,2,17,3,0,0,1,98,34,18,4,16,18,1,1,1,0,143,4,19,1,1,3
pelfrmi01,Mike Pelfrey,5,7,34,13,0,0,2,290,106,52,9,46,57,2,4,7,0,432,6,56,5,4,10
penato03,Tony Pena,4,4,45,5,0,0,2,216,65,33,8,26,54,2,2,3,0,305,9,37,2,2,7
pennybr01,Brad Penny,13,7,43,28,0,0,1,547,187,77,15,57,128,3,5,6,0,774,5,82,9,5,20
peraljo01,Joel Peralta,3,3,46,4,0,0,1,227,78,35,9,21,59,3,3,2,0,321,13,38,2,3,7
percitr01,Troy Percival,3,2,25,4,0,0,2,134,38,19,5,15,43,1,2,1,0,188,8,21,1,1,3
perezju01,Juan Perez,2,2,17,3,0,0,1,94,33,16,4,13,24,1,1,1,0,137,4,17,1,1,3
perezod01,Odalis Perez,7,9,38,21,0,0,1,405,160,76,15,44,74,4,4,4,0,596,6,81,6,6,12
perezol01,Oliver Perez,11,9,42,23,0,0,2,462,143,71,21,74,152,2,5,7,0,672,6,84,4,6,11
perezra01,Rafael Perez,2,3,32,4,0,0,1,173,48,23,6,18,64,2,3,2,0,243,8,26,2,2,5
perkigl01,Glen Perkins,2,2,20,4,0,0,1,123,38,19,4,15,32,1,2,2,0,174,4,20,1,1,4
petityu01,Yusmeiro Petit,5,5,33,10,0,0,1,251,95,45,13,28,59,2,2,2,1,365,8,48,3,2,7
petribi01,Billy Petrick,2,2,14,3,0,0,1,92,31,16,4,13,19,1,1,1,0,133,3,17,1,1,3
pettian01,Andy Pettitte,12,9,42,27,1,0,1,550,194,83,18,54,135,4,3,3,0,779,5,89,7,6,21
phillhe01,Heath Phillips,2,2,13,3,0,0,1,88,31,14,3,11,7,1,1,1,0,127,4,15,1,1,3
pignaca01,Carmen Pignatiello,1,1,12,3,0,0,1,79,28,13,3,9,43,1,1,1,0,115,3,14,1,1,2
pineijo01,Joel Pineiro,6,7,31,15,0,0,1,324,127,60,14,34,61,4,3,4,0,471,5,65,3,3,11
pintore01,Renyel Pinto,3,3,37,4,0,0,1,175,49,27,7,32,60,2,3,2,0,251,6,29,2,2,7
ponsosi01,Sidney Ponson,4,6,27,11,0,0,1,239,102,47,10,30,45,2,3,3,0,358,5,52,2,2,8
prinzbr01,Bret Prinz,1,1,12,3,0,0,1,80,28,13,3,10,7,1,1,1,0,115,3,14,1,1,2
proctsc01,Scott Proctor,3,2,32,3,0,0,1,153,47,23,6,19,44,2,2,2,0,218,6,25,2,2,4
putzjj01,J. J. Putz,4,3,48,4,0,0,16,205,53,24,7,18,83,1,2,2,0,278,30,26,2,2,6
quallch01,Chad Qualls,5,4,54,4,0,0,2,225,73,32,8,24,62,3,2,4,0,316,11,34,4,2,9
rakeraa01,Aaron Rakers,1,1,11,3,0,0,1,76,26,12,3,9,19,1,1,1,0,110,3,13,1,1,2
ramired01,Edwar Ramirez,2,2,18,4,0,0,1,108,37,20,5,16,48,1,2,2,0,158,4,21,1,1,3
ramirel01,Elizardo Ramirez,3,5,25,10,0,0,1,214,82,40,10,25,42,2,2,4,1,315,5,44,3,2,6
ramirer01,Erasmo Ramirez,1,1,12,3,0,0,1,79,28,13,3,9,7,1,1,1,0,115,3,14,1,1,2
ramirho01,Horacio Ramirez,7,7,33,18,0,0,1,350,138,69,14,44,49,3,2,4,0,515,5,74,4,3,15
ramirra02,Ramon Ramirez,3,2,25,3,0,0,1,123,40,21,4,15,37,2,2,1,0,177,6,22,2,2,3
randost01,Steve Randolph,2,2,15,3,0,0,1,94,34,18,4,17,39,1,1,1,0,139,4,19,1,1,3
rapadcl01,Clay Rapada,1,1,12,3,0,0,1,79,28,13,3,10,38,1,1,1,0,115,3,14,1,1,2
rasneda01,Darrell Rasner,5,5,30,10,0,0,2,226,78,37,9,25,36,2,2,4,0,326,7,40,2,2,6
rauchjo01,Jon Rauch,5,4,55,4,0,0,2,233,70,34,8,25,68,3,3,2,0,327,14,36,2,4,5
raych01,Chris Ray,4,4,36,4,0,0,9,162,45,25,7,22,51,2,2,2,0,229,21,26,1,2,4
redditi01,Tim Redding,5,6,35,14,0,0,2,305,103,47,12,45,57,4,3,4,1,443,7,51,5,3,10
redmama01,Mark Redman,4,4,21,10,1,0,1,214,81,38,8,25,37,1,3,3,1,310,3,41,3,2,8
reitsch01,Chris Reitsma,2,3,25,3,0,0,3,118,49,23,5,12,19,2,2,1,0,175,8,24,2,1,3
resopch01,Chris Resop,2,2,16,3,0,0,1,89,32,15,3,13,17,1,1,1,0,130,5,16,1,1,3
reyesal01,Alberto Reyes,3,3,35,4,0,0,8,162,46,27,7,19,63,1,1,2,0,229,18,28,2,2,3
reyesan01,Anthony Reyes,5,11,37,19,1,0,1,361,119,68,17,47,89,2,3,8,1,525,6,72,4,5,9
reyesde01,Dennys Reyes,3,2,34,3,0,0,1,133,44,19,4,22,36,1,3,2,0,193,6,21,2,2,5
reyesjo03,Jo-Jo Reyes,4,4,32,11,0,0,2,254,89,46,11,41,44,3,3,3,0,372,7,51,4,3,10
rheinjo01,John Rheinecker,4,4,28,9,0,0,1,204,84,37,8,27,40,2,2,3,0,303,5,41,2,2,7
ridgwje01,Jeff Ridgway,1,1,12,3,0,0,1,76,29,14,3,9,0,1,1,1,0,111,3,15,1,1,2
rincoju01,Juan Rincon,3,3,45,4,0,0,1,187,63,29,6,25,56,2,3,3,0,271,12,32,3,1,5
ringro01,Royce Ring,1,2,16,3,0,0,1,87,26,13,3,13,22,1,1,1,0,124,4,15,1,1,2
riskeda01,David Riske,3,3,41,4,0,0,2,188,57,26,7,22,46,2,1,2,0,266,15,28,2,2,6
riverma01,Mariano Rivera,4,4,45,4,0,0,16,198,60,26,5,15,65,2,1,4,0,276,31,27,2,2,6
riversa01,Saul Rivera,4,4,52,4,0,0,2,231,75,35,5,34,53,3,3,3,0,336,12,37,4,3,8
roberco01,Connor Robertson,1,1,12,3,0,0,1,79,29,14,3,10,15,1,1,1,0,115,3,15,1,1,2
roberna01,Nate Robertson,9,11,40,25,1,0,1,506,177,82,22,57,111,3,5,5,1,729,5,89,4,6,18
rodnefe01,Fernando Rodney,3,4,37,4,0,0,3,171,50,27,6,24,57,2,3,3,0,247,13,29,2,1,4
rodrifr03,Francisco Rodriguez,4,3,47,4,0,0,22,201,53,26,6,30,92,2,5,2,0,285,31,27,2,2,4
rodriwa01,Wandy Rodriguez,9,11,44,25,0,0,1,495,171,88,20,63,130,4,5,6,1,717,6,97,6,4,15
rogerbr01,Brian Rogers,1,1,13,3,0,0,1,82,30,14,4,10,19,1,1,1,0,119,3,15,1,1,2
rogerke01,Kenny Rogers,7,5,28,16,0,0,1,321,108,49,12,34,53,2,2,4,0,456,4,54,2,4,12
romerjc01,J. C. Romero,2,3,37,3,0,0,1,143,42,22,4,27,37,2,2,2,0,207,7,24,2,2,5
rosarfr01,Francisco Del Rosario,2,3,22,4,0,0,1,122,44,22,5,18,35,1,2,2,0,181,6,23,2,1,3
rowlary01,Ryan Rowland-Smith,2,2,22,4,0,0,1,136,46,22,5,17,49,1,1,2,0,197,5,24,2,2,4
ryanbj01,B. J. Ryan,2,2,21,2,0,0,7,102,28,15,3,12,45,1,1,1,0,143,12,15,1,1,3
ryuja01,Jae Kuk Ryu,2,2,19,4,0,0,1,117,45,22,5,15,27,1,2,2,0,173,6,23,2,1,4
saarlki01,Kirk Saarloos,3,4,25,7,0,0,1,185,71,34,8,24,27,2,2,3,0,272,5,35,2,2,8
sabatcc01,CC Sabathia,14,9,43,28,3,1,1,603,197,80,19,45,176,3,4,7,0,836,5,89,6,5,18
saitota01,Takashi Saito,3,2,43,4,0,0,15,190,45,23,6,18,88,2,2,2,0,257,25,24,2,2,6
salasju01,Juan Salas,2,2,24,4,0,0,1,132,45,21,6,18,30,1,2,3,0,194,6,24,1,1,3
salmobr01,Brad Salmon,2,2,20,4,0,0,1,112,37,18,4,14,35,1,2,2,0,161,5,19,1,1,4
sampsch01,Chris Sampson,7,7,38,15,0,0,2,350,124,56,16,31,50,3,3,5,0,498,7,60,5,5,11
sanchan01,Anibal Sanchez,6,4,29,12,1,0,1,267,87,40,9,39,51,2,4,4,0,387,5,43,3,3,8
sanchbr01,Brian Sanches,2,2,17,3,0,0,1,103,34,18,5,17,26,2,1,1,0,151,5,19,1,1,3
sanchjo01,Jonathan Sanchez,3,4,31,6,0,0,1,181,62,33,7,29,63,1,3,4,0,267,7,35,2,2,5
sanchro01,Romulo Sanchez,2,2,17,3,0,0,1,105,35,18,4,14,23,1,1,1,0,151,5,19,1,1,4
santaer01,Ervin Santana,10,10,39,24,0,0,1,467,160,84,20,57,119,3,7,8,1,675,5,90,4,5,14
santajo01,Johan Santana,13,9,42,27,1,1,1,579,162,74,23,44,208,1,6,4,1,783,5,78,5,4,12
santovi01,Victor Santos,3,5,23,10,0,0,1,208,82,39,10,28,43,2,3,3,0,308,4,42,3,2,7
sarfade01,Dennis Sarfate,2,2,15,3,0,0,1,91,30,14,3,10,50,1,1,1,0,131,4,15,1,1,3
saundjo01,Joe Saunders,8,6,36,18,0,0,2,367,136,61,13,43,80,2,4,3,0,532,6,66,2,4,12
schilcu01,Curt Schilling,10,8,38,21,0,0,2,449,166,69,20,28,120,2,2,3,0,633,7,73,4,3,11
schmija01,Jason Schmidt,5,5,25,13,1,0,1,277,88,44,10,40,81,3,4,3,0,400,4,47,4,3,6
schoesc01,Scott Schoeneweis,2,3,41,4,0,0,2,165,54,27,6,24,39,3,2,3,0,240,10,29,2,1,5
schroch01,Chris Schroder,2,3,28,4,0,0,1,151,45,24,6,19,54,2,1,3,0,218,6,27,2,2,4
schulmi02,Mike Schultz,1,1,11,3,0,0,1,76,26,13,3,9,37,1,1,1,0,110,3,14,1,1,3
seaneru01,Rudy Seanez,4,3,41,4,0,0,1,185,61,29,7,23,66,3,2,3,0,266,10,30,2,2,5
seaybo01,Bobby Seay,3,2,33,4,0,0,1,149,47,22,5,19,42,2,1,2,0,213,10,24,2,2,4
seddoch01,Chris Seddon,3,3,24,7,0,0,1,165,65,30,6,18,27,1,2,2,0,244,6,33,2,2,4
segovza01,Zack Segovia,3,4,28,7,0,0,2,192,70,33,7,22,24,2,2,2,0,278,7,35,3,2,6
seleaa01,Aaron Sele,4,4,24,7,0,0,1,181,74,32,7,21,31,2,2,2,0,268,6,35,2,3,7
seoja01,Jae Weong Seo,5,6,29,13,0,0,1,274,116,53,13,27,47,2,3,4,0,404,5,56,4,3,9
serafda01,Dan Serafini,1,1,11,3,0,0,1,74,25,13,3,10,0,1,1,1,0,108,3,14,1,1,2
sharpjo01,Josh Sharpless,1,2,15,3,0,0,1,86,28,14,4,12,12,1,1,1,0,125,4,15,1,1,2
shearto01,Tom Shearn,4,3,28,9,0,0,2,213,72,36,10,27,36,2,2,2,0,306,6,38,2,2,7
sheetbe01,Ben Sheets,9,7,36,20,1,0,1,423,139,63,16,31,124,3,5,3,0,591,5,66,5,5,8
sherrge01,George Sherrill,3,3,45,4,0,0,2,155,41,23,5,22,63,2,1,2,0,219,8,24,3,2,4
shielja02,James Shields,10,9,44,25,1,0,2,546,184,85,23,41,157,3,8,8,0,765,6,91,5,5,13
shielsc01,Scot Shields,5,5,49,4,0,0,2,214,60,31,7,27,73,2,5,3,0,300,10,33,2,2,6
shousbr01,Brian Shouse,2,3,43,3,0,0,1,152,51,23,4,18,33,3,1,3,0,219,8,26,2,2,5
shueypa01,Paul Shuey,2,2,19,4,0,0,1,110,40,22,4,19,28,1,2,1,0,163,4,23,1,1,4
silvaca01,Carlos Silva,11,12,43,27,1,0,1,537,214,92,24,30,75,3,3,5,0,766,5,98,5,5,20
simonja01,Jason Simontacchi,6,7,33,13,0,0,2,281,113,53,13,31,54,4,3,4,0,413,7,57,4,4,9
siscoan01,Andy Sisco,2,2,26,3,0,0,1,116,40,22,4,21,35,2,2,1,0,173,6,23,1,2,3
slatedo01,Doug Slaten,3,2,32,4,0,0,1,132,46,20,5,16,33,1,2,1,0,192,7,22,1,1,4
sloweke01,Kevin Slowey,5,4,33,12,0,0,2,272,104,46,14,22,63,2,3,2,0,396,7,50,2,2,6
smithjo05,Joe Smith,3,3,31,4,0,0,1,146,51,23,5,20,47,2,2,3,0,214,8,24,2,1,5
smithma04,Matt Smith,1,2,15,3,0,0,1,84,26,14,3,15,22,1,1,1,0,122,3,15,1,1,3
smoltjo01,John Smoltz,12,7,40,26,1,0,1,538,172,71,17,44,163,6,5,5,0,749,5,75,7,5,12
snellia01,Ian Snell,10,11,45,27,1,0,1,554,190,87,23,68,161,5,9,6,0,796,6,94,8,6,17
snydeky01,Kyle Snyder,3,4,29,6,0,0,1,173,62,29,7,24,44,2,3,3,0,255,8,33,1,2,5
sonnaan01,Andy Sonnanstine,7,8,40,18,0,0,2,385,145,73,16,31,96,3,3,5,0,550,7,77,4,5,14
soriajo01,Joakim Soria,3,3,36,5,0,0,6,184,51,26,5,20,71,2,2,2,0,257,16,28,2,2,4
soriara01,Rafael Soriano,3,3,45,4,0,0,4,201,53,28,8,19,72,2,2,2,0,277,14,29,1,1,5
sosajo02,Jorge Sosa,6,5,39,11,0,0,1,287,94,47,11,38,59,3,2,2,0,412,6,48,5,2,8
sowerje01,Jeremy Sowers,5,6,33,15,1,1,1,315,115,56,13,31,39,3,3,4,0,453,6,58,2,4,10
speieju01,Justin Speier,3,3,38,3,0,0,1,162,47,23,6,17,54,2,2,2,0,229,9,24,2,1,3
speiery01,Ryan Speier,2,2,18,3,0,0,1,102,36,17,3,14,21,1,2,1,0,147,5,18,1,1,4
speigle01,Levale Speigner,3,3,25,7,0,0,1,169,67,34,6,25,24,2,2,2,0,252,6,36,2,2,5
sprinru01,Russ Springer,4,3,48,4,0,0,1,186,50,25,7,20,59,2,2,3,0,258,11,28,2,2,5
spurlch01,Chris Spurling,3,2,31,4,0,0,1,152,55,25,6,16,24,2,2,2,0,220,9,28,1,2,5
standja01,Jason Standridge,2,2,16,3,0,0,1,92,32,16,4,14,21,2,1,1,0,135,4,18,1,1,3
stanfja01,Jason Stanford,2,2,19,5,0,0,1,140,51,23,5,15,28,1,1,2,0,203,5,25,1,2,4
stantmi02,Mike Stanton,3,3,38,4,0,0,2,162,62,29,6,17,38,2,2,3,0,237,9,30,2,2,5
staufti01,Tim Stauffer,4,4,25,8,0,0,1,197,73,38,9,25,39,2,2,3,0,288,5,41,2,2,6
stettmi01,Mitch Stetter,2,1,13,3,0,0,1,83,27,14,3,10,24,1,2,1,0,120,3,15,1,1,3
stokebr01,Brian Stokes,3,4,33,5,0,0,1,176,73,34,8,22,32,1,2,2,0,261,10,36,2,3,5
stoneri01,Ricky Stone,1,1,13,3,0,0,1,82,32,14,4,8,13,1,1,1,0,119,3,16,1,1,3
streehu01,Huston Street,4,3,40,3,0,0,12,175,50,25,5,17,65,2,2,2,0,244,23,26,2,2,4
stulter01,Eric Stults,3,4,25,7,0,0,1,182,68,32,8,24,39,2,2,2,0,266,5,35,2,2,6
suppaje01,Jeff Suppan,11,9,43,27,0,0,1,540,201,88,19,61,100,6,6,8,0,791,5,96,10,6,21
switzjo01,Jon Switzer,2,2,23,3,0,0,1,114,42,20,4,17,22,1,2,1,0,167,4,22,1,1,3
tallebr01,Brian Tallet,3,3,36,4,0,0,1,184,54,28,5,28,49,4,2,4,0,264,8,30,2,3,5
tanketa01,Taylor Tankersley,4,2,41,4,0,0,2,162,49,25,6,28,58,3,2,2,0,234,8,27,2,2,5
taschja01,Jack Taschner,3,2,37,4,0,0,1,155,52,28,5,25,48,2,2,2,0,228,9,30,2,2,4
tatajo01,Jordan Tata,4,4,30,8,0,0,2,208,72,37,7,29,34,2,2,3,0,302,7,40,2,3,7
taubety01,Ty Taubenheim,3,4,28,9,0,0,2,202,70,35,8,29,47,2,3,4,0,296,6,38,2,3,5
tavarju01,Julian Tavarez,6,8,54,15,0,0,2,371,135,65,13,47,72,4,4,7,0,543,10,71,4,4,17
tejedro01,Rob Tejeda,7,8,37,18,0,0,1,351,124,66,15,62,80,3,6,6,1,525,6,72,4,5,10
thatcjo01,Joe Thatcher,2,2,19,4,0,0,1,108,33,16,4,12,29,1,1,1,0,154,4,18,1,1,3
thompbr01,Brad Thompson,6,5,50,11,0,0,1,332,123,54,15,35,50,3,3,8,0,485,13,59,4,2,14
thompmi03,Mike Thompson,2,2,16,5,0,0,1,127,46,22,5,15,15,2,1,3,0,186,4,25,2,2,5
thompri03,Rich Thompson,2,2,14,3,0,0,1,88,32,15,4,11,36,1,1,1,0,127,3,16,1,1,3
thomsjo01,John Thomson,4,5,25,10,0,0,1,216,80,36,8,24,40,2,2,2,0,315,5,41,3,4,7
thornma01,Matt Thornton,4,3,44,4,0,0,2,174,57,28,6,28,55,3,3,2,0,253,11,30,1,2,6
threeer01,Erick Threets,1,1,12,3,0,0,1,79,28,14,3,11,8,1,1,1,0,116,3,15,1,1,2
timlimi01,Mike Timlin,3,3,40,3,0,0,3,170,59,26,6,16,33,2,2,2,0,242,12,27,3,2,5
tomkobr01,Brett Tomko,4,4,24,9,0,0,1,206,73,35,9,20,47,2,2,2,0,297,4,37,3,2,5
torresa01,Salomon Torres,3,4,43,3,0,0,5,178,60,29,6,22,45,3,2,3,0,257,14,31,2,2,7
towerjo01,Josh Towers,5,8,32,15,0,0,1,315,127,61,16,22,65,3,2,5,0,459,6,65,3,4,9
trabebi01,Billy Traber,3,3,25,6,0,0,1,155,59,27,6,17,32,2,1,3,0,229,5,29,2,3,5
trachst01,Steve Trachsel,6,5,26,12,0,0,1,249,92,45,11,35,42,2,3,3,0,364,4,47,3,4,6
tsaoch01,Chin-hui Tsao,2,2,19,4,0,0,1,113,36,19,5,14,24,1,1,2,0,162,5,20,1,1,3
turnbde01,Derrick Turnbow,4,5,49,4,0,0,8,193,53,34,6,35,76,1,5,3,0,281,20,36,2,2,6
urdanli01,Lino Urdaneta,1,1,12,3,0,0,1,76,27,13,3,9,0,1,1,1,0,111,3,14,1,1,2
valvejo01,Jose Valverde,3,4,42,4,0,0,16,186,54,28,7,24,78,2,2,3,0,265,26,29,2,2,4
vanbejo01,John Van Benschoten,3,6,30,10,0,0,2,221,85,47,8,38,43,2,2,4,0,333,7,49,3,3,6
vanderi01,Rick van den Hurk,5,6,37,15,0,0,2,307,112,61,14,52,99,4,4,4,2,456,7,64,5,4,8
vargacl01,Claudio Vargas,10,7,38,21,0,0,2,409,149,72,21,49,104,3,5,5,0,603,5,78,6,4,9
vargaja01,Jason Vargas,4,4,27,9,0,0,1,213,77,42,10,31,44,3,3,3,0,318,6,44,3,3,6
vasquvi01,Virgil Vasquez,3,3,23,7,0,0,1,166,65,30,8,19,21,1,2,2,0,243,5,32,2,2,5
vazquja01,Javier Vazquez,11,10,42,27,1,0,1,561,183,88,24,47,178,3,6,8,0,786,5,94,5,5,14
verasjo01,Jose Veras,2,2,16,3,0,0,1,93,29,16,3,14,21,1,1,1,0,134,4,17,1,1,3
verlaju01,Justin Verlander,15,8,45,27,1,1,1,551,177,80,20,62,151,3,10,11,1,786,6,85,4,3,14
vermija01,Jamie Vermilyea,2,2,12,3,0,0,1,86,29,14,3,9,11,1,1,1,0,123,3,15,1,1,3
villaca01,Carlos Villanueva,6,5,41,8,0,0,2,280,84,43,12,37,79,3,3,4,0,398,8,45,3,2,9
villaos01,Oscar Villarreal,4,3,40,5,0,0,1,220,73,34,8,27,50,4,4,3,0,318,9,38,3,4,6
villoro01,Ron Villone,2,2,33,3,0,0,1,158,49,27,6,25,42,3,3,3,0,230,10,29,2,2,5
vizcalu01,Luis Vizcaino,5,4,50,4,0,0,1,204,62,32,7,32,58,5,2,3,0,296,11,34,2,3,5
volqued01,Edinson Volquez,4,6,31,12,0,0,2,247,96,44,11,36,56,2,2,4,0,365,6,49,2,3,8
wagnebi02,Billy Wagner,3,3,46,4,0,0,18,194,54,25,7,21,80,2,3,3,0,272,31,27,2,2,5
wagnery01,Ryan Wagner,2,2,20,3,0,0,1,110,41,19,4,15,24,2,2,2,0,161,4,21,1,1,3
wainwad01,Adam Wainwright,10,9,59,21,1,0,3,512,172,74,14,58,123,4,6,8,0,737,9,81,7,4,15
wakefti01,Tim Wakefield,11,10,39,24,1,0,1,486,160,83,20,55,101,2,7,7,0,693,5,88,3,5,12
walkeja01,Jamie Walker,3,3,48,4,0,0,3,177,58,26,7,17,41,3,2,2,0,252,11,28,1,2,5
walkety01,Tyler Walker,2,2,20,3,0,0,3,102,34,16,3,13,27,1,1,1,0,145,7,17,1,1,4
wangch01,Chien-Ming Wang,15,7,42,26,1,0,2,548,189,79,12,52,83,3,7,6,1,764,5,83,3,4,25
wasdijo01,John Wasdin,2,2,16,4,0,0,1,111,42,19,4,13,20,2,1,2,0,163,4,20,1,1,3
washbja01,Jarrod Washburn,9,12,41,26,1,0,1,519,181,84,21,56,98,4,3,7,0,746,5,89,6,6,16
wasseeh01,Ehren Wassermann,2,2,21,4,0,0,1,110,36,17,4,13,24,2,1,2,0,158,5,19,1,1,4
weathda01,David Weathers,4,4,47,4,0,0,12,207,62,31,7,26,47,3,2,3,0,296,26,33,3,3,5
weaveje01,Jeff Weaver,8,9,37,22,1,1,1,421,163,81,21,35,83,3,3,8,0,614,5,84,5,5,12
weaveje02,Jered Weaver,11,7,41,23,0,0,2,467,155,66,17,45,119,3,4,4,0,661,6,71,5,4,11
webbbr01,Brandon Webb,14,9,42,27,3,2,1,605,189,77,15,56,161,5,5,5,1,837,5,86,8,6,21
welleto01,Todd Wellemeyer,4,4,35,9,0,0,2,245,73,36,9,41,64,2,4,3,0,352,7,42,3,4,10
wellsda01,David Wells,5,4,25,11,0,0,1,235,90,39,9,15,43,2,2,3,0,335,4,41,2,2,8
wellski01,Kip Wells,7,11,39,20,0,0,1,399,146,76,15,64,96,6,6,7,1,599,7,84,6,5,11
westbja01,Jake Westbrook,9,9,37,23,1,0,1,469,171,75,14,48,89,4,4,5,0,669,5,82,5,4,20
wheelda01,Dan Wheeler,2,3,30,3,0,0,2,133,41,20,5,15,44,2,1,2,0,190,8,22,2,2,3
whitebi04,Bill White,2,2,14,3,0,0,1,89,29,15,3,13,28,1,1,2,0,129,3,16,1,1,3
whiteri01,Rick White,2,2,18,2,0,0,1,91,34,15,3,12,17,1,1,1,0,133,5,17,2,1,3
whitese02,Sean White,2,2,19,4,0,0,1,130,43,22,4,19,18,1,2,3,0,190,5,24,1,2,4
wickmbo01,Bob Wickman,1,2,18,3,0,0,5,90,29,13,3,9,22,1,1,1,0,129,8,14,1,1,3
willida07,David Williams,3,3,17,6,0,0,1,143,53,26,6,19,28,2,2,2,0,209,4,28,2,1,5
willido03,Dontrelle Willis,11,11,43,28,2,1,1,565,201,93,20,67,134,4,6,12,1,828,5,100,11,6,20
willije02,Jerome Williams,4,6,28,10,0,0,1,231,79,43,10,36,39,2,3,3,1,340,6,45,3,4,8
willisc01,Scott Williamson,2,2,18,3,0,0,1,99,34,17,4,14,38,1,2,1,0,143,4,18,1,1,3
willito02,Todd Williams,2,2,24,3,0,0,1,111,42,19,4,13,18,1,2,2,0,161,5,21,1,1,5
williwo02,Woody Williams,9,10,40,24,0,0,1,480,176,83,25,46,88,4,3,8,1,699,5,89,7,5,11
wilsobr01,Brian Wilson,2,3,24,3,0,0,2,122,38,19,4,17,31,1,1,2,0,175,7,21,1,2,3
wilsocj01,C. J. Wilson,3,3,42,4,0,0,4,192,58,29,7,27,57,2,3,4,0,275,12,32,2,2,8
wisema01,Matt Wise,4,3,37,4,0,0,1,167,55,26,6,19,44,2,1,2,1,240,8,29,2,2,6
witasja01,Jay Witasick,2,2,20,3,0,0,1,104,35,19,4,21,27,1,2,1,0,155,5,20,1,1,3
wolfebr01,Brian Wolfe,3,2,26,4,0,0,1,144,45,22,5,14,26,2,1,2,0,202,7,24,1,2,5
wolfra02,Randy Wolf,8,6,35,17,0,0,1,348,124,60,15,46,98,3,4,6,0,511,6,63,5,5,9
wolfro01,Ross Wolf,2,2,16,3,0,0,1,95,38,18,4,10,13,1,1,1,0,140,4,19,1,1,3
woodke02,Kerry Wood,2,2,18,4,0,0,1,117,35,18,5,16,40,1,1,1,0,167,4,20,1,1,3
woodmi01,Mike Wood,3,3,27,7,0,0,1,192,76,34,9,24,30,2,3,4,0,286,5,39,2,2,6
woodsja01,Jake Woods,2,2,18,4,0,0,1,124,43,20,5,18,25,1,1,2,0,182,5,22,1,1,4
wrighch01,Chase Wright,4,3,24,6,0,0,1,164,57,28,8,22,39,2,2,3,0,239,5,30,2,2,5
wrighja01,Jamey Wright,5,6,29,12,0,0,1,280,98,47,10,42,49,3,3,6,0,407,5,53,3,3,13
wrighja02,Jaret Wright,5,5,26,12,0,0,1,235,87,40,8,34,45,1,3,4,0,346,4,45,2,2,8
wuertmi01,Michael Wuertz,3,3,46,4,0,0,1,195,59,29,7,30,72,3,3,2,0,281,10,31,3,2,5
yatesty01,Tyler Yates,3,4,46,4,0,0,2,188,59,32,7,29,62,5,2,2,0,274,9,35,3,1,5
youmash01,Shane Youman,4,5,28,9,0,0,1,220,75,39,7,29,33,2,2,3,0,320,6,41,6,3,7
youngch03,Chris Young,10,7,41,26,0,0,1,493,130,67,17,61,154,3,6,6,2,687,5,73,5,5,10
zagurmi01,Mike Zagurski,2,2,20,4,0,0,1,110,39,19,4,15,33,1,2,2,0,160,4,20,1,1,3
zambrca01,Carlos Zambrano,14,9,43,28,1,0,1,576,159,83,20,88,171,4,5,9,0,818,5,89,7,4,17
zambrvi01,Victor Zambrano,2,3,17,6,0,0,1,140,48,26,5,22,32,1,2,3,0,207,3,27,2,2,4
zaratma01,Mauro Zarate,2,2,13,3,0,0,1,84,32,15,4,10,12,1,1,1,0,124,3,16,1,1,2
zitoba01,Barry Zito,11,10,41,27,0,0,1,537,166,85,21,75,124,4,4,7,1,768,5,90,8,5,18
zumayjo01,Joel Zumaya,3,3,30,4,0,0,1,155,41,22,5,24,54,2,2,2,0,221,7,23,2,2,3
