playerID,playerName,W,L,G,GS,CG,SHO,SV,IPouts,H,ER,HR,BB,SO,IBB,WP,HBP,BK,BFP,GF,R,SH,SF,GIDP
aardsda01,David Aardsma,3,4,40,4,0,0,13,170,45,23,5,28,60,3,2,2,0,241,21,25,3,1,4
abadfe01,Fernando Abad,2,2,18,3,0,0,1,105,32,15,4,12,24,1,1,1,0,149,5,16,1,1,3
accarje01,Jeremy Accardo,1,2,16,3,0,0,1,92,32,14,3,13,17,1,1,1,0,133,4,15,1,1,3
aceveal01,Alfredo Aceves,3,2,18,3,0,0,1,118,35,17,4,11,27,1,1,2,0,166,4,18,1,1,3
acostma01,Manny Acosta,3,3,31,3,0,0,1,145,46,21,5,22,43,2,3,1,0,207,10,22,2,1,5
adamsmi03,Mike Adams,3,2,42,4,0,0,1,184,46,21,5,20,72,2,1,1,0,253,6,23,2,1,4
affelje01,Jeremy Affeldt,3,3,40,3,0,0,2,167,52,23,5,23,51,2,3,2,0,239,9,25,3,1,7
albaljo01,Jonathan Albaladejo,2,2,18,3,0,0,1,102,35,16,4,15,23,1,1,2,0,148,5,17,1,1,3
alberma01,Matt Albers,4,4,43,4,0,0,1,210,73,34,6,31,45,3,2,2,0,304,11,37,3,2,8
ambrihe01,Hector Ambriz,2,3,25,4,0,0,1,149,59,25,7,17,36,1,2,2,0,218,9,26,2,2,5
anderbr04,Brett Anderson,8,8,37,21,0,0,1,416,140,56,13,34,106,2,4,5,1,585,6,65,4,3,15
arrieja01,Jake Arrieta,7,6,37,16,0,0,2,338,115,54,11,50,57,3,5,4,0,492,7,59,4,3,10
arroybr01,Bronson Arroyo,13,10,42,27,2,0,1,561,178,82,25,57,115,4,3,6,1,784,5,89,7,5,18
atchisc01,Scott Atchison,3,3,28,5,0,0,1,164,54,26,7,18,38,2,3,2,0,234,6,29,2,2,5
atilalu01,Luis Atilano,6,7,35,15,0,0,2,314,111,52,12,38,47,4,3,3,1,457,7,58,6,3,7
atkinmi01,Mitch Atkins,2,2,14,3,0,0,1,92,31,14,3,12,25,1,1,1,0,133,4,16,1,1,3
axforjo01,John Axford,4,3,31,4,0,0,8,165,46,22,4,24,74,2,3,2,0,233,17,24,2,2,4
badenbu01,Burke Badenhop,4,4,34,5,0,0,1,199,65,30,6,23,49,3,2,2,0,283,9,33,3,2,7
baezda01,Danys Baez,3,4,35,4,0,0,1,165,54,27,6,21,31,2,2,3,0,237,9,29,2,2,6
bailean01,Andrew Bailey,3,3,37,4,0,0,11,176,44,20,5,18,61,2,2,1,0,240,22,21,2,2,4
baileho02,Homer Bailey,7,6,36,19,1,0,1,387,133,62,14,51,106,4,5,4,1,557,6,67,4,3,9
bakersc02,Scott Baker,11,8,40,25,0,0,1,494,166,78,21,43,139,2,6,5,0,694,5,80,2,4,11
balesco01,Collin Balester,2,3,16,5,0,0,1,118,39,19,5,16,33,1,2,2,0,170,4,21,1,1,3
balfogr01,Grant Balfour,3,3,41,4,0,0,2,176,48,24,5,23,66,1,2,1,0,245,8,25,2,2,4
banksjo01,Josh Banks,3,4,24,8,0,0,1,193,71,33,8,23,28,2,2,2,0,279,5,35,3,2,5
bannibr01,Brian Bannister,7,11,36,21,0,0,1,412,154,78,18,48,84,2,8,4,1,604,5,85,3,5,10
bardda01,Daniel Bard,3,3,46,4,0,0,2,205,53,26,7,28,77,2,2,2,0,287,10,28,3,3,5
bassbr01,Brian Bass,2,2,17,3,0,0,1,112,40,19,4,18,22,2,2,2,0,165,4,21,1,1,3
bastaan01,Antonio Bastardo,2,2,19,4,0,0,1,112,37,18,4,15,40,1,1,2,0,162,4,19,1,1,3
batismi01,Miguel Batista,3,4,40,5,0,0,2,215,71,32,8,37,47,3,3,3,0,314,11,37,2,2,7
bautide01,Denny Bautista,3,2,25,3,0,0,1,129,39,20,5,24,47,2,3,2,0,188,6,21,2,2,3
beachbr01,Brandon Beachy,4,4,28,8,0,0,2,207,69,30,7,27,67,3,3,2,0,297,7,35,2,2,5
beckejo02,Josh Beckett,9,7,34,21,1,0,1,433,148,72,18,41,135,2,4,6,0,619,5,77,4,3,10
beimejo01,Joe Beimel,2,2,39,4,0,0,1,145,50,21,5,17,27,2,2,1,0,206,8,22,2,2,4
belisma01,Matt Belisle,5,4,43,5,0,0,1,221,75,31,8,16,68,3,3,2,0,309,8,35,3,2,7
belisro01,Ronald Belisario,3,3,41,4,0,0,1,179,53,26,6,22,47,3,3,3,0,254,9,28,2,1,6
bellhe01,Heath Bell,5,3,46,4,0,0,18,198,56,24,4,25,76,2,2,2,0,276,27,26,2,1,5
belltr01,Trevor Bell,3,5,29,8,0,0,1,207,84,35,6,25,48,2,4,2,0,304,8,39,3,2,6
beltrom01,Omar Beltre,3,4,27,8,0,0,2,190,63,30,8,28,65,2,2,3,0,275,6,33,3,2,5
benoijo01,Joaquin Benoit,3,3,35,4,0,0,1,163,41,20,6,20,69,1,2,1,0,224,8,22,1,2,4
bensokr01,Kris Benson,4,4,27,8,0,0,2,203,75,34,8,27,32,2,3,3,0,297,6,37,2,2,5
bergebr02,Brad Bergesen,8,9,41,23,1,0,2,473,170,76,19,47,77,4,3,6,1,680,6,83,5,5,14
bergju01,Justin Berg,2,2,27,4,0,0,1,140,47,22,4,18,17,1,2,2,0,203,8,24,2,2,4
bergmja01,Jason Bergmann,1,2,16,3,0,0,1,93,32,15,4,12,22,1,1,1,0,134,3,17,2,1,3
berkeja01,Jason Berken,4,5,28,8,0,0,1,206,80,34,8,23,42,2,2,2,0,300,6,37,3,2,7
betanra01,Rafael Betancourt,4,3,42,4,0,0,2,172,52,24,7,15,74,2,3,1,0,240,10,26,2,2,3
billich01,Chad Billingsley,11,10,42,26,1,1,1,533,163,75,13,69,164,6,7,8,0,755,5,80,7,8,15
bisenjo01,Joe Bisenius,1,1,12,3,0,0,1,82,27,13,3,12,23,1,1,1,0,118,3,14,1,1,2
blackni01,Nick Blackburn,9,10,38,24,1,0,1,476,184,80,20,37,72,2,3,4,1,680,5,86,4,4,17
blantjo01,Joe Blanton,9,7,40,24,0,0,1,495,177,80,23,49,129,4,4,5,0,712,5,86,6,5,12
blevije01,Jerry Blevins,2,2,36,4,0,0,1,156,52,23,6,18,49,1,1,2,0,224,7,24,2,1,3
boggsmi01,Mitchell Boggs,3,3,34,6,0,0,1,196,66,29,6,29,47,1,3,3,0,283,10,32,3,2,7
bondeje01,Jeremy Bonderman,7,8,42,21,0,0,2,436,156,80,20,56,92,2,6,7,0,636,7,86,4,4,14
bonined01,Eddie Bonine,3,3,30,6,0,0,1,189,72,30,7,20,26,2,2,2,0,273,8,33,1,2,7
bonsebo01,Boof Bonser,2,2,16,4,0,0,1,109,40,18,4,11,28,1,2,1,0,157,4,20,2,1,3
bowdemi01,Michael Bowden,2,2,17,4,0,0,1,105,40,17,4,12,27,1,2,1,0,151,5,19,1,1,3
bowerce01,Cedrick Bowers,2,2,15,3,0,0,1,95,31,15,4,13,36,1,1,1,0,136,5,16,1,1,3
boyerbl01,Blaine Boyer,3,3,37,4,0,0,1,171,58,26,5,23,35,1,2,2,0,246,10,30,2,2,6
braddza01,Zach Braddock,2,2,26,4,0,0,1,129,39,18,4,19,51,1,2,2,0,186,5,20,1,2,3
bradeda01,Dallas Braden,10,11,43,24,2,1,1,513,169,72,15,47,102,2,3,5,1,716,7,79,5,4,15
braybi01,Bill Bray,2,2,25,3,0,0,1,118,36,18,4,16,43,1,2,1,0,169,5,19,1,1,3
breslcr01,Craig Breslow,4,4,48,4,0,0,2,202,52,26,7,25,62,2,2,2,1,280,11,28,2,1,5
broxtjo01,Jonathan Broxton,4,4,46,4,0,0,13,194,55,27,5,26,85,3,2,2,0,273,26,29,2,2,5
brunebr01,Brian Bruney,3,2,23,3,0,0,1,113,35,18,4,21,33,1,2,1,0,165,5,19,2,1,3
buchhcl01,Clay Buchholz,12,8,41,23,1,0,1,474,145,59,14,64,116,2,5,5,1,669,6,69,4,5,17
buchhta01,Taylor Buchholz,2,2,13,3,0,0,1,78,22,11,3,8,22,1,1,1,0,109,4,12,1,1,2
bucknbi02,Billy Buckner,4,5,28,10,0,0,1,224,89,42,10,27,59,2,4,3,0,328,6,45,2,2,8
buehrma01,Mark Buehrle,11,10,41,27,1,0,1,554,204,84,19,44,95,3,4,4,2,780,5,89,6,6,20
buentja01,Jay Buente,2,2,14,3,0,0,1,92,32,14,3,15,20,1,1,1,0,134,3,16,1,1,2
bulgeja01,Jason Bulger,2,2,27,3,0,0,1,129,38,20,5,20,46,1,2,2,0,184,7,21,2,1,4
bullibr01,Bryan Bullington,3,4,24,7,0,0,1,180,64,30,7,23,40,2,2,3,0,262,6,32,2,2,5
bumgama01,Madison Bumgarner,7,7,38,16,0,0,2,364,126,48,13,33,96,3,3,5,1,517,7,52,3,4,11
burneaj01,A. J. Burnett,10,10,40,26,1,0,1,514,171,86,20,71,151,2,12,11,1,747,5,92,5,6,16
burneal01,Alex Burnett,3,3,27,4,0,0,1,151,52,24,6,21,38,2,2,2,1,217,7,26,2,1,5
burnese01,Sean Burnett,2,4,43,4,0,0,2,177,51,23,5,24,54,3,2,2,0,251,8,25,3,1,5
burrebr01,Brian Burres,5,6,30,12,0,0,1,263,98,46,10,35,45,3,3,4,0,390,5,51,3,3,6
burtoja01,Jared Burton,2,1,19,3,0,0,1,98,31,15,3,12,26,1,1,1,0,140,5,15,1,1,3
bushda01,Dave Bush,8,10,40,24,0,0,1,468,167,81,23,52,100,4,3,8,1,681,5,91,7,6,13
byrdati01,Tim Byrdak,2,2,40,3,0,0,1,147,42,21,6,24,41,1,2,2,0,211,7,22,1,2,4
cabrefe01,Fernando Cabrera,1,1,12,3,0,0,1,78,27,13,3,12,25,1,1,1,0,113,3,14,1,1,2
cahiltr01,Trevor Cahill,13,10,45,27,1,0,2,548,165,75,21,65,105,2,4,5,1,760,6,83,4,6,20
cainma01,Matt Cain,11,10,43,28,3,1,1,587,169,73,19,65,159,5,7,5,0,808,5,78,7,6,12
campsh01,Shawn Camp,3,4,44,4,0,0,2,203,66,28,7,21,47,3,2,3,0,285,11,30,1,2,7
cappsma01,Matt Capps,3,3,28,3,0,0,9,133,47,20,5,12,35,1,1,2,0,189,17,21,2,1,5
capuach01,Chris Capuano,4,4,29,8,0,0,1,211,69,31,8,24,58,2,4,2,0,299,7,33,3,2,7
carides01,Esmailin Caridad,2,2,14,3,0,0,1,87,27,13,3,11,26,1,1,1,0,125,4,15,1,1,3
carlsje01,Jesse Carlson,2,2,27,3,0,0,1,115,36,18,4,13,30,2,1,2,0,163,5,19,1,1,3
carmofa01,Roberto Hernandez,10,12,43,27,2,1,1,530,181,86,17,75,102,1,5,8,1,767,5,96,4,6,21
carpean01,Drew Carpenter,2,2,12,3,0,0,1,83,30,13,3,10,18,1,1,1,0,119,3,14,1,1,2
carpech01,Chris Carpenter,13,8,44,27,1,0,1,578,172,69,15,50,147,3,3,9,0,791,6,76,8,5,20
carraca01,Carlos Carrasco,4,5,31,11,1,0,2,261,99,42,11,31,66,2,3,3,1,376,6,45,3,3,7
carradj01,D. J. Carrasco,2,2,23,3,0,0,1,135,45,19,4,17,33,2,2,2,0,193,5,22,1,2,5
cashnan01,Andrew Cashner,3,4,31,4,0,0,1,160,52,25,6,25,47,2,3,2,0,233,7,27,3,2,5
cassebo01,Bobby Cassevah,2,2,17,4,0,0,1,107,36,16,3,13,13,1,1,1,0,154,5,18,1,1,3
castial02,Alberto Castillo,2,1,18,3,0,0,1,93,33,15,4,12,26,1,1,1,0,133,5,16,1,1,3
cecilbr01,Brett Cecil,12,7,43,23,0,0,2,478,170,77,19,54,111,3,5,4,1,683,7,83,3,5,18
cedajo01,Jose Ceda,2,2,14,3,0,0,1,91,29,14,3,15,26,1,1,1,0,131,3,15,1,1,3
chacigu01,Gustavo Chacin,2,2,26,4,0,0,1,132,49,20,4,19,32,2,2,1,0,193,7,22,2,1,3
chacijh01,Jhoulys Chacin,7,9,42,17,0,0,2,376,107,52,11,56,127,4,5,6,0,535,8,60,5,4,11
chambjo03,Joba Chamberlain,4,4,38,9,0,0,2,234,78,37,8,31,77,2,3,3,1,338,8,40,2,2,6
chapmar01,Aroldis Chapman,2,2,16,3,0,0,1,98,30,14,3,12,52,1,2,1,0,139,4,16,1,1,3
chaveje01,Jesse Chavez,2,3,29,3,0,0,1,135,47,22,6,17,31,2,2,1,0,194,9,24,2,1,3
chenbr01,Bruce Chen,8,7,40,17,1,0,2,372,125,59,15,49,86,4,4,4,0,536,8,63,5,5,9
chicoma01,Matt Chico,3,4,25,8,0,0,1,189,68,29,7,21,38,2,3,2,0,271,6,32,2,2,5
choatra01,Randy Choate,3,3,44,4,0,0,2,150,46,22,5,18,44,3,2,2,0,210,7,24,2,1,6
cishest01,Steve Cishek,2,2,12,3,0,0,1,83,26,12,3,10,24,1,1,1,0,118,3,13,1,1,2
clippty01,Tyler Clippard,6,5,47,5,0,0,1,234,61,31,8,36,94,3,2,2,1,328,11,33,3,3,6
coellro01,Robert Coello,2,2,13,3,0,0,1,85,27,13,3,12,23,1,1,1,0,121,3,14,1,1,2
coffeto01,Todd Coffey,3,4,45,4,0,0,1,192,63,28,7,21,55,3,3,2,0,273,10,31,2,3,6
cokeph01,Phil Coke,5,4,48,4,0,0,2,191,59,28,6,23,54,3,3,2,0,270,11,31,2,3,7
colemca01,Casey Coleman,5,4,29,10,0,0,2,237,77,36,7,32,37,2,3,3,0,340,6,38,3,3,8
colomje01,Jesus Colome,2,2,17,3,0,0,1,101,32,16,3,16,26,1,2,1,0,145,5,17,1,1,3
colonro01,Roman Colon,2,2,16,3,0,0,1,92,31,15,3,12,17,1,1,1,0,133,4,16,1,1,3
contrjo01,Jose Contreras,4,3,30,5,0,0,2,160,54,22,5,17,44,1,2,2,0,227,8,24,3,1,5
cookaa01,Aaron Cook,8,7,35,21,1,0,1,415,154,68,13,44,66,3,4,4,0,598,5,72,4,5,16
cordech01,Chad Cordero,2,2,14,3,0,0,1,90,30,14,3,12,21,1,1,1,0,128,4,15,1,1,3
cordefr01,Francisco Cordero,4,4,49,4,0,0,19,200,61,27,5,31,59,2,2,2,0,285,33,29,2,2,6
cormila01,Lance Cormier,3,3,39,4,0,0,1,190,65,27,6,27,32,2,3,1,1,275,10,29,2,2,6
corpama01,Manny Corpas,3,4,39,4,0,0,4,179,65,29,6,19,42,2,2,2,0,257,14,31,2,2,6
correke01,Kevin Correia,9,9,39,23,0,0,1,447,154,75,17,58,109,5,4,5,0,645,5,81,6,4,12
corteda02,Dan Cortes,2,2,13,3,0,0,1,85,27,13,3,11,32,1,1,1,0,122,3,14,1,1,2
crainje01,Jesse Crain,4,3,46,4,0,0,1,192,57,27,6,26,56,3,2,2,0,272,11,30,2,2,6
cramebo01,Bobby Cramer,4,4,28,9,0,0,2,214,68,31,9,23,42,2,2,2,0,301,6,33,3,2,6
cruzju02,Juan Cruz,2,2,19,3,0,0,1,97,30,15,3,16,33,1,2,1,0,139,5,16,1,1,2
cuetojo01,Johnny Cueto,11,9,43,27,1,0,1,522,173,77,21,59,136,3,5,10,1,744,5,84,7,4,13
daiglca01,Casey Daigle,2,2,15,3,0,0,1,90,36,15,4,12,13,1,2,1,0,133,4,16,1,1,2
daleyma01,Matt Daley,2,2,27,3,0,0,1,125,40,19,4,16,39,1,1,2,0,180,6,20,2,2,3
danksjo01,John Danks,12,10,43,28,1,0,1,570,174,80,19,63,147,2,4,5,1,794,5,85,5,3,20
davieky01,Kyle Davies,9,10,42,26,1,0,1,495,175,89,19,72,111,2,7,4,1,722,5,94,4,5,17
davisdo02,Doug Davis,5,6,27,15,0,0,1,292,103,49,11,45,73,2,5,3,0,430,4,53,5,3,9
daviswa01,Wade Davis,10,9,42,22,1,0,2,451,146,67,18,55,107,3,5,5,0,643,7,72,4,5,10
dedunsa01,Sam Deduno,1,1,12,3,0,0,1,79,26,12,3,10,28,1,1,1,0,114,3,13,1,1,2
delanro01,Rob Delaney,1,1,11,3,0,0,1,77,26,12,3,10,0,1,1,1,0,111,3,13,1,1,2
delarjo01,Jorge De La Rosa,10,8,36,21,0,0,1,417,128,65,15,62,137,4,9,6,1,595,5,71,6,4,14
delcama01,Manny Delcarmen,2,2,22,3,0,0,1,105,34,16,3,15,28,1,1,1,0,153,4,18,1,1,3
delroen01,Enerio Del Rosario,1,1,12,3,0,0,1,78,27,12,3,9,12,1,1,1,0,112,3,13,1,1,2
demelsa01,Sam Demel,2,2,24,4,0,0,1,133,46,21,5,15,38,1,3,2,0,191,6,24,1,1,4
dempsry01,Ryan Dempster,12,9,42,27,1,0,1,555,173,78,19,69,171,4,7,7,0,784,5,88,7,4,16
desseel01,Elmer Dessens,3,2,32,4,0,0,1,150,46,20,5,18,19,3,1,2,0,212,6,22,2,2,5
detwiro01,Ross Detwiler,3,5,25,10,0,0,1,213,76,34,7,29,39,2,3,2,0,310,5,38,3,2,7
diamoth01,Thomas Diamond,2,3,21,5,0,0,1,139,47,23,5,21,53,2,2,2,0,202,5,25,2,2,4
dickera01,R. A. Dickey,8,8,46,18,1,0,1,446,150,59,14,49,88,3,9,5,0,631,10,66,5,4,12
donnebr01,Brendan Donnelly,3,2,27,3,0,0,1,124,39,19,5,22,34,1,2,1,0,180,8,21,2,2,4
doteloc01,Octavio Dotel,2,2,21,2,0,0,1,99,29,14,4,15,41,1,2,1,0,142,4,16,1,1,2
doubrfe01,Felix Doubront,3,3,21,5,0,0,2,143,48,22,5,18,42,1,2,2,0,206,6,24,2,1,4
downssc01,Scott Downs,3,4,42,4,0,0,3,178,52,23,5,18,50,2,2,3,0,248,11,24,2,1,6
drabeky01,Kyle Drabek,4,5,28,8,0,0,2,212,71,32,8,24,52,2,3,2,0,300,7,35,3,3,8
duchsju01,Justin Duchscherer,4,4,25,10,0,0,1,219,65,30,7,23,50,2,3,3,0,305,5,32,2,2,8
duensbr01,Brian Duensing,7,4,43,12,1,0,1,324,104,41,10,34,66,3,2,3,0,454,9,45,4,2,11
dukeza01,Zach Duke,8,12,39,25,1,0,1,485,192,84,20,45,86,2,4,4,2,708,5,93,10,6,16
dunnmi01,Mike Dunn,2,2,19,3,0,0,1,107,32,15,4,19,46,1,2,1,0,154,5,16,1,1,3
durbich01,Chad Durbin,3,3,43,4,0,0,1,196,59,29,7,29,56,2,2,4,0,281,9,31,2,2,6
ekstrmi01,Mike Ekstrom,2,2,18,3,0,0,1,106,34,16,4,15,26,1,2,2,0,151,6,18,1,1,3
elbersc01,Scott Elbert,2,1,14,3,0,0,1,83,28,13,3,12,28,1,1,1,0,120,3,14,1,1,2
elyjo01,John Ely,6,8,37,16,0,0,2,338,116,58,13,44,85,3,4,3,0,483,7,62,4,4,12
englije01,Jesse English,2,2,13,3,0,0,1,87,30,13,3,10,15,1,1,1,0,124,3,14,1,1,2
enrigba01,Barry Enright,7,7,36,15,0,0,2,336,111,50,17,36,57,2,3,3,0,474,7,52,6,2,12
escaled01,Edgmer Escalona,2,2,13,3,0,0,1,86,27,13,3,11,9,1,1,1,0,123,3,14,1,1,2
estrama01,Marco Estrada,2,2,17,4,0,0,1,110,37,19,5,14,35,1,2,2,0,160,4,20,2,1,3
evelada01,Dana Eveland,2,3,16,6,0,0,1,139,53,24,4,21,27,1,2,2,0,205,3,26,1,2,5
farnsky01,Kyle Farnsworth,2,3,23,3,0,0,1,114,39,18,4,14,44,1,2,1,0,164,7,20,2,1,3
feldmsc01,Scott Feldman,9,8,38,21,0,0,1,426,154,72,16,48,77,2,7,6,1,615,5,80,3,5,14
felicpe01,Pedro Feliciano,4,4,56,4,0,0,1,183,60,25,5,25,56,4,2,3,0,263,10,28,2,1,7
felizne01,Neftali Feliz,4,3,41,4,0,0,13,195,47,25,6,20,74,1,3,3,0,268,21,26,2,1,5
fienca01,Casey Fien,1,2,13,3,0,0,1,83,28,13,3,10,15,1,1,1,0,119,4,14,1,1,2
figaral01,Alfredo Figaro,2,3,17,4,0,0,1,117,42,19,4,17,21,1,2,1,0,169,5,21,2,1,3
figuene01,Nelson Figueroa,5,5,29,11,0,0,1,249,84,36,9,32,69,3,3,4,0,360,5,39,3,3,6
fisheca01,Carlos Fisher,2,2,22,3,0,0,1,125,40,20,4,20,38,2,2,1,0,180,7,21,1,1,4
fistedo01,Doug Fister,7,11,42,22,0,0,2,460,164,70,15,35,85,3,6,5,2,650,7,75,3,4,14
florera01,Randy Flores,1,1,18,3,0,0,1,82,31,13,3,12,19,1,1,1,0,120,3,14,1,1,2
floydga01,Gavin Floyd,10,10,41,26,1,0,1,522,172,78,18,56,139,4,8,5,1,737,5,86,4,4,19
foxma01,Matt Fox,1,1,12,3,0,0,1,78,26,12,3,10,0,1,1,1,0,111,3,13,1,1,2
francfr01,Frank Francisco,4,4,38,4,0,0,5,167,50,24,6,20,67,2,2,2,0,236,16,26,2,1,4
francje01,Jeff Francis,5,6,33,16,0,0,1,330,122,55,13,32,71,3,2,3,0,472,6,59,5,4,10
frankry01,Ryan Franklin,4,3,42,4,0,0,14,186,57,25,6,19,42,2,3,2,0,261,26,26,1,2,5
frasoja01,Jason Frasor,4,3,45,4,0,0,4,185,55,26,5,26,61,3,3,3,0,263,15,28,2,1,5
frenclu01,Luke French,6,7,33,14,0,0,2,309,110,52,14,37,47,2,4,4,0,443,7,56,2,4,8
frierer01,Ernesto Frieri,2,2,23,4,0,0,1,125,33,17,4,19,56,2,2,1,0,177,7,18,1,1,3
fuentbr01,Brian Fuentes,1,2,23,3,0,0,8,104,30,15,3,13,36,1,1,2,0,147,12,15,1,1,3
fulchje01,Jeff Fulchino,3,3,35,4,0,0,1,169,56,27,6,22,51,2,2,2,0,243,10,29,2,1,4
gabinar01,Armando Gabino,1,1,13,3,0,0,1,84,31,14,4,12,9,1,1,1,0,122,3,15,1,1,2
galarar01,Armando Galarraga,7,9,38,22,1,0,1,435,144,73,20,55,87,2,4,5,1,625,5,77,2,7,12
gallase01,Sean Gallagher,3,2,22,4,0,0,1,130,44,21,4,23,31,2,1,1,1,192,5,24,2,1,3
gallayo01,Yovani Gallardo,12,9,43,26,1,1,1,526,158,75,16,75,189,5,7,4,1,753,6,81,8,4,11
garcifr02,Freddy Garcia,9,7,40,21,0,0,2,425,149,69,17,42,84,4,4,3,0,602,6,73,4,4,13
garcija01,Santiago Casilla,4,3,37,4,0,0,2,171,56,24,5,25,51,2,5,3,0,247,10,27,2,2,6
garcija02,Jaime Garcia,10,8,43,21,1,1,2,435,136,54,12,57,116,4,5,4,1,619,8,64,4,3,15
garlajo01,Jon Garland,11,9,41,24,0,0,1,486,159,67,17,61,101,6,5,5,0,689,6,77,5,5,18
garzama01,Matt Garza,11,10,42,27,2,1,2,548,168,80,22,62,144,2,7,7,1,771,5,85,3,6,15
gaudich01,Chad Gaudin,3,2,25,5,0,0,1,161,52,24,8,22,40,1,2,3,0,231,9,27,2,2,4
geedi01,Dillon Gee,4,4,30,9,0,0,2,235,70,32,8,32,42,3,2,2,0,333,7,36,4,2,7
germaju01,Justin Germano,2,3,20,4,0,0,1,133,42,19,6,13,30,1,2,3,0,189,5,22,2,1,4
gervasa01,Sammy Gervacio,2,2,16,3,0,0,1,88,27,13,3,13,32,1,1,1,0,126,3,15,1,1,3
gomezje01,Jeanmar Gomez,6,6,33,12,0,0,2,276,103,43,10,34,52,3,3,3,0,402,7,49,2,3,7
gonzaen01,Enrique Gonzalez,2,2,18,4,0,0,1,115,36,17,4,19,19,1,1,1,0,164,7,19,1,1,4
gonzagi01,Gio Gonzalez,11,9,46,26,1,0,2,520,162,76,18,83,158,3,5,4,1,750,7,83,5,4,15
gonzami02,Mike Gonzalez,2,3,30,3,0,0,3,133,36,18,4,19,55,3,2,2,0,189,10,21,2,1,4
gorzeto01,Tom Gorzelanny,7,8,39,19,0,0,2,374,126,60,14,62,103,3,3,3,0,547,7,67,4,5,12
grabojo02,John Grabow,2,2,25,3,0,0,1,120,39,19,5,18,30,1,2,1,0,173,7,20,2,1,4
grayje02,Jeff Gray,2,2,16,3,0,0,1,97,34,15,3,11,19,1,1,1,0,140,4,17,1,1,3
greense01,Sean Green,2,2,24,3,0,0,1,109,34,17,3,17,29,2,2,3,0,160,5,19,2,1,3
gregelu01,Luke Gregerson,4,5,51,4,0,0,2,218,56,30,7,23,89,3,2,2,0,300,8,32,2,2,6
greggke01,Kevin Gregg,4,5,44,4,0,0,15,182,53,27,6,28,59,2,3,2,0,261,28,29,2,2,5
greinza01,Zack Greinke,11,10,42,27,3,1,1,582,185,77,16,50,178,2,5,5,0,807,5,85,6,5,17
guerrma02,Matt Guerrier,4,4,50,4,0,0,1,202,59,27,8,23,44,2,3,3,0,282,10,30,2,2,5
guthrje01,Jeremy Guthrie,10,12,42,27,1,0,1,549,182,85,24,51,106,2,3,10,1,777,5,90,3,6,14
gutieju01,J. C. Gutierrez,3,4,40,4,0,0,6,182,58,29,7,24,53,3,2,3,0,262,16,31,2,2,5
haegech01,Charlie Haeger,3,4,27,8,0,0,1,197,65,35,8,36,56,1,3,3,0,290,6,39,2,2,5
hallaro01,Roy Halladay,15,9,41,26,6,2,1,618,196,67,19,32,181,2,4,6,1,836,5,74,5,5,19
hamelco01,Cole Hamels,10,10,42,27,1,1,1,554,175,75,22,50,175,5,3,6,0,769,5,79,6,3,14
hammeja01,Jason Hammel,9,8,46,24,0,0,2,500,185,82,17,48,125,4,8,6,1,721,8,88,8,6,14
hamptmi01,Mike Hampton,2,2,13,5,0,0,1,112,40,18,4,14,23,2,1,1,0,160,3,20,2,1,4
hanrajo01,Joel Hanrahan,3,3,43,4,0,0,3,188,54,26,6,27,82,2,4,2,0,268,14,29,1,2,4
hansoto01,Tommy Hanson,11,9,45,27,1,0,2,535,159,69,15,55,156,3,4,9,0,747,6,76,7,4,14
happja01,J. A. Happ,7,5,34,15,1,1,1,338,101,45,12,45,88,2,3,3,0,475,6,48,5,4,10
haranaa01,Aaron Harang,6,9,33,19,1,0,1,382,146,64,18,38,102,3,6,4,0,555,5,69,5,3,9
harderi01,Rich Harden,7,6,34,18,0,0,1,349,103,57,17,60,119,3,5,6,0,509,5,61,5,3,9
harenda01,Dan Haren,8,6,30,18,1,0,1,387,116,49,13,28,120,2,6,3,0,531,4,52,4,4,7
harrelu01,Lucas Harrell,3,2,21,6,0,0,1,153,56,24,5,24,28,2,2,2,0,224,6,27,2,1,4
harrima01,Matt Harrison,4,4,29,9,1,0,2,233,85,40,9,32,42,2,3,2,0,341,6,43,2,4,7
hawkila01,LaTroy Hawkins,2,3,24,3,0,0,2,114,38,17,4,12,34,1,1,2,0,162,8,18,1,1,3
hawksbl01,Blake Hawksworth,5,5,39,8,0,0,1,243,87,38,10,30,51,2,2,2,1,351,10,41,4,3,8
heilmaa01,Aaron Heilman,4,5,48,4,0,0,3,202,66,32,8,29,57,3,4,3,0,293,13,34,4,2,5
hellije01,Jeremy Hellickson,4,3,23,7,0,0,1,177,56,26,7,18,55,2,2,2,0,250,5,28,2,2,5
hendrma01,Mark Hendrickson,3,4,35,7,0,0,1,216,81,36,9,23,46,3,2,2,0,315,7,40,3,3,6
henslcl01,Clay Hensley,3,3,38,4,0,0,3,186,52,24,5,26,61,2,2,3,0,262,11,26,2,2,6
hernada01,David Hernandez,5,7,33,11,0,0,2,249,84,41,12,38,66,2,5,3,0,364,9,43,2,3,6
hernafe02,Felix Hernandez,13,9,44,29,3,1,1,641,181,67,16,68,197,3,12,7,1,881,5,80,6,6,21
hernali01,Livan Hernandez,9,10,43,24,1,0,2,501,176,74,15,53,88,4,3,4,1,714,6,81,11,7,13
herndda01,David Herndon,2,3,29,4,0,0,1,156,59,24,4,18,28,2,2,2,0,225,8,26,2,2,6
herreda01,Danny Herrera,2,3,30,3,0,0,1,130,46,19,4,15,29,1,1,1,0,186,6,21,2,2,4
herrmfr01,Frank Herrmann,2,2,26,4,0,0,1,144,49,22,5,13,26,1,2,2,0,205,6,23,2,2,4
hillri01,Rich Hill,2,2,13,5,0,0,1,98,33,17,3,18,24,1,1,1,0,143,3,18,1,1,3
hillsh01,Shawn Hill,4,5,26,10,0,0,1,214,80,32,7,22,43,2,3,3,0,311,6,36,3,3,6
hochelu01,Luke Hochevar,7,9,33,19,1,0,1,374,136,69,14,43,87,2,5,5,1,542,5,75,3,2,12
hoffmtr01,Trevor Hoffman,3,4,35,3,0,0,10,155,46,24,6,17,42,2,2,1,0,218,21,25,2,1,4
hollade01,Derek Holland,5,7,31,13,0,0,1,284,100,49,13,35,79,1,2,4,1,412,5,54,2,3,8
hollagr01,Greg Holland,2,2,17,3,0,0,1,105,36,17,4,13,40,1,2,1,0,151,5,18,1,1,3
houseja01,James Houser,1,1,11,3,0,0,1,78,26,12,3,10,12,1,1,1,0,112,3,13,1,1,2
howrybo01,Bob Howry,2,3,27,3,0,0,1,122,42,19,4,12,27,2,2,1,0,176,8,21,2,2,3
hudsoda01,Daniel Hudson,7,4,34,13,0,0,2,314,83,37,11,30,97,2,4,4,0,431,7,40,3,3,8
hudsoti01,Tim Hudson,12,8,42,24,1,0,1,524,156,64,16,56,109,5,4,6,0,720,6,67,6,3,21
huffda01,David Huff,6,9,34,17,1,0,1,342,135,64,15,42,54,2,3,3,0,505,5,69,3,3,11
hughedu01,Dusty Hughes,2,3,33,4,0,0,1,164,54,24,5,22,35,1,2,3,0,237,9,27,2,3,4
hugheph01,Phil Hughes,13,8,53,21,0,0,2,475,146,70,19,54,141,2,7,4,1,664,8,74,3,5,12
humbeph01,Philip Humber,2,2,18,4,0,0,1,123,43,19,4,16,29,2,2,2,0,178,4,21,1,1,4
hunteto02,Tommy Hunter,11,7,38,20,1,0,1,411,139,61,18,39,76,2,4,4,0,582,6,66,4,3,11
igarary01,Ryota Igarashi,2,2,22,4,0,0,1,119,38,20,4,18,32,1,2,1,0,172,6,22,1,2,4
infangr01,Greg Infante,2,2,13,3,0,0,1,84,26,12,3,12,32,1,1,1,0,120,4,13,1,1,3
jacksed01,Edwin Jackson,7,6,30,17,0,0,1,359,118,50,14,41,94,2,5,3,0,506,4,55,2,2,10
jacksst01,Steven Jackson,2,2,19,3,0,0,1,105,35,16,4,15,18,1,1,1,0,151,5,18,1,1,3
jakubch01,Chris Jakubauskas,4,5,29,8,0,0,1,206,69,34,9,22,35,2,4,2,0,293,6,38,2,2,6
jamesju01,Justin James,1,1,12,3,0,0,1,81,28,12,3,11,25,1,1,1,0,116,3,13,1,1,2
janseke01,Kenley Jansen,2,2,20,4,0,0,2,119,31,15,3,18,63,1,2,1,0,168,5,17,1,1,3
janssca01,Casey Janssen,4,3,35,5,0,0,1,189,71,29,7,21,52,1,2,3,0,275,9,31,1,2,5
jeffrje01,Jeremy Jeffress,2,2,14,3,0,0,1,93,29,14,3,13,25,1,1,1,0,132,4,15,1,1,3
jenksbo01,Bobby Jenks,3,3,38,4,0,0,14,169,55,25,6,18,55,2,2,2,0,242,25,27,2,1,5
jepseke01,Kevin Jepsen,4,4,43,4,0,0,1,182,61,28,4,25,59,3,5,2,0,260,7,30,2,2,6
jimenub01,Ubaldo Jimenez,14,9,43,28,2,1,1,585,160,74,12,84,183,6,11,8,1,814,5,79,8,4,18
joaquwa01,Waldis Joaquin,2,2,14,3,0,0,1,87,28,14,3,14,20,1,2,1,0,127,3,15,1,1,3
johnsji04,Jim Johnson,2,3,28,3,0,0,2,136,46,20,4,15,32,2,2,2,0,195,9,21,2,1,5
johnsjo09,Josh Johnson,11,6,41,25,1,0,1,524,157,61,12,50,171,4,6,5,0,723,5,65,7,5,13
joneshu01,Hunter Jones,1,1,13,3,0,0,1,82,27,13,3,11,22,1,1,1,0,118,3,14,1,1,2
jurrjja01,Jair Jurrjens,9,7,35,21,0,0,1,429,136,60,13,51,104,4,3,3,1,606,5,64,8,4,12
karstje01,Jeff Karstens,5,8,40,16,0,0,1,368,136,63,16,36,66,4,2,3,1,527,7,68,4,6,10
kawakke01,Kenshin Kawakami,5,9,34,17,0,0,2,339,116,54,12,41,75,6,5,3,0,490,6,59,6,5,9
kazmisc01,Scott Kazmir,9,10,39,22,0,0,1,421,134,74,19,65,104,3,6,7,0,611,6,76,4,5,12
kellesh01,Shawn Kelley,3,3,24,3,0,0,1,128,42,19,6,15,41,1,1,2,0,183,6,21,1,1,3
kendrky01,Kyle Kendrick,10,8,43,23,1,0,1,458,168,76,19,47,70,3,3,5,1,660,7,83,7,5,15
kenneia01,Ian Kennedy,8,9,44,23,0,0,2,477,141,70,20,62,136,3,10,7,0,676,7,77,7,5,11
kershcl01,Clayton Kershaw,10,9,45,28,1,0,1,557,149,67,13,82,194,6,8,5,1,778,6,73,8,4,12
kilbybr01,Brad Kilby,2,2,14,3,0,0,1,93,28,13,3,9,37,1,1,1,0,131,3,14,1,1,2
kimbrcr01,Craig Kimbrel,3,2,19,4,0,0,1,110,29,15,3,18,71,1,2,1,0,157,5,16,1,1,3
kintzbr01,Brandon Kintzler,2,2,13,3,0,0,1,87,30,14,3,11,34,1,1,1,0,125,3,15,1,1,3
kirkmmi01,Michael Kirkman,2,2,16,3,0,0,1,102,29,14,3,15,34,1,1,1,0,145,4,16,1,1,3
kohnmi01,Michael Kohn,2,2,19,4,0,0,1,110,33,15,3,18,33,1,1,1,0,157,5,17,2,1,3
kroenza01,Zach Kroenke,2,2,17,5,0,0,1,121,41,19,5,16,11,1,1,1,0,174,4,20,2,1,4
kuoho01,Hung-Chih Kuo,3,3,36,4,0,0,4,173,42,20,4,19,72,1,3,2,0,239,8,21,2,1,3
kurodhi01,Hiroki Kuroda,10,10,40,25,0,0,1,499,157,68,15,41,127,7,8,5,0,696,5,78,7,5,12
lackejo01,John Lackey,12,9,41,26,1,0,1,549,190,84,19,56,138,2,5,8,0,782,5,91,6,6,17
laffeaa01,Aaron Laffey,4,5,26,9,0,0,1,217,79,34,6,30,34,1,2,3,0,317,4,38,1,2,10
lannajo01,John Lannan,8,9,38,23,1,0,1,462,165,72,16,55,77,3,3,5,0,667,5,79,7,4,18
latosma01,Mat Latos,11,10,44,24,1,1,2,486,138,63,16,50,163,3,5,3,1,673,7,68,5,3,10
leagubr01,Brandon League,5,5,48,4,0,0,3,217,67,32,7,25,59,3,5,3,0,306,15,35,3,1,9
leakemi01,Mike Leake,7,6,39,18,0,0,2,390,143,60,16,46,85,3,3,4,0,562,7,68,6,3,15
leblawa01,Wade LeBlanc,8,9,40,21,0,0,2,414,140,64,20,52,101,4,3,4,0,591,6,67,6,3,11
lecursa01,Sam LeCure,3,4,26,7,0,0,1,191,64,30,7,28,47,2,2,3,0,277,6,31,2,2,6
ledezwi01,Wil Ledezma,2,2,20,3,0,0,1,106,37,18,4,13,37,1,2,1,0,154,4,19,1,1,3
leecl02,Cliff Lee,8,6,30,16,2,0,1,362,119,51,11,20,105,2,3,3,0,498,5,54,4,3,10
lerewan01,Anthony Lerew,4,5,29,10,0,0,2,224,80,39,12,28,46,2,3,3,0,323,6,42,2,3,7
lerouch01,Chris Leroux,2,2,13,3,0,0,1,85,29,14,3,11,15,1,1,1,0,122,4,15,1,1,2
lestejo01,Jon Lester,14,8,42,27,2,0,1,560,165,73,16,66,191,1,6,7,0,780,5,77,4,5,17
lewisco01,Colby Lewis,9,10,43,22,1,0,2,477,142,68,17,53,156,2,7,5,0,673,7,74,4,4,11
lewisje01,Jensen Lewis,3,3,30,3,0,0,2,151,47,22,6,22,43,2,1,2,0,216,9,24,2,2,4
lewisro01,Rommie Lewis,2,2,16,3,0,0,1,103,34,17,4,13,27,1,1,1,0,147,4,18,1,1,3
lidgebr01,Brad Lidge,2,3,38,3,0,0,14,158,48,25,6,26,60,2,3,2,0,229,23,26,2,1,4
lillyte01,Ted Lilly,8,6,29,16,0,0,1,342,100,46,15,30,106,2,2,3,1,470,4,49,5,2,8
linceti01,Tim Lincecum,13,8,42,27,2,1,1,573,162,70,14,67,217,4,9,5,0,796,5,73,8,4,12
lincobr01,Brad Lincoln,4,5,30,10,0,0,2,244,91,43,10,26,37,2,3,4,0,355,6,47,3,3,6
lincomi01,Mike Lincoln,2,2,21,3,0,0,1,109,38,19,4,16,23,1,1,2,0,159,5,20,1,1,3
lindsma01,Matt Lindstrom,3,3,40,4,0,0,9,168,62,27,5,23,43,2,3,2,0,246,20,29,2,1,5
linebsc01,Scott Linebrink,3,4,39,4,0,0,1,175,61,27,8,19,53,2,4,2,0,252,15,30,2,1,5
linkjo01,Jon Link,2,2,14,3,0,0,1,89,31,13,3,11,13,1,1,1,0,128,4,15,1,1,3
liriafr01,Francisco Liriano,10,11,44,26,0,0,1,512,170,80,15,62,169,2,7,7,1,731,6,84,6,4,14
litscje01,Jesse Litsch,5,6,27,12,0,0,1,257,91,43,11,23,42,2,3,4,0,367,5,45,2,2,7
loeka01,Kameron Loe,3,3,31,4,0,0,1,162,53,22,6,16,42,1,2,2,0,229,6,25,2,2,5
loganbo02,Boone Logan,3,2,33,4,0,0,1,142,48,21,5,19,42,2,2,2,0,204,7,23,1,1,4
lohseky01,Kyle Lohse,6,8,32,18,0,0,1,349,133,63,12,36,70,3,3,3,0,510,5,68,4,4,9
lopezja02,Javier Lopez,2,2,23,3,0,0,1,105,33,15,3,13,25,1,1,1,0,149,5,16,1,1,3
lopezro01,Rodrigo Lopez,7,11,43,23,0,0,2,479,180,83,24,48,92,2,3,4,0,694,7,93,8,6,12
lopezwi01,Wilton Lopez,4,3,37,5,0,0,1,182,65,27,6,13,44,1,2,2,1,256,8,29,2,2,5
lowede01,Derek Lowe,12,10,41,27,0,0,1,515,183,79,15,51,114,7,4,4,1,732,5,83,8,4,19
lowema01,Mark Lowe,2,2,21,3,0,0,1,104,35,16,4,14,30,1,1,1,0,150,5,18,1,1,3
luebkco01,Cory Luebke,3,3,25,7,0,0,1,183,60,28,7,22,62,2,2,2,0,262,6,30,2,2,5
lyonbr01,Brandon Lyon,5,5,50,4,0,0,8,214,64,28,6,26,51,5,3,2,0,302,19,31,3,2,6
macdomi01,Mike MacDougal,2,2,23,3,0,0,3,116,38,18,3,20,25,2,2,2,0,170,10,20,1,1,4
maclaev01,Evan MacLane,1,2,11,3,0,0,1,76,25,12,3,10,0,1,1,1,0,109,3,13,1,1,2
madsory01,Ryan Madson,4,3,42,3,0,0,3,177,54,23,5,17,62,2,2,2,0,247,13,25,2,1,5
mahayro01,Ron Mahay,2,2,27,3,0,0,1,124,40,18,5,15,32,1,2,1,0,177,5,19,1,1,4
maholpa01,Paul Maholm,8,10,40,26,1,0,1,516,194,87,15,56,102,3,5,7,1,750,5,94,7,4,20
mainejo01,John Maine,5,5,27,13,0,0,1,263,82,44,10,42,72,2,5,3,0,383,5,47,5,3,5
mainesc01,Scott Maine,2,2,15,3,0,0,1,96,29,14,3,12,28,1,1,1,0,137,4,15,1,1,3
majewga01,Gary Majewski,1,1,12,3,0,0,1,78,29,13,3,9,15,1,1,1,0,113,3,14,1,1,2
malonma02,Matt Maloney,3,3,19,6,0,0,1,150,51,22,6,14,34,1,1,2,0,213,4,24,2,2,4
manshje01,Jeff Manship,3,2,20,5,0,0,1,139,50,23,5,15,32,1,2,1,0,199,4,25,2,2,4
manuero01,Robert Manuel,2,2,15,3,0,0,1,96,30,14,4,13,13,1,1,1,0,137,4,15,1,1,2
marcush01,Shaun Marcum,10,7,41,22,1,0,2,472,145,66,19,43,134,3,4,6,0,656,6,70,3,3,10
marinjh01,Jhan Marinez,2,2,12,3,0,0,1,82,27,12,3,11,25,1,1,1,0,117,3,14,1,1,2
marmoca01,Carlos Marmol,3,4,52,4,0,0,13,214,44,27,5,43,109,3,3,6,1,306,27,29,2,1,4
marquja01,Jason Marquis,6,8,29,17,1,0,1,329,116,55,11,43,58,3,4,5,1,478,4,59,5,4,13
marquje01,Jeff Marquez,1,1,11,3,0,0,1,77,26,12,3,9,0,1,1,1,0,111,3,13,1,1,2
marshse01,Sean Marshall,4,5,45,6,0,0,1,213,66,29,7,25,72,3,2,2,0,302,10,32,3,2,5
marteda01,Damaso Marte,2,2,22,3,0,0,1,103,30,17,4,16,30,1,1,1,0,148,4,18,1,1,3
martevi01,Victor Marte,2,2,20,4,0,0,1,119,43,23,6,19,24,1,2,2,0,176,5,24,1,1,4
marticr01,Cristhian Martinez,2,2,20,4,0,0,1,122,42,19,4,13,32,1,2,1,0,174,6,21,1,1,3
martijd01,J. D. Martin,5,6,31,13,0,0,1,277,100,43,13,27,51,3,2,4,0,400,6,48,3,4,7
martijo07,Joe Martinez,2,2,14,4,0,0,1,98,37,16,3,12,19,1,1,1,0,143,3,18,1,1,3
masseni01,Nick Masset,4,3,51,4,0,0,1,213,60,28,7,27,74,2,5,2,0,296,12,30,2,2,7
masteju01,Justin Masterson,7,11,45,22,1,0,1,460,156,75,14,66,121,4,8,8,0,670,7,83,4,4,17
matafr01,Frank Mata,2,2,16,3,0,0,1,102,36,17,4,13,16,1,1,2,0,148,4,18,1,1,3
mateoma01,Marcos Mateo,2,2,18,4,0,0,1,109,35,17,5,14,43,1,1,1,0,155,4,19,1,1,3
mathido01,Doug Mathis,2,2,19,4,0,0,1,122,44,19,5,16,20,1,1,1,0,175,6,21,1,1,5
mathisc01,Scott Mathieson,1,1,11,3,0,0,1,78,27,12,3,10,9,1,1,1,0,113,3,13,1,1,2
matsuda01,Daisuke Matsuzaka,9,7,38,21,0,0,1,426,134,70,14,70,125,2,6,6,0,617,5,72,3,5,10
matusbr01,Brian Matusz,10,10,44,24,0,0,2,471,158,74,17,55,128,3,3,5,0,677,7,78,6,5,10
mayayu01,Yunesky Maya,3,5,29,9,0,0,2,218,75,35,8,28,32,2,3,3,2,315,6,38,3,2,6
mazzavi01,Vin Mazzaro,6,8,37,17,0,0,1,373,137,60,16,50,79,2,5,5,0,546,7,69,4,4,11
mccleky01,Kyle McClellan,3,4,48,4,0,0,2,210,62,27,7,26,56,2,3,3,0,297,11,29,3,2,5
mcclemi01,Mike McClendon,2,2,17,4,0,0,1,108,33,16,4,13,38,1,1,1,0,153,4,17,1,1,3
mccutda01,Daniel McCutchen,3,5,29,9,0,0,1,221,81,38,10,27,39,2,2,2,0,324,6,41,3,3,5
mcdonja03,James McDonald,6,6,41,12,0,0,2,298,94,43,9,41,90,5,5,3,0,426,9,47,5,3,9
mcgeeja01,Jake McGee,2,2,13,3,0,0,1,84,26,12,3,11,36,1,1,1,0,120,3,13,1,1,2
mechegi01,Gil Meche,4,5,25,12,1,0,1,250,86,43,10,36,63,2,3,2,0,365,4,46,2,3,7
meddebr01,Brandon Medders,2,2,23,3,0,0,1,117,40,18,4,16,27,2,1,1,0,170,6,19,2,2,3
medlekr01,Kris Medlen,6,5,41,11,0,0,1,310,103,45,11,30,89,2,3,3,1,435,9,49,6,3,10
meekev01,Evan Meek,4,4,44,4,0,0,2,210,54,26,6,32,62,3,3,3,0,295,12,30,2,2,6
mejiaje01,Jenrry Mejia,2,3,26,5,0,0,1,149,52,23,5,21,26,2,3,2,0,217,6,25,1,1,4
melanma01,Mark Melancon,2,2,19,3,0,0,1,108,32,16,3,15,33,1,2,2,0,154,4,17,1,1,3
mendead01,Adalberto Mendez,4,5,29,9,0,0,2,217,75,34,10,29,31,2,2,3,0,311,6,36,2,2,7
mendolu01,Luis Mendoza,1,2,12,3,0,0,1,82,33,15,4,10,12,1,1,1,0,121,3,17,1,1,2
meredcl01,Cla Meredith,1,2,22,3,0,0,1,107,37,16,4,12,22,2,1,1,0,152,7,17,1,1,3
meyerda02,Dan Meyer,2,2,22,3,0,0,1,106,35,17,4,16,28,1,1,1,0,154,4,19,1,1,3
mickoka01,Kam Mickolio,1,2,14,3,0,0,1,86,27,13,3,12,28,1,1,1,0,123,4,14,1,1,2
mijarjo01,Jose Mijares,2,2,35,4,0,0,1,144,44,19,5,16,42,1,1,2,0,203,7,21,2,2,4
millean01,Andrew Miller,4,6,27,12,0,0,1,234,87,43,8,41,59,2,5,3,0,351,5,49,5,3,7
milleju01,Justin Miller,2,2,24,3,0,0,1,127,39,19,5,17,38,2,2,2,0,180,5,20,1,2,3
milletr02,Trever Miller,2,2,39,3,0,0,1,138,40,19,4,18,40,1,2,2,0,195,6,21,2,2,4
millsbr02,Brad Mills,3,3,22,6,0,0,1,159,53,27,6,24,44,2,2,2,0,229,5,29,2,2,5
millwke01,Kevin Millwood,8,11,40,25,1,0,1,513,189,84,22,57,115,2,6,7,1,745,5,91,5,3,15
minormi01,Mike Minor,5,4,30,10,0,0,2,236,88,39,9,25,79,2,2,3,0,342,7,42,3,3,6
mischpa01,Pat Misch,3,4,26,8,0,0,1,201,71,30,8,18,37,2,2,2,0,287,5,34,3,2,6
mitrese01,Sergio Mitre,3,3,25,7,0,0,1,183,62,29,8,19,35,1,2,2,0,259,8,32,2,2,6
mockga01,Garrett Mock,3,5,29,9,0,0,1,214,78,36,8,34,59,2,4,2,0,314,6,39,3,2,7
moehlbr01,Brian Moehler,4,5,25,12,0,0,1,240,91,42,9,26,44,3,2,2,0,350,5,44,3,2,8
monasca01,Carlos Monasterios,4,5,34,11,0,0,1,256,90,40,11,29,49,3,5,5,1,373,7,44,4,3,6
moralfr01,Franklin Morales,2,3,27,4,0,0,2,133,42,22,5,25,37,2,2,2,1,196,8,24,2,1,3
morrobr01,Brandon Morrow,8,8,47,20,1,0,4,425,129,67,14,68,163,2,7,6,0,611,11,71,3,4,10
mortecl01,Clayton Mortensen,4,4,27,8,0,0,2,201,71,33,8,25,37,2,2,3,0,291,6,37,2,3,5
mortoch02,Charlie Morton,5,10,34,18,0,0,1,331,126,64,13,43,73,3,5,6,1,490,5,71,5,4,9
moscogu01,Guillermo Moscoso,1,1,12,3,0,0,1,81,27,12,3,11,24,1,1,1,0,116,3,13,1,1,2
moseldu01,Dustin Moseley,4,4,28,10,0,0,1,236,85,39,11,30,43,2,2,3,0,339,6,42,2,3,7
motagu01,Guillermo Mota,3,3,39,4,0,0,1,171,51,25,6,23,40,3,3,2,0,242,12,27,2,3,5
motteja01,Jason Motte,4,3,40,4,0,0,1,170,52,24,6,21,60,2,2,2,0,239,9,25,2,2,5
moyerja01,Jamie Moyer,9,8,32,18,1,0,1,372,125,62,17,33,73,2,2,6,0,527,4,65,5,2,9
moylape01,Peter Moylan,4,3,51,4,0,0,1,190,57,25,5,31,53,4,2,2,0,270,7,28,3,2,8
mujiced01,Edward Mujica,3,3,43,5,0,0,1,210,70,31,10,14,66,2,2,1,0,291,13,34,2,2,6
mulveke01,Kevin Mulvey,1,2,12,3,0,0,1,88,29,14,4,12,19,1,1,1,0,127,3,15,1,1,3
myersbr01,Brett Myers,10,8,43,25,1,0,1,533,175,73,22,57,144,4,3,5,0,754,6,81,6,4,14
narvech01,Chris Narveson,9,7,46,19,0,0,2,419,140,70,17,49,117,3,6,5,0,601,8,74,6,5,9
nelsojo01,Joe Nelson,2,1,19,3,0,0,1,97,30,15,4,15,31,1,1,1,0,141,6,16,1,1,3
neshepa01,Pat Neshek,2,2,15,3,0,0,1,88,27,13,3,13,29,1,1,1,0,126,4,14,1,1,2
niemaje01,Jeff Niemann,11,8,42,25,1,1,1,495,160,76,20,58,121,4,5,7,0,701,6,80,4,3,16
niesejo01,Jonathon Niese,8,9,43,23,1,1,2,459,165,71,16,55,126,3,5,6,0,669,7,81,7,4,14
nievefe01,Fernando Nieve,3,3,26,5,0,0,1,152,48,24,7,22,41,2,2,2,0,219,6,26,2,1,5
nifu01,Fu-Te Ni,2,2,23,3,0,0,1,119,37,19,4,19,31,2,2,2,0,172,6,20,1,1,3
nippedu01,Dustin Nippert,4,4,27,6,0,0,1,186,63,29,7,29,48,2,2,3,0,273,6,31,2,2,5
nolasri01,Ricky Nolasco,11,8,38,23,1,0,1,472,160,78,20,36,152,4,4,3,1,665,5,81,6,5,8
norbejo01,Jordan Norberto,2,2,21,4,0,0,1,108,32,17,4,21,25,1,2,1,0,155,4,18,1,1,3
norribu01,Bud Norris,9,9,41,22,0,0,2,435,143,73,17,67,145,3,5,6,1,635,6,80,5,4,12
novaiv01,Ivan Nova,4,4,28,9,0,0,1,218,73,34,8,28,44,2,3,2,0,313,7,36,2,2,6
nunezle01,Juan Carlos Oviedo,4,4,47,4,0,0,12,193,60,28,7,22,61,2,2,2,1,273,23,30,2,1,5
odayda01,Darren O'Day,4,3,45,4,0,0,1,185,50,22,5,18,51,2,2,3,0,255,11,24,2,2,6
oflaher01,Eric O'Flaherty,3,3,41,4,0,0,1,161,51,22,4,20,41,2,2,3,0,228,7,25,2,1,5
ogandal01,Alexi Ogando,3,2,26,4,0,0,1,138,40,18,4,17,45,1,2,2,0,196,7,19,2,2,4
ohlenro01,Ross Ohlendorf,6,9,36,20,0,0,1,396,129,59,16,48,88,2,5,6,1,563,5,64,8,6,9
ohmanwi01,Will Ohman,2,2,21,3,0,0,1,95,30,14,3,13,29,1,1,1,0,136,5,16,1,1,3
okajihi01,Hideki Okajima,4,3,39,3,0,0,1,159,54,23,6,20,43,2,2,1,0,229,7,24,2,1,4
olivean01,Andy Oliver,4,5,29,9,0,0,2,219,75,37,8,32,56,3,4,3,0,317,7,41,3,2,7
oliveda02,Darren Oliver,3,2,41,4,0,0,1,183,55,23,5,17,58,3,2,3,0,252,7,25,3,3,6
olsensc01,Scott Olsen,5,7,30,15,0,0,1,312,113,55,13,36,64,4,3,3,0,451,5,59,4,3,9
olsonga01,Garrett Olson,2,3,24,6,0,0,1,157,56,27,8,22,34,1,2,2,0,229,5,30,2,1,4
ondrulo01,Logan Ondrusek,4,2,33,4,0,0,1,166,50,24,6,20,38,1,2,1,0,234,7,26,2,1,5
ortizra01,Ramon Ortiz,2,2,19,5,0,0,1,130,44,21,5,19,29,1,2,1,0,187,4,23,2,1,4
ortizru01,Russ Ortiz,2,2,14,4,0,0,1,109,38,19,4,17,27,1,1,1,0,158,3,20,1,1,4
osullse01,Sean O'Sullivan,6,6,34,15,0,0,2,303,111,55,15,36,53,2,4,3,1,441,7,58,3,4,9
oswalro01,Roy Oswalt,7,5,29,16,1,1,1,345,105,45,12,29,95,2,2,5,0,475,4,48,6,3,10
ottavad01,Adam Ottavino,3,4,23,7,0,0,1,175,69,30,7,21,28,2,2,2,0,254,5,32,2,1,6
owingmi01,Micah Owings,3,4,20,6,0,0,1,161,52,28,6,26,39,1,2,3,0,236,5,30,2,2,4
padilvi01,Vicente Padilla,7,5,31,16,1,1,1,329,104,49,14,36,93,3,3,6,1,465,5,54,4,3,10
palmema01,Matt Palmer,4,3,22,6,0,0,1,168,53,26,5,27,30,1,2,2,0,241,5,28,2,1,6
papeljo01,Jonathan Papelbon,4,4,45,4,0,0,19,195,56,26,6,21,74,2,2,2,0,275,30,28,3,1,4
parkch01,Chan Ho Park,2,2,24,4,0,0,1,139,45,21,4,17,39,2,2,2,0,199,6,23,1,2,4
parnebo01,Bobby Parnell,2,3,33,5,0,0,1,156,56,24,5,20,44,2,2,2,0,227,8,26,2,1,4
parrama01,Manny Parra,6,8,36,16,0,0,1,340,127,62,14,55,105,3,8,3,1,512,7,68,5,4,10
parrijo01,John Parrish,2,2,13,3,0,0,1,83,27,12,3,11,15,1,1,1,0,118,3,13,1,1,3
pattotr01,Troy Patton,1,1,11,3,0,0,1,77,25,12,3,10,28,1,1,1,0,111,3,13,1,1,2
pauleda01,David Pauley,5,7,34,13,0,0,2,296,99,45,12,34,56,2,4,4,0,425,7,50,3,3,8
paulife01,Felipe Paulino,4,9,34,15,0,0,1,321,118,58,12,46,96,3,5,4,1,472,5,65,6,3,8
pavanca01,Carl Pavano,12,9,43,24,3,1,2,524,184,77,19,36,100,3,4,6,0,733,6,82,5,4,12
peavyja01,Jake Peavy,7,6,32,16,1,0,1,345,102,52,12,39,106,2,3,4,1,483,5,52,3,3,8
pelfrmi01,Mike Pelfrey,12,10,43,27,0,0,2,545,194,83,14,61,102,5,3,7,2,783,5,88,11,4,20
penato03,Tony Pena,4,4,45,5,0,0,2,243,85,40,8,29,50,4,4,2,0,351,14,44,3,3,8
pennha01,Hayden Penn,2,1,14,3,0,0,1,86,32,15,3,14,23,1,1,1,0,127,3,17,1,1,2
pennybr01,Brad Penny,6,6,28,12,0,0,1,273,94,38,10,28,52,2,3,3,0,385,5,44,4,3,10
peraljo01,Joel Peralta,2,2,30,4,0,0,1,153,45,21,6,15,48,2,1,2,0,215,7,24,2,2,4
perdolu01,Luis Perdomo,2,1,15,3,0,0,1,96,30,15,4,14,28,1,2,1,0,138,4,16,1,1,2
perezch01,Chris Perez,3,3,40,4,0,0,8,183,47,23,6,26,63,2,3,3,0,257,16,26,3,2,6
perezol01,Oliver Perez,3,4,23,10,0,0,1,207,67,38,9,43,59,2,3,4,0,311,4,40,3,3,6
perezra01,Rafael Perez,4,3,44,4,0,0,1,181,67,28,6,23,44,3,3,2,0,263,9,30,3,2,8
perkigl01,Glen Perkins,3,3,16,6,0,0,1,145,57,25,6,13,24,1,1,2,0,210,4,27,2,2,5
perryry01,Ryan Perry,3,4,41,4,0,0,2,193,59,28,7,28,52,2,3,3,0,275,12,30,3,2,6
pestavi01,Vinnie Pestano,2,2,13,3,0,0,1,84,27,13,3,12,42,1,1,1,0,120,4,14,1,1,3
pettian01,Andy Pettitte,10,6,34,21,0,0,1,419,141,60,14,46,108,3,3,4,0,594,4,67,5,4,13
pineijo01,Joel Pineiro,10,8,36,22,2,1,1,467,163,67,14,33,86,3,4,4,0,651,5,73,6,4,14
pintore01,Renyel Pinto,2,2,27,3,0,0,1,118,35,17,4,22,35,1,2,2,0,172,6,18,1,1,4
porceri01,Rick Porcello,11,10,43,25,0,0,1,492,178,80,19,45,85,2,8,6,2,701,6,86,3,3,19
priceda01,David Price,14,8,45,26,1,0,2,538,155,69,17,69,158,2,5,5,1,756,6,77,4,4,13
proctsc01,Scott Proctor,1,1,14,3,0,0,1,82,26,13,3,13,30,1,1,1,0,118,4,14,1,1,2
purceda01,David Purcey,2,3,21,5,0,0,1,140,45,23,5,21,41,1,2,1,0,203,7,25,2,2,3
putzjj01,J. J. Putz,4,4,37,4,0,0,3,162,48,23,5,22,59,2,3,2,0,231,11,25,2,2,4
quallch01,Chad Qualls,2,2,27,3,0,0,4,121,40,18,4,11,35,1,2,2,0,171,9,20,1,1,4
ramired01,Edwar Ramirez,2,1,18,3,0,0,1,98,30,15,4,16,32,1,1,1,0,142,4,17,1,1,2
ramirra02,Ramon Ramirez,3,2,30,3,0,0,1,136,37,17,4,19,35,2,2,1,1,192,7,18,2,1,4
ramosce01,Cesar Ramos,2,2,15,3,0,0,1,93,36,15,3,11,24,1,1,1,0,135,4,16,1,1,3
rapadcl01,Clay Rapada,2,1,16,3,0,0,1,89,28,13,3,14,18,1,1,1,0,128,3,15,1,1,2
rauchjo01,Jon Rauch,4,3,35,4,0,0,6,164,56,23,5,17,45,1,2,2,0,234,15,24,2,2,4
raych01,Chris Ray,2,2,25,3,0,0,1,124,47,21,5,17,30,2,1,1,0,181,6,22,3,1,4
rayro01,Robert Ray,2,2,12,3,0,0,1,89,28,13,3,12,17,1,1,1,0,127,3,15,1,1,2
resopch01,Chris Resop,2,2,18,3,0,0,1,104,29,15,3,15,39,1,1,1,0,147,5,16,1,1,3
reyesde01,Dennys Reyes,3,2,42,3,0,0,1,142,43,20,4,21,35,2,3,2,0,203,9,21,2,1,5
reyesjo03,Jo-Jo Reyes,1,2,11,4,0,0,1,89,33,16,4,13,20,1,1,1,0,130,2,18,1,1,3
reynoma02,Matt Reynolds,2,2,18,3,0,0,1,103,30,15,4,12,35,1,1,2,0,146,4,16,1,1,3
rhodear01,Arthur Rhodes,3,3,43,4,0,0,1,167,44,21,5,19,53,2,2,2,0,231,7,22,3,2,4
richacl01,Clayton Richard,11,8,44,25,1,0,2,505,171,73,16,66,125,4,5,4,2,721,7,80,6,3,19
richadu02,Dustin Richardson,2,2,18,3,0,0,1,97,32,14,3,16,22,1,1,1,0,140,4,15,1,1,3
rincoju01,Juan Rincon,2,2,15,3,0,0,1,85,27,14,3,13,24,1,1,1,0,123,3,15,1,1,3
ringro01,Royce Ring,1,1,14,3,0,0,1,78,27,13,3,10,17,1,1,1,0,113,3,14,1,1,2
riskeda01,David Riske,2,2,20,3,0,0,1,108,38,17,4,15,23,1,1,1,0,156,4,19,1,1,3
riverma01,Mariano Rivera,3,3,41,4,0,0,17,178,45,20,5,12,59,2,1,3,0,240,28,21,1,1,4
riversa01,Saul Rivera,2,2,17,2,0,0,1,91,34,16,3,12,19,1,1,1,0,133,4,17,1,1,3
roberda08,David Robertson,4,3,41,4,0,0,1,183,57,27,6,29,74,3,5,2,1,265,10,29,3,2,4
roberna01,Nate Robertson,2,2,12,4,0,0,0,90,35,16,4,12,19,1,1,1,0,133,2,18,1,1,3
rodnefe01,Fernando Rodney,3,4,47,4,0,0,11,197,63,31,6,33,54,2,3,3,0,287,23,32,2,1,7
rodrifr03,Francisco Rodriguez,3,3,42,4,0,0,17,181,50,24,5,27,69,3,3,2,0,257,29,26,2,1,4
rodrifr04,Francisco Rodriguez,2,3,27,4,0,0,1,147,47,23,5,22,36,2,3,2,0,211,7,24,2,1,5
rodrihe03,Henry Rodriguez,2,2,22,4,0,0,1,121,38,18,4,16,46,1,3,2,0,174,6,20,2,1,3
rodrira01,Rafael Rodriguez,1,2,14,3,0,0,1,89,35,14,3,10,10,1,1,1,0,130,4,16,1,1,3
rodriwa01,Wandy Rodriguez,11,10,42,27,0,0,1,529,168,70,17,59,164,4,5,6,1,744,5,81,6,5,18
roenijo01,Josh Roenicke,2,2,18,3,0,0,1,109,35,18,4,18,34,1,1,2,0,159,4,20,1,1,3
rogeres01,Esmil Rogers,3,4,30,8,0,0,1,218,84,38,7,26,63,2,4,3,1,319,7,44,3,3,7
rogerma01,Mark Rogers,3,3,21,6,0,0,1,146,41,21,5,17,63,1,2,2,0,206,5,23,2,2,4
romerjc01,J. C. Romero,2,2,34,3,0,0,2,133,37,19,4,26,34,3,1,3,0,193,8,20,2,1,4
romerri01,Ricky Romero,12,9,44,27,1,0,1,555,180,81,16,75,151,3,11,8,1,788,6,89,6,4,23
romose01,Sergio Romo,4,3,43,4,0,0,1,179,49,23,6,17,70,2,2,3,0,249,9,25,2,2,4
rosaca01,Carlos Rosa,2,2,19,3,0,0,1,109,36,17,4,15,16,1,1,1,0,156,6,18,1,2,3
rosalle01,Leo Rosales,2,2,21,3,0,0,1,113,39,19,4,14,25,1,2,1,0,162,5,20,1,2,3
rosarsa02,Sandy Rosario,1,1,11,3,0,0,1,78,29,13,3,10,0,1,1,1,0,113,3,14,1,1,2
rossty01,Tyson Ross,2,3,23,5,0,0,1,146,48,24,5,21,40,1,3,1,0,209,6,25,2,2,5
rowlary01,Ryan Rowland-Smith,5,7,37,16,0,0,1,348,124,63,17,43,59,2,5,5,1,508,6,68,3,5,11
runzlda01,Dan Runzler,3,2,26,4,0,0,1,129,39,18,4,20,48,2,2,2,0,185,5,20,2,1,4
rupejo01,Josh Rupe,2,2,15,3,0,0,1,91,33,15,3,15,18,1,1,1,0,133,3,16,1,1,3
russead01,Adam Russell,2,2,18,3,0,0,1,103,34,15,3,14,35,1,1,1,0,147,5,17,2,1,3
russeja02,James Russell,2,2,31,4,0,0,1,152,53,24,7,14,42,1,2,2,0,220,7,28,2,2,4
rzepcma01,Marc Rzepczynski,5,6,32,14,0,0,1,284,94,44,11,42,86,2,5,4,1,410,6,48,3,3,10
sabatcc01,CC Sabathia,16,7,43,27,2,1,1,602,177,76,17,59,174,5,6,7,1,826,5,82,5,7,20
saitota01,Takashi Saito,3,3,38,4,0,0,3,166,48,22,5,20,66,2,2,2,0,235,14,23,2,2,4
salasfe01,Fernando Salas,2,2,21,4,0,0,1,123,39,18,5,17,38,1,2,1,0,176,6,20,1,1,3
salech01,Chris Sale,2,2,19,4,0,0,2,115,33,16,4,15,56,1,1,1,0,162,5,17,1,1,4
samarje01,Jeff Samardzija,3,3,25,6,0,0,1,162,57,29,7,28,31,2,2,2,0,239,6,32,2,1,5
sampsch01,Chris Sampson,2,2,27,4,0,0,1,135,51,22,5,13,24,2,1,1,0,195,6,24,2,1,5
sanabal01,Alex Sanabia,6,5,33,12,0,0,2,277,93,41,9,25,60,3,2,3,0,394,6,44,3,2,7
sanchan01,Anibal Sanchez,10,11,44,25,1,0,2,504,165,71,14,67,137,5,5,6,1,729,6,80,8,4,13
sanchbr01,Brian Sanches,3,3,39,4,0,0,1,185,52,23,7,26,55,2,3,3,0,261,9,26,2,2,5
sanchjo01,Jonathan Sanchez,10,10,44,27,0,0,1,516,141,71,18,84,181,4,10,7,1,735,6,79,6,4,12
sanchro01,Romulo Sanchez,1,1,12,3,0,0,1,82,26,12,3,11,18,1,1,1,0,117,3,13,1,1,2
santaer01,Ervin Santana,12,9,42,26,2,1,1,556,187,85,23,56,150,3,7,9,1,793,5,90,5,5,14
santajo01,Johan Santana,11,8,39,24,2,1,1,524,160,64,17,50,141,3,4,3,1,729,5,68,8,4,13
santose01,Sergio Santos,3,3,31,4,0,0,1,153,51,21,4,22,53,2,4,2,0,223,7,23,2,1,4
saundjo01,Joe Saunders,8,6,30,17,1,0,1,359,127,56,15,35,67,2,4,4,0,511,4,62,3,3,14
sborzja01,Jay Sborz,1,1,11,3,0,0,1,77,26,12,3,9,16,1,1,1,0,111,3,13,1,1,2
scherma01,Max Scherzer,10,10,44,26,0,0,1,531,164,75,19,65,175,2,7,8,0,746,6,84,6,5,15
schleda01,Daniel Schlereth,2,2,20,3,0,0,1,111,35,17,4,17,37,2,2,1,0,161,5,18,2,1,3
schlibr01,Brian Schlitter,2,2,13,3,0,0,1,89,34,15,3,11,19,1,1,1,0,129,4,16,1,1,3
schlitr01,Travis Schlichting,2,2,17,4,0,0,1,111,34,16,3,16,23,1,2,1,0,159,5,18,1,1,3
schoesc01,Scott Schoeneweis,2,2,23,3,0,0,1,100,35,17,4,15,22,1,1,1,0,146,5,18,1,1,3
seddoch01,Chris Seddon,2,2,17,4,0,0,1,109,35,17,4,14,26,1,2,1,0,156,4,18,1,1,3
sheetbe01,Ben Sheets,6,7,33,17,1,0,1,355,117,55,14,37,88,2,4,2,0,502,5,57,4,3,8
sherrge01,George Sherrill,2,2,35,3,0,0,3,136,44,21,5,23,36,2,2,1,0,199,9,23,2,2,3
shielja02,James Shields,11,11,41,27,0,0,1,546,202,91,25,44,152,2,7,5,1,782,5,98,5,3,15
shielsc01,Scot Shields,2,3,31,4,0,0,1,149,46,24,5,27,42,1,3,2,0,218,8,27,2,2,4
silvaca01,Carlos Silva,7,8,35,18,0,0,1,355,136,60,13,29,69,2,4,6,0,513,6,66,4,5,11
simonal01,Alfredo Simon,3,3,28,4,0,0,5,150,53,25,8,19,35,1,2,2,0,218,13,27,2,2,4
sinkbbr01,Brett Sinkbeil,1,1,12,3,0,0,1,79,25,12,3,12,9,1,1,1,0,113,3,13,1,1,2
sippto01,Tony Sipp,3,3,43,4,0,0,1,183,49,27,8,33,69,2,3,2,0,259,10,29,3,2,6
slamaan01,Anthony Slama,2,2,12,3,0,0,1,83,27,13,3,12,24,1,1,1,0,119,3,14,1,1,2
slatedo01,Doug Slaten,3,2,31,4,0,0,1,137,43,20,4,19,36,1,2,2,0,197,8,23,1,1,4
sloweke01,Kevin Slowey,11,7,39,23,1,0,1,439,161,70,19,29,113,2,4,5,0,622,5,74,3,7,9
smithch07,Chris Smith,1,1,16,3,0,0,1,94,30,14,4,12,24,1,1,1,0,134,4,16,1,1,3
smithgr02,Greg Smith,4,5,26,11,0,0,1,240,80,40,10,38,52,2,3,2,0,346,5,42,3,3,6
smithjo05,Joe Smith,3,2,36,3,0,0,1,147,42,21,5,23,41,2,2,2,0,209,6,23,2,1,5
smithjo06,Jordan Smith,3,3,25,4,0,0,1,141,48,21,6,15,29,1,2,2,0,201,8,22,2,1,5
snellia01,Ian Snell,4,5,25,12,0,0,1,233,85,40,10,39,50,1,4,2,0,349,4,44,3,3,6
sonnaan01,Andy Sonnanstine,4,4,29,10,0,0,1,238,88,42,10,23,49,2,3,3,0,346,9,45,1,2,7
soriajo01,Joakim Soria,3,3,43,4,0,0,20,192,53,22,6,19,73,1,3,3,0,268,28,23,2,2,5
soriara01,Rafael Soriano,3,3,44,4,0,0,17,189,46,23,6,21,73,2,1,2,0,260,26,25,2,2,4
sosajo02,Jorge Sosa,3,3,24,4,0,0,1,144,51,23,6,21,27,3,2,1,0,211,6,26,2,2,4
sprinru01,Russ Springer,1,2,16,2,0,0,1,79,25,12,3,9,22,1,1,1,0,112,4,12,1,1,2
stammcr01,Craig Stammen,5,6,38,17,0,0,1,360,133,62,13,36,71,3,5,3,0,518,6,68,4,4,11
stangda01,Daniel Stange,2,1,12,3,0,0,1,82,27,13,3,12,11,1,1,1,0,119,3,14,1,1,2
staufti01,Tim Stauffer,5,5,30,10,0,0,1,244,73,30,7,29,61,3,2,3,0,340,8,32,3,1,9
stettmi01,Mitch Stetter,2,2,22,3,0,0,1,94,28,15,3,16,30,1,1,2,0,136,4,15,1,1,2
steveje01,Jeff Stevens,2,2,18,3,0,0,1,106,36,17,4,15,26,1,2,1,0,154,4,19,1,1,3
stokebr01,Brian Stokes,2,2,24,3,0,0,1,120,42,19,5,19,28,2,2,1,0,176,7,21,1,2,5
stoneto01,Tobi Stoner,1,2,12,3,0,0,1,82,27,12,3,10,11,1,1,1,0,117,3,13,1,1,2
storedr01,Drew Storen,3,3,32,4,0,0,2,163,50,24,5,21,52,2,2,2,0,231,10,26,3,2,5
strasst01,Stephen Strasburg,6,5,34,13,0,0,2,292,88,40,9,29,137,2,3,2,0,409,7,44,3,3,7
streehu01,Huston Street,4,3,37,3,0,0,12,165,47,23,6,17,59,3,2,2,0,228,22,25,2,2,5
stricsc01,Scott Strickland,1,1,11,3,0,0,1,77,27,12,3,9,0,1,1,1,0,110,3,13,1,1,2
stroppe01,Pedro Strop,2,2,16,3,0,0,1,95,33,16,3,15,29,1,2,1,0,138,4,17,1,1,3
suppaje01,Jeff Suppan,5,7,29,16,0,0,1,313,120,51,14,41,51,3,5,4,0,460,4,58,6,3,11
sweenbr01,Brian Sweeney,2,2,20,4,0,0,1,127,41,18,5,12,17,1,2,1,0,179,5,20,2,1,3
takahhi01,Hisanori Takahashi,6,5,40,10,0,0,4,276,88,39,10,33,86,4,2,2,1,391,13,42,5,3,7
talbomi01,Mitch Talbot,8,10,41,21,1,0,2,422,147,67,13,61,77,3,4,6,1,610,7,75,3,4,14
tallebr01,Brian Tallet,4,5,33,9,0,0,1,251,86,46,12,36,60,2,2,3,0,369,6,49,2,4,7
tanketa01,Taylor Tankersley,2,2,19,3,0,0,1,94,31,15,4,13,18,1,1,1,0,135,3,17,1,1,2
taschja01,Jack Taschner,2,1,16,3,0,0,1,83,30,13,3,13,18,1,1,1,0,123,4,14,1,1,2
tejedro01,Rob Tejeda,3,4,35,5,0,0,1,189,50,27,6,31,65,1,4,2,1,267,8,29,2,2,5
texeika01,Kanekoa Texeira,2,2,23,4,0,0,1,142,51,22,5,17,21,1,2,2,0,205,5,24,2,2,5
thatcjo01,Joe Thatcher,2,2,37,3,0,0,1,141,42,18,4,16,56,2,1,2,0,198,7,20,2,2,3
thayeda01,Dale Thayer,1,1,12,3,0,0,1,82,31,13,3,8,16,1,1,1,0,117,3,14,1,1,2
thomabr01,Brad Thomas,4,3,31,5,0,0,1,181,63,27,5,24,25,2,3,3,0,261,6,29,3,3,6
thomaju01,Justin Thomas,2,2,15,3,0,0,1,96,36,15,4,12,11,1,1,1,0,138,4,16,1,1,3
thompbr01,Brad Thompson,2,3,19,4,0,0,1,128,46,21,5,13,20,1,2,2,0,184,6,23,1,1,4
thompri03,Rich Thompson,2,2,18,3,0,0,1,112,36,16,5,12,33,1,3,1,0,159,5,18,1,1,3
thornma01,Matt Thornton,4,3,44,4,0,0,3,184,49,24,5,20,80,2,2,2,0,254,10,24,1,2,5
threeer01,Erick Threets,2,2,15,3,0,0,1,93,29,13,3,12,17,1,1,1,0,132,4,14,1,1,3
tillmch01,Chris Tillman,5,7,32,14,0,0,2,290,100,51,14,43,56,2,4,3,0,418,6,54,2,3,9
toddje01,Jess Todd,2,2,15,3,0,0,1,92,35,15,3,11,30,1,1,1,0,134,4,16,1,1,2
tomlijo01,Josh Tomlin,6,5,33,13,1,0,2,293,97,46,11,29,59,3,3,4,0,413,7,49,4,3,8
torreca01,Carlos Torres,2,2,17,5,0,0,1,125,45,21,5,19,32,2,1,2,0,183,4,23,2,2,3
troncra01,Ramon Troncoso,3,3,40,4,0,0,2,182,61,26,6,22,42,4,2,3,0,261,10,28,3,2,7
ueharko01,Koji Uehara,2,3,26,5,0,0,4,158,52,22,6,12,54,1,1,1,0,221,8,24,2,1,4
valdece01,Cesar Valdez,2,3,19,5,0,0,1,131,48,22,5,17,25,2,2,2,0,190,5,24,1,1,4
valdeme01,Merkin Valdez,2,1,17,3,0,0,1,92,32,15,3,14,22,1,2,1,0,133,5,16,1,1,3
valdera02,Raul Valdes,3,3,27,5,0,0,1,163,54,26,6,23,50,1,2,2,0,236,6,28,2,2,5
valvejo01,Jose Valverde,3,3,42,4,0,0,14,183,49,24,6,25,65,2,2,2,0,257,29,26,1,2,5
vanderi01,Rick van den Hurk,2,2,17,6,0,0,1,134,43,21,6,18,42,1,2,2,0,193,4,23,2,1,4
vargacl01,Claudio Vargas,2,2,19,3,0,0,1,112,36,17,4,14,27,1,2,1,0,160,4,19,1,1,4
vargaja01,Jason Vargas,8,10,45,24,0,0,2,499,166,75,19,48,100,3,3,3,2,705,7,80,5,6,12
varvaan01,Anthony Varvaro,2,2,12,3,0,0,1,82,27,13,3,12,25,1,1,1,0,118,3,14,1,1,2
vasques01,Esmerling Vasquez,3,4,38,4,0,0,1,172,53,28,6,31,54,2,3,3,0,251,9,30,1,1,5
vazquja01,Javier Vazquez,9,9,37,22,1,0,1,456,143,71,20,48,141,3,5,5,0,641,6,75,5,4,9
ventejo01,Jonny Venters,4,4,42,5,0,0,1,203,56,25,5,30,77,2,3,4,0,288,10,30,2,2,7
verasjo01,Jose Veras,3,3,33,4,0,0,1,153,42,23,6,26,55,1,2,2,0,219,8,24,2,1,4
verlaju01,Justin Verlander,14,10,43,28,2,0,1,592,178,80,16,65,197,3,8,7,2,825,5,88,5,6,10
villaca01,Carlos Villanueva,3,4,35,5,0,0,1,184,61,30,8,21,61,2,3,2,0,265,8,32,2,2,5
villahe02,Henry Villar,2,2,13,3,0,0,1,87,28,13,3,11,14,1,1,1,0,124,3,14,1,1,2
violape01,Pedro Viola,1,1,12,3,0,0,1,80,26,12,3,10,28,1,1,1,0,114,3,13,1,1,2
volqued01,Edinson Volquez,7,5,29,14,0,0,1,291,84,44,9,48,100,2,5,5,1,418,5,46,4,2,8
volstch01,Chris Volstad,10,10,43,26,1,1,1,502,174,84,19,61,103,5,7,6,1,720,5,89,8,5,15
wagnebi02,Billy Wagner,4,3,39,4,0,0,13,177,42,20,5,20,90,2,2,2,0,244,23,23,2,1,4
wainwad01,Adam Wainwright,15,9,43,27,2,1,1,594,175,65,16,53,179,2,5,4,0,812,5,71,9,5,18
wakefti01,Tim Wakefield,6,7,33,17,1,0,1,368,125,63,15,39,73,2,7,6,0,529,7,67,3,3,9
waldejo01,Jordan Walden,2,2,17,3,0,0,1,101,32,15,3,13,51,1,1,1,0,144,4,16,1,1,3
walkety01,Tyler Walker,2,2,27,3,0,0,1,136,43,20,5,14,39,2,2,2,0,193,7,21,2,2,4
waltepj01,P. J. Walters,3,3,23,6,0,0,1,173,60,30,8,21,43,1,2,2,0,249,6,32,2,2,6
weaveje01,Jeff Weaver,4,3,28,5,0,0,1,162,57,26,6,22,37,3,2,2,0,236,6,28,3,2,4
weaveje02,Jered Weaver,12,10,43,28,1,1,1,580,174,76,21,55,184,2,5,3,1,802,5,83,4,5,8
webbry01,Ryan Webb,3,3,36,4,0,0,1,175,61,24,5,20,43,3,3,2,0,252,10,27,2,2,5
weinhro01,Robbie Weinhardt,2,2,21,4,0,0,1,121,45,20,4,13,27,1,2,2,0,175,4,22,1,1,4
welleto01,Todd Wellemeyer,5,6,28,14,0,0,1,285,102,51,13,40,64,2,3,3,0,416,5,53,5,3,9
wellsra01,Randy Wells,9,11,43,26,0,0,1,521,179,75,17,55,122,5,4,6,0,744,6,82,7,3,15
westbja01,Jake Westbrook,5,5,31,13,0,0,2,288,92,41,9,31,69,2,3,3,0,408,6,44,3,2,10
westse01,Sean West,5,5,27,11,0,0,1,230,83,38,9,30,52,2,3,2,0,337,5,42,4,2,7
wheelda01,Dan Wheeler,3,4,42,3,0,0,3,162,44,23,7,17,49,2,2,1,0,224,11,24,2,2,4
whitese02,Sean White,2,2,30,4,0,0,1,145,48,22,5,16,21,2,2,1,0,206,8,23,2,2,5
willido03,Dontrelle Willis,3,4,26,10,0,0,1,206,66,37,8,53,37,2,4,3,1,307,5,40,3,4,7
willira01,Randy Williams,2,2,23,3,0,0,1,115,40,18,4,21,33,3,1,2,0,171,4,20,1,1,3
wilsobr01,Brian Wilson,4,4,48,4,0,0,22,209,62,25,5,26,83,3,2,2,0,295,32,28,2,2,5
wilsocj01,C. J. Wilson,11,8,66,20,1,0,9,505,143,67,12,76,150,3,6,8,1,715,20,75,3,3,16
wolfra02,Randy Wolf,11,9,43,27,1,1,1,558,173,80,22,66,130,4,4,7,0,787,5,85,8,4,15
wolfro01,Ross Wolf,2,2,15,3,0,0,1,94,30,14,3,12,22,1,1,1,0,135,4,15,1,1,3
woodbl01,Blake Wood,2,3,30,4,0,0,1,152,52,24,6,20,31,2,2,2,0,219,7,26,2,3,5
woodke02,Kerry Wood,3,2,28,3,0,0,5,129,36,17,4,19,52,1,2,2,0,183,13,18,2,1,3
woodti01,Tim Wood,2,2,22,4,0,0,1,123,42,19,4,18,19,1,2,1,0,178,6,21,2,2,4
woodtr01,Travis Wood,6,6,37,16,0,0,2,344,101,49,11,33,99,2,3,4,1,481,7,54,4,3,9
worleva01,Vance Worley,3,3,20,5,0,0,1,141,42,20,5,17,47,1,2,2,0,199,5,22,2,1,4
wrighja01,Jamey Wright,2,3,30,3,0,0,1,150,47,23,5,22,33,2,3,3,0,216,7,27,2,1,6
wrighwe01,Wesley Wright,3,3,34,5,0,0,1,171,58,29,8,26,54,2,2,2,0,249,7,32,2,2,5
wuertmi01,Michael Wuertz,3,2,36,3,0,0,3,156,44,22,6,21,58,2,3,1,0,218,8,24,2,2,4
youngch03,Chris Young,5,4,25,11,0,0,1,231,66,34,9,36,59,2,3,2,0,330,5,37,3,2,5
zagurmi01,Mike Zagurski,2,2,13,3,0,0,1,86,28,14,3,12,40,1,1,1,0,124,3,15,1,1,3
zambrca01,Carlos Zambrano,8,6,35,18,0,0,1,377,116,52,10,57,106,2,5,5,0,544,5,58,6,3,10
zieglbr01,Brad Ziegler,3,4,43,4,0,0,3,186,61,25,5,25,42,4,1,2,0,263,11,26,2,2,8
zimmejo02,Jordan Zimmermann,4,5,29,13,0,0,1,260,88,42,11,29,83,2,2,4,0,372,5,46,3,3,6
zitoba01,Barry Zito,9,12,42,27,1,0,1,527,166,81,18,79,132,7,5,6,1,755,5,88,9,5,15
zumayjo01,Joel Zumaya,3,3,27,4,0,0,1,144,45,21,5,22,43,2,2,1,0,207,6,23,2,2,4
