playerID,playerName,W,L,G,GS,CG,SHO,SV,IPouts,H,ER,HR,BB,SO,IBB,WP,HBP,BK,BFP,GF,R,SH,SF,GIDP
abadfe01,Fernando Abad,2,3,22,3,0,0,1,112,38,18,5,13,25,1,1,1,0,161,4,19,1,1,2
abreuju01,Juan Abreu,2,2,13,3,0,0,1,86,27,12,3,10,43,1,1,2,0,123,3,13,1,1,2
accarje01,Jeremy Accardo,3,3,24,4,0,0,1,133,47,22,5,20,27,2,1,2,0,191,6,23,2,1,4
aceveal01,Alfredo Aceves,7,3,40,6,0,0,2,256,69,32,8,28,61,2,2,7,1,359,10,35,3,2,6
acostma01,Manny Acosta,3,2,33,4,0,0,2,156,51,22,6,20,51,1,2,2,0,222,10,24,2,1,4
adamsmi03,Mike Adams,2,2,29,3,0,0,1,131,34,16,4,13,50,1,1,1,0,181,5,17,1,1,3
adcocna01,Nathan Adcock,3,3,26,6,0,0,2,184,62,28,6,24,36,2,3,2,0,263,6,31,3,2,5
affelje01,Jeremy Affeldt,3,3,44,4,0,0,2,180,53,24,5,25,53,3,3,3,0,256,9,26,3,1,6
alberma01,Matt Albers,4,4,41,4,0,0,1,195,65,31,6,29,54,2,2,3,0,282,10,34,3,2,6
albural01,Al Alburquerque,4,2,26,4,0,0,1,143,35,18,4,24,74,2,2,2,0,201,7,20,2,1,3
alvarhe01,Henderson Alvarez,4,5,33,12,0,0,2,287,96,41,11,21,62,2,3,4,0,402,7,44,3,3,9
anderbr04,Brett Anderson,6,7,31,17,1,0,1,349,118,48,11,31,88,2,3,6,1,492,5,54,4,3,11
arredjo01,Jose Arredondo,3,3,32,4,0,0,1,155,47,22,5,25,48,2,3,2,1,221,7,24,2,1,5
arrieja01,Jake Arrieta,9,8,38,20,0,0,2,396,130,66,17,60,90,3,3,5,0,574,6,71,4,3,11
arroybr01,Bronson Arroyo,11,10,40,26,1,1,1,533,179,86,29,47,99,5,2,6,0,750,5,90,6,5,15
ascanjo01,Jose Ascanio,2,2,13,3,0,0,1,86,30,13,3,9,20,1,1,1,0,122,4,14,1,1,2
atchisc01,Scott Atchison,2,2,23,4,0,0,1,136,45,20,4,13,29,1,2,2,0,190,5,22,2,2,4
atkinmi01,Mitch Atkins,3,3,28,8,0,0,2,201,76,32,9,23,43,2,2,3,0,292,7,35,2,2,5
augenbr01,Bryan Augenstein,1,2,13,3,0,0,1,85,31,13,3,10,16,1,1,1,0,122,3,15,1,1,2
axelrdy01,Dylan Axelrod,3,3,25,7,0,0,2,184,59,26,6,24,61,2,2,2,0,262,6,28,2,2,5
axforjo01,John Axford,4,3,45,4,0,0,18,203,56,24,5,26,83,2,4,1,0,284,29,26,2,2,5
ayalalu01,Luis Ayala,3,3,30,4,0,0,1,157,50,20,5,19,37,2,2,3,0,222,9,23,3,2,6
badenbu01,Burke Badenhop,3,4,36,4,0,0,1,191,62,28,5,22,49,3,2,2,0,270,10,30,2,2,6
baezda01,Danys Baez,3,3,29,3,0,0,1,141,48,24,5,17,25,2,1,2,0,203,9,26,2,1,5
bailean01,Andrew Bailey,2,3,33,3,0,0,11,153,41,19,4,16,52,2,1,1,0,211,21,20,2,2,4
baileho02,Homer Bailey,8,7,37,21,0,0,1,418,141,66,16,46,115,4,5,5,0,595,5,70,4,4,9
bakersc02,Scott Baker,9,7,35,21,1,0,1,421,140,60,17,36,124,2,5,4,0,588,5,64,2,3,10
balesco01,Collin Balester,2,3,22,4,0,0,1,137,44,20,6,18,43,1,2,2,0,197,7,23,2,1,3
balfogr01,Grant Balfour,4,3,42,4,0,0,2,181,50,23,6,22,61,1,2,1,0,250,9,25,2,2,5
bardda01,Daniel Bard,3,5,49,4,0,0,2,209,51,27,6,26,76,2,2,2,0,288,9,29,3,2,4
bassan01,Anthony Bass,3,2,25,5,0,0,1,163,50,20,5,22,28,1,2,2,0,229,6,22,2,1,5
bastaan01,Antonio Bastardo,4,3,37,5,0,0,3,170,43,23,6,23,69,1,2,2,0,237,8,25,2,2,4
batismi01,Miguel Batista,3,3,31,5,0,0,1,186,56,26,6,28,39,3,2,3,0,263,8,28,2,2,7
beachbr01,Brandon Beachy,7,6,40,20,0,0,2,404,123,57,14,45,160,7,8,5,1,569,7,62,5,4,8
beatope01,Pedro Beato,3,3,34,5,0,0,1,179,55,27,6,23,35,2,2,3,0,253,6,31,2,2,5
beavabl01,Blake Beavan,6,7,35,15,0,0,2,337,119,51,13,24,49,2,4,4,0,475,7,54,3,4,8
beckch01,Chad Beck,1,1,12,3,0,0,1,79,25,11,3,9,42,1,1,1,0,112,3,12,1,1,2
beckejo02,Josh Beckett,10,7,39,24,1,1,1,503,154,71,20,49,155,2,5,7,0,701,5,77,6,4,12
bedarer01,Erik Bedard,4,4,28,11,0,0,2,234,74,34,8,32,80,1,2,2,0,334,6,37,2,2,5
beimejo01,Joe Beimel,2,2,31,3,0,0,1,124,45,19,5,14,24,1,1,1,0,178,7,20,2,1,4
belisma01,Matt Belisle,6,4,47,4,0,0,1,209,70,28,6,15,62,3,2,3,0,290,8,32,3,1,7
bellhe01,Heath Bell,4,3,43,4,0,0,21,187,53,22,4,22,64,2,3,1,0,259,29,24,3,1,5
belltr01,Trevor Bell,2,3,22,5,0,0,1,147,57,22,4,17,30,2,2,1,0,213,8,25,2,1,4
belowdu01,Duane Below,2,3,20,5,0,0,1,135,43,20,4,16,21,2,2,2,0,193,5,22,2,2,4
benoijo01,Joaquin Benoit,3,3,42,4,0,0,2,181,46,22,6,17,72,1,2,2,0,246,10,24,2,3,5
bergebr02,Brad Bergesen,5,7,32,14,1,0,1,318,117,56,14,32,56,3,2,4,1,461,5,61,3,3,9
bergju01,Justin Berg,2,2,19,3,0,0,1,106,35,16,3,14,14,1,1,2,0,152,5,17,1,1,3
berkeja01,Jason Berken,3,3,27,5,0,0,1,164,64,26,7,20,38,2,2,2,0,241,6,29,2,2,5
betande01,Dellin Betances,2,2,19,5,0,0,1,135,42,20,5,20,24,1,2,2,0,194,5,22,2,2,4
betanra01,Rafael Betancourt,3,2,45,4,0,0,3,183,51,24,7,12,81,1,3,1,1,249,12,26,2,2,4
billibr02,Bruce Billings,2,1,12,3,0,0,1,83,28,13,3,12,29,1,1,1,0,120,3,15,1,1,2
billich01,Chad Billingsley,10,10,41,26,1,0,1,523,166,77,13,72,148,5,6,7,0,750,5,84,9,8,14
blackni01,Nick Blackburn,8,10,37,23,1,0,1,449,176,75,19,43,71,3,4,4,0,652,5,84,5,4,14
blantjo01,Joe Blanton,5,4,24,13,0,0,1,264,98,43,12,24,70,2,2,3,0,378,4,46,4,3,7
blevije01,Jerry Blevins,2,2,28,3,0,0,1,132,43,18,5,17,41,1,1,1,0,189,7,21,2,2,3
boggsmi01,Mitchell Boggs,3,3,37,4,0,0,2,187,62,26,5,25,49,2,3,3,0,268,12,29,2,2,6
bowdemi01,Michael Bowden,2,2,18,3,0,0,1,112,39,17,4,14,30,1,2,1,0,160,6,18,1,1,3
boyerbl01,Blaine Boyer,2,2,19,3,0,0,1,101,36,16,3,13,15,1,1,1,0,146,5,18,1,1,4
brachbr01,Brad Brach,2,2,14,3,0,0,1,87,29,13,3,12,36,2,1,1,0,125,4,14,1,1,2
brackan01,Andrew Brackman,1,1,12,3,0,0,1,79,25,11,3,10,0,1,1,1,0,113,3,12,1,1,2
braddza01,Zach Braddock,2,2,24,3,0,0,1,114,34,18,4,17,41,1,2,2,0,164,5,19,1,2,3
bradeda01,Dallas Braden,5,6,24,12,1,0,1,265,86,36,8,24,55,1,2,2,0,368,4,40,3,2,7
braybi01,Bill Bray,3,3,41,4,0,0,1,156,43,22,5,18,51,2,2,2,0,218,7,23,2,2,3
brazoyh01,Yhency Brazoban,1,1,12,3,0,0,1,83,28,12,3,10,31,1,1,1,0,119,3,13,1,1,2
breslcr01,Craig Breslow,3,3,45,4,0,0,2,185,56,25,6,22,51,2,2,2,0,260,10,28,2,1,5
brittza01,Zack Britton,9,9,42,21,0,0,2,421,144,67,13,54,88,3,6,3,0,602,7,76,6,5,17
brodebr01,Brian Broderick,2,2,15,3,0,0,1,95,33,15,3,10,10,1,1,1,0,136,4,16,1,1,3
brothre01,Rex Brothers,2,3,28,4,0,0,1,139,41,19,5,19,68,2,2,1,0,197,5,21,1,1,4
broxtjo01,Jonathan Broxton,3,2,24,3,0,0,6,113,35,17,3,16,47,2,1,1,0,161,13,18,1,1,3
brunebr01,Brian Bruney,2,2,22,3,0,0,1,109,38,18,4,19,29,1,1,1,0,160,5,20,2,1,3
buchhcl01,Clay Buchholz,9,5,32,17,0,0,1,358,107,44,11,45,85,2,4,4,0,503,5,49,3,4,11
buchhta01,Taylor Buchholz,2,2,19,4,0,0,1,114,35,16,5,12,38,1,1,1,0,160,5,17,2,2,3
buehrma01,Mark Buehrle,11,9,40,26,1,0,1,544,199,78,18,42,92,3,3,3,1,764,5,86,6,6,17
buentja01,Jay Buente,1,1,12,3,0,0,1,81,28,12,3,12,16,1,1,1,0,117,3,13,1,1,2
bulgeja01,Jason Bulger,2,2,17,3,0,0,1,95,28,13,4,16,31,1,1,1,0,135,5,15,1,1,3
bumgama01,Madison Bumgarner,11,11,45,26,0,0,2,539,181,68,15,44,162,5,2,6,1,753,6,75,8,5,12
burneaj01,A. J. Burnett,10,10,41,26,1,0,1,509,171,90,23,73,148,2,15,10,0,740,5,95,5,7,16
burneal01,Alex Burnett,3,4,39,4,0,0,1,169,56,28,6,23,38,2,2,4,0,244,9,30,3,2,5
burnese01,Sean Burnett,3,4,45,4,0,0,2,178,53,24,6,22,45,3,2,2,0,252,9,25,3,1,5
burrebr01,Brian Burres,3,3,20,7,0,0,1,161,55,25,6,20,31,2,2,2,0,233,4,28,2,2,4
burtoja01,Jared Burton,1,1,14,3,0,0,1,83,27,12,3,10,19,1,1,1,0,118,4,13,1,1,2
bushda01,Dave Bush,3,4,21,9,0,0,1,199,74,33,9,22,43,2,2,3,0,291,4,39,3,2,6
byrdati01,Tim Byrdak,2,2,41,3,0,0,1,139,42,20,5,22,47,2,2,1,0,199,7,22,2,2,3
cahiltr01,Trevor Cahill,12,11,44,28,0,0,1,567,180,80,20,70,121,2,8,6,1,799,5,88,6,6,18
cainma01,Matt Cain,11,10,42,27,2,1,1,583,161,70,15,58,157,5,6,6,0,798,5,76,8,6,10
campsh01,Shawn Camp,4,3,44,4,0,0,2,191,66,27,6,21,37,4,1,3,0,272,12,30,2,2,8
cappsma01,Matt Capps,4,4,41,4,0,0,10,182,62,27,7,16,38,2,2,2,0,256,20,29,2,2,6
capuach01,Chris Capuano,9,9,46,22,1,1,2,465,160,73,20,46,137,4,5,4,0,664,8,78,7,3,12
carigan01,Andrew Carignan,2,2,13,3,0,0,1,86,29,13,3,10,20,1,1,1,0,123,3,14,1,1,2
carlybu01,Buddy Carlyle,1,2,13,3,0,0,1,85,28,13,3,13,22,1,1,1,0,122,4,14,1,1,2
carmofa01,Roberto Hernandez,9,12,41,26,1,0,1,521,181,87,18,63,101,2,4,9,1,753,5,99,6,6,16
carpean01,Drew Carpenter,2,2,13,3,0,0,1,85,30,13,3,10,25,1,2,1,0,121,3,14,1,1,2
carpech01,Chris Carpenter,12,8,42,27,2,1,1,592,189,76,15,48,156,4,3,7,1,821,5,82,8,4,18
carpech02,Chris Carpenter,2,2,14,3,0,0,1,91,30,13,3,12,22,1,1,1,0,130,3,14,1,1,2
carpeda01,David Carpenter,2,3,22,4,0,0,1,118,38,16,4,15,39,3,2,2,0,169,6,18,2,1,3
carraca01,Carlos Carrasco,7,8,37,19,1,0,2,390,137,62,16,43,90,3,4,4,0,557,6,67,4,5,9
carradj01,D. J. Carrasco,2,2,29,4,0,0,1,155,57,25,5,18,32,2,2,3,0,225,8,28,2,1,6
carrejo01,Joel Carreno,2,2,15,3,0,0,1,101,31,14,3,11,34,1,1,1,0,141,4,15,1,1,3
cashnan01,Andrew Cashner,2,3,23,4,0,0,1,125,37,18,5,18,36,2,2,2,0,178,5,20,2,1,3
cassebo01,Bobby Cassevah,2,2,25,4,0,0,1,142,42,19,4,20,27,2,2,2,0,200,7,21,2,1,6
castial02,Alberto Castillo,2,1,18,3,0,0,1,93,31,14,3,13,21,1,1,1,0,133,5,15,1,1,3
cecilbr01,Brett Cecil,8,9,36,21,1,0,1,425,145,68,19,48,98,2,4,5,0,605,5,73,3,5,12
cedajo01,Jose Ceda,2,2,18,4,0,0,1,111,33,17,4,18,36,1,1,1,0,158,5,18,1,1,3
cedenxa01,Xavier Cedeno,1,1,12,3,0,0,1,79,28,12,3,9,0,1,1,1,0,113,3,13,1,1,2
chacijh01,Jhoulys Chacin,10,12,46,25,1,1,2,528,152,72,17,78,149,3,6,6,0,749,7,81,6,4,15
chambjo03,Joba Chamberlain,3,2,25,5,0,0,1,141,46,21,5,18,43,1,2,2,0,200,5,23,1,1,4
chapmar01,Aroldis Chapman,4,3,33,4,0,0,1,159,38,22,4,31,77,1,3,2,0,222,8,24,2,1,4
chatwty01,Tyler Chatwood,7,9,41,19,0,0,2,399,148,64,13,61,68,4,4,5,1,580,7,70,5,3,18
chaveje01,Jesse Chavez,2,2,17,3,0,0,1,94,33,15,4,12,22,1,1,1,0,136,5,17,1,1,2
chenbr01,Bruce Chen,10,8,41,21,1,0,2,446,147,66,18,53,98,3,4,6,0,635,7,72,5,5,10
choatra01,Randy Choate,2,2,38,3,0,0,1,122,34,17,4,16,42,3,2,2,0,172,6,19,2,1,4
cishest01,Steve Cishek,3,2,29,4,0,0,2,161,47,21,4,19,54,3,3,2,0,227,10,23,2,1,5
cletoma01,Maikel Cleto,2,2,12,3,0,0,1,84,28,13,3,11,29,1,1,1,0,121,3,14,1,1,2
clippty01,Tyler Clippard,5,4,50,4,0,0,1,238,56,27,9,31,98,2,2,2,0,323,10,29,3,3,5
cobbal01,Alex Cobb,5,4,31,11,0,0,2,265,84,37,8,33,62,2,3,3,0,376,7,40,2,2,8
coffeto01,Todd Coffey,3,3,45,4,0,0,1,182,58,26,6,20,49,3,2,2,0,257,10,29,3,2,4
cokeph01,Phil Coke,5,6,55,9,0,0,2,287,97,44,7,35,67,4,4,4,0,410,11,50,3,3,10
colemca01,Casey Coleman,6,7,35,15,0,0,2,320,114,56,11,49,79,3,4,4,1,471,6,60,5,4,9
colemlo01,Louis Coleman,2,3,30,4,0,0,1,167,47,22,7,22,62,3,3,2,0,235,7,24,2,1,4
colliti01,Tim Collins,3,3,37,5,0,0,1,182,51,26,6,34,53,2,2,2,0,261,10,28,2,1,5
collmjo01,Josh Collmenter,8,8,40,18,0,0,2,395,121,53,14,29,88,3,3,4,1,544,8,57,6,3,7
colonba01,Bartolo Colon,7,8,38,19,1,1,2,403,140,60,17,37,107,3,2,4,0,571,6,69,4,5,10
contrjo01,Jose Contreras,2,2,23,3,0,0,2,109,34,15,3,13,36,1,1,2,0,154,7,16,2,1,3
cookaa01,Aaron Cook,6,8,32,18,1,0,1,354,136,63,12,42,57,4,3,4,0,517,5,66,3,6,14
cookry01,Ryan Cook,2,2,14,3,0,0,1,89,30,13,3,13,22,1,1,1,0,127,4,15,1,1,2
cordefr01,Francisco Cordero,4,4,47,4,0,0,19,196,56,25,6,26,48,1,3,2,0,274,33,27,2,2,6
cormila01,Lance Cormier,2,2,22,3,0,0,1,113,40,18,4,15,17,1,2,1,0,164,6,19,1,1,3
correke01,Kevin Correia,10,9,38,23,1,0,1,447,157,76,19,48,94,3,4,4,1,639,5,80,6,3,12
corteda02,Dan Cortes,2,2,15,3,0,0,1,95,31,14,3,12,14,1,2,1,0,135,4,16,1,1,3
crainje01,Jesse Crain,5,3,46,4,0,0,1,192,54,25,6,28,64,3,2,2,0,269,10,27,2,2,5
cramebo01,Bobby Cramer,2,2,13,4,0,0,1,93,29,13,4,9,21,1,1,1,0,131,3,14,1,1,3
crottmi01,Michael Crotta,2,2,15,3,0,0,1,92,34,15,3,11,16,1,1,1,0,132,3,16,1,1,2
crowaa01,Aaron Crow,3,3,33,4,0,0,1,171,52,23,6,25,59,2,4,1,0,243,10,25,2,1,4
cruzju02,Juan Cruz,3,2,31,4,0,0,1,147,44,22,5,25,45,1,2,1,0,209,7,24,1,1,4
cuetojo01,Johnny Cueto,10,7,38,24,1,1,1,478,145,58,15,51,114,2,5,9,1,666,5,67,8,4,14
daleyma01,Matt Daley,1,1,18,3,0,0,1,91,30,14,3,11,29,1,1,1,0,130,4,15,1,1,2
danksjo01,John Danks,10,10,39,24,1,1,1,505,163,75,18,54,130,3,4,5,0,710,5,80,5,4,15
davieky01,Kyle Davies,5,8,30,17,0,0,1,327,122,61,12,48,77,2,5,4,0,482,4,66,3,4,9
davisdo02,Doug Davis,4,7,26,13,0,0,1,254,93,45,9,41,62,2,3,3,0,377,5,49,5,3,7
daviswa01,Wade Davis,10,10,42,25,1,0,2,512,171,79,21,60,106,3,5,6,0,733,6,84,5,6,13
dedunsa01,Sam Deduno,1,1,12,3,0,0,1,80,27,12,3,10,27,1,1,1,0,115,3,13,1,1,2
defraju01,Justin De Fratus,2,1,12,3,0,0,1,83,25,12,3,10,21,1,1,1,0,118,3,13,1,1,2
delabst01,Steve Delabar,2,2,13,3,0,0,1,86,27,12,3,11,30,1,1,1,0,121,4,13,1,1,2
delaceu01,Frankie De La Cruz,2,2,15,3,0,0,1,95,29,14,3,13,21,1,2,1,0,135,5,15,1,1,3
delanro01,Rob Delaney,2,1,12,3,0,0,1,83,27,13,3,13,13,1,1,1,0,119,3,14,1,1,2
delarda01,Dane De La Rosa,2,2,13,3,0,0,1,86,29,13,3,10,29,1,1,1,0,122,3,15,1,1,2
delarjo01,Jorge De La Rosa,7,5,28,15,0,0,1,303,90,44,10,42,97,2,6,4,1,428,4,49,4,3,10
delarru01,Rubby De La Rosa,5,5,31,11,0,0,2,256,79,37,9,38,85,3,3,2,0,361,7,39,3,2,6
delgara01,Randall Delgado,4,4,31,11,0,0,2,242,73,33,9,30,42,2,3,3,0,343,7,36,2,2,6
delosfa01,Fautino De Los Santos,3,2,23,4,0,0,1,127,38,19,5,18,54,1,3,1,0,181,6,21,2,1,3
delroen01,Enerio Del Rosario,2,3,31,4,0,0,1,157,54,24,5,24,28,2,2,2,0,229,8,27,2,1,4
demelsa01,Sam Demel,2,2,26,3,0,0,1,126,45,19,5,16,29,1,2,2,0,182,6,22,1,1,4
dempsry01,Ryan Dempster,10,11,41,27,1,0,1,538,176,85,20,68,167,3,6,6,0,769,5,92,9,4,14
detwiro01,Ross Detwiler,4,6,29,12,0,0,1,257,87,36,9,31,51,3,3,3,0,368,5,42,5,3,8
devinjo01,Joey Devine,2,2,19,4,0,0,1,110,33,16,3,14,31,1,1,2,0,156,4,17,1,1,3
diamosc01,Scott Diamond,4,6,30,10,0,0,2,243,90,38,8,31,37,3,4,2,0,351,7,42,3,2,8
dickera01,R. A. Dickey,9,10,44,24,1,0,1,527,172,67,16,50,111,3,8,6,1,739,7,74,10,5,16
dicksbr01,Brandon Dickson,2,2,16,4,0,0,1,114,38,17,4,13,33,1,1,1,0,162,4,18,1,1,4
difelma01,Mark DiFelice,1,1,13,3,0,0,1,78,25,12,3,9,24,1,1,1,0,111,3,13,1,1,2
dillati01,Tim Dillard,2,2,19,4,0,0,1,118,38,17,4,12,36,1,2,2,0,167,6,19,2,1,3
dolisra01,Rafael Dolis,1,1,11,3,0,0,1,79,25,11,3,9,28,1,1,1,0,112,3,13,1,1,2
doteloc01,Octavio Dotel,2,2,22,3,0,0,1,110,32,16,4,15,46,1,2,1,0,155,6,17,2,1,2
doubrfe01,Felix Doubront,2,2,16,4,0,0,1,100,34,15,4,14,25,1,1,1,0,144,4,17,1,1,3
downssc01,Scott Downs,4,3,41,4,0,0,2,170,48,20,5,16,43,2,2,2,0,236,10,22,2,2,5
drabeky01,Kyle Drabek,5,6,33,13,0,0,2,286,99,50,11,52,60,2,7,2,0,418,7,53,4,4,10
duensbr01,Brian Duensing,9,9,48,20,1,1,1,449,160,70,16,48,100,4,3,3,0,640,8,75,6,4,15
duffyda01,Danny Duffy,6,7,38,17,0,0,2,348,124,60,14,51,93,2,4,5,1,506,7,63,3,3,8
dukeza01,Zach Duke,5,6,26,13,0,0,1,283,114,49,11,26,48,1,2,2,1,411,5,52,5,3,9
dumatph01,Phil Dumatrait,2,3,27,4,0,0,1,136,45,20,6,22,29,2,2,1,0,199,7,23,2,2,3
dunnmi01,Mike Dunn,4,4,41,4,0,0,1,177,51,24,7,29,66,2,3,2,0,253,8,27,3,2,5
durbich01,Chad Durbin,3,3,42,4,0,0,1,195,66,31,8,28,56,2,3,3,0,283,9,34,2,3,5
edlefst01,Steve Edlefsen,2,2,15,3,0,0,1,93,33,15,3,14,13,1,1,1,0,134,3,16,1,1,3
ekstrmi01,Mike Ekstrom,1,1,13,3,0,0,1,81,26,12,3,10,22,1,1,1,0,116,4,13,1,1,2
elbersc01,Scott Elbert,2,2,27,4,0,0,1,127,38,17,4,17,43,2,2,1,0,179,6,19,1,1,3
elyjo01,John Ely,2,3,17,6,0,0,1,148,50,24,6,19,39,1,2,1,0,210,4,26,2,2,4
enrigba01,Barry Enright,5,6,29,13,0,0,2,271,96,45,15,30,46,2,3,2,0,387,6,47,5,3,9
eovalna01,Nathan Eovaldi,3,4,26,8,0,0,2,198,59,28,6,30,44,1,2,3,0,280,6,31,3,2,6
eppleco01,Cody Eppley,2,2,14,3,0,0,1,90,30,14,4,11,18,1,1,1,0,128,3,15,1,1,2
escaled01,Edgmer Escalona,2,2,18,4,0,0,1,117,34,15,4,13,22,2,1,1,0,164,5,17,1,1,3
escalse01,Sergio Escalona,2,2,26,4,0,0,1,117,36,16,4,14,35,1,2,2,0,166,5,18,2,1,4
estrama01,Marco Estrada,4,5,35,8,0,0,1,234,73,36,9,27,77,2,3,2,1,331,9,39,4,2,6
evelada01,Dana Eveland,5,5,28,10,0,0,2,227,83,34,7,28,37,2,3,3,0,326,6,38,3,2,8
eyrewi01,Willie Eyre,2,2,17,3,0,0,1,101,30,15,3,11,19,1,1,1,0,142,4,16,1,1,3
farnsky01,Kyle Farnsworth,3,3,37,4,0,0,7,164,49,22,5,16,55,2,2,2,0,229,18,24,2,2,4
farquda01,Danny Farquhar,1,1,12,3,0,0,1,80,27,12,3,10,10,1,1,1,0,114,3,13,1,1,2
feldmsc01,Scott Feldman,4,4,19,8,0,0,1,184,65,30,7,20,36,1,3,2,0,264,4,33,2,2,5
felizne01,Neftali Feliz,3,3,44,4,0,0,16,195,47,25,6,24,65,1,3,2,0,268,28,26,2,2,5
fiersmi01,Mike Fiers,1,1,11,3,0,0,1,79,25,11,3,10,22,1,1,1,0,112,3,12,1,1,2
figuene01,Nelson Figueroa,3,4,24,9,0,0,1,199,72,33,7,25,49,2,3,3,0,290,5,36,2,2,5
fisheca01,Carlos Fisher,2,2,20,3,0,0,1,118,38,18,4,18,32,1,2,1,0,169,6,20,2,1,3
fistedo01,Doug Fister,7,6,30,15,0,0,1,329,109,43,10,21,72,2,3,4,1,457,5,48,2,3,9
floydga01,Gavin Floyd,10,11,40,25,1,0,1,523,171,81,18,49,141,3,9,7,1,731,5,85,4,5,17
francfr01,Frank Francisco,3,4,38,4,0,0,7,165,52,23,6,19,60,2,2,1,0,233,18,25,2,1,4
francje01,Jeff Francis,7,11,43,24,1,0,2,483,187,81,17,37,85,4,4,5,1,694,6,86,7,6,14
frankry01,Ryan Franklin,3,3,27,3,0,0,7,132,45,21,5,13,29,1,2,2,0,188,14,22,2,1,4
frasoja01,Jason Frasor,2,2,26,3,0,0,2,118,37,17,4,15,40,2,2,2,0,169,8,18,1,1,3
frierer01,Ernesto Frieri,3,3,38,4,0,0,1,181,49,23,5,28,73,3,2,4,0,258,12,25,2,1,4
fuentbr01,Brian Fuentes,2,4,37,4,0,0,8,161,48,23,5,19,41,2,2,3,0,229,15,25,2,2,4
fulchje01,Jeff Fulchino,2,1,17,2,0,0,1,91,30,14,3,12,27,1,1,1,0,130,5,15,1,1,2
furbuch01,Charlie Furbush,5,6,31,11,0,0,2,254,90,44,11,27,64,2,3,3,0,364,7,47,2,3,7
galarar01,Armando Galarraga,5,6,27,14,1,0,1,286,98,48,15,39,55,2,3,3,1,415,4,54,3,5,8
gallayo01,Yovani Gallardo,13,9,43,28,1,1,1,556,171,77,20,69,193,3,9,3,0,787,5,85,8,5,12
garcifr02,Freddy Garcia,10,7,38,22,0,0,1,434,151,64,17,43,90,4,4,4,0,615,6,69,4,5,10
garcija01,Santiago Casilla,3,3,36,4,0,0,3,168,46,20,4,25,50,2,4,2,0,236,11,23,3,1,5
garcija02,Jaime Garcia,12,8,44,26,1,1,2,530,177,69,14,54,142,3,8,4,1,751,6,84,7,4,19
garlajo01,Jon Garland,6,7,29,15,0,0,1,317,99,45,11,41,68,3,3,3,0,447,5,48,4,4,11
garrist01,Steve Garrison,1,1,11,3,0,0,1,77,25,11,3,9,0,1,1,1,0,110,3,12,1,1,2
garzama01,Matt Garza,10,9,41,26,2,0,2,538,168,73,19,60,162,3,7,5,1,759,5,83,6,4,14
gaubjo01,John Gaub,1,1,12,3,0,0,1,80,25,12,3,10,28,1,1,1,0,113,3,13,1,1,2
gaudich01,Chad Gaudin,2,2,16,3,0,0,1,102,33,16,5,15,26,1,1,2,0,147,5,18,1,1,3
gearrco01,Cory Gearrin,2,2,17,3,0,0,1,104,33,17,3,15,44,2,1,2,0,149,4,18,1,1,3
geedi01,Dillon Gee,10,7,41,20,1,0,2,428,131,65,15,60,97,4,5,8,1,616,7,70,8,4,11
germaju01,Justin Germano,2,2,17,3,0,0,1,104,32,15,4,11,23,1,1,2,0,149,4,17,1,1,2
godfrgr01,Graham Godfrey,4,4,26,8,0,0,2,198,71,29,7,19,33,2,2,2,0,283,6,32,3,2,5
gomesbr01,Brandon Gomes,2,2,25,4,0,0,1,131,41,18,4,17,37,1,1,1,0,187,8,20,2,2,3
gomezje01,Jeanmar Gomez,6,6,31,13,0,0,2,284,109,44,10,29,51,3,3,3,0,412,6,49,2,3,7
gonzaed01,Edgar Gonzalez,1,1,11,3,0,0,1,78,28,12,2,10,14,1,1,1,0,112,3,13,1,1,2
gonzaen01,Enrique Gonzalez,2,2,15,3,0,0,1,96,31,15,4,15,13,1,1,1,0,137,6,16,1,1,3
gonzagi01,Gio Gonzalez,13,10,43,27,0,0,1,550,164,70,17,83,173,2,5,6,1,785,5,79,4,3,16
gonzami02,Mike Gonzalez,2,2,18,3,0,0,1,92,26,13,3,13,35,1,2,1,0,130,5,14,2,1,3
gordobr01,Brian Gordon,3,4,26,8,0,0,2,193,64,29,8,21,24,2,2,3,0,274,6,31,3,2,5
gorzeto01,Tom Gorzelanny,6,6,35,15,0,0,1,325,106,49,12,41,97,4,3,4,0,466,6,53,5,4,10
grabojo02,John Grabow,3,3,37,4,0,0,1,174,60,28,7,24,36,2,2,2,1,253,12,32,3,2,4
grayje02,Jeff Gray,2,2,22,4,0,0,1,130,45,20,4,16,21,1,2,1,0,187,6,22,2,1,4
greense01,Sean Green,1,2,19,3,0,0,1,94,29,14,3,14,23,1,1,2,0,137,4,16,1,1,2
gregelu01,Luke Gregerson,3,4,44,4,0,0,1,183,52,24,5,20,58,3,2,2,0,255,8,27,3,1,5
greggke01,Kevin Gregg,2,4,43,4,0,0,13,179,55,27,7,30,55,2,3,2,0,260,27,30,2,2,5
greinza01,Zack Greinke,11,8,38,24,1,0,1,504,159,72,15,43,174,1,6,5,0,699,5,77,6,3,13
grillja01,Jason Grilli,2,2,22,4,0,0,1,121,35,17,4,17,45,2,2,2,0,172,5,18,1,1,3
guerrja01,Javy Guerra,3,3,28,4,0,0,7,147,43,19,4,18,40,1,2,2,0,207,14,21,2,1,3
guerrma02,Matt Guerrier,4,4,47,4,0,0,1,193,56,27,6,21,44,2,2,2,0,269,9,29,2,2,4
guthrje01,Jeremy Guthrie,9,13,41,26,1,0,1,542,181,83,23,53,107,3,2,9,1,768,5,92,4,7,15
gutieju01,J. C. Gutierrez,2,2,25,3,0,0,3,120,39,19,5,16,37,2,1,2,0,173,9,21,1,1,3
hackeer01,Eric Hacker,1,1,12,3,0,0,1,83,26,12,3,11,10,1,1,1,0,118,3,13,1,1,3
hagadni01,Nick Hagadone,2,2,14,3,0,0,1,93,27,14,3,12,34,1,1,1,0,131,4,15,1,1,3
hallaro01,Roy Halladay,15,8,40,26,6,2,1,595,185,62,15,31,182,3,4,5,1,803,5,67,9,6,16
hambuma01,Mark Hamburger,2,2,13,3,0,0,1,89,27,13,3,10,24,1,1,1,0,126,3,14,1,1,2
hamelco01,Cole Hamels,11,9,42,27,2,0,1,563,166,68,20,46,176,4,3,6,1,768,5,72,7,3,15
hammeja01,Jason Hammel,8,9,40,23,0,0,2,471,168,78,17,50,104,3,7,6,1,678,5,85,9,5,13
hamreer01,Erik Hamren,2,2,15,3,0,0,1,95,29,14,3,14,25,1,1,1,0,135,4,15,2,1,3
handbr01,Brad Hand,4,7,34,13,0,0,2,281,85,42,12,45,58,2,2,3,1,403,7,46,4,3,6
hanrajo01,Joel Hanrahan,3,3,47,4,0,0,12,198,57,24,5,23,74,2,4,2,0,276,23,26,2,2,5
hansoto01,Tommy Hanson,10,8,37,22,0,0,1,444,129,59,15,49,144,3,4,6,0,619,5,64,6,4,9
happja01,J. A. Happ,8,10,39,22,1,1,1,435,137,72,17,65,118,4,4,3,1,625,6,76,8,6,11
haranaa01,Aaron Harang,10,8,39,23,0,0,1,462,168,70,19,49,117,3,6,4,0,662,5,75,5,3,12
harderi01,Rich Harden,6,6,32,17,0,0,1,330,106,56,17,51,114,2,5,5,0,481,5,60,3,4,7
harenda01,Dan Haren,11,9,41,25,2,1,1,558,166,69,18,34,160,2,6,5,0,758,6,74,7,5,10
harrelu01,Lucas Harrell,2,3,19,5,0,0,1,138,48,20,4,20,29,1,2,2,0,201,5,24,2,1,3
harrima01,Matt Harrison,10,8,48,22,0,0,2,484,162,68,15,56,105,3,6,3,1,688,8,77,6,6,19
hatchch02,Chris Hatcher,2,2,14,3,0,0,1,92,32,14,3,11,22,1,1,1,0,131,4,15,1,1,3
hawkila01,LaTroy Hawkins,3,3,32,4,0,0,2,147,50,20,4,13,34,1,2,2,0,209,9,22,2,1,4
hawksbl01,Blake Hawksworth,3,4,34,5,0,0,1,182,62,28,7,22,43,2,2,2,1,259,8,31,3,2,5
heilmaa01,Aaron Heilman,3,3,32,3,0,0,2,147,52,25,6,18,41,2,2,2,0,213,9,26,2,1,3
hellije01,Jeremy Hellickson,11,8,44,22,1,1,2,486,133,61,18,59,107,6,7,5,1,673,7,64,3,3,11
hendrli01,Liam Hendriks,4,4,29,9,0,0,2,223,79,35,8,23,51,2,3,2,0,316,7,38,2,2,7
hendrma01,Mark Hendrickson,2,2,19,3,0,0,1,111,42,18,4,12,23,1,1,1,0,161,4,20,1,1,3
henslcl01,Clay Hensley,5,5,41,7,0,0,2,222,64,33,7,30,60,2,2,3,0,315,11,35,3,2,5
hernada01,David Hernandez,5,4,39,6,0,0,4,205,61,30,8,30,63,2,4,2,0,294,12,33,2,2,4
hernafe02,Felix Hernandez,12,10,42,27,3,0,1,616,179,73,16,60,194,2,11,7,1,846,5,82,5,6,20
hernali01,Livan Hernandez,8,10,40,24,1,1,1,494,176,75,15,48,91,5,3,4,0,702,5,82,10,6,14
herndda01,David Herndon,2,4,35,4,0,0,1,178,62,25,6,22,38,3,2,2,0,255,12,28,4,2,6
herreda01,Danny Herrera,2,2,21,3,0,0,1,94,33,13,3,11,21,1,1,1,0,134,4,14,1,1,3
herreke01,Kelvin Herrera,1,2,12,3,0,0,1,81,26,12,3,9,0,1,1,1,0,115,3,13,1,1,2
herrmfr01,Frank Herrmann,3,2,32,4,0,0,1,174,64,27,7,16,33,1,2,2,0,250,10,30,2,1,5
hillri01,Rich Hill,2,2,13,3,0,0,1,87,28,13,3,14,27,1,1,1,0,125,3,15,1,1,2
hochelu01,Luke Hochevar,9,10,41,25,1,0,2,508,172,85,19,55,115,3,6,6,1,723,6,95,3,3,15
hoeyja02,Jim Hoey,2,2,19,4,0,0,1,112,41,17,4,15,19,1,1,1,0,161,6,20,1,1,4
hollade01,Derek Holland,11,8,44,24,2,2,2,503,171,75,20,58,138,2,3,6,1,719,6,86,3,4,15
hollagr01,Greg Holland,3,3,31,4,0,0,2,173,48,22,5,20,74,2,4,2,0,240,10,24,2,1,5
horstje01,Jeremy Horst,2,2,15,3,0,0,1,99,34,14,4,12,18,1,1,1,0,141,4,16,1,1,3
hottoto01,Tommy Hottovy,1,1,13,3,0,0,1,81,26,12,3,10,12,1,1,1,0,115,3,13,1,1,2
howeljp01,J. P. Howell,3,3,27,3,0,0,2,121,36,19,5,19,40,1,2,2,1,173,7,21,1,1,4
hudsoda01,Daniel Hudson,13,9,44,25,2,0,2,550,169,70,16,45,145,2,5,7,1,759,7,77,5,5,13
hudsoti01,Tim Hudson,13,9,42,26,1,0,1,557,164,69,15,55,129,5,7,9,0,767,5,74,6,4,21
huffda01,David Huff,5,8,28,14,0,0,1,272,103,45,11,31,49,2,3,2,0,399,5,54,3,3,8
hughedu01,Dusty Hughes,2,2,22,3,0,0,1,111,38,18,4,16,25,1,1,2,0,160,6,19,1,2,3
hugheja02,Jared Hughes,2,2,15,3,0,0,1,93,29,14,3,11,29,1,1,1,0,131,3,15,1,1,2
hugheph01,Phil Hughes,8,6,35,16,0,0,2,332,107,54,13,38,89,2,5,3,1,471,5,55,3,4,8
humbeph01,Philip Humber,8,8,42,19,0,0,2,422,135,61,13,41,102,3,7,5,1,593,7,65,3,4,10
hunteto02,Tommy Hunter,7,5,30,15,0,0,1,319,113,49,14,27,56,2,2,4,0,454,5,53,3,2,9
igarary01,Ryota Igarashi,3,2,30,4,0,0,1,140,46,23,5,24,43,2,2,2,0,206,7,24,2,1,4
isrinja01,Jason Isringhausen,3,3,28,4,0,0,3,140,40,21,5,21,43,1,2,2,0,199,8,22,2,2,3
jacksed01,Edwin Jackson,6,4,28,14,0,0,1,311,106,43,11,32,81,3,4,3,0,441,5,48,5,2,9
jakubch01,Chris Jakubauskas,3,3,29,7,0,0,1,200,74,34,9,23,42,2,3,2,0,289,8,37,2,2,5
jamesch03,Chuck James,2,2,13,3,0,0,1,90,30,14,3,11,22,1,1,1,1,128,4,15,1,1,2
janseke01,Kenley Jansen,3,2,33,4,0,0,3,168,39,21,5,25,100,1,1,2,1,234,9,23,2,1,3
janssca01,Casey Janssen,4,2,37,4,0,0,1,178,60,23,6,18,53,1,2,2,0,252,9,26,2,1,4
jeffrje01,Jeremy Jeffress,2,2,17,3,0,0,1,103,31,15,3,16,28,1,1,1,0,147,5,17,2,1,3
jenksbo01,Bobby Jenks,2,2,24,3,0,0,6,114,39,18,4,15,39,1,2,1,0,164,12,19,1,1,3
jepseke01,Kevin Jepsen,2,2,25,3,0,0,1,113,39,18,3,16,32,2,3,1,0,163,5,19,2,1,3
jimence01,Cesar Jimenez,2,2,13,3,0,0,1,86,27,13,3,10,28,1,1,1,0,122,3,14,1,1,2
jimenub01,Ubaldo Jimenez,8,6,28,16,1,0,1,347,98,48,9,46,110,3,6,4,1,485,4,51,4,2,10
joaquwa01,Waldis Joaquin,2,1,13,3,0,0,1,87,28,13,3,13,18,1,2,1,0,125,3,14,1,1,2
johnsal02,Alan Johnson,3,3,26,7,0,0,2,186,62,28,6,23,40,2,3,2,0,265,6,31,3,2,5
johnsji04,Jim Johnson,4,4,45,4,0,0,5,219,71,28,6,20,50,2,3,2,1,307,13,31,3,2,7
johnsjo09,Josh Johnson,6,4,27,15,1,0,1,328,92,36,7,32,107,3,4,3,0,448,4,39,4,3,7
judyjo01,Josh Judy,2,2,15,3,0,0,1,98,34,15,4,11,21,1,1,2,0,140,4,16,1,1,3
jurrjja01,Jair Jurrjens,10,7,37,22,1,0,1,451,143,60,14,50,100,4,4,4,1,630,5,63,7,4,11
karstje01,Jeff Karstens,7,9,42,21,1,0,1,445,157,65,19,39,85,5,3,4,1,625,7,73,5,6,13
kazmisc01,Scott Kazmir,4,6,24,11,0,0,1,229,77,41,10,34,46,2,3,5,0,334,4,43,2,2,7
kellesh01,Shawn Kelley,2,2,18,3,0,0,1,102,32,14,4,11,32,1,1,1,0,144,5,15,1,1,3
kendrky01,Kyle Kendrick,7,6,36,16,0,0,1,350,120,51,14,33,58,4,2,4,1,493,6,57,5,4,12
kenneia01,Ian Kennedy,14,7,45,27,1,0,2,575,164,73,20,57,171,2,10,8,1,794,6,77,8,6,13
kershcl01,Clayton Kershaw,14,8,45,29,2,1,1,609,157,66,14,70,218,5,6,5,1,827,5,72,9,3,13
kimbaco01,Cole Kimball,2,2,15,3,0,0,1,97,28,14,3,15,26,1,1,1,0,138,4,15,1,1,3
kimbrcr01,Craig Kimbrel,4,3,45,5,0,0,15,203,49,24,5,29,118,2,3,2,0,281,24,26,2,2,5
kinnejo01,Josh Kinney,2,2,16,3,0,0,1,100,36,16,3,13,30,1,1,2,0,144,5,17,1,1,3
kintzbr01,Brandon Kintzler,2,2,15,3,0,0,1,100,33,15,4,11,36,1,1,1,0,141,4,17,1,1,3
kirkmmi01,Michael Kirkman,2,2,19,4,0,0,1,123,37,19,5,17,33,2,2,2,0,176,5,21,1,2,3
klubeco01,Corey Kluber,2,1,12,3,0,0,1,83,27,13,3,10,24,1,1,1,0,119,3,14,1,1,2
kohnmi01,Michael Kohn,2,2,18,3,0,0,1,102,32,15,4,16,26,1,1,1,0,146,6,16,2,1,2
kontoge01,George Kontos,2,2,13,3,0,0,1,85,27,12,3,10,30,1,1,1,0,120,4,13,1,1,2
kroenza01,Zach Kroenke,2,2,12,3,0,0,1,83,29,13,3,10,13,1,1,1,0,119,3,14,1,1,2
kuoho01,Hung-Chih Kuo,2,2,30,3,0,0,2,133,33,20,4,20,55,1,2,2,0,187,6,21,2,1,3
kurodhi01,Hiroki Kuroda,11,12,41,26,0,0,1,529,168,67,18,44,141,7,9,5,1,735,5,76,7,5,11
lackejo01,John Lackey,10,9,38,24,0,0,1,477,178,87,17,51,112,2,6,10,0,699,5,92,4,5,15
laffeaa01,Aaron Laffey,2,2,16,4,0,0,1,109,39,16,3,16,18,1,1,1,0,158,3,18,1,1,4
lannajo01,John Lannan,9,10,41,26,0,0,1,503,180,74,16,62,87,4,4,6,0,728,5,84,8,3,20
latosma01,Mat Latos,10,11,43,27,0,0,2,540,155,70,17,58,175,4,5,3,1,745,6,76,6,5,9
leagubr01,Brandon League,4,4,44,4,0,0,10,191,59,25,6,17,51,2,4,2,0,266,23,30,3,1,7
leakemi01,Mike Leake,10,8,41,22,0,0,2,473,161,70,20,44,109,3,3,6,1,667,7,76,5,5,15
leblawa01,Wade LeBlanc,7,8,33,17,0,0,1,345,118,54,14,41,80,3,3,3,1,490,5,56,5,3,10
lecursa01,Sam LeCure,3,4,33,7,0,0,1,217,63,32,8,25,66,3,2,4,0,303,7,34,3,2,5
ledezwi01,Wil Ledezma,1,2,16,3,0,0,1,89,32,15,3,12,28,1,1,1,0,130,4,17,1,1,2
leecl02,Cliff Lee,12,8,41,24,3,3,2,553,167,64,17,34,186,2,2,5,0,749,6,70,6,4,14
lerouch01,Chris Leroux,2,2,20,4,0,0,1,115,38,16,3,13,33,1,2,1,0,164,5,18,1,1,3
lestejo01,Jon Lester,13,8,41,26,1,0,1,533,154,70,17,66,183,1,5,8,0,743,5,74,4,4,16
lewisco01,Colby Lewis,11,10,42,26,1,0,2,534,163,81,24,54,160,2,6,6,0,750,6,86,5,4,11
lewisro01,Rommie Lewis,1,1,14,3,0,0,1,88,32,14,3,10,22,1,1,1,0,127,4,16,1,1,2
lidgebr01,Brad Lidge,2,2,26,3,0,0,6,115,35,16,4,19,41,2,2,2,0,166,11,18,2,1,3
lillyte01,Ted Lilly,10,10,40,24,0,0,1,482,142,69,21,40,139,5,3,6,1,665,5,71,9,4,9
linceti01,Tim Lincecum,12,10,42,27,1,1,1,573,162,68,15,69,205,5,8,5,0,797,5,73,9,3,11
lincobr01,Brad Lincoln,4,5,28,10,0,0,1,235,86,39,9,25,42,3,2,4,0,340,5,43,3,3,5
lindbjo01,Josh Lindblom,2,2,21,4,0,0,1,122,36,17,3,14,41,2,2,2,0,171,5,18,2,2,3
lindsma01,Matt Lindstrom,3,3,41,4,0,0,6,170,60,24,5,20,41,2,3,2,0,245,16,27,2,2,5
lindssh01,Shane Lindsay,2,2,12,3,0,0,1,85,30,13,3,11,22,1,1,1,0,122,3,15,1,1,2
linebsc01,Scott Linebrink,3,3,40,4,0,0,1,170,59,25,7,20,48,3,3,3,0,245,15,27,2,2,5
liriafr01,Francisco Liriano,9,9,37,22,0,0,1,431,139,69,13,62,132,2,7,7,0,618,5,74,4,4,13
litscje01,Jesse Litsch,5,5,30,10,0,0,2,234,78,38,10,27,58,2,3,3,0,333,6,41,2,2,7
lockeje01,Jeff Locke,4,5,28,9,0,0,2,210,72,33,8,29,19,2,2,3,0,301,7,35,3,2,5
loeka01,Kameron Loe,4,5,44,4,0,0,1,199,62,27,6,18,56,2,3,2,0,277,11,30,2,1,7
loganbo02,Boone Logan,3,3,38,4,0,0,1,150,48,21,5,19,49,2,2,2,0,216,7,23,2,1,4
lohseky01,Kyle Lohse,10,9,41,24,1,1,2,483,170,73,16,45,97,3,3,4,0,686,6,83,7,5,13
lopezja02,Javier Lopez,4,3,38,4,0,0,1,157,46,21,4,22,40,2,2,2,0,221,9,22,2,1,5
lopezro01,Rodrigo Lopez,6,7,32,16,0,0,1,338,127,56,17,34,64,2,2,4,0,489,5,63,6,3,9
lopezwi01,Wilton Lopez,3,4,46,4,0,0,1,202,69,26,6,16,51,2,2,2,1,282,10,30,3,2,6
lowede01,Derek Lowe,10,12,41,27,0,0,1,503,184,83,15,57,115,5,3,4,1,727,5,88,8,4,17
lowema01,Mark Lowe,2,3,31,4,0,0,1,143,47,21,5,18,44,2,2,1,0,205,7,24,1,1,4
luebkco01,Cory Luebke,6,7,41,13,0,0,2,333,92,45,11,36,125,3,4,3,1,457,7,48,3,3,8
luekejo01,Josh Lueke,2,2,20,4,0,0,1,125,41,20,4,15,36,1,2,1,0,178,5,21,2,1,3
lylesjo01,Jordan Lyles,4,7,35,13,0,0,2,307,110,51,13,30,71,2,2,4,0,442,7,56,5,2,8
lynnla01,Lance Lynn,2,2,21,5,0,0,1,142,41,20,5,16,58,1,2,2,0,198,5,21,2,1,4
lyonbr01,Brandon Lyon,3,3,25,3,0,0,4,117,38,18,4,15,26,3,2,1,0,167,9,19,2,1,3
macdomi01,Mike MacDougal,3,2,38,4,0,0,3,163,52,22,5,27,37,2,3,2,0,235,11,24,2,2,6
madsory01,Ryan Madson,4,3,42,4,0,0,10,180,54,22,5,17,65,3,2,2,0,251,19,24,3,1,5
magnutr01,Trystan Magnuson,2,2,14,3,0,0,1,98,32,15,4,11,24,1,2,1,0,140,4,16,1,1,2
maholpa01,Paul Maholm,7,11,38,24,1,1,1,478,173,74,13,51,93,4,4,7,0,688,5,82,7,6,17
mainesc01,Scott Maine,2,2,15,3,0,0,1,90,29,14,4,12,22,1,1,1,0,130,4,15,1,1,3
malonma02,Matt Maloney,2,3,18,5,0,0,1,136,53,22,7,12,29,1,1,2,0,197,4,24,2,2,4
manshje01,Jeff Manship,2,2,13,3,0,0,1,90,32,14,3,11,20,1,1,1,0,129,3,16,1,1,2
marcush01,Shaun Marcum,11,8,43,26,0,0,2,536,163,73,20,49,146,3,5,3,0,741,6,79,5,5,12
marmoca01,Carlos Marmol,3,4,51,4,0,0,16,209,48,29,5,44,100,2,3,6,1,301,32,30,3,2,4
marquja01,Jason Marquis,4,5,22,10,0,0,1,211,78,37,8,26,36,2,2,3,0,309,4,40,3,2,7
marquje01,Jeff Marquez,1,1,12,3,0,0,1,82,27,12,3,8,11,1,1,1,0,116,3,13,1,1,2
marshse01,Sean Marshall,5,5,50,4,0,0,2,210,63,26,5,22,73,3,2,2,0,294,11,28,4,1,5
martelu01,Luis Marte,2,1,12,3,0,0,1,82,28,12,3,9,21,1,1,1,0,116,3,13,1,1,2
marticr01,Cristhian Martinez,3,3,33,4,0,0,1,199,58,28,7,19,52,2,2,2,0,276,9,30,2,1,5
masseni01,Nick Masset,4,4,50,4,0,0,2,203,63,28,6,27,65,3,3,2,1,288,13,29,2,2,6
masteju01,Justin Masterson,9,11,45,27,1,0,2,562,189,79,14,67,141,4,7,9,0,803,6,90,5,5,17
mateoma01,Marcos Mateo,2,2,21,3,0,0,1,117,38,18,5,15,44,1,1,1,0,166,6,19,1,1,3
mathisc01,Scott Mathieson,1,1,12,3,0,0,1,83,30,12,3,10,19,1,1,1,0,120,3,13,1,1,2
matsuda01,Daisuke Matsuzaka,5,5,26,13,0,0,1,267,84,44,9,42,72,1,3,4,0,385,5,47,2,3,6
matthry01,Ryan Mattheus,2,2,22,4,0,0,1,123,37,17,4,16,15,2,1,2,0,174,6,19,2,1,3
matusbr01,Brian Matusz,6,8,31,17,0,0,1,315,117,60,16,39,82,2,2,3,0,460,5,63,4,4,7
mayayu01,Yunesky Maya,3,3,23,8,0,0,1,183,66,29,6,21,27,2,2,3,1,262,5,31,4,2,5
mazzavi01,Vin Mazzaro,4,4,23,10,0,0,1,218,80,37,9,30,41,2,3,3,0,318,5,41,3,3,7
mcallza01,Zach McAllister,4,4,28,9,0,0,2,211,77,33,7,25,51,2,2,2,0,304,7,37,2,2,5
mccarbr01,Brandon McCarthy,8,8,38,20,2,1,2,436,144,59,13,33,105,2,3,3,0,604,6,67,4,6,12
mccleky01,Kyle McClellan,7,6,57,11,0,0,2,354,110,50,14,40,73,3,5,5,0,501,12,53,5,2,9
mcclemi01,Mike McClendon,2,2,16,3,0,0,1,103,32,14,3,11,30,1,2,1,0,146,5,16,1,1,3
mccutda01,Daniel McCutchen,4,4,40,6,0,0,1,222,78,35,9,27,40,3,3,3,0,320,9,37,3,3,7
mcdonja03,James McDonald,9,9,46,23,0,0,2,458,151,68,17,67,129,5,6,6,1,661,7,74,6,5,12
mcgeeja01,Jake McGee,3,2,24,4,0,0,1,121,39,18,5,15,39,1,1,1,0,172,6,19,1,1,3
mcgowdu01,Dustin McGowan,3,4,25,8,0,0,2,190,60,30,7,27,57,2,3,2,0,272,6,32,2,2,4
medlekr01,Kris Medlen,2,2,15,4,0,0,1,112,37,16,4,11,33,1,1,1,0,157,4,17,2,1,3
meekev01,Evan Meek,2,2,27,3,0,0,1,130,37,17,4,19,38,1,2,1,0,184,7,19,2,1,3
melanma01,Mark Melancon,5,3,41,4,0,0,7,194,57,25,6,24,58,3,2,3,0,273,18,29,2,1,5
mendolu01,Luis Mendoza,4,4,28,8,0,0,2,203,67,30,8,25,28,2,2,3,0,290,7,33,2,2,6
mickoka01,Kam Mickolio,1,2,13,3,0,0,1,87,29,13,3,11,28,1,1,1,0,124,3,14,1,1,2
mijarjo01,Jose Mijares,2,3,39,4,0,0,1,159,52,23,5,23,38,2,2,2,0,230,9,26,2,2,4
mileywa01,Wade Miley,5,4,29,10,0,0,2,231,82,35,9,30,46,2,3,2,0,332,6,37,4,2,6
millean01,Andrew Miller,5,5,30,13,0,0,1,259,97,46,10,47,63,2,5,3,1,390,6,51,6,4,9
milleji02,Jim Miller,2,2,13,3,0,0,1,85,25,12,3,11,21,1,1,1,0,121,4,13,1,1,2
milletr02,Trever Miller,1,1,20,3,0,0,1,86,25,12,3,10,24,1,1,1,0,121,3,13,1,1,2
millsbr02,Brad Mills,4,4,26,8,0,0,2,196,66,34,8,30,55,2,2,3,0,284,6,37,2,2,5
millwke01,Kevin Millwood,5,7,27,15,1,0,1,310,111,50,14,33,68,1,4,3,0,443,4,53,3,2,8
milonto01,Tommy Milone,4,4,29,9,0,0,2,224,76,33,7,20,43,3,2,3,0,318,7,35,4,3,6
minormi01,Mike Minor,6,5,35,16,0,0,2,324,119,50,11,37,102,4,3,3,0,467,7,54,4,3,9
mischpa01,Pat Misch,2,2,14,4,0,0,1,96,34,15,4,10,17,1,1,1,0,138,3,16,1,1,3
mitrese01,Sergio Mitre,1,2,14,3,0,0,1,99,33,15,4,10,18,1,1,1,0,140,5,18,1,1,3
moorema02,Matt Moore,3,2,18,5,0,0,1,128,41,18,4,15,68,1,2,1,0,182,4,20,2,1,3
moralfr01,Franklin Morales,2,3,29,4,0,0,2,134,42,21,5,21,42,1,2,2,1,193,8,23,2,1,3
morrobr01,Brandon Morrow,10,9,43,25,0,0,2,496,152,81,17,70,186,2,9,9,1,712,7,88,4,6,8
mortecl01,Clayton Mortensen,3,4,25,8,0,0,1,206,68,31,9,26,36,2,3,2,0,293,7,35,3,2,7
mortoch02,Charlie Morton,8,11,41,24,1,1,2,461,171,75,13,63,99,4,7,9,1,681,6,84,8,6,17
moscogu01,Guillermo Moscoso,7,8,38,16,0,0,2,363,104,50,13,39,73,2,3,4,1,509,8,57,3,3,8
moseldu01,Dustin Moseley,6,8,37,17,0,0,2,377,125,53,14,41,67,4,2,3,0,533,7,62,4,4,11
moskoda01,Daniel Moskos,2,2,21,4,0,0,1,114,39,16,3,13,16,2,1,1,0,162,5,18,2,1,4
motagu01,Guillermo Mota,3,3,42,4,0,0,1,205,62,30,7,26,57,3,3,2,0,288,11,32,2,2,4
motteja01,Jason Motte,4,3,48,4,0,0,4,192,54,23,6,20,63,2,2,3,0,265,13,27,2,2,6
moylape01,Peter Moylan,3,2,26,3,0,0,1,105,32,14,3,16,30,2,1,1,0,149,4,16,2,1,4
mujiced01,Edward Mujica,5,4,45,4,0,0,1,211,65,28,9,14,64,2,2,2,0,288,11,31,3,1,6
myersbr01,Brett Myers,9,10,43,26,1,0,1,563,188,83,23,54,143,4,5,4,0,794,6,90,6,5,15
narvech01,Chris Narveson,10,8,44,23,0,0,1,463,154,76,17,58,124,3,5,4,1,664,6,79,6,4,11
nathajo01,Joe Nathan,2,2,29,4,0,0,7,138,39,21,5,15,51,1,2,2,0,195,15,22,1,1,3
neshepa01,Pat Neshek,2,2,20,4,0,0,1,114,33,17,4,21,30,1,1,1,0,163,7,18,1,1,4
nicasju01,Juan Nicasio,5,5,33,13,0,0,2,293,98,43,10,28,80,3,3,3,0,412,7,47,3,2,9
niemaje01,Jeff Niemann,10,7,36,22,1,1,1,435,139,66,18,46,109,3,5,6,0,614,5,70,4,3,11
niesejo01,Jonathon Niese,9,10,40,24,1,0,2,473,172,73,16,50,134,4,4,6,0,687,6,84,10,3,13
noesihe01,Hector Noesi,3,3,26,5,0,0,1,170,59,26,6,21,44,2,3,2,0,244,8,28,2,2,4
nolasri01,Ricky Nolasco,11,10,42,27,1,0,1,535,197,88,20,41,149,5,5,3,0,762,5,96,8,5,12
norbejo01,Jordan Norberto,2,2,17,3,0,0,1,93,29,15,3,17,19,1,1,1,0,134,4,16,1,1,3
norribu01,Bud Norris,8,10,43,26,0,0,2,511,164,78,21,70,165,5,5,6,1,735,6,89,7,4,12
novaiv01,Ivan Nova,11,6,42,21,0,0,2,447,148,64,13,52,89,4,8,5,0,637,8,70,4,5,13
nunezle01,Juan Carlos Oviedo,3,4,46,4,0,0,16,190,59,28,7,22,60,2,2,2,0,268,26,30,2,2,4
oconnmi01,Mike O'Connor,2,2,13,3,0,0,1,84,26,12,3,10,33,1,1,1,0,120,3,13,1,1,2
odayda01,Darren O'Day,2,2,26,3,0,0,1,118,33,16,5,11,36,1,1,2,0,164,7,17,1,1,3
oflaher01,Eric O'Flaherty,3,3,51,4,0,0,1,201,59,21,5,22,58,4,2,3,0,281,7,24,3,2,5
ogandal01,Alexi Ogando,10,7,52,19,1,1,2,439,130,57,14,42,115,2,5,5,0,610,11,63,4,4,12
ohlenro01,Ross Ohlendorf,4,6,27,14,0,0,1,270,94,45,12,31,60,2,3,5,0,391,4,49,6,4,6
ohmanwi01,Will Ohman,2,3,35,4,0,0,1,156,50,23,6,18,51,3,2,2,0,222,8,25,2,1,4
okajihi01,Hideki Okajima,2,2,21,3,0,0,1,99,34,15,4,13,25,1,1,1,0,142,4,16,2,1,3
olivean01,Andy Oliver,3,5,27,9,0,0,2,206,70,33,8,31,43,2,3,3,0,298,6,37,3,2,6
oliveda02,Darren Oliver,3,3,39,3,0,0,1,163,50,20,5,15,52,2,2,2,0,227,8,22,3,2,4
olivele01,Lester Oliveros,2,2,15,3,0,0,1,98,32,14,3,13,22,1,1,1,0,139,4,16,1,1,3
olsonga01,Garrett Olson,2,2,15,3,0,0,1,93,30,14,4,12,21,1,1,1,0,133,4,16,1,1,2
ondrulo01,Logan Ondrusek,4,3,43,4,0,0,1,187,56,26,7,24,41,3,3,2,0,265,9,28,2,2,4
ortizra01,Ramon Ortiz,2,3,22,5,0,0,1,139,46,22,6,17,34,2,2,1,0,198,5,24,2,2,4
osullse01,Sean O'Sullivan,5,6,30,13,0,0,1,278,107,53,14,35,39,2,4,3,1,408,6,58,3,4,8
oswalro01,Roy Oswalt,8,7,35,19,1,0,1,406,132,53,12,34,100,2,3,5,0,567,5,57,7,3,13
outmajo01,Josh Outman,4,5,28,10,0,0,1,237,77,34,8,29,52,1,3,2,0,336,6,37,3,3,8
owingmi01,Micah Owings,5,3,28,6,0,0,1,192,60,29,7,29,44,1,2,3,0,275,6,32,3,2,5
padilvi01,Vicente Padilla,2,2,14,5,0,0,1,114,34,17,4,12,36,1,1,2,0,160,3,18,2,1,3
palmema01,Matt Palmer,4,3,27,8,0,0,1,211,69,32,6,30,37,2,3,3,0,302,6,35,3,2,7
papeljo01,Jonathan Papelbon,4,3,44,4,0,0,17,190,54,25,6,19,80,2,2,2,0,265,29,27,2,1,3
parkeja02,Jarrod Parker,3,3,27,7,0,0,2,194,61,27,6,21,12,2,2,2,0,274,7,30,3,2,5
parnebo01,Bobby Parnell,3,4,39,4,0,0,2,176,61,25,5,24,55,2,3,2,0,255,11,29,3,1,4
paterjo01,Joe Paterson,2,3,30,4,0,0,1,128,38,18,4,16,34,1,1,2,0,183,8,19,2,1,3
pattotr01,Troy Patton,2,2,19,4,0,0,1,122,38,17,4,11,32,1,1,1,0,171,4,18,2,1,3
pauleda01,David Pauley,2,3,17,5,0,0,1,132,45,20,6,14,24,1,2,2,0,188,4,22,2,1,4
paulife01,Felipe Paulino,5,8,37,18,0,0,1,390,134,62,12,51,121,3,6,6,1,562,5,71,6,4,11
pavanca01,Carl Pavano,11,10,42,26,3,1,1,567,209,85,20,37,96,2,4,6,1,801,5,94,6,6,14
peacobr01,Brad Peacock,4,3,23,7,0,0,1,168,50,23,5,21,20,1,2,2,0,237,5,25,2,2,5
peavyja01,Jake Peavy,8,7,34,17,1,1,2,372,121,61,13,34,107,3,4,4,1,523,6,62,3,5,8
pelfrmi01,Mike Pelfrey,9,10,42,27,1,0,2,532,193,84,16,60,97,6,3,6,2,771,5,91,10,5,16
penato03,Tony Pena,2,2,23,3,0,0,1,135,47,22,5,17,29,2,2,1,0,196,8,24,2,2,4
pendlla01,Lance Pendleton,1,1,12,3,0,0,1,82,29,13,4,9,22,1,1,1,0,118,3,14,1,1,2
pennybr01,Brad Penny,9,9,41,23,0,0,2,462,176,78,18,48,68,2,6,5,0,664,6,85,5,5,18
peraljo01,Joel Peralta,3,3,41,4,0,0,3,187,48,24,7,19,61,3,2,2,0,255,10,26,2,2,5
perezch01,Chris Perez,3,4,43,4,0,0,14,186,48,24,6,25,52,2,2,3,0,260,24,26,3,1,5
perezju01,Juan Perez,2,1,13,3,0,0,1,81,24,12,3,11,44,1,1,1,0,115,3,13,1,1,2
perezlu01,Luis Perez,3,3,29,6,0,0,1,186,65,30,7,24,49,1,3,3,0,269,7,32,2,2,5
perezra01,Rafael Perez,4,3,47,4,0,0,1,187,66,26,5,23,35,2,3,1,1,267,8,30,3,2,8
perkigl01,Glen Perkins,3,3,32,5,0,0,1,174,61,24,5,17,47,2,2,2,0,246,8,28,3,2,6
perryry01,Ryan Perry,3,2,33,3,0,0,1,153,48,23,5,24,38,2,3,2,0,219,8,25,2,2,4
pestavi01,Vinnie Pestano,2,3,36,4,0,0,2,172,46,22,5,22,81,2,1,2,0,240,11,23,1,1,4
phillza01,Zach Phillips,2,2,14,3,0,0,1,89,28,12,3,10,30,1,1,1,0,125,3,14,1,1,2
pinedmi01,Michael Pineda,8,9,42,21,0,0,2,452,124,64,16,50,156,2,7,5,0,626,7,69,5,3,8
pineijo01,Joel Pineiro,8,7,35,20,1,0,1,426,157,68,14,31,70,3,3,3,0,600,5,72,4,4,15
pomerdr01,Drew Pomeranz,4,4,29,9,0,0,2,214,71,33,7,23,51,2,3,3,0,303,7,35,3,2,6
porceri01,Rick Porcello,12,10,42,27,0,0,1,517,192,86,19,47,94,2,9,7,1,738,5,92,4,4,19
priceda01,David Price,13,10,44,28,1,0,1,586,169,75,19,66,182,3,4,7,1,813,5,83,5,5,15
proctsc01,Scott Proctor,2,2,14,3,0,0,1,92,32,15,4,15,25,1,1,1,0,133,4,16,1,1,3
purceda01,David Purcey,2,2,20,4,0,0,1,113,36,18,4,20,29,1,2,1,0,164,6,20,2,1,3
putnaza01,Zach Putnam,2,2,13,3,0,0,1,88,30,13,3,9,33,1,1,1,0,125,4,14,1,1,2
putzjj01,J. J. Putz,4,3,40,4,0,0,12,175,48,22,5,18,63,2,2,2,0,243,19,24,2,2,4
quallch01,Chad Qualls,4,4,44,4,0,0,3,190,64,27,6,17,42,2,3,2,0,267,13,30,3,2,6
ramirho01,Horacio Ramirez,2,2,14,3,0,0,1,87,32,13,3,10,14,1,1,1,0,125,3,15,1,1,3
ramirra02,Ramon Ramirez,3,3,41,4,0,0,2,185,50,23,5,24,53,3,3,2,1,259,11,25,2,1,4
ramosce01,Cesar Ramos,2,2,32,4,0,0,1,144,47,22,5,21,34,3,2,2,0,207,7,24,2,2,4
rapadcl01,Clay Rapada,2,2,21,3,0,0,1,102,31,16,4,14,32,1,1,1,0,144,4,17,1,1,2
rauchjo01,Jon Rauch,4,3,37,4,0,0,7,168,57,25,7,16,42,1,2,2,0,239,17,26,2,1,4
raych01,Chris Ray,3,2,26,3,0,0,1,131,46,20,4,17,31,2,2,1,0,187,8,22,3,2,4
reedad01,Addison Reed,2,2,13,3,0,0,1,89,30,13,3,9,46,1,1,1,0,126,3,14,1,1,2
reinech01,Chad Reineke,2,3,19,5,0,0,1,137,44,21,5,18,17,1,2,2,0,195,5,23,2,1,4
resopch01,Chris Resop,4,3,41,4,0,0,1,185,59,27,6,25,70,4,2,2,1,265,8,29,2,3,4
reyesde01,Dennys Reyes,2,1,21,3,0,0,1,87,27,13,3,13,20,1,2,1,0,125,4,14,1,1,3
reyesjo03,Jo-Jo Reyes,3,4,24,7,0,0,1,181,66,31,8,24,43,2,2,2,0,262,5,34,2,1,5
reynogr01,Greg Reynolds,3,2,21,5,0,0,1,149,53,24,6,16,27,2,2,2,0,214,5,26,2,1,4
reynoma02,Matt Reynolds,2,3,38,4,0,0,1,157,48,23,7,18,53,2,3,2,1,221,7,24,2,2,4
rhodear01,Arthur Rhodes,2,2,24,3,0,0,1,100,27,13,3,12,31,1,1,1,0,139,4,14,1,1,2
richacl01,Clayton Richard,8,8,34,20,0,0,1,390,132,56,12,52,86,3,4,3,1,555,5,62,5,2,14
richaga01,Garrett Richards,2,3,21,6,0,0,1,145,49,22,6,18,30,1,2,2,0,207,5,24,2,1,4
richmsc01,Scott Richmond,1,2,9,3,0,0,1,75,25,11,3,10,20,1,1,1,0,107,2,13,1,1,2
riverma01,Mariano Rivera,3,3,42,4,0,0,19,177,47,20,5,12,59,2,1,2,0,239,28,21,2,2,5
roberda08,David Robertson,4,3,47,4,0,0,2,196,53,23,5,32,91,4,4,2,1,277,9,25,2,2,4
rodnefe01,Fernando Rodney,3,3,33,3,0,0,6,141,44,21,4,25,36,1,2,2,0,205,14,23,2,1,5
rodrian01,Aneury Rodriguez,3,5,35,8,0,0,1,228,73,38,9,28,56,2,3,2,0,325,10,42,3,2,5
rodrife02,Fernando Rodriguez,3,3,29,4,0,0,1,154,50,23,6,24,54,2,2,2,0,221,7,25,3,1,4
rodrifr03,Francisco Rodriguez,3,2,29,3,0,0,6,135,38,17,4,18,51,2,2,1,0,191,14,19,1,1,3
rodrifr04,Francisco Rodriguez,2,2,19,3,0,0,1,110,35,17,4,15,24,1,2,1,0,157,6,18,1,1,3
rodrihe03,Henry Rodriguez,3,3,38,4,0,0,2,186,54,27,5,33,65,1,7,2,0,269,11,30,2,2,4
rodriwa01,Wandy Rodriguez,10,10,40,25,0,0,1,519,164,70,19,59,156,5,5,6,0,730,5,77,6,4,17
roenijo01,Josh Roenicke,2,2,19,3,0,0,1,105,33,16,3,16,29,1,1,2,0,151,5,18,1,1,3
rogeres01,Esmil Rogers,6,6,36,13,0,0,1,300,120,59,12,45,77,4,5,5,1,451,7,63,4,3,8
romerjc01,J. C. Romero,2,1,21,3,0,0,1,96,30,14,3,16,25,2,1,2,0,140,5,16,1,1,3
romerri01,Ricky Romero,13,10,42,27,2,1,1,584,171,75,19,74,157,3,10,10,1,813,5,85,6,3,23
romose01,Sergio Romo,4,3,42,4,0,0,1,166,44,19,5,13,76,1,1,2,0,225,10,21,2,1,4
rosarsa02,Sandy Rosario,1,1,12,3,0,0,1,82,30,12,3,10,9,1,1,1,0,117,3,14,1,1,2
rossty01,Tyson Ross,4,5,31,8,0,0,2,216,69,31,6,28,53,2,4,2,0,304,8,34,3,2,7
ruffich01,Chance Ruffin,2,2,15,3,0,0,1,99,31,14,4,14,34,1,1,1,0,141,4,16,1,1,3
runzlda01,Dan Runzler,2,2,28,4,0,0,1,131,42,20,3,21,44,2,2,1,0,187,6,22,2,1,4
rupejo01,Josh Rupe,2,2,16,3,0,0,1,99,35,15,4,14,17,1,1,1,0,143,4,17,1,1,3
russead01,Adam Russell,2,2,25,4,0,0,1,129,41,18,4,20,26,1,2,2,0,184,7,20,2,1,4
russeja02,James Russell,3,4,45,6,0,0,1,203,72,31,10,17,47,2,2,3,0,291,9,36,3,4,5
rzepcma01,Marc Rzepczynski,2,3,19,5,0,0,1,130,43,20,4,19,43,1,2,2,0,186,3,21,1,1,4
sabatcc01,CC Sabathia,15,8,41,27,2,1,1,602,186,74,17,58,183,5,5,6,1,832,5,81,6,6,20
saitota01,Takashi Saito,3,2,28,3,0,0,1,126,36,16,4,15,45,2,2,1,0,177,7,17,2,1,3
salasfe01,Fernando Salas,4,4,41,4,0,0,8,199,54,25,7,22,68,2,2,2,0,276,19,27,3,1,4
salech01,Chris Sale,3,3,38,5,0,0,4,195,53,25,6,25,78,2,2,2,0,272,11,27,3,1,5
samarje01,Jeff Samardzija,5,4,41,5,0,0,1,215,62,31,7,37,62,2,4,3,0,312,10,36,3,2,5
sanabal01,Alex Sanabia,4,3,23,8,0,0,1,189,64,27,7,18,42,2,2,2,0,268,5,29,2,2,4
sanchan01,Anibal Sanchez,9,10,43,27,2,1,1,536,173,74,16,65,167,6,5,5,2,763,5,81,10,3,13
sanchbr01,Brian Sanches,3,3,37,4,0,0,1,189,53,26,7,29,54,3,3,2,0,268,8,28,2,2,4
sanched01,Eduardo Sanchez,3,2,21,4,0,0,2,124,32,16,4,18,52,1,2,2,0,174,6,18,1,1,3
sanchjo01,Jonathan Sanchez,7,8,34,20,0,0,1,389,103,54,13,69,135,3,7,6,0,555,5,60,5,3,10
sanitam01,Amauri Sanit,2,1,12,3,0,0,1,84,29,14,3,10,12,1,1,2,0,122,3,15,1,1,2
santaer01,Ervin Santana,11,10,43,27,3,1,1,588,190,81,23,64,151,4,8,8,1,829,5,90,5,6,17
santihe01,Hector Santiago,2,2,12,3,0,0,1,85,25,12,3,9,13,1,1,1,0,120,3,13,1,1,2
santose01,Sergio Santos,3,4,41,4,0,0,9,186,52,26,6,27,82,3,4,3,0,263,19,27,2,1,4
saundjo01,Joe Saunders,10,10,41,25,1,0,2,520,180,75,23,55,92,3,4,5,0,730,6,84,6,5,20
saverjo01,Joe Savery,1,1,12,3,0,0,1,80,25,11,3,9,25,1,1,1,0,113,3,13,1,1,2
scherma01,Max Scherzer,12,9,42,27,0,0,1,534,175,80,22,58,166,2,8,7,0,753,5,87,5,6,14
schleda01,Daniel Schlereth,3,3,32,4,0,0,1,157,45,22,6,28,48,2,3,3,0,225,9,24,2,1,3
schwich01,Chris Schwinden,4,4,28,9,0,0,2,215,72,32,7,23,55,3,3,3,0,308,7,36,3,3,5
schwimi01,Michael Schwimer,2,2,15,3,0,0,1,98,32,15,4,12,35,1,1,1,0,140,4,16,2,1,2
scribev01,Evan Scribner,2,2,15,3,0,0,1,97,34,15,3,11,22,1,1,1,0,139,4,16,1,1,3
severat01,Atahualpa Severino,2,1,12,3,0,0,1,82,27,12,3,9,43,1,1,1,0,117,3,13,1,1,2
shawbr01,Bryan Shaw,2,2,22,4,0,0,1,120,40,17,4,13,34,1,1,2,0,171,5,18,1,1,3
sherrge01,George Sherrill,3,2,36,3,0,0,1,137,45,20,4,19,40,2,2,1,0,197,7,21,2,1,3
shielja02,James Shields,12,12,43,28,4,1,1,611,199,84,25,53,181,2,6,5,1,845,5,93,5,3,16
simonal01,Alfredo Simon,6,7,44,12,0,0,6,334,119,55,15,40,79,4,3,4,1,480,15,61,3,4,10
sippto01,Tony Sipp,4,3,46,4,0,0,1,187,50,26,8,29,64,2,3,2,0,262,11,28,2,2,4
slamaan01,Anthony Slama,1,2,12,3,0,0,1,80,25,12,3,11,29,1,1,1,0,114,3,13,1,1,2
slatedo01,Doug Slaten,2,2,25,3,0,0,1,111,38,16,4,15,29,2,1,2,0,160,7,18,1,1,3
sloweke01,Kevin Slowey,5,6,27,13,0,0,1,272,104,47,12,17,64,1,2,3,0,388,4,49,3,5,6
smithjo05,Joe Smith,3,3,46,4,0,0,1,189,53,24,5,24,47,2,2,2,0,263,9,26,2,2,5
smithjo06,Jordan Smith,2,2,21,3,0,0,1,120,45,19,5,13,24,1,2,2,0,172,5,20,1,2,4
sonnaan01,Andy Sonnanstine,3,3,25,7,0,0,1,181,65,30,9,20,31,2,2,3,0,261,9,33,1,1,5
soriajo01,Joakim Soria,3,4,42,4,0,0,17,186,57,25,6,18,67,1,2,2,0,262,27,26,3,2,5
soriara01,Rafael Soriano,2,3,35,3,0,0,9,151,39,20,5,18,54,2,1,1,0,208,16,21,2,1,4
sosahe01,Henry Sosa,5,6,32,12,0,0,2,263,87,42,10,34,62,2,4,4,1,375,7,44,4,3,7
spencjo01,Josh Spence,2,2,24,4,0,0,1,123,32,17,4,19,44,2,1,2,0,174,6,18,2,1,3
stammcr01,Craig Stammen,2,2,15,6,0,0,1,130,46,20,4,13,27,1,2,1,0,185,3,23,2,1,4
staufti01,Tim Stauffer,9,10,46,22,0,0,2,482,151,64,16,51,114,5,4,6,1,672,9,68,9,3,15
stettmi01,Mitch Stetter,2,1,18,3,0,0,1,86,28,13,3,12,26,1,1,1,0,124,4,14,1,1,2
steveje01,Jeff Stevens,2,1,15,3,0,0,1,91,29,14,4,14,21,1,1,1,0,130,3,16,1,1,2
stewaza01,Zach Stewart,4,5,29,10,1,1,2,239,89,40,10,23,54,2,3,2,0,342,7,43,3,2,7
stinsjo01,Josh Stinson,2,2,16,3,0,0,1,97,32,15,3,13,19,1,1,1,0,138,4,16,1,1,3
storedr01,Drew Storen,5,4,47,4,0,0,14,210,60,27,7,22,69,3,2,2,0,292,23,30,3,2,5
strasst01,Stephen Strasburg,5,4,28,11,0,0,2,243,70,31,7,21,105,2,2,2,0,336,6,34,3,2,6
streehu01,Huston Street,3,3,40,4,0,0,14,177,56,25,7,14,60,2,1,2,0,244,25,27,2,2,5
stroppe01,Pedro Strop,2,2,17,3,0,0,1,98,32,14,3,13,33,1,2,1,0,139,4,16,1,1,3
stulter01,Eric Stults,2,2,12,3,0,0,1,92,30,14,4,12,19,1,1,1,0,131,3,15,1,1,2
stutemi01,Michael Stutes,4,3,33,4,0,0,1,171,49,24,6,23,54,2,1,2,0,241,7,26,2,2,3
surkaer01,Eric Surkamp,4,4,30,10,0,0,2,225,78,35,7,34,34,2,2,3,0,325,7,38,3,3,6
swarzan01,Anthony Swarzak,4,6,32,11,0,0,1,274,98,42,10,26,49,2,3,4,1,393,6,47,3,3,6
takahhi01,Hisanori Takahashi,4,4,37,6,0,0,3,208,64,29,7,25,60,4,2,1,0,293,11,31,4,2,6
talbomi01,Mitch Talbot,6,8,31,16,0,0,1,323,121,56,12,44,59,3,3,5,0,472,5,60,3,4,11
tallebr01,Brian Tallet,2,2,13,4,0,0,1,97,33,17,5,14,23,1,1,1,0,142,3,19,1,1,3
tateyyo01,Yoshinori Tateyama,2,2,25,4,0,0,1,138,42,21,6,14,46,2,1,2,0,194,6,22,1,1,3
tazawju01,Junichi Tazawa,2,2,11,3,0,0,1,81,29,12,3,9,16,1,1,1,0,116,3,14,1,1,2
teafoev01,Everett Teaford,3,2,24,5,0,0,1,154,47,22,6,17,34,1,2,2,0,215,6,23,2,2,5
teherju01,Julio Teheran,3,3,24,7,0,0,1,176,58,27,7,21,29,1,2,2,0,250,5,29,3,2,4
tejedro01,Rob Tejeda,2,2,19,3,0,0,1,104,31,15,3,17,33,1,2,1,0,148,4,16,1,1,3
texeika01,Kanekoa Texeira,2,1,16,3,0,0,1,99,37,15,3,12,11,1,1,1,0,143,4,16,1,2,3
thatcjo01,Joe Thatcher,2,1,24,3,0,0,1,100,28,13,3,12,40,2,1,1,0,140,5,14,1,1,2
thayeda01,Dale Thayer,2,2,14,3,0,0,1,90,33,14,3,7,16,1,1,1,0,128,4,15,1,1,2
thomabr01,Brad Thomas,2,2,19,3,0,0,1,110,40,17,3,14,17,1,1,2,0,160,5,19,1,2,4
thompaa01,Aaron Thompson,2,2,17,4,0,0,1,115,41,18,4,15,4,1,1,1,0,166,4,19,2,1,3
thompda02,Daryl Thompson,1,2,11,3,0,0,1,80,27,12,3,11,0,1,1,1,0,115,3,13,1,1,2
thompri03,Rich Thompson,3,3,30,4,0,0,1,163,49,22,6,19,54,1,3,1,0,230,9,23,2,2,3
thornma01,Matt Thornton,3,4,42,4,0,0,3,179,53,24,5,20,71,3,2,1,0,251,11,27,2,2,4
tillmch01,Chris Tillman,5,7,32,15,0,0,2,298,107,51,12,40,64,2,3,4,1,434,6,56,3,3,9
tobinma01,Mason Tobin,2,2,12,3,0,0,1,85,27,13,3,12,0,1,1,1,0,121,3,14,1,1,3
tomkobr01,Brett Tomko,2,2,13,3,0,0,1,98,31,14,4,12,24,1,1,1,0,138,3,15,1,1,3
tomlijo01,Josh Tomlin,10,7,40,21,1,0,2,453,147,70,19,29,85,3,4,4,0,622,6,73,4,4,11
torreal01,Alex Torres,2,2,13,3,0,0,1,89,29,13,3,13,29,1,1,1,0,127,3,14,1,1,2
troncra01,Ramon Troncoso,2,2,25,3,0,0,1,125,46,20,5,14,26,2,2,1,0,180,8,21,2,1,5
tuckery01,Ryan Tucker,2,2,12,3,0,0,1,84,27,13,3,11,19,1,1,1,0,120,3,14,1,1,2
turneja01,Jacob Turner,4,4,28,9,0,0,2,209,72,33,8,23,40,2,2,3,0,298,7,36,2,2,6
ueharko01,Koji Uehara,2,2,20,4,0,0,2,112,35,16,5,8,41,1,1,1,0,156,6,17,1,1,2
valdejo01,Jose Valdez,2,2,15,3,0,0,1,96,33,16,3,12,32,1,1,1,0,137,5,17,1,1,3
valdelu01,Jairo Asencio,2,2,13,3,0,0,1,90,32,14,3,11,18,1,1,1,0,130,4,16,1,1,2
valdeme01,Merkin Valdez,1,1,14,3,0,0,1,81,28,13,3,12,21,1,1,1,0,117,4,14,1,1,2
valdera02,Raul Valdes,2,2,16,3,0,0,1,101,33,15,4,13,32,1,1,1,0,144,4,16,1,1,3
valvejo01,Jose Valverde,3,4,47,4,0,0,19,199,51,24,6,29,66,2,3,3,0,279,33,27,2,1,5
vanderi01,Rick van den Hurk,2,3,20,6,0,0,1,148,48,23,7,20,41,1,2,2,0,212,5,25,2,1,4
vargaja01,Jason Vargas,9,11,43,26,2,1,1,539,180,81,20,52,113,4,3,4,2,763,6,89,4,5,13
varvaan01,Anthony Varvaro,2,2,18,4,0,0,1,113,33,16,4,16,38,2,2,1,0,160,6,17,2,1,3
vasquan01,Anthony Vasquez,4,6,30,10,0,0,2,228,89,41,13,25,30,2,2,4,0,333,7,46,3,2,6
vasques01,Esmerling Vasquez,2,3,30,3,0,0,1,137,41,21,4,22,38,2,2,3,0,197,7,23,1,1,4
vazquja01,Javier Vazquez,11,9,41,25,1,0,1,505,157,76,21,48,150,5,6,4,0,706,6,81,6,5,9
ventejo01,Jonny Venters,5,3,54,4,0,0,3,235,57,25,5,35,88,3,3,4,0,327,10,29,4,2,8
verasjo01,Jose Veras,3,4,46,4,0,0,1,194,51,28,6,31,71,2,3,3,0,276,11,30,2,2,4
verlaju01,Justin Verlander,17,7,43,28,3,1,1,624,167,71,18,56,214,2,7,5,2,841,5,78,4,5,11
villabr02,Brayan Villarreal,2,2,16,3,0,0,1,101,35,16,4,14,27,1,1,1,0,145,4,17,1,1,2
villaca01,Carlos Villanueva,5,5,46,10,0,0,2,293,94,45,11,33,78,3,4,4,0,417,9,48,2,4,8
villael01,Elih Villanueva,3,4,26,7,0,0,2,188,62,30,7,26,27,2,2,3,0,269,6,33,2,2,5
violape01,Pedro Viola,1,1,12,3,0,0,1,81,27,12,4,10,25,1,1,1,0,116,3,14,1,1,2
vizcaar01,Arodys Vizcaino,2,2,17,4,0,0,1,105,33,16,3,14,33,1,2,1,0,150,4,17,1,1,3
vogelry01,Ryan Vogelsong,9,7,41,20,1,1,2,435,134,52,13,50,113,4,3,5,1,611,7,58,7,3,13
volqued01,Edinson Volquez,7,7,36,18,0,0,2,362,112,62,16,65,116,3,5,5,1,527,6,66,5,4,11
volstch01,Chris Volstad,8,11,41,26,1,0,1,490,176,82,20,54,107,5,5,4,1,703,5,89,9,7,14
wadeco01,Cory Wade,3,2,26,4,0,0,1,134,42,18,5,13,34,1,2,1,0,188,6,20,1,1,3
wagnene01,Neil Wagner,2,1,12,3,0,0,1,83,27,12,3,10,20,1,1,1,0,118,4,14,1,1,2
wakefti01,Tim Wakefield,7,7,37,18,1,0,1,401,140,70,17,42,78,2,9,6,1,579,9,81,4,5,8
waldejo01,Jordan Walden,4,4,36,4,0,0,10,174,51,23,5,23,68,2,3,2,0,246,17,25,3,2,4
waldrky01,Kyle Waldrop,2,2,14,3,0,0,1,93,29,14,3,12,13,1,1,1,0,132,3,15,1,1,3
waltepj01,P. J. Walters,2,1,12,3,0,0,1,87,29,14,4,11,22,1,1,1,0,123,3,15,1,1,3
wangch01,Chien-Ming Wang,5,5,31,12,0,0,2,271,99,41,11,27,41,2,3,3,0,388,6,49,3,3,7
watsoto01,Tony Watson,3,2,26,4,0,0,1,138,42,20,5,19,42,2,1,2,0,196,5,22,2,1,4
weaveje02,Jered Weaver,13,9,42,28,2,1,1,599,168,67,20,53,181,2,6,3,0,811,5,73,5,5,10
webbry01,Ryan Webb,3,3,38,4,0,0,1,172,57,23,4,21,38,3,2,2,1,244,9,25,2,1,5
weilaky01,Kyle Weiland,3,4,26,8,0,0,2,190,65,32,8,25,30,2,2,3,0,275,6,34,2,2,5
weinhro01,Robbie Weinhardt,2,2,14,3,0,0,1,87,33,14,3,9,19,1,1,1,0,125,3,15,1,1,3
wellsra01,Randy Wells,8,8,36,22,1,0,1,440,152,71,17,47,97,4,5,4,0,629,5,73,5,4,11
westbja01,Jake Westbrook,9,8,42,24,0,0,2,469,166,74,14,58,93,5,4,3,0,676,6,80,7,4,16
wheelda01,Dan Wheeler,3,3,38,4,0,0,1,161,47,23,7,13,46,2,2,1,0,222,12,25,2,2,4
whelake01,Kevin Whelan,1,1,11,3,0,0,1,78,24,11,3,11,11,1,1,1,0,111,3,12,1,1,2
whiteal01,Alex White,5,5,30,10,0,0,2,242,89,43,12,30,49,2,5,4,0,350,7,46,3,3,7
wilheto01,Tom Wilhelmsen,2,2,20,4,0,0,1,124,37,18,4,15,39,1,3,2,0,175,6,19,1,1,3
wilkad01,Adam Wilk,2,2,14,3,0,0,1,97,32,15,4,10,24,1,1,1,0,138,3,16,1,1,2
willido03,Dontrelle Willis,4,7,33,14,0,0,2,299,100,50,10,54,68,2,7,4,1,437,6,53,4,4,9
willije02,Jerome Williams,4,3,26,8,0,0,1,203,68,29,8,23,44,1,2,2,0,286,6,32,2,2,7
willira01,Randy Williams,1,2,17,3,0,0,1,93,33,14,3,15,25,2,1,1,0,136,3,16,1,1,3
wilsobr01,Brian Wilson,4,4,41,4,0,0,19,179,53,22,4,25,66,2,2,2,0,255,26,24,2,1,4
wilsocj01,C. J. Wilson,13,8,51,26,2,0,3,571,161,71,14,72,174,2,6,9,0,794,9,80,4,4,21
wolfra02,Randy Wolf,11,9,41,27,0,0,1,551,178,79,21,60,122,3,4,8,0,780,5,84,9,5,17
woodbl01,Blake Wood,4,3,40,4,0,0,1,197,64,29,6,27,52,4,2,2,0,282,12,31,3,3,5
woodke02,Kerry Wood,3,3,34,4,0,0,3,156,44,21,5,23,59,2,3,3,0,224,9,23,2,2,4
woodti01,Tim Wood,1,2,17,3,0,0,1,95,32,15,3,15,13,1,1,1,0,137,5,16,2,2,3
woodtr01,Travis Wood,7,6,35,17,0,0,2,359,118,55,12,40,91,4,3,4,0,509,6,59,6,5,10
worleva01,Vance Worley,9,5,39,17,1,0,2,373,111,47,11,43,114,3,3,4,1,525,7,51,7,4,8
worrema01,Mark Worrell,1,1,12,3,0,0,1,78,27,13,3,10,24,1,1,1,0,112,3,14,1,1,2
wrighja01,Jamey Wright,3,3,38,4,0,0,1,184,55,25,6,27,42,2,3,3,0,259,10,28,2,2,7
wrighwe01,Wesley Wright,2,2,19,3,0,0,1,104,34,16,4,14,33,1,1,1,0,148,4,18,1,1,3
wuertmi01,Michael Wuertz,2,2,31,3,0,0,2,135,41,22,5,21,49,2,2,1,0,194,7,23,2,1,3
youngch03,Chris Young,4,4,26,10,0,0,1,219,58,29,8,33,57,2,2,2,0,309,5,32,3,2,4
zagurmi01,Mike Zagurski,1,1,13,3,0,0,1,82,27,13,3,11,33,1,1,1,0,117,3,14,1,1,2
zambrca01,Carlos Zambrano,9,7,40,21,0,0,1,435,141,67,14,62,115,3,4,6,0,627,5,71,9,4,13
zieglbr01,Brad Ziegler,2,2,27,3,0,0,1,123,39,16,3,16,29,2,1,1,0,172,6,18,1,1,4
zimmejo02,Jordan Zimmermann,7,9,40,21,1,0,2,439,143,59,15,37,121,3,3,6,1,614,6,66,7,3,8
zitoba01,Barry Zito,5,6,26,14,0,0,1,284,88,46,11,39,69,3,3,3,0,402,4,48,4,3,9
