playerID,playerName,W,L,G,GS,CG,SHO,SV,IPouts,H,ER,HR,BB,SO,IBB,WP,HBP,BK,BFP,GF,R,SH,SF,GIDP
abadfe01,Fernando Abad,2,4,41,4,0,0,1,172,51,20,5,18,51,2,2,3,0,237,11,22,1,2,5
aceveal01,Alfredo Aceves,2,2,18,3,0,0,2,114,38,18,5,14,30,1,1,1,1,162,7,19,1,1,3
achteaj01,A. J. Achter,2,2,14,3,0,0,1,93,31,13,3,10,13,1,1,1,0,131,3,14,1,1,2
adamsau01,Austin Adams,2,1,13,3,0,0,1,86,28,13,3,8,16,1,1,1,0,120,3,14,1,1,2
adamsmi03,Mike Adams,2,2,23,3,0,0,1,108,34,15,4,13,34,1,1,1,0,152,4,16,1,1,3
adcocna01,Nathan Adcock,1,2,14,3,0,0,1,91,30,13,3,11,22,1,1,1,0,129,3,14,1,1,3
affelje01,Jeremy Affeldt,3,3,39,4,0,0,1,165,48,20,4,18,42,2,3,3,0,230,8,22,2,1,5
alberma01,Matt Albers,2,2,21,3,0,0,1,108,33,14,3,12,24,1,2,1,0,151,6,15,1,1,3
albural01,Al Alburquerque,3,3,43,4,0,0,1,176,48,23,6,26,71,2,3,2,1,247,10,24,1,2,4
allenco01,Cody Allen,5,3,50,4,0,0,7,203,56,23,7,25,86,2,4,2,0,282,18,26,2,2,5
alvarda01,Dario Alvarez,1,1,12,3,0,0,1,78,26,11,3,8,14,1,1,1,0,110,3,12,1,1,2
alvarhe01,Henderson Alvarez,10,9,42,25,2,2,1,503,173,61,14,39,92,3,5,7,1,699,6,71,4,4,19
alvarjo02,Jose Alvarez,2,2,13,3,0,0,1,89,30,13,3,10,23,1,1,1,0,126,3,14,1,1,3
alvarrj01,R. J. Alvarez,2,2,15,3,0,0,1,90,26,12,3,11,34,1,1,1,0,126,4,13,1,1,2
ambrihe01,Hector Ambriz,2,2,17,3,0,0,1,88,31,13,3,11,23,1,2,1,0,126,4,15,1,1,3
anderbr04,Brett Anderson,4,5,32,11,0,0,2,262,88,37,7,28,69,3,2,2,0,368,7,41,2,2,9
anderch01,Chase Anderson,8,7,39,17,0,0,2,354,118,50,14,40,108,2,4,3,0,498,7,55,4,4,10
archech01,Chris Archer,10,9,45,26,1,1,2,517,153,66,15,60,151,2,8,8,0,722,6,75,4,7,14
arrieja01,Jake Arrieta,8,7,40,20,1,0,2,430,116,52,11,43,145,2,6,5,0,587,6,59,5,3,10
arroybr01,Bronson Arroyo,8,6,30,17,1,0,1,360,122,51,15,24,73,2,3,4,0,497,4,53,3,4,11
atchisc01,Scott Atchison,4,2,44,4,0,0,1,191,58,24,5,15,44,2,3,1,0,261,9,27,2,2,6
aumonph01,Phillippe Aumont,2,2,16,3,0,0,1,91,32,14,3,13,26,1,1,1,0,131,5,16,1,1,3
avilalu01,Luis Avilan,4,2,42,4,0,0,1,162,47,21,4,20,34,3,3,3,0,227,8,22,2,2,5
axelrdy01,Dylan Axelrod,4,5,26,10,0,0,1,224,85,36,11,24,50,2,3,3,0,324,7,40,2,2,6
axforjo01,John Axford,2,2,19,3,0,0,3,94,28,13,3,14,38,1,2,1,0,133,7,14,1,1,3
badenbu01,Burke Badenhop,2,3,47,4,0,0,1,198,65,24,5,17,41,3,2,2,0,274,11,27,3,2,8
baezpe01,Pedro Baez,2,2,19,4,0,0,1,112,32,15,4,11,30,1,1,1,0,156,5,16,1,1,3
baileho02,Homer Bailey,9,7,37,22,1,1,1,461,141,62,16,43,135,2,5,7,1,638,5,66,5,4,12
bakersc02,Scott Baker,4,4,30,9,0,0,1,231,74,37,10,18,51,2,2,2,0,320,9,39,2,2,6
balfogr01,Grant Balfour,3,4,44,4,0,0,11,182,48,26,5,29,61,2,4,1,0,255,22,26,2,1,5
barnema01,Matt Barnes,2,2,14,3,0,0,1,91,30,12,3,9,26,1,1,1,0,127,4,14,1,1,3
barreaa01,Aaron Barrett,3,2,28,4,0,0,1,138,40,18,4,18,55,1,3,2,0,194,7,20,1,2,4
bassan01,Anthony Bass,2,2,20,4,0,0,1,129,44,21,5,16,27,1,2,1,0,184,6,23,1,1,4
bassich01,Chris Bassitt,4,4,28,8,0,0,2,211,71,29,5,25,46,2,2,3,0,301,7,31,2,2,6
bastaan01,Antonio Bastardo,4,4,45,4,0,0,1,183,48,25,5,28,78,2,4,2,0,258,11,27,3,2,4
bauertr01,Trevor Bauer,6,8,43,21,0,0,2,427,136,63,15,59,129,3,6,8,0,612,7,69,3,6,9
beatope01,Pedro Beato,2,2,13,3,0,0,1,84,27,11,3,10,18,1,1,1,0,119,4,12,1,1,2
beavabl01,Blake Beavan,4,4,24,8,0,0,1,201,72,30,9,14,33,1,2,3,0,284,5,33,2,2,6
beckejo02,Josh Beckett,6,7,36,17,1,0,2,360,110,47,15,40,111,3,3,4,0,504,6,52,5,3,7
bedarer01,Erik Bedard,5,8,32,17,0,0,1,320,107,50,12,45,93,1,3,4,0,464,5,56,2,4,9
bedroca01,Cam Bedrosian,2,2,18,3,0,0,1,107,36,16,3,14,33,1,1,1,0,153,4,18,1,1,3
beeleda01,Dallas Beeler,3,4,28,8,0,0,2,200,63,27,6,26,37,2,3,2,0,281,7,30,2,2,6
beimejo01,Joe Beimel,3,2,29,4,0,0,1,139,42,17,4,15,26,2,2,2,0,193,6,19,2,1,4
belisma01,Matt Belisle,4,5,46,4,0,0,1,192,68,29,5,17,49,2,2,2,0,272,10,31,3,2,6
belisro01,Ronald Belisario,4,5,46,4,0,0,3,193,65,30,5,22,49,4,2,3,0,274,11,32,2,2,7
belivje01,Jeff Beliveau,2,2,22,3,0,0,1,112,34,15,4,13,40,1,1,2,0,158,5,16,1,1,3
bellhe01,Heath Bell,2,2,26,3,0,0,4,117,42,18,4,14,36,1,2,2,0,170,10,20,1,1,3
belltr01,Trevor Bell,1,1,12,3,0,0,1,76,26,11,2,9,0,1,1,1,0,108,3,12,1,1,2
benoijo01,Joaquin Benoit,4,2,40,3,0,0,7,172,42,19,5,18,69,2,2,2,0,233,14,20,2,2,4
bergmch01,Christian Bergman,5,6,33,12,0,0,2,265,103,42,10,21,47,2,2,3,0,381,7,45,2,2,6
betande01,Dellin Betances,4,2,42,5,0,0,2,214,50,23,5,21,115,1,2,3,0,290,8,25,2,2,4
bettich01,Chad Bettis,2,3,21,5,0,0,1,128,50,22,5,15,23,1,3,2,0,187,5,24,2,1,3
billibr02,Bruce Billings,1,1,12,3,0,0,1,81,26,12,3,8,47,1,1,1,0,113,3,12,1,1,2
blackvi01,Vic Black,3,3,27,4,0,0,1,132,38,17,4,18,40,1,2,2,0,186,6,19,2,1,4
blevije01,Jerry Blevins,3,3,44,4,0,0,1,177,49,25,5,21,60,3,2,2,0,246,13,26,3,3,4
bochybr02,Brett Bochy,1,1,12,3,0,0,1,80,24,11,3,9,24,1,1,1,0,113,3,12,1,1,2
bolsimi01,Mike Bolsinger,4,6,32,11,0,0,2,251,92,39,9,26,73,2,2,2,1,360,7,43,3,3,5
bonilli01,Lisalverto Bonilla,4,3,24,7,0,0,1,173,49,23,5,24,49,1,2,2,0,241,5,25,2,1,6
boxbebr01,Brad Boxberger,3,3,38,4,0,0,2,181,44,22,7,23,93,1,2,3,1,248,8,24,2,2,5
boyerbl01,Blaine Boyer,2,2,23,4,0,0,1,133,41,18,4,12,34,1,2,1,0,185,6,19,2,1,3
brachbr01,Brad Brach,4,2,37,4,0,0,1,178,52,23,6,25,57,2,3,2,0,249,8,26,2,3,5
breslcr01,Craig Breslow,3,3,40,4,0,0,1,171,59,25,5,23,36,1,2,2,0,245,10,27,1,1,6
brittdr01,Drake Britton,2,2,16,3,0,0,1,93,30,12,3,10,24,1,1,1,0,130,4,13,1,1,3
brittza01,Zack Britton,4,3,37,6,0,0,10,203,59,24,6,25,52,1,2,2,0,279,16,28,2,1,8
brookaa01,Aaron Brooks,2,3,20,5,0,0,1,135,50,22,5,16,16,1,2,2,0,193,5,24,1,2,4
brothre01,Rex Brothers,4,3,48,4,0,0,4,181,57,26,6,32,63,2,3,2,1,262,14,28,2,2,5
brownbr02,Brooks Brown,2,2,21,4,0,0,1,114,34,15,4,10,32,1,1,1,0,158,5,16,1,1,3
broxtjo01,Jonathan Broxton,2,2,19,3,0,0,1,99,30,14,3,10,31,1,1,2,0,139,5,15,1,1,3
buchada01,David Buchanan,7,7,39,17,0,0,2,363,121,50,12,34,72,2,3,6,0,513,7,55,5,3,10
buchaja01,Jake Buchanan,2,3,22,5,0,0,1,143,49,21,5,16,26,1,2,2,0,202,7,22,2,1,4
buchhcl01,Clay Buchholz,10,8,39,22,1,1,1,465,148,71,14,50,120,2,5,7,0,651,5,77,3,4,16
buchtry01,Ryan Buchter,2,1,12,3,0,0,1,77,24,10,2,9,36,1,1,1,0,108,3,11,1,1,2
bucknbi02,Billy Buckner,3,4,28,7,0,0,2,192,61,27,7,24,31,2,3,2,0,271,7,29,2,2,6
buehrma01,Mark Buehrle,11,9,41,26,0,0,1,533,191,73,17,42,111,2,3,5,0,751,5,79,6,5,17
buenofr01,Francisley Bueno,2,2,23,4,0,0,1,124,40,17,4,11,24,1,1,1,0,175,6,18,1,2,4
bumgama01,Madison Bumgarner,14,9,44,27,2,1,1,577,163,67,18,47,191,4,5,6,1,782,5,75,8,4,16
burneaj01,A. J. Burnett,9,12,42,26,1,0,1,543,167,80,15,69,170,2,8,10,0,773,5,88,7,7,15
burnese01,Sean Burnett,1,1,15,2,0,0,1,78,25,10,2,7,24,1,1,1,0,109,3,11,1,1,2
burtoja01,Jared Burton,3,5,46,4,0,0,2,188,56,27,6,21,51,2,2,3,0,264,11,29,1,2,5
butleed01,Eddie Butler,4,4,29,8,0,0,2,210,74,31,7,24,12,2,2,2,0,299,7,34,3,2,6
butleke01,Keith Butler,1,1,14,3,0,0,1,86,26,13,2,11,22,1,1,1,0,121,4,14,1,1,2
cabrace01,Cesar Cabral,1,1,13,3,0,0,1,79,26,11,2,9,30,1,1,2,0,112,3,12,1,1,2
cahiltr01,Trevor Cahill,6,8,34,17,0,0,1,345,115,56,10,48,93,2,7,5,0,496,7,60,6,4,11
cainma01,Matt Cain,6,7,31,18,0,0,1,369,107,52,14,36,104,2,3,4,0,508,4,55,4,3,9
caminar01,Arquimedes Caminero,2,2,15,3,0,0,1,89,28,13,3,10,31,1,1,1,0,126,4,14,1,1,2
campole01,Leonel Campos,2,2,13,3,0,0,1,86,28,12,3,10,33,1,1,1,0,121,3,13,1,1,2
campsh01,Shawn Camp,1,2,17,2,0,0,1,84,31,12,3,8,17,1,1,1,0,119,5,13,1,1,3
cappsca01,Carter Capps,2,2,24,3,0,0,1,126,44,19,5,14,47,1,2,2,0,180,6,20,1,1,3
capuach01,Chris Capuano,5,6,30,15,0,0,1,303,105,44,11,28,81,3,4,3,0,428,5,49,5,3,8
carlybu01,Buddy Carlyle,2,2,21,4,0,0,1,118,35,14,4,10,38,1,1,1,0,163,4,16,1,1,3
carmofa01,Roberto Hernandez,5,7,31,14,0,0,2,286,101,45,13,29,66,3,3,5,0,406,6,50,3,3,9
carpeda01,David Carpenter,4,3,42,4,0,0,2,186,56,23,6,18,69,1,2,3,0,258,10,26,2,2,5
carpeda02,David Carpenter,1,1,12,3,0,0,1,80,26,11,3,10,16,1,1,1,0,113,3,12,1,1,2
carraca01,Carlos Carrasco,6,6,40,12,0,0,2,329,100,42,8,29,109,2,4,3,0,454,11,46,3,3,8
carrosc02,Scott Carroll,5,8,38,15,0,0,2,344,123,54,11,39,55,2,4,7,1,494,9,61,3,3,14
cashnan01,Andrew Cashner,7,8,40,19,1,1,1,418,124,49,10,39,109,3,4,3,0,574,6,56,4,4,9
cecilbr01,Brett Cecil,3,3,40,4,0,0,2,173,51,22,5,23,69,2,2,2,0,245,9,24,2,2,4
cedenxa01,Xavier Cedeno,1,1,17,3,0,0,1,87,29,12,3,9,29,1,1,1,0,123,5,13,1,1,2
chacijh01,Jhoulys Chacin,6,7,31,16,0,0,1,338,111,50,10,41,73,2,4,3,0,476,5,53,3,4,12
chafian01,Andrew Chafin,4,4,29,8,0,0,2,206,65,28,6,26,48,2,3,3,0,289,7,31,3,2,6
chambjo03,Joba Chamberlain,3,3,43,4,0,0,2,182,59,26,6,24,56,2,3,2,0,258,9,27,1,2,5
chapmar01,Aroldis Chapman,3,4,42,4,0,0,18,177,36,20,5,23,114,1,3,2,0,240,25,21,1,1,4
chapmke02,Kevin Chapman,2,2,22,3,0,0,1,114,34,16,4,16,30,1,2,1,0,162,4,17,2,1,3
chatwty01,Tyler Chatwood,5,4,28,12,0,0,1,254,86,35,8,32,54,2,5,3,0,360,5,39,2,3,9
chaveje01,Jesse Chavez,7,7,46,14,0,0,2,377,120,51,13,42,117,3,6,5,0,534,12,57,4,4,11
chenbr01,Bruce Chen,5,4,26,10,0,0,1,234,83,38,10,22,54,2,2,3,0,333,5,40,2,3,5
chenwe02,Wei-Yin Chen,11,8,41,25,0,0,1,498,169,69,20,41,125,2,4,4,0,695,5,74,4,5,14
choatra01,Randy Choate,2,2,39,3,0,0,1,135,38,19,3,16,39,1,1,3,0,188,6,20,2,2,5
chrisni01,Nick Christiani,2,2,15,3,0,0,1,96,29,14,3,11,17,1,1,1,0,135,4,15,1,1,3
cingrto01,Tony Cingrani,5,7,33,14,0,0,1,295,83,41,13,43,105,2,3,3,1,415,6,43,3,3,8
cishest01,Steve Cishek,4,4,47,4,0,0,17,194,56,24,4,22,76,3,2,2,0,271,29,26,3,2,4
cisnejo01,Jose Cisnero,2,2,16,3,0,0,1,97,33,14,3,13,29,1,1,1,0,139,4,15,1,1,2
claibpr01,Preston Claiborne,2,2,23,3,0,0,1,123,41,17,4,14,32,2,1,1,0,175,7,18,1,1,3
claudal01,Alex Claudio,2,2,16,3,0,0,1,97,32,13,3,10,35,1,1,1,0,136,4,14,1,1,3
clemepa02,Paul Clemens,2,3,21,4,0,0,1,136,47,22,6,17,28,1,1,2,0,195,5,24,1,2,3
cletoma01,Maikel Cleto,2,2,22,4,0,0,1,122,37,18,4,19,44,1,2,2,0,175,6,20,1,1,3
clippty01,Tyler Clippard,5,4,50,4,0,0,4,201,48,23,6,23,77,1,2,2,0,274,9,26,2,2,3
cobbal01,Alex Cobb,10,8,40,23,1,0,1,475,139,56,13,47,142,3,7,7,0,654,5,61,4,4,14
cokeph01,Phil Coke,3,3,42,4,0,0,1,171,63,25,5,20,43,3,2,2,0,247,12,27,2,2,6
colege01,Gerrit Cole,10,7,39,20,0,0,2,432,135,57,12,41,138,2,7,7,1,596,6,61,7,2,12
colemca01,Casey Coleman,2,2,15,3,0,0,1,94,34,14,3,12,15,1,1,1,0,133,4,15,1,1,3
colemlo01,Louis Coleman,2,2,27,3,0,0,1,135,41,19,5,18,43,1,2,2,0,190,8,20,1,1,4
colliti01,Tim Collins,2,3,29,3,0,0,1,125,37,17,4,19,42,1,1,2,0,176,6,19,2,1,3
collmjo01,Josh Collmenter,9,8,51,18,1,0,2,461,141,60,15,40,114,4,4,4,0,632,10,65,7,3,11
colomal01,Alex Colome,4,3,24,7,0,0,1,180,54,23,5,23,37,1,3,2,0,253,6,26,2,2,6
colonba01,Bartolo Colon,13,9,41,25,1,1,1,520,181,69,17,29,119,2,3,4,0,719,5,73,5,4,15
contrca01,Carlos Contreras,2,2,18,3,0,0,1,107,33,16,3,17,31,1,2,1,0,153,5,18,1,1,3
cookry01,Ryan Cook,3,3,41,3,0,0,2,171,45,21,4,22,59,1,3,2,0,238,10,23,2,2,4
corcida01,Daniel Corcino,3,3,24,7,0,0,1,170,49,24,5,22,45,1,4,2,0,239,6,26,2,1,4
cordier01,Erik Cordier,2,1,13,3,0,0,1,84,26,11,3,9,38,1,1,2,0,118,3,13,1,1,2
correke01,Kevin Correia,4,5,20,9,0,0,1,199,74,31,8,18,37,1,2,1,0,283,4,35,3,2,7
cosarja01,Jarred Cosart,5,5,33,13,0,0,2,301,86,35,7,40,61,1,3,2,0,416,6,38,2,3,12
cottsne01,Neal Cotts,4,5,45,4,0,0,2,189,55,24,5,21,64,2,3,2,1,263,10,26,2,2,5
couloda01,Danny Coulombe,2,1,13,3,0,0,1,83,26,11,3,9,21,1,1,1,0,117,3,13,1,1,2
crockky01,Kyle Crockett,3,2,25,4,0,0,1,124,38,15,4,12,40,1,1,2,0,172,5,17,2,1,3
crowaa01,Aaron Crow,5,3,45,4,0,0,2,178,55,25,7,23,45,2,3,2,0,249,12,27,2,2,6
cuetojo01,Johnny Cueto,14,8,44,26,2,1,2,564,148,58,17,50,177,3,3,9,1,760,6,64,6,3,13
cumptbr01,Brandon Cumpton,5,5,31,11,0,0,2,258,89,38,6,23,57,2,3,4,0,366,7,41,3,3,7
daleyma01,Matt Daley,2,2,16,3,0,0,1,97,28,13,4,11,27,1,1,1,0,136,5,15,1,1,2
danksjo01,John Danks,9,11,43,25,0,0,2,510,179,83,23,56,110,2,6,7,0,733,6,90,4,6,12
darnelo01,Logan Darnell,3,3,25,7,0,0,1,174,61,27,7,18,49,1,2,2,0,248,6,29,2,2,4
darviyu01,Yu Darvish,10,7,36,21,1,0,1,459,126,55,15,59,193,2,8,5,1,636,5,60,2,4,11
daviswa01,Wade Davis,5,4,39,7,0,0,2,223,69,29,6,28,87,1,3,2,0,314,7,31,1,2,6
dedunsa01,Sam Deduno,3,3,16,6,0,0,1,140,43,19,4,21,32,1,2,2,1,198,3,21,1,1,4
defraju01,Justin De Fratus,3,3,39,4,0,0,1,169,51,21,5,19,51,2,3,3,0,238,10,24,2,2,5
degroja01,Jacob deGrom,8,6,40,18,0,0,2,395,115,47,9,41,138,2,3,3,0,543,7,50,4,3,12
delabst01,Steve Delabar,3,2,28,3,0,0,1,130,37,18,4,21,52,1,2,2,0,185,5,20,2,2,3
delarda01,Dane De La Rosa,2,1,20,3,0,0,1,99,29,13,3,13,29,1,2,1,0,138,6,15,1,1,3
delareu01,Eury De La Rosa,2,2,25,4,0,0,1,138,44,19,5,16,41,2,2,2,0,194,8,21,1,1,4
delarjo01,Jorge De La Rosa,12,9,44,26,0,0,2,499,157,71,16,59,120,3,7,7,0,701,6,77,8,5,17
delarru01,Rubby De La Rosa,5,8,40,15,0,0,2,336,122,51,12,37,78,1,4,4,1,480,9,54,3,4,10
deleojo02,Jorge De Leon,2,2,15,3,0,0,1,90,30,13,3,11,15,1,2,1,0,127,4,14,1,1,2
delgara01,Randall Delgado,4,5,32,9,0,0,1,241,77,37,9,29,71,2,3,3,0,339,5,40,3,3,6
denniry01,Ryan Dennick,1,1,13,3,0,0,1,82,27,12,3,10,14,1,1,1,0,117,3,13,1,1,2
desclan01,Anthony DeSclafani,3,3,25,7,0,0,1,169,59,26,6,14,43,1,2,2,0,239,6,28,3,2,4
despaod01,Odrisamer Despaigne,5,7,36,14,0,0,2,326,98,43,9,36,74,1,3,5,0,457,7,49,6,2,9
detwiro01,Ross Detwiler,3,4,27,7,0,0,1,191,67,27,6,19,38,2,2,3,0,271,6,31,3,2,6
diazja01,Jairo Diaz,2,2,13,3,0,0,1,86,26,12,3,10,40,1,1,1,0,121,3,13,1,1,2
diazju03,Jumbo Diaz,2,2,24,4,0,0,1,126,38,17,4,15,46,2,2,1,0,176,7,18,1,1,4
dickera01,R. A. Dickey,12,10,41,26,2,1,1,550,164,77,22,56,154,2,5,9,0,768,5,83,3,5,14
diekmja01,Jake Diekman,4,4,46,4,0,0,1,194,59,26,5,29,83,3,4,2,0,278,12,30,2,3,5
dominjo01,Jose Dominguez,2,2,14,3,0,0,1,89,29,13,3,10,25,1,1,1,0,126,4,14,1,1,2
doolise01,Sean Doolittle,3,4,44,4,0,0,7,190,50,24,5,13,81,1,2,2,0,255,15,25,2,1,4
doubrfe01,Felix Doubront,6,4,26,13,0,0,1,261,86,39,9,35,74,1,4,3,0,373,4,43,2,3,8
downsda02,Darin Downs,2,2,29,3,0,0,1,137,42,21,4,18,40,2,2,2,1,193,6,22,1,1,4
downssc01,Scott Downs,2,2,21,3,0,0,1,98,32,13,3,12,20,1,1,1,0,138,4,14,1,1,3
drabeky01,Kyle Drabek,1,2,11,3,0,0,1,81,25,11,3,13,20,1,1,1,0,115,3,12,1,1,2
duensbr01,Brian Duensing,3,3,41,4,0,0,1,173,60,24,5,18,40,2,3,2,0,246,7,27,2,2,5
duffyda01,Danny Duffy,8,9,41,19,0,0,2,396,107,45,11,51,105,2,5,5,0,547,7,51,3,3,9
dukeza01,Zach Duke,3,2,39,4,0,0,1,165,48,20,4,16,66,1,2,1,0,228,8,22,1,1,5
dunnija01,Jake Dunning,1,2,15,3,0,0,1,85,25,11,3,10,18,1,1,1,0,118,4,12,1,1,3
dunnmi01,Mike Dunn,5,4,48,4,0,0,2,180,52,23,5,25,66,2,2,2,0,255,10,26,2,2,4
dysonsa01,Sam Dyson,3,3,24,4,0,0,1,143,48,19,4,17,34,2,2,2,0,203,7,22,2,1,4
edginjo01,Josh Edgin,2,2,30,3,0,0,1,125,36,16,4,13,41,1,2,2,0,173,5,17,1,1,4
edwarjo02,Jon Edwards,2,2,14,3,0,0,1,89,30,12,3,11,26,1,1,1,0,126,4,13,1,1,3
elbersc01,Scott Elbert,2,1,15,3,0,0,1,81,25,11,2,9,22,1,1,1,0,114,3,12,1,1,2
eliasro01,Roenis Elias,8,9,43,21,1,1,2,431,133,60,14,54,125,3,5,8,2,606,7,66,4,4,16
eovalna01,Nathan Eovaldi,7,11,45,26,0,0,2,524,183,78,13,49,124,4,5,6,0,744,6,85,7,4,15
erlinro01,Robbie Erlin,5,6,32,13,0,0,2,279,97,42,9,26,69,2,4,2,0,393,7,45,3,3,7
escobed02,Edwin Escobar,1,1,12,3,0,0,1,81,25,11,3,8,28,1,1,1,0,113,3,12,1,1,2
estrama01,Marco Estrada,6,6,38,17,0,0,1,384,116,57,19,34,117,1,3,3,1,529,6,60,4,3,6
evelada01,Dana Eveland,2,2,21,3,0,0,1,115,35,15,3,12,32,1,1,2,0,162,6,17,1,1,3
familje01,Jeurys Familia,3,4,42,5,0,0,3,198,56,24,5,28,61,3,5,2,0,278,10,27,3,2,6
farmebu01,Buck Farmer,3,3,22,6,0,0,1,146,48,23,5,17,49,1,2,2,0,207,5,24,1,1,4
farnsky01,Kyle Farnsworth,2,2,18,3,0,0,1,92,29,13,3,13,25,1,1,1,0,131,5,14,1,1,2
farquda01,Danny Farquhar,3,3,42,4,0,0,4,199,57,26,5,22,83,2,3,2,1,276,15,28,2,2,5
feierry01,Ryan Feierabend,2,1,13,3,0,0,1,86,30,12,3,9,13,1,1,1,0,121,3,13,1,1,2
feldmsc01,Scott Feldman,8,10,42,23,1,1,2,473,158,68,15,45,102,4,5,8,1,669,6,77,3,6,14
felizne01,Neftali Feliz,2,2,22,4,0,0,4,125,34,15,4,16,32,1,1,1,0,173,8,17,1,1,4
fernajo02,Jose Fernandez,7,5,31,15,0,0,1,320,77,35,8,34,129,3,3,3,1,435,5,39,2,2,7
fieldjo03,Josh Fields,3,4,36,4,0,0,3,168,50,25,5,19,68,2,1,2,0,236,11,27,1,2,4
fienca01,Casey Fien,4,4,47,4,0,0,1,187,58,26,7,14,60,2,2,1,0,257,11,28,2,2,5
fiersmi01,Mike Fiers,6,6,30,11,0,0,1,263,77,34,10,24,91,1,3,2,0,363,6,37,3,3,5
fifest01,Stephen Fife,4,4,26,9,0,0,1,206,72,29,8,23,52,2,4,4,0,294,5,32,3,2,5
figaral01,Alfredo Figaro,2,2,17,3,0,0,1,110,37,16,5,9,27,1,2,1,0,155,5,18,1,1,3
figuepe01,Pedro Figueroa,2,2,15,3,0,0,1,89,29,13,3,12,15,1,1,1,0,126,4,14,1,1,3
finnebr01,Brandon Finnegan,2,2,14,3,0,0,1,89,28,12,3,9,45,1,1,1,0,125,3,13,1,1,2
fistedo01,Doug Fister,12,8,39,23,1,1,1,486,163,58,15,33,114,2,5,8,0,672,5,65,4,3,16
flandyo01,Yohan Flande,3,5,30,10,0,0,2,229,72,35,7,22,45,2,2,3,0,319,7,37,4,3,8
floydga01,Gavin Floyd,5,5,28,12,0,0,1,266,88,36,10,30,76,2,5,4,0,377,5,41,4,3,9
flynnbr01,Brian Flynn,2,3,21,6,0,0,1,147,55,23,5,19,36,1,3,2,0,210,5,25,2,1,5
foltymi01,Mike Foltynewicz,2,2,17,3,0,0,1,106,36,15,4,12,25,1,2,1,0,150,5,16,1,1,3
fornaer01,Eric Fornataro,2,2,14,3,0,0,1,91,30,13,3,8,9,1,1,1,0,127,4,14,1,1,3
francfr01,Frank Francisco,1,1,15,3,0,0,2,81,27,12,3,11,27,1,1,1,0,115,5,13,1,1,2
francje01,Jeff Francis,2,2,13,5,0,0,1,97,37,16,4,8,24,1,1,1,0,140,3,18,1,1,2
frasoja01,Jason Frasor,3,2,26,3,0,0,1,113,32,14,4,14,39,1,2,1,0,157,6,15,1,1,3
freemsa01,Sam Freeman,2,2,29,4,0,0,1,137,40,17,4,19,39,1,2,2,0,194,7,19,1,1,4
friasca01,Carlos Frias,2,2,21,5,0,0,1,140,46,22,5,13,42,1,2,1,0,197,6,23,1,1,3
friedch01,Christian Friedrich,2,3,19,5,0,0,1,132,45,20,5,15,41,1,3,2,0,188,4,24,2,2,3
frierer01,Ernesto Frieri,2,2,24,3,0,0,6,111,31,17,5,15,50,1,1,2,0,157,12,17,1,1,2
fujikky01,Kyuji Fujikawa,2,2,17,3,0,0,1,96,32,14,3,10,37,1,2,2,0,137,5,15,1,1,3
furbuch01,Charlie Furbush,3,4,42,3,0,0,1,158,44,21,5,17,64,1,2,2,0,221,7,23,2,2,3
gallayo01,Yovani Gallardo,10,9,42,26,0,0,1,523,171,72,19,58,143,2,6,4,0,739,5,80,7,5,13
garcefr01,Frank Garces,2,2,16,3,0,0,1,91,28,12,3,9,34,1,1,1,0,127,3,13,1,1,2
garcija01,Santiago Casilla,4,3,41,4,0,0,7,174,46,19,5,20,47,2,3,2,0,238,15,21,2,1,7
garcija02,Jaime Garcia,6,4,28,12,0,0,1,262,88,37,8,22,73,1,4,3,0,366,5,40,3,2,8
garcilu03,Luis Garcia,2,2,18,3,0,0,1,106,32,15,3,19,26,1,2,1,0,152,5,17,1,1,3
garciyi01,Yimi Garcia,2,2,14,3,0,0,1,92,28,12,3,9,32,1,1,1,0,128,4,13,1,1,3
garzama01,Matt Garza,8,8,39,22,1,0,2,446,138,62,15,45,122,2,4,4,1,623,6,71,7,4,11
gausmke01,Kevin Gausman,7,8,42,17,1,0,2,375,124,53,11,40,104,2,7,3,0,526,8,57,4,5,10
geedi01,Dillon Gee,8,8,37,21,1,0,1,446,147,63,17,42,108,1,4,6,1,624,5,66,6,3,11
geltzst01,Steve Geltz,2,2,15,3,0,0,1,88,27,12,3,11,43,1,1,1,0,124,3,13,1,1,2
germaju01,Justin Germano,1,2,11,3,0,0,1,83,30,13,3,8,17,1,1,1,0,119,3,14,1,1,2
germego01,Gonzalez Germen,2,2,24,4,0,0,1,132,42,19,5,17,43,1,2,1,0,187,7,20,1,1,3
gibsoky01,Kyle Gibson,10,10,44,23,0,0,2,467,161,75,13,51,92,1,8,5,0,663,7,79,4,4,16
gileske01,Ken Giles,3,2,28,4,0,0,1,147,38,17,4,14,77,1,2,1,0,199,7,18,2,1,4
goedder01,Erik Goeddel,2,2,13,3,0,0,1,86,25,12,3,10,28,1,1,1,0,120,4,13,1,1,2
gomesbr01,Brandon Gomes,3,3,26,4,0,0,1,131,39,19,5,16,39,2,2,1,0,184,6,21,1,2,3
gomezje01,Jeanmar Gomez,3,3,31,6,0,0,1,195,63,26,6,23,39,3,3,2,0,275,9,30,2,3,6
gonzagi01,Gio Gonzalez,10,8,39,24,1,0,1,475,134,62,12,58,161,2,4,4,0,659,5,65,6,4,11
gonzama02,Marco Gonzales,4,3,26,7,0,0,1,186,57,26,6,27,53,1,2,2,0,265,5,28,2,2,5
gonzami03,Miguel Gonzalez,10,8,40,22,0,0,1,463,145,60,20,49,109,2,5,6,1,647,6,66,2,4,12
gonzami05,Miguel Gonzalez,1,2,13,3,0,0,1,82,28,12,3,9,20,1,1,1,0,117,4,13,1,1,2
gorzeto01,Tom Gorzelanny,2,2,23,4,0,0,1,131,41,17,4,16,42,1,1,2,0,184,5,18,1,1,4
graveke01,Kendall Graveman,2,1,13,3,0,0,1,84,26,12,3,8,26,1,1,1,0,118,3,13,1,1,2
grayso01,Sonny Gray,11,9,46,25,1,1,2,537,154,65,14,60,157,2,10,5,0,741,7,72,6,5,16
greenni02,Nick Greenwood,3,2,21,4,0,0,1,135,44,20,5,11,22,1,1,2,0,188,6,21,1,1,4
greensh02,Shane Greene,6,5,35,13,0,0,2,294,97,41,10,34,98,1,3,5,0,419,7,45,2,2,9
gregelu01,Luke Gregerson,4,4,50,4,0,0,3,202,56,23,6,18,62,2,3,2,0,276,12,25,3,1,5
greggke01,Kevin Gregg,2,2,22,3,0,0,4,105,33,15,4,16,29,1,1,1,0,149,9,17,1,1,3
greinza01,Zack Greinke,13,7,43,25,0,0,1,532,162,59,16,44,170,2,8,5,0,727,6,65,6,3,15
grillja01,Jason Grilli,2,3,32,3,0,0,6,136,39,18,4,14,61,1,1,2,0,190,10,19,2,1,3
grimmju01,Justin Grimm,4,3,40,5,0,0,1,183,55,25,5,21,61,1,4,3,0,258,10,28,2,2,5
grubeja01,Jarrett Grube,1,1,11,3,0,0,1,75,24,10,3,8,0,1,1,1,0,105,3,11,1,1,2
guerrja01,Javy Guerra,2,3,29,4,0,0,2,147,47,20,4,20,41,2,2,3,0,209,8,21,2,2,4
guerrma02,Matt Guerrier,2,2,23,3,0,0,1,118,37,16,3,14,20,1,2,1,0,166,6,17,1,1,3
guilmpr01,Preston Guilmet,2,2,15,3,0,0,1,93,29,14,3,10,28,1,1,1,0,131,4,15,1,1,2
guthrje01,Jeremy Guthrie,11,10,42,26,1,1,1,536,189,78,21,46,104,1,5,9,0,757,5,84,3,7,16
gutieju01,J. C. Gutierrez,3,3,38,4,0,0,1,177,56,25,6,18,45,2,2,2,0,249,8,28,2,2,4
hagadni01,Nick Hagadone,2,2,27,3,0,0,1,119,35,17,4,16,43,1,2,1,0,167,5,19,1,1,3
hagenbr01,Bradin Hagens,1,2,12,3,0,0,1,80,26,11,2,10,16,1,1,1,0,113,3,12,1,1,2
hahnje01,Jesse Hahn,6,5,33,12,0,0,2,280,79,36,7,37,90,2,4,4,0,392,8,39,3,2,7
haleda02,David Hale,4,4,35,7,0,0,1,225,74,29,6,29,41,4,3,3,0,320,9,32,2,2,8
hamelco01,Cole Hamels,9,9,41,25,1,0,1,548,165,64,16,48,177,3,5,7,1,750,5,69,7,5,14
hammeja01,Jason Hammel,5,6,30,15,0,0,1,311,104,48,13,35,82,1,3,4,0,442,5,51,2,3,9
handbr01,Brad Hand,4,6,38,13,0,0,2,307,98,45,10,37,63,3,4,3,0,434,8,48,4,2,8
happja01,J. A. Happ,9,9,41,21,0,0,2,426,139,64,16,51,121,1,4,3,0,607,7,70,3,4,11
haranaa01,Aaron Harang,9,9,42,24,0,0,2,482,160,65,14,62,126,4,6,3,0,686,6,71,7,5,12
hardybl01,Blaine Hardy,2,2,25,4,0,0,1,134,41,17,4,18,35,2,2,2,0,189,6,19,1,2,4
harenda01,Dan Haren,11,11,42,26,0,0,2,501,170,76,23,35,136,4,7,5,1,701,5,86,6,5,9
harrelu01,Lucas Harrell,4,7,26,11,0,0,1,244,85,43,8,37,51,2,4,2,0,357,5,46,3,3,8
harrima01,Matt Harrison,4,4,23,9,1,0,1,209,70,30,7,23,45,1,2,2,0,295,5,31,2,2,6
harriwi02,Will Harris,2,2,29,3,0,0,1,133,44,18,4,14,49,1,2,2,0,187,7,20,1,2,4
hatchch02,Chris Hatcher,2,3,32,4,0,0,1,161,54,23,5,15,54,1,2,1,1,227,9,25,1,1,3
hawkila01,LaTroy Hawkins,3,3,41,3,0,0,8,170,56,22,5,14,37,2,2,1,0,237,19,25,2,2,5
heanean01,Andrew Heaney,3,4,27,8,0,0,2,200,67,30,8,19,45,1,3,3,0,281,7,32,2,2,6
hellije01,Jeremy Hellickson,6,7,31,17,0,0,1,330,113,52,13,35,85,2,6,3,1,467,5,55,2,3,9
hembrhe01,Heath Hembree,2,2,15,3,0,0,1,94,29,13,3,11,29,1,1,1,0,132,4,14,1,1,3
hendeji01,Jim Henderson,2,2,23,3,0,0,4,109,32,15,4,13,49,1,1,1,0,152,9,16,1,1,2
hendrky01,Kyle Hendricks,7,5,35,13,0,0,2,306,95,37,8,24,62,2,3,4,0,421,7,40,4,2,10
hendrli01,Liam Hendriks,2,4,21,8,0,0,1,174,68,28,7,16,37,1,2,3,0,251,4,32,1,2,5
hernafe02,Felix Hernandez,12,8,43,27,1,1,1,595,165,62,15,45,208,2,12,5,0,796,5,70,4,5,16
hernape02,Pedro Hernandez,4,4,28,9,0,0,2,209,82,34,8,24,32,1,2,2,0,301,6,37,2,3,6
herreke01,Kelvin Herrera,4,4,47,4,0,0,2,201,57,23,5,22,66,2,3,2,0,279,10,24,2,1,5
herreyo01,Yoslan Herrera,2,2,17,3,0,0,1,98,34,13,3,12,24,1,1,1,0,140,5,14,1,1,3
hestoch01,Chris Heston,2,2,18,5,0,0,1,119,38,17,4,14,28,1,2,1,0,168,5,18,1,1,3
hillri01,Rich Hill,2,2,22,3,0,0,1,93,29,14,3,15,38,1,2,1,0,133,4,15,1,1,2
hillta01,Taylor Hill,2,2,18,5,0,0,1,126,45,19,4,13,20,1,2,2,0,178,5,20,2,1,4
holdzjo01,John Holdzkom,2,2,14,3,0,0,1,89,26,12,3,9,54,1,1,1,0,124,4,13,1,1,3
hollade01,Derek Holland,5,4,25,13,0,0,1,282,90,35,10,27,79,1,3,2,0,392,4,41,3,3,8
hollagr01,Greg Holland,3,3,45,4,0,0,20,188,46,19,4,22,94,1,4,1,0,255,30,21,2,2,4
hollama01,Mario Hollands,3,3,29,4,0,0,1,147,46,21,4,19,36,1,2,2,0,208,5,23,2,1,4
holmbda01,David Holmberg,4,4,27,8,0,0,2,202,63,29,8,28,35,2,3,4,0,289,6,32,2,3,5
hoovejj01,J. J. Hoover,3,5,42,4,0,0,2,190,52,27,8,26,70,3,2,2,0,267,13,28,2,3,4
housetj01,T. J. House,6,5,37,15,0,0,2,333,118,44,11,27,87,2,3,6,0,468,7,48,2,2,13
howeljp01,J. P. Howell,3,3,43,3,0,0,1,166,42,19,4,23,52,2,2,2,0,228,7,21,2,1,5
hudsoda01,Daniel Hudson,1,2,11,3,0,0,1,79,28,12,3,7,20,1,1,1,0,112,3,13,1,1,2
hudsoti01,Tim Hudson,9,9,40,24,1,0,1,487,160,67,13,38,104,3,3,6,0,676,5,73,5,4,14
huffda01,David Huff,3,2,23,4,0,0,1,143,43,18,5,16,35,1,2,1,0,200,7,20,2,1,3
hugheja02,Jared Hughes,4,4,40,4,0,0,1,181,54,22,5,20,37,2,3,3,0,252,10,25,3,2,6
hugheph01,Phil Hughes,11,11,44,27,1,0,1,538,191,78,20,33,156,2,4,5,0,753,5,86,3,7,13
hunteto02,Tommy Hunter,4,3,38,5,0,0,4,192,62,25,8,14,46,2,2,2,0,263,11,28,1,2,8
hutchdr01,Drew Hutchison,9,10,45,23,1,1,2,468,147,72,18,51,152,2,4,6,1,662,7,75,4,7,8
irwinph01,Phil Irwin,3,4,27,7,0,0,2,189,63,27,6,23,35,1,3,3,0,267,6,30,2,2,6
iwakuhi01,Hisashi Iwakuma,12,7,41,24,0,0,2,507,152,62,19,34,145,3,5,3,0,682,6,65,2,3,14
jacksed01,Edwin Jackson,7,12,38,23,0,0,1,436,157,80,16,53,121,4,8,4,0,632,5,85,6,4,10
jaimeju01,Juan Jaime,2,2,16,3,0,0,1,94,30,13,3,13,39,1,2,1,0,134,4,15,1,1,3
janseke01,Kenley Jansen,3,3,48,4,0,0,18,197,51,23,6,20,102,1,2,2,0,269,27,24,1,2,4
janssca01,Casey Janssen,3,3,37,3,0,0,13,157,46,21,5,12,44,1,1,2,0,217,22,22,2,1,4
jeffrje01,Jeremy Jeffress,2,2,23,4,0,0,1,122,39,15,3,15,38,1,2,1,0,171,6,17,2,1,4
jenkich01,Chad Jenkins,2,2,20,4,0,0,1,133,44,17,4,12,23,1,1,2,0,187,6,19,1,1,4
jennida01,Dan Jennings,2,3,34,4,0,0,1,149,49,18,4,19,42,1,2,1,0,212,8,20,1,2,4
jepseke01,Kevin Jepsen,2,3,45,4,0,0,2,182,53,23,5,21,66,2,3,2,0,254,8,25,2,2,5
jimence01,Cesar Jimenez,2,2,19,3,0,0,1,103,31,13,3,13,19,1,1,1,0,145,5,15,1,1,3
jimenub01,Ubaldo Jimenez,8,9,36,21,0,0,1,408,126,61,14,68,127,1,6,4,0,588,5,67,3,4,10
johnser04,Erik Johnson,5,4,30,10,0,0,2,228,78,34,7,32,51,2,4,3,0,327,6,38,2,3,6
johnsji04,Jim Johnson,2,2,26,3,0,0,9,115,36,16,3,13,30,2,1,2,0,160,14,17,1,1,5
johnskr01,Kris Johnson,3,4,29,8,0,0,2,202,69,29,6,27,55,2,3,2,0,287,7,31,2,2,6
jokiser01,Eric Jokisch,2,2,18,4,0,0,1,125,42,16,4,13,27,1,1,1,0,177,4,19,1,1,3
jonesna01,Nate Jones,2,2,20,2,0,0,1,98,31,14,3,13,35,1,2,1,0,137,5,15,1,1,3
jordata01,Taylor Jordan,3,5,29,11,0,0,2,238,87,35,7,22,46,2,2,4,0,341,6,40,3,3,8
josepdo01,Donnie Joseph,1,1,12,3,0,0,1,78,26,11,3,9,30,1,1,1,0,111,3,12,1,1,2
jurrjja01,Jair Jurrjens,3,4,27,8,0,0,2,196,79,31,8,21,36,1,3,3,0,282,6,34,2,2,6
kahnlto01,Tommy Kahnle,3,3,34,5,0,0,1,181,50,26,6,24,56,1,4,2,0,253,6,29,2,2,5
karnsna01,Nate Karns,4,4,28,8,0,0,2,203,63,30,8,23,66,1,2,3,0,287,6,32,2,2,5
kazmisc01,Scott Kazmir,12,9,45,26,1,0,2,510,162,70,16,48,157,2,7,4,1,708,6,76,4,2,16
kellesh01,Shawn Kelley,3,4,40,4,0,0,2,167,50,25,6,21,70,2,3,1,0,236,10,26,2,2,3
kellyjo05,Joe Kelly,7,5,34,13,0,0,1,313,98,41,9,40,69,2,3,4,0,442,7,45,3,3,11
kendrky01,Kyle Kendrick,10,11,44,26,1,0,1,530,188,85,20,51,110,4,4,8,0,761,6,91,11,5,13
kenneia01,Ian Kennedy,11,10,42,24,0,0,2,496,158,69,17,54,163,3,7,6,1,699,6,74,7,5,10
kershcl01,Clayton Kershaw,14,6,40,24,3,1,1,555,137,49,11,41,206,2,7,4,1,726,5,53,7,3,15
keuchda01,Dallas Keuchel,9,10,44,24,2,0,2,532,182,73,16,53,128,3,7,6,0,745,6,82,5,5,24
kickhmi01,Mike Kickham,1,2,13,3,0,0,1,88,35,15,4,9,23,1,1,1,0,127,3,16,1,1,2
kimbrcr01,Craig Kimbrel,3,3,45,4,0,0,23,190,40,19,4,21,105,1,4,2,0,256,30,20,2,1,4
kintzbr01,Brandon Kintzler,3,3,43,4,0,0,1,184,60,23,5,17,40,2,2,1,0,254,9,25,3,2,6
kirkmmi01,Michael Kirkman,1,2,17,3,0,0,1,90,31,13,3,12,28,1,1,1,0,129,4,14,1,1,3
kleinph01,Phil Klein,2,2,17,3,0,0,1,105,29,14,4,14,43,2,1,2,0,148,4,15,1,1,3
klubeco01,Corey Kluber,13,8,46,27,1,0,2,578,184,67,16,45,207,2,4,6,0,794,6,76,5,3,16
knebeco01,Corey Knebel,2,2,14,3,0,0,1,91,30,13,3,10,36,1,1,1,0,128,4,14,1,1,3
koehlto01,Tom Koehler,8,10,46,25,0,0,2,510,161,74,16,61,129,2,6,6,0,714,7,78,5,4,18
kohnmi01,Michael Kohn,2,2,27,3,0,0,1,126,33,17,4,22,43,1,2,2,0,179,6,18,1,1,3
kontoge01,George Kontos,3,2,28,3,0,0,1,140,43,19,4,15,42,2,2,1,0,194,6,20,1,2,4
korecbo01,Bobby Korecky,1,1,12,3,0,0,1,78,25,11,2,9,14,1,1,1,0,110,3,12,1,1,2
krolia01,Ian Krol,2,2,30,4,0,0,1,136,48,20,5,15,36,2,2,2,0,195,6,22,1,1,3
kurodhi01,Hiroki Kuroda,10,9,40,25,1,0,1,521,166,69,18,37,130,2,9,6,0,717,5,75,4,5,13
lackejo01,John Lackey,6,6,30,15,1,0,1,320,106,44,13,26,89,1,3,3,0,447,5,49,3,2,8
lafrobo01,Bobby LaFromboise,1,2,14,3,0,0,1,84,27,12,3,9,30,1,1,1,0,117,3,13,1,1,2
laneja01,Jason Lane,2,2,18,4,0,0,1,122,37,16,4,11,26,1,1,1,0,170,4,17,1,1,3
lannajo01,John Lannan,2,2,13,4,0,0,1,103,36,17,3,12,17,1,1,2,0,147,3,18,2,1,3
latosma01,Mat Latos,8,6,33,19,1,0,1,399,122,50,12,38,111,3,4,4,0,553,5,55,7,2,10
layneto01,Tommy Layne,2,2,23,3,0,0,1,105,31,13,3,12,32,1,2,2,0,147,4,15,1,1,3
leagubr01,Brandon League,4,3,43,4,0,0,4,184,63,25,5,23,37,3,4,3,0,263,14,28,3,2,8
leakemi01,Mike Leake,11,10,44,27,0,0,1,563,191,76,21,46,133,3,4,8,0,788,5,83,6,6,18
leblawa01,Wade LeBlanc,2,3,21,5,0,0,1,145,47,20,4,14,32,1,1,2,0,202,5,22,2,1,4
lecursa01,Sam LeCure,3,3,42,4,0,0,1,177,55,23,5,23,56,1,3,2,0,250,10,25,2,2,6
leech01,C. C. Lee,2,2,24,4,0,0,1,118,38,17,4,14,34,1,2,2,0,169,5,18,1,1,3
leecl02,Cliff Lee,6,6,29,16,1,0,1,360,118,45,12,19,117,1,2,2,0,493,4,49,4,3,10
leesmch01,Charles Leesman,3,4,28,7,0,0,2,190,66,29,6,27,34,1,3,2,0,272,7,32,2,2,6
leonedo01,Dominic Leone,5,3,35,5,0,0,1,180,51,21,5,21,64,2,3,2,0,250,5,24,2,2,4
lerouch01,Chris Leroux,1,2,12,3,0,0,1,79,27,12,3,10,23,1,1,1,0,112,3,13,1,1,2
lestejo01,Jon Lester,7,6,30,17,1,1,1,357,115,46,12,35,101,1,3,3,0,498,4,52,2,3,11
lewisco01,Colby Lewis,8,10,40,20,1,1,2,426,161,70,18,36,112,3,4,6,1,615,6,76,3,6,8
linceti01,Tim Lincecum,9,9,39,22,1,1,2,448,143,72,17,61,138,3,10,5,1,640,6,77,6,4,11
lincobr01,Brad Lincoln,2,2,15,3,0,0,1,88,28,13,3,12,23,1,1,1,0,125,4,14,1,1,2
lindbjo01,Josh Lindblom,3,4,29,8,0,0,2,198,64,29,7,26,48,2,3,3,0,281,7,31,2,2,5
lindsma01,Matt Lindstrom,2,3,33,3,0,0,2,142,51,20,4,16,30,1,3,2,0,203,10,22,2,2,6
liriafr01,Francisco Liriano,10,9,41,24,1,0,1,468,131,60,13,70,163,2,9,4,1,658,6,65,5,4,12
lobstky01,Kyle Lobstein,4,4,29,9,0,0,2,228,70,32,7,26,53,2,2,2,0,319,7,35,2,2,6
lockeje01,Jeff Locke,8,7,39,21,0,0,1,429,133,60,14,54,104,3,4,5,1,604,6,65,6,5,13
loganbo02,Boone Logan,3,2,32,3,0,0,1,123,40,19,5,16,51,2,2,1,0,175,6,20,2,2,3
lohseky01,Kyle Lohse,11,8,41,25,1,1,1,524,166,68,19,37,120,1,2,5,0,721,5,73,7,5,12
lopezja02,Javier Lopez,3,2,42,3,0,0,2,139,40,17,3,18,34,3,2,2,0,197,10,19,2,2,4
lopezwi01,Wilton Lopez,2,2,22,3,0,0,1,106,40,16,3,8,25,1,1,1,0,150,7,16,1,1,3
loupaa01,Aaron Loup,4,4,47,4,0,0,2,200,58,25,5,21,53,3,3,4,0,277,10,27,2,3,6
lowema01,Mark Lowe,1,2,15,3,0,0,1,88,28,13,3,12,20,1,2,1,0,126,4,14,1,1,2
luekejo01,Josh Lueke,2,3,23,4,0,0,1,126,45,19,5,13,31,1,2,2,0,181,7,21,1,2,3
luetglu01,Lucas Luetge,2,2,21,3,0,0,1,100,32,15,3,14,26,1,2,1,0,142,6,16,1,1,3
lylesjo01,Jordan Lyles,7,7,38,22,0,0,2,422,149,69,15,47,96,2,5,8,1,611,6,77,4,4,12
lynnla01,Lance Lynn,13,9,44,27,1,0,1,549,170,69,14,66,172,2,6,8,0,776,5,76,6,5,14
lyonsty01,Tyler Lyons,3,4,24,7,0,0,1,186,57,28,6,19,56,2,2,3,0,262,5,31,2,1,5
machije01,Jean Machi,4,2,44,4,0,0,2,188,52,22,5,18,55,2,3,2,0,254,9,24,3,1,7
maholpa01,Paul Maholm,4,5,28,11,0,0,1,252,89,39,9,28,53,2,2,4,0,361,6,43,3,2,10
manesse01,Seth Maness,5,4,49,4,0,0,2,217,72,26,6,15,48,3,2,2,0,296,10,29,3,2,9
manshje01,Jeff Manship,2,3,19,4,0,0,1,118,41,20,4,16,24,2,1,1,0,170,5,21,2,1,3
mariomi01,Michael Mariot,2,2,18,4,0,0,1,114,39,17,4,14,29,1,2,1,0,163,5,19,1,1,3
marksju01,Justin Marks,1,1,12,3,0,0,1,79,26,11,2,10,17,1,1,1,0,112,3,12,1,1,2
marmoca01,Carlos Marmol,2,2,20,3,0,0,2,100,29,15,3,20,38,1,2,1,0,144,8,16,1,1,3
maronni01,Nick Maronde,2,1,16,3,0,0,1,88,29,13,3,14,25,1,1,1,0,126,4,15,1,1,2
marshev01,Evan Marshall,3,3,32,4,0,0,1,153,50,20,4,17,55,2,2,2,0,215,7,21,2,1,5
marshse01,Sean Marshall,2,2,20,3,0,0,1,98,32,14,3,12,34,1,1,2,0,140,5,15,1,1,2
martica04,Carlos Martinez,4,4,42,7,0,0,2,237,79,34,6,29,72,4,4,4,0,337,10,36,4,2,6
martich02,Chris Martin,2,2,16,3,0,0,1,98,35,15,3,10,28,1,1,1,1,139,3,16,1,1,3
martida02,David Martinez,2,1,13,3,0,0,1,89,29,13,3,9,20,1,1,1,0,126,3,14,1,1,2
martiet01,Ethan Martin,2,2,14,4,0,0,1,95,29,14,4,14,33,1,1,1,0,136,3,15,1,1,2
martini01,Nick Martinez,6,9,42,18,0,0,2,381,131,58,14,47,69,2,6,4,0,544,8,64,2,5,10
masseni01,Nick Masset,3,2,29,4,0,0,1,141,50,22,4,20,35,1,2,3,0,203,7,24,1,2,5
masteju01,Justin Masterson,5,5,23,12,1,0,1,248,76,37,8,33,73,1,5,6,0,352,4,40,3,2,8
matsuda01,Daisuke Matsuzaka,4,4,31,10,0,0,1,235,67,34,8,37,70,2,4,5,0,335,6,38,3,2,6
matthry01,Ryan Mattheus,2,2,19,3,0,0,1,98,34,14,3,11,19,1,2,1,0,138,5,15,1,1,4
matusbr01,Brian Matusz,3,3,39,5,0,0,1,169,55,23,6,20,52,2,2,2,0,240,7,26,1,2,4
matzety01,Tyler Matzek,6,9,38,16,1,1,2,360,120,51,10,43,92,2,4,4,0,508,8,54,4,3,11
maurebr01,Brandon Maurer,4,5,33,9,0,0,1,231,85,38,9,22,59,1,4,3,0,331,6,42,2,2,7
maytr01,Trevor May,5,6,32,11,0,0,2,242,88,42,9,32,72,2,4,3,0,349,7,45,2,2,6
mazzavi01,Vin Mazzaro,3,2,19,3,0,0,1,113,36,15,3,13,23,1,2,2,0,158,5,16,1,1,3
mcallza01,Zach McAllister,6,7,32,16,0,0,1,318,109,49,11,35,86,2,4,3,1,455,5,55,2,4,8
mccarbr01,Brandon McCarthy,7,7,32,16,1,1,1,353,126,48,12,23,86,2,2,4,0,494,5,53,4,2,9
mccoypa01,Pat McCoy,2,2,16,3,0,0,1,97,34,13,3,15,21,1,1,1,0,139,4,14,1,1,3
mccutda01,Daniel McCutchen,1,1,12,3,0,0,1,78,25,11,3,9,0,1,1,1,0,110,3,12,1,1,2
mcfartj01,T. J. McFarland,4,3,32,4,0,0,1,192,69,25,5,19,42,2,2,2,0,274,9,28,3,1,6
mcgeeja01,Jake McGee,4,3,50,4,0,0,6,201,52,24,5,18,87,2,2,2,0,273,13,25,1,2,4
mcgowdu01,Dustin McGowan,4,3,40,7,0,0,2,219,68,31,8,28,56,1,3,3,0,311,9,34,1,2,6
mchugco01,Collin McHugh,8,9,41,20,0,0,2,420,124,54,14,39,137,2,5,5,0,580,7,61,5,4,9
medinyo01,Yoervis Medina,4,4,43,4,0,0,1,183,50,23,5,28,63,3,5,3,0,259,12,24,1,2,6
meekev01,Evan Meek,2,3,19,3,0,0,1,109,36,16,4,14,23,1,1,2,0,155,5,18,2,1,3
mejiaje01,Jenrry Mejia,5,5,40,8,0,0,10,240,81,32,8,30,78,3,4,3,0,343,20,35,2,2,8
melanma01,Mark Melancon,3,4,48,4,0,0,12,202,57,22,5,14,68,1,3,2,0,276,21,24,1,2,4
mendero01,Roman Mendez,2,2,23,4,0,0,1,127,34,16,4,17,29,1,2,2,0,178,5,17,1,1,3
merceme01,Melvin Mercedes,1,1,12,3,0,0,1,80,24,11,2,8,37,1,1,1,0,112,3,12,1,1,2
mikolmi01,Miles Mikolas,5,6,35,11,0,0,2,270,91,45,10,30,58,2,3,5,1,385,8,48,3,3,7
mileywa01,Wade Miley,9,10,43,27,0,0,1,543,182,79,18,56,148,3,8,4,0,765,5,84,6,5,17
millean01,Andrew Miller,2,2,25,3,0,0,1,114,30,14,3,15,60,1,2,2,0,158,5,15,1,1,3
milleji02,Jim Miller,1,1,12,3,0,0,1,78,25,12,3,11,21,1,1,1,0,111,4,12,1,1,2
milleju02,Justin Miller,2,2,14,3,0,0,1,94,31,13,3,9,12,1,1,1,0,132,4,15,1,1,2
millesh01,Shelby Miller,11,9,46,26,1,1,2,515,152,68,19,63,138,3,4,4,0,718,6,72,6,4,13
millsbr02,Brad Mills,2,1,12,3,0,0,1,81,28,13,3,9,24,1,1,1,0,116,3,14,1,1,2
milonto01,Tommy Milone,5,4,24,12,0,0,1,243,88,37,10,21,60,1,2,2,0,348,4,42,1,2,7
minormi01,Mike Minor,8,9,38,23,0,0,1,462,149,67,19,44,130,3,5,4,0,645,5,71,5,4,11
mitchbr01,Bryan Mitchell,2,3,19,5,0,0,1,130,41,17,4,14,29,1,2,2,0,182,5,19,1,1,4
montera01,Rafael Montero,4,4,30,10,0,0,2,231,74,32,9,32,71,1,2,2,0,327,7,35,2,2,7
moorema02,Matt Moore,6,4,24,12,0,0,1,244,69,32,8,37,76,1,5,3,0,346,4,35,2,2,6
moralfr01,Franklin Morales,6,7,46,15,0,0,2,357,125,60,16,50,88,3,5,6,2,520,8,64,4,4,11
morinmi01,Mike Morin,3,3,34,4,0,0,1,168,51,22,5,18,52,3,2,2,0,236,7,24,2,2,5
morribr01,Bryan Morris,4,3,32,4,0,0,1,156,46,18,5,18,39,2,3,2,0,218,8,20,2,2,5
morrobr01,Brandon Morrow,3,4,22,9,0,0,1,189,62,29,7,23,53,1,2,2,0,267,4,31,1,2,6
mortoch02,Charlie Morton,7,9,40,22,0,0,2,447,142,60,11,49,112,2,7,13,0,631,6,70,6,4,17
motteja01,Jason Motte,2,2,22,3,0,0,4,111,34,16,5,11,36,1,1,1,0,155,9,17,1,1,3
mujiced01,Edward Mujica,3,3,43,4,0,0,9,183,62,24,6,13,45,1,2,1,0,253,19,26,2,2,5
nathajo01,Joe Nathan,4,3,42,3,0,0,18,175,50,23,5,21,62,2,3,2,0,244,29,24,2,2,4
nelsoji02,Jimmy Nelson,4,7,34,12,0,0,2,277,94,41,8,27,73,1,4,6,0,395,7,45,2,3,9
nerishe01,Hector Neris,2,1,12,3,0,0,1,78,24,11,2,8,36,1,1,1,0,109,3,12,1,1,2
neshepa01,Pat Neshek,4,3,44,4,0,0,3,185,50,21,6,15,59,2,2,2,0,253,11,23,2,2,4
nicasju01,Juan Nicasio,6,6,34,15,0,0,1,307,110,52,13,37,74,3,4,3,1,444,6,57,4,2,6
niesejo01,Jonathon Niese,9,9,41,25,0,0,1,504,171,66,15,46,127,2,5,6,0,709,5,74,7,4,16
noesihe01,Hector Noesi,7,9,43,20,1,0,2,436,150,69,20,49,101,3,6,3,1,618,8,76,4,5,15
nolasri01,Ricky Nolasco,8,9,39,22,1,0,1,439,166,72,16,36,106,2,5,6,0,628,5,76,6,4,14
nolinse01,Sean Nolin,1,2,12,3,0,0,1,78,27,11,3,8,0,1,1,1,0,110,3,12,1,1,2
norribu01,Bud Norris,10,8,40,22,0,0,2,442,141,63,17,52,133,2,4,8,0,624,6,67,3,3,11
norrida01,Daniel Norris,2,2,17,4,0,0,1,110,34,15,4,14,21,1,1,1,0,156,4,17,1,1,3
novaiv01,Ivan Nova,5,4,25,12,1,0,1,254,90,37,10,27,69,2,3,5,0,362,5,40,2,3,9
nunezle01,Juan Carlos Oviedo,3,3,22,4,0,0,1,121,36,17,4,16,32,1,2,2,0,171,7,18,1,1,3
nunovi01,Vidal Nuno,4,7,35,14,0,0,2,313,92,42,11,28,83,1,3,4,0,434,7,45,3,2,6
oberhbr01,Brett Oberholtzer,7,10,41,20,1,0,2,425,153,61,13,30,91,1,3,4,1,601,7,65,4,6,10
odayda01,Darren O'Day,4,3,47,4,0,0,2,194,49,21,6,18,69,2,1,4,0,265,11,22,2,2,5
odorija01,Jake Odorizzi,9,10,45,23,0,0,2,451,140,66,16,51,150,1,4,5,0,639,8,69,3,6,7
oflaher01,Eric O'Flaherty,2,1,22,3,0,0,1,110,31,14,4,11,28,1,2,2,0,152,5,15,1,1,3
ogandal01,Alexi Ogando,3,2,23,5,0,0,1,143,44,20,5,18,38,1,3,2,0,201,5,21,1,1,4
olivele01,Lester Oliveros,2,2,14,3,0,0,1,86,27,12,3,10,22,1,1,1,0,120,3,13,1,1,2
ondrulo01,Logan Ondrusek,3,3,34,3,0,0,1,153,51,23,6,19,46,1,3,2,0,219,9,25,2,1,3
ortegjo01,Jose Ortega,1,2,13,3,0,0,1,81,24,12,3,11,22,1,1,1,0,115,3,13,1,1,2
osullse01,Sean O'Sullivan,3,3,24,7,0,0,1,173,60,25,5,19,28,1,2,2,0,245,6,27,2,2,6
oteroda01,Dan Otero,5,3,45,4,0,0,1,216,71,24,5,15,41,3,2,2,0,298,10,27,3,2,8
ottavad01,Adam Ottavino,3,3,43,4,0,0,1,195,63,25,6,22,67,2,4,3,0,275,8,28,3,2,6
outmajo01,Josh Outman,2,1,20,3,0,0,1,96,32,14,3,12,30,1,1,1,0,136,4,15,1,1,3
owensru01,Rudy Owens,3,4,27,7,0,0,2,190,64,27,6,20,9,1,2,3,0,268,7,29,2,2,5
papeljo01,Jonathan Papelbon,3,3,45,4,0,0,17,190,53,22,5,16,66,1,2,3,0,260,29,23,2,1,4
parkebl01,Blake Parker,2,2,24,3,0,0,1,120,38,17,4,12,46,1,2,1,0,169,8,18,1,1,3
parnebo01,Bobby Parnell,2,2,18,2,0,0,3,91,27,12,2,9,27,1,1,1,0,127,8,13,1,1,3
parrama01,Manny Parra,2,3,36,3,0,0,1,142,46,20,4,20,48,1,3,2,0,202,6,22,2,1,4
partccu01,Curtis Partch,2,2,15,3,0,0,1,93,25,13,4,15,22,1,1,2,0,132,4,14,1,1,2
paterjo01,Joe Paterson,1,1,12,3,0,0,1,78,28,12,3,9,5,1,1,1,0,111,3,13,1,1,2
pattere02,Red Patterson,3,3,27,7,0,0,2,188,56,25,6,22,14,1,2,2,0,264,7,28,2,2,5
pattosp01,Spencer Patton,2,2,14,3,0,0,1,90,27,12,3,9,29,1,1,1,0,126,3,13,1,1,3
pattotr01,Troy Patton,2,1,21,3,0,0,1,102,33,14,4,9,29,1,1,1,0,143,5,15,1,1,3
paulife01,Felipe Paulino,4,4,28,9,0,0,2,206,76,34,8,27,53,2,3,3,0,298,6,36,2,2,6
paxtoja01,James Paxton,7,5,34,14,0,0,2,302,84,37,8,36,83,3,5,3,0,418,7,42,3,2,9
peacobr01,Brad Peacock,6,8,41,19,0,0,2,392,128,63,18,61,116,3,6,5,0,568,8,71,2,4,11
peavyja01,Jake Peavy,6,5,29,14,1,0,1,313,92,38,9,26,84,1,3,5,1,428,5,42,3,4,9
pelfrmi01,Mike Pelfrey,4,6,28,13,0,0,1,260,98,44,9,33,51,1,2,4,0,379,5,47,2,3,7
pennybr01,Brad Penny,3,3,24,6,0,0,1,163,60,25,5,20,23,1,2,2,0,233,6,28,2,1,6
peraljo01,Joel Peralta,3,4,47,4,0,0,1,186,52,26,7,20,72,1,2,2,0,257,9,28,2,1,4
peralwi01,Wily Peralta,13,11,45,27,1,0,2,543,179,76,19,61,136,2,8,7,0,769,6,86,8,3,19
perezch01,Chris Perez,3,3,37,3,0,0,8,160,49,23,6,21,49,1,2,3,0,228,17,25,2,2,5
perezma02,Martin Perez,7,6,31,14,1,1,1,303,103,43,10,34,68,2,5,3,1,426,6,47,2,2,12
perezol01,Oliver Perez,3,4,44,4,0,0,1,176,53,23,5,23,74,2,2,3,1,250,10,25,2,1,5
perkigl01,Glen Perkins,3,3,44,4,0,0,15,185,55,23,6,15,71,1,2,2,0,254,28,26,2,2,5
pestavi01,Vinnie Pestano,2,2,21,3,0,0,1,100,29,13,4,13,37,1,1,1,0,140,6,14,1,1,2
petityu01,Yusmeiro Petit,5,5,36,11,1,0,1,295,89,40,9,23,111,3,2,2,0,403,10,43,2,2,7
petrija01,Jake Petricka,3,4,40,4,0,0,5,193,60,25,5,27,46,2,3,2,0,271,14,26,2,2,7
pettijo02,Jonathan Pettibone,4,4,27,10,0,0,1,229,82,34,8,26,48,2,2,3,0,328,5,37,4,2,7
phelpda01,David Phelps,6,6,38,14,0,0,2,326,105,50,12,42,93,2,3,6,1,466,8,54,3,3,8
pimenst01,Stolmy Pimentel,2,2,21,4,0,0,1,130,41,19,4,16,47,1,2,2,0,185,6,20,1,1,3
pinedmi01,Michael Pineda,6,6,35,13,0,0,2,300,84,34,8,18,83,1,4,2,1,406,7,37,3,2,5
pinoyo01,Yohan Pino,4,6,33,12,0,0,2,268,92,41,10,24,73,1,3,3,0,378,7,44,3,4,6
pomerdr01,Drew Pomeranz,4,5,30,11,0,0,1,240,71,31,9,34,72,1,3,3,0,339,6,36,3,2,8
porceri01,Rick Porcello,12,10,44,26,1,1,1,543,193,76,17,42,122,4,4,5,0,758,6,85,4,4,21
poredaa01,Aaron Poreda,2,2,19,3,0,0,1,107,39,16,3,11,33,1,1,1,0,152,4,17,1,1,3
pressry01,Ryan Pressly,3,2,26,3,0,0,1,142,46,19,4,15,28,1,2,1,0,199,7,21,2,2,4
pricebr01,Bryan Price,1,1,12,3,0,0,1,79,27,12,3,8,6,1,1,1,0,112,3,13,1,1,2
priceda01,David Price,7,5,29,16,1,0,1,351,109,45,10,27,111,1,3,3,0,478,4,48,2,2,10
pryorst01,Stephen Pryor,2,1,13,3,0,0,1,81,24,11,3,10,28,1,1,1,0,114,3,12,1,1,2
putkolu01,Luke Putkonen,1,2,15,3,0,0,1,88,30,13,3,10,22,1,2,1,0,125,4,14,1,1,2
putnaza01,Zach Putnam,3,3,31,4,0,0,3,159,47,20,4,18,47,1,3,2,0,219,8,22,2,2,5
putzjj01,J. J. Putz,2,2,22,3,0,0,3,103,31,14,3,12,39,1,2,1,0,144,9,15,1,1,3
quackke01,Kevin Quackenbush,3,3,32,4,0,0,3,158,45,20,4,17,56,2,2,2,0,220,9,21,1,2,4
quallch01,Chad Qualls,3,3,40,4,0,0,5,167,55,21,5,13,45,2,2,2,0,232,15,24,2,1,6
quintjo01,Jose Quintana,9,9,44,27,0,0,1,550,179,71,15,51,152,3,6,4,1,764,6,80,4,5,15
ramirer02,Erasmo Ramirez,4,6,34,15,0,0,1,303,102,49,13,36,79,2,3,5,0,436,6,52,2,3,8
ramirjo02,Jose Ramirez,2,2,14,3,0,0,1,92,29,13,3,12,27,1,1,1,0,131,4,14,1,1,2
ramirne01,Neil Ramirez,3,3,29,4,0,0,2,143,39,17,4,17,60,1,2,2,0,199,7,19,1,1,3
ramirra02,Ramon Ramirez,1,1,13,2,0,0,1,77,24,11,2,11,19,1,1,1,0,109,4,12,1,1,2
ramosaj01,AJ Ramos,4,3,45,4,0,0,1,195,47,23,4,34,73,3,3,2,0,274,10,25,2,2,4
ramosce01,Cesar Ramos,3,4,40,6,0,0,1,235,71,33,7,31,63,4,3,2,0,333,14,35,2,3,5
ranauan01,Anthony Ranaudo,5,5,31,10,0,0,2,243,78,36,11,29,30,1,3,2,0,343,7,38,2,4,6
rasmuco02,Cory Rasmus,3,3,31,6,0,0,1,186,53,24,6,21,63,2,2,2,0,259,7,26,1,2,4
rasmuro01,Rob Rasmussen,2,2,15,3,0,0,1,94,28,13,3,12,34,1,2,1,0,132,4,14,1,1,3
rayro02,Robbie Ray,3,4,27,8,0,0,2,194,73,32,7,22,39,1,3,2,1,278,6,34,2,2,5
redmoto01,Todd Redmond,3,4,30,7,0,0,1,210,67,29,7,24,61,3,2,3,0,295,8,32,2,3,6
reedad01,Addison Reed,3,4,45,4,0,0,17,188,57,27,7,19,67,2,2,2,0,264,29,29,2,2,4
reedev01,Evan Reed,2,2,24,4,0,0,1,130,46,18,4,15,32,1,2,2,0,186,7,21,1,1,5
ricesc01,Scott Rice,2,3,28,3,0,0,1,109,33,16,3,17,30,1,2,1,0,155,4,17,1,1,4
richaga01,Garrett Richards,10,7,49,21,1,0,2,482,143,60,11,53,138,3,13,5,1,670,8,67,4,4,13
riefecj01,C. J. Riefenhauser,2,2,13,3,0,0,1,85,27,12,3,10,10,1,1,1,0,120,3,13,1,1,2
rienzan01,Andre Rienzo,5,5,31,12,0,0,1,256,91,45,12,37,60,1,5,4,0,376,6,49,3,2,7
roachdo01,Donn Roach,2,2,20,4,0,0,1,129,44,19,4,17,22,1,2,2,0,185,5,20,2,1,4
roarkta01,Tanner Roark,12,8,45,22,1,1,2,494,146,56,13,36,118,2,2,5,0,670,7,59,5,3,14
roberda08,David Robertson,4,4,46,4,0,0,11,191,52,23,6,21,89,1,2,2,0,262,19,24,2,1,4
rodnefe01,Fernando Rodney,3,4,46,4,0,0,21,189,53,23,4,24,72,2,3,2,0,266,31,25,2,1,5
rodrife02,Fernando Rodriguez,2,2,16,3,0,0,1,88,26,12,3,11,28,1,1,1,0,123,4,13,1,1,2
rodrifr03,Francisco Rodriguez,4,4,42,4,0,0,12,181,53,24,8,19,66,1,2,2,0,251,22,26,2,1,4
rodrihe03,Henry Rodriguez,1,1,14,3,0,0,1,79,24,11,3,14,20,1,1,1,0,113,4,13,1,1,2
rodrist02,Paco Rodriguez,2,2,27,3,0,0,1,116,30,15,4,13,46,1,1,1,0,158,5,16,1,1,3
rodriwa01,Wandy Rodriguez,5,5,27,11,0,0,1,234,79,35,11,22,55,2,2,3,1,332,5,39,2,2,6
rodriwi02,Wilking Rodriguez,1,1,12,3,0,0,1,80,25,11,2,9,16,1,1,1,0,112,3,12,1,1,2
roech01,Chaz Roe,2,1,14,3,0,0,1,85,26,12,3,12,31,1,1,1,0,120,4,13,1,1,2
rogeres01,Esmil Rogers,3,3,24,6,0,0,1,159,54,24,6,17,42,1,2,2,1,225,5,26,1,1,5
romose01,Sergio Romo,4,4,44,4,0,0,13,178,50,23,6,14,63,2,2,3,0,245,22,24,2,1,4
rondohe01,Hector Rondon,3,3,41,4,0,0,9,189,56,25,5,20,59,2,2,2,0,264,18,27,2,2,4
rondojo01,Jorge Rondon,1,1,12,3,0,0,1,77,24,11,2,9,0,1,1,1,0,109,3,11,1,1,2
rosenbj01,B. J. Rosenberg,2,2,18,3,0,0,1,99,34,15,4,14,28,1,1,1,0,140,5,16,1,1,3
rosentr01,Trevor Rosenthal,3,4,49,4,0,0,13,208,58,26,5,29,90,2,2,4,0,293,22,28,2,2,6
rosinse01,Seth Rosin,2,1,12,3,0,0,1,82,27,11,3,9,18,1,1,1,0,115,3,12,1,1,2
rosscza01,Zac Rosscup,2,2,18,3,0,0,1,98,30,15,3,16,42,1,1,1,0,140,5,16,1,1,2
rossro01,Robbie Ross,5,5,47,9,0,0,1,263,95,42,8,30,63,2,4,5,0,379,10,46,2,2,10
rossty01,Tyson Ross,9,12,48,24,1,0,2,514,151,62,13,64,163,3,9,8,0,715,8,74,7,5,18
rothmi01,Michael Roth,2,2,16,3,0,0,1,102,35,16,3,13,25,1,1,2,0,145,4,17,1,1,4
rowenbe01,Ben Rowen,2,2,14,3,0,0,1,89,29,12,3,10,23,1,1,1,0,125,4,13,1,1,3
rowlary01,Ryan Rowland-Smith,2,1,13,3,0,0,1,85,27,12,3,10,33,1,1,1,0,120,3,13,1,1,2
rucindr01,Drew Rucinski,2,2,13,3,0,0,1,87,28,12,3,9,29,1,1,1,0,123,3,13,1,1,2
rusinch01,Chris Rusin,2,2,14,5,0,0,1,114,39,17,4,13,22,1,1,2,0,162,3,18,1,1,3
russeja02,James Russell,2,2,31,3,0,0,1,132,41,17,4,13,32,2,1,1,0,183,7,18,2,1,3
ryanky01,Kyle Ryan,2,2,17,4,0,0,1,111,36,15,3,11,15,1,1,1,0,156,4,16,1,1,3
ryuhy01,Hyun-Jin Ryu,12,7,40,23,1,0,2,468,152,59,12,36,136,3,4,3,0,648,6,62,6,3,15
rzepcma01,Marc Rzepczynski,2,3,41,4,0,0,1,150,44,18,4,18,46,2,2,2,0,210,7,21,1,1,5
sabatcc01,CC Sabathia,7,6,26,14,1,0,1,307,106,49,13,27,93,2,3,4,0,437,4,53,3,3,8
sadleca02,Casey Sadler,2,2,14,3,0,0,1,93,30,14,3,11,19,1,1,1,0,131,4,15,1,1,2
salasfe01,Fernando Salas,3,3,38,4,0,0,1,171,52,23,5,18,57,2,2,2,0,239,10,25,3,2,3
salazda01,Danny Salazar,7,8,39,18,1,1,2,369,122,53,13,38,138,3,5,4,0,521,7,57,3,4,9
salech01,Chris Sale,11,8,39,23,2,0,1,514,143,56,16,42,193,3,5,9,0,694,5,62,3,4,14
samarje01,Jeff Samardzija,6,8,33,19,1,0,1,410,126,57,15,38,134,2,6,5,0,566,5,62,3,3,11
sanchaa01,Aaron Sanchez,2,2,21,4,0,0,2,129,32,15,4,13,39,1,2,2,0,177,5,17,2,1,3
sanchan01,Anibal Sanchez,9,7,36,20,0,0,1,416,124,51,9,37,130,2,5,4,0,574,5,56,3,4,9
santaer01,Ervin Santana,10,9,41,26,0,0,1,531,167,74,20,54,148,3,7,5,0,738,5,81,6,6,14
santihe01,Hector Santiago,6,8,44,19,0,0,2,397,121,54,15,58,119,3,5,7,1,568,9,61,3,3,10
santose01,Sergio Santos,2,2,23,3,0,0,2,113,35,17,4,16,45,1,2,1,0,160,7,19,1,2,4
saundjo01,Joe Saunders,3,3,15,6,0,0,1,133,52,22,5,14,25,1,1,1,0,192,3,24,1,1,5
saverjo01,Joe Savery,2,1,15,3,0,0,1,87,26,12,3,10,16,1,1,1,0,122,4,13,1,1,2
scahiro01,Rob Scahill,2,2,18,3,0,0,1,108,37,16,4,13,22,1,1,2,0,154,5,17,1,1,3
schepta01,Tanner Scheppers,3,3,37,5,0,0,1,186,61,27,7,20,48,2,3,4,0,263,7,29,1,1,7
scherma01,Max Scherzer,15,6,43,27,0,0,1,571,162,69,17,55,221,2,7,5,1,779,5,74,4,6,12
schlibr01,Brian Schlitter,3,3,33,4,0,0,1,159,52,23,4,17,29,2,1,2,0,224,5,25,3,1,5
schlogu01,Gus Schlosser,2,2,17,3,0,0,1,103,35,16,3,11,14,1,2,1,0,146,5,17,1,1,3
schulbo02,Bo Schultz,2,2,13,3,0,0,1,87,30,13,3,8,17,1,1,1,0,122,4,14,1,1,3
scribev01,Evan Scribner,2,1,18,3,0,0,1,100,31,14,4,9,28,1,1,1,0,140,6,15,1,1,2
shawbr01,Bryan Shaw,4,4,52,4,0,0,2,213,61,26,6,24,61,2,3,3,0,297,11,30,3,2,5
shielja02,James Shields,12,8,42,27,1,1,1,580,185,72,19,48,165,1,9,8,1,804,5,80,4,5,16
shoemma01,Matt Shoemaker,10,5,39,15,0,0,2,358,109,44,12,26,112,1,5,4,0,490,9,48,3,4,9
shrevch01,Chasen Shreve,2,2,16,3,0,0,1,96,29,12,3,10,40,1,1,1,0,134,4,13,1,1,2
siegrke01,Kevin Siegrist,2,3,29,4,0,0,1,135,37,19,4,19,55,1,1,2,0,190,7,20,1,1,3
simmosh01,Shae Simmons,2,2,20,4,0,0,1,110,32,15,3,14,40,1,1,1,0,154,5,16,1,1,3
simonal01,Alfredo Simon,11,8,59,19,0,0,2,493,149,63,16,49,112,5,6,10,0,688,13,68,6,4,11
sippto01,Tony Sipp,3,3,40,4,0,0,2,161,42,22,6,21,62,2,3,2,0,225,9,24,2,1,3
skaggty01,Tyler Skaggs,6,7,38,17,0,0,2,372,119,56,13,38,97,2,6,5,0,520,7,62,3,4,10
sloweke01,Kevin Slowey,3,3,22,6,0,0,1,170,65,26,6,14,42,1,1,2,0,242,5,27,2,3,5
smithca02,Carson Smith,2,2,14,3,0,0,1,89,25,12,3,10,43,1,1,1,0,124,3,13,1,1,2
smithch08,Chad Smith,2,2,15,3,0,0,1,94,32,13,3,10,24,1,1,1,0,132,4,14,1,1,3
smithjo05,Joe Smith,5,3,51,4,0,0,5,205,53,22,5,20,61,2,3,3,0,279,14,24,2,1,6
smithwi04,Will Smith,3,3,38,5,0,0,1,187,60,26,7,23,68,2,3,2,0,264,6,30,1,2,6
smylydr01,Drew Smyly,6,3,41,10,0,0,2,279,76,32,8,26,95,2,5,2,0,378,7,35,2,2,7
snodgsc01,Scott Snodgress,1,1,12,3,0,0,1,80,28,12,3,10,6,1,1,1,0,114,3,13,1,1,2
soriajo01,Joakim Soria,2,2,18,3,0,0,1,98,30,14,3,12,29,1,2,1,0,138,5,15,1,1,3
soriara01,Rafael Soriano,3,3,44,4,0,0,18,184,55,23,5,19,56,1,2,2,0,255,27,25,1,1,5
spruize01,Zeke Spruill,2,3,19,5,0,0,1,132,47,18,4,12,28,1,1,2,0,188,4,21,2,2,4
stammcr01,Craig Stammen,4,4,39,4,0,0,1,207,67,27,5,21,61,2,2,2,0,290,10,29,3,2,6
staufti01,Tim Stauffer,4,3,35,5,0,0,1,197,63,27,6,22,65,2,2,3,0,276,11,28,2,2,6
stinsjo01,Josh Stinson,2,2,16,3,0,0,1,101,31,14,4,11,18,1,1,2,0,142,4,15,1,1,3
stitema01,Matt Stites,2,2,24,4,0,0,1,127,41,19,5,16,32,1,2,2,0,181,6,21,2,1,3
storedr01,Drew Storen,3,3,44,4,0,0,4,179,54,21,5,16,52,2,3,2,0,248,13,23,2,2,5
straida01,Dan Straily,3,3,18,7,0,0,1,158,49,25,6,20,43,1,2,2,0,225,3,27,1,2,3
strasst01,Stephen Strasburg,11,9,45,28,0,0,1,564,163,68,18,49,213,3,7,7,1,767,5,77,7,4,15
streehu01,Huston Street,2,3,28,3,0,0,10,130,36,16,5,13,42,1,2,1,0,179,17,16,1,1,3
strichu01,Hunter Strickland,2,2,14,3,0,0,1,87,27,11,3,8,43,1,1,1,0,121,4,12,1,1,2
stromma01,Marcus Stroman,8,6,40,16,1,1,2,362,116,49,9,29,104,2,6,4,1,501,7,53,2,3,10
stroppe01,Pedro Strop,3,3,42,4,0,0,2,176,45,21,4,24,66,2,4,3,0,244,9,23,2,1,6
stulter01,Eric Stults,9,12,42,25,1,0,1,494,176,73,18,40,103,3,3,4,0,701,5,79,9,5,12
surkaer01,Eric Surkamp,2,2,22,4,0,0,1,113,37,17,4,14,27,1,1,2,0,161,4,18,2,1,4
swarzan01,Anthony Swarzak,3,3,40,5,0,0,1,240,83,34,7,24,50,3,2,1,1,339,9,38,2,3,8
tanakma01,Masahiro Tanaka,10,6,39,17,2,1,2,389,120,47,13,26,138,1,4,4,0,531,7,52,3,3,11
tazawju01,Junichi Tazawa,4,3,46,4,0,0,1,190,61,24,6,15,66,1,3,2,0,264,9,25,2,2,4
teherju01,Julio Teheran,12,10,47,28,2,1,2,584,174,69,20,48,171,4,3,7,1,799,6,77,9,5,11
tepesni01,Nick Tepesch,6,9,40,20,0,0,2,397,134,61,15,43,73,3,3,7,0,564,7,66,3,4,11
thatcjo01,Joe Thatcher,2,2,19,3,0,0,1,86,30,13,3,10,23,1,1,1,0,123,4,14,1,1,3
thayeda01,Dale Thayer,3,4,47,4,0,0,2,189,56,23,7,18,60,2,2,2,0,262,13,25,2,1,4
thielca01,Caleb Thielbar,3,2,37,4,0,0,1,161,47,20,5,17,42,2,2,2,0,224,8,22,1,3,4
thomaia01,Ian Thomas,2,2,16,3,0,0,1,92,29,13,3,11,35,1,1,1,0,129,4,14,1,1,2
thompaa01,Aaron Thompson,2,2,14,3,0,0,1,87,28,12,3,9,24,1,1,1,0,121,3,13,1,1,2
thompta01,Taylor Thompson,2,1,13,3,0,0,1,83,28,12,3,10,17,1,1,1,0,118,3,13,1,1,3
thornma01,Matt Thornton,2,2,20,3,0,0,1,94,32,12,2,9,23,1,1,1,0,131,4,13,1,1,3
thornty01,Tyler Thornburg,3,2,22,5,0,0,1,141,41,18,4,20,39,1,2,2,0,198,5,20,2,1,4
tillmch01,Chris Tillman,13,7,45,28,1,0,1,560,168,73,22,59,145,2,7,4,0,777,6,79,3,5,12
tollesh01,Shawn Tolleson,3,2,38,4,0,0,1,185,52,23,7,25,60,2,3,2,0,258,8,25,2,2,5
tomlijo01,Josh Tomlin,6,7,34,13,0,0,1,297,110,47,13,20,78,3,5,3,0,422,8,54,2,3,7
tonkimi01,Michael Tonkin,2,2,20,3,0,0,1,109,36,15,3,11,29,1,2,2,0,154,6,17,1,1,3
torreal01,Alex Torres,3,3,39,4,0,0,1,174,46,21,4,26,57,1,3,3,0,245,8,24,2,2,4
torreca01,Carlos Torres,5,5,44,6,0,0,2,245,76,32,9,28,76,2,4,3,0,341,11,34,3,2,8
treinbl01,Blake Treinen,4,4,27,8,0,0,1,202,70,25,5,19,40,1,2,3,0,284,7,28,2,1,7
tropeni01,Nick Tropeano,4,5,30,9,0,0,2,218,67,31,6,26,44,2,3,3,0,305,7,34,2,2,6
tuivasa01,Sam Tuivailala,1,1,12,3,0,0,1,79,27,12,3,9,11,1,1,1,0,112,3,13,1,1,2
turneja01,Jacob Turner,4,6,27,11,0,0,1,248,82,38,8,29,50,3,5,2,0,352,5,41,4,3,7
ueharko01,Koji Uehara,4,3,44,4,0,0,10,187,45,20,7,11,85,1,2,2,0,249,22,21,2,1,4
valdera02,Raul Valdes,2,2,15,3,0,0,1,89,29,14,4,9,32,1,1,1,0,124,4,15,1,1,2
valvejo01,Jose Valverde,2,2,22,3,0,0,4,109,35,16,4,13,32,1,1,1,0,155,11,18,1,1,3
vargaja01,Jason Vargas,10,9,40,24,1,1,1,501,171,70,19,43,115,3,3,5,1,704,5,74,3,3,13
varvaan01,Anthony Varvaro,3,3,40,4,0,0,1,178,54,22,5,19,48,2,4,2,0,247,13,24,1,2,6
vealdo01,Donnie Veal,2,2,20,3,0,0,1,92,27,13,3,13,32,1,2,1,0,131,4,14,1,1,3
ventuyo01,Yordano Ventura,10,9,45,22,0,0,2,469,144,59,14,57,134,2,8,5,1,664,7,64,3,4,13
verasjo01,Jose Veras,3,2,28,3,0,0,1,128,37,17,4,19,46,1,2,1,0,181,7,19,1,1,3
verhadr01,Drew VerHagen,3,4,28,7,0,0,2,192,61,27,6,22,54,1,2,2,0,269,7,29,2,2,6
verlaju01,Justin Verlander,12,10,41,26,1,0,1,550,180,80,16,56,163,2,4,5,1,776,5,85,4,5,14
villaca01,Carlos Villanueva,5,5,34,8,0,0,1,240,79,36,9,25,71,3,2,3,0,338,8,38,3,2,6
villape01,Pedro Villarreal,2,2,16,3,0,0,1,99,32,15,4,12,25,1,1,1,0,140,3,16,1,1,3
vinceni01,Nick Vincent,3,3,40,4,0,0,1,171,48,22,5,15,66,1,2,2,0,234,7,23,3,1,4
vizcaar01,Arodys Vizcaino,2,2,13,3,0,0,1,84,27,12,3,10,22,1,1,1,0,119,4,13,1,1,2
vogelry01,Ryan Vogelsong,8,10,41,24,0,0,1,475,158,73,16,52,125,3,4,7,0,673,5,77,7,4,13
volqued01,Edinson Volquez,9,8,42,23,1,0,2,470,137,59,14,66,124,4,10,8,0,663,6,67,8,5,13
wachami01,Michael Wacha,7,6,39,17,0,0,2,371,109,47,10,38,114,1,4,4,0,515,7,50,3,3,11
wadats01,Tsuyoshi Wada,5,5,34,13,0,0,2,280,90,37,9,27,77,2,2,4,0,391,7,40,3,2,8
wagnene01,Neil Wagner,2,2,18,3,0,0,1,101,33,15,3,11,25,1,1,1,0,143,4,16,1,1,3
wainwad01,Adam Wainwright,15,9,42,26,3,2,1,584,174,64,12,42,168,3,5,6,1,787,5,70,8,3,20
waldejo01,Jordan Walden,3,3,39,4,0,0,2,165,45,21,4,23,67,2,5,1,0,230,8,23,1,1,4
walketa01,Taijuan Walker,4,4,27,8,1,0,2,209,61,27,6,27,62,2,3,3,1,293,6,30,2,2,7
walljo02,Josh Wall,1,1,13,3,0,0,1,79,29,13,3,10,14,1,1,1,0,114,4,14,1,1,2
wangwe01,Wei-Chung Wang,2,2,17,3,0,0,1,105,39,17,4,12,21,1,1,1,0,151,6,19,1,1,3
warread01,Adam Warren,3,4,41,5,0,0,2,217,67,28,7,24,66,1,3,3,0,305,10,30,3,2,7
watsoto01,Tony Watson,5,3,52,4,0,0,2,212,58,23,6,18,69,1,2,4,0,288,8,25,3,2,6
weaveje02,Jered Weaver,14,8,43,26,1,0,1,540,161,70,20,50,141,1,4,6,0,744,5,73,3,4,11
webbda01,Daniel Webb,4,4,35,4,0,0,1,183,54,26,5,30,51,2,5,2,0,260,12,27,2,2,6
webbry01,Ryan Webb,3,3,39,3,0,0,1,173,56,23,4,18,41,2,2,2,0,243,10,25,3,2,5
webstal01,Allen Webster,6,5,34,13,0,0,2,284,94,47,9,41,59,1,4,6,0,408,7,51,2,5,7
westma03,Matt West,1,1,12,3,0,0,1,82,27,11,3,9,19,1,1,1,0,115,3,12,1,1,2
wheelza01,Zach Wheeler,10,9,45,25,1,1,2,500,151,66,14,69,160,3,8,8,0,710,7,74,5,5,16
whelake01,Kevin Whelan,1,1,11,3,0,0,1,77,25,11,3,9,12,1,1,1,0,108,3,12,1,1,2
whitlch01,Chase Whitley,5,4,33,10,0,0,2,245,92,38,9,22,63,1,3,4,0,349,7,40,2,2,6
wielajo01,Joe Wieland,3,3,21,6,0,0,1,148,50,22,6,17,36,1,2,2,0,210,5,24,1,2,4
wilheto01,Tom Wilhelmsen,3,3,46,4,0,0,8,213,52,26,5,30,66,3,4,2,0,295,19,28,2,2,6
willije02,Jerome Williams,6,6,31,13,0,0,1,312,103,45,12,31,69,2,3,4,0,437,7,49,1,2,10
wilsoal01,Alex Wilson,2,2,22,3,0,0,1,126,40,16,4,13,31,1,2,2,0,176,5,18,1,1,4
wilsobr01,Brian Wilson,3,3,34,4,0,0,1,150,47,21,5,23,52,2,2,2,0,214,7,23,1,1,5
wilsocj01,C. J. Wilson,12,8,40,25,0,0,1,498,156,72,15,72,143,3,8,7,1,711,5,80,4,5,17
wilsoju10,Justin Wilson,4,3,43,4,0,0,1,188,51,25,5,26,59,2,3,3,0,263,9,26,2,1,5
withrch01,Chris Withrow,2,2,21,3,0,0,1,120,29,15,4,19,52,1,2,1,0,166,4,17,1,1,4
wolfra02,Randy Wolf,3,4,24,7,0,0,2,178,63,26,6,18,40,1,2,2,0,252,6,29,2,1,5
woodal02,Alex Wood,8,8,48,19,1,0,2,441,135,52,13,42,147,2,5,5,1,607,9,57,6,4,14
woodbl01,Blake Wood,2,2,14,3,0,0,1,85,25,12,3,13,26,1,1,1,0,120,4,13,1,1,2
woodtr01,Travis Wood,8,11,42,26,0,0,1,504,158,76,18,63,131,2,4,7,0,718,5,83,7,4,12
wootero01,Rob Wooten,3,3,28,4,0,0,1,134,47,19,3,13,35,1,1,2,0,189,8,21,1,1,4
workmbr01,Brandon Workman,5,8,38,13,0,0,2,305,101,49,11,38,88,2,3,3,0,433,8,54,3,3,6
worleva01,Vance Worley,7,7,35,17,1,0,1,357,134,50,12,33,83,2,4,4,0,509,6,57,5,4,13
wrighja01,Jamey Wright,4,3,44,4,0,0,1,196,63,28,4,24,53,3,3,3,0,278,13,29,3,3,6
wrighst01,Steven Wright,2,2,18,4,0,0,1,127,41,17,4,14,41,1,2,1,0,178,5,19,1,1,4
wrighwe01,Wesley Wright,2,3,37,4,0,0,1,151,47,20,4,17,44,1,2,2,0,212,9,21,2,2,4
yateski01,Kirby Yates,2,2,24,4,0,0,1,130,40,18,4,16,49,2,2,2,0,183,7,19,1,1,3
youngch03,Chris Young,9,8,40,21,0,0,2,415,126,57,18,48,92,3,5,4,1,581,6,61,5,6,8
zeidjo01,Josh Zeid,2,2,22,3,0,0,1,115,40,17,5,13,31,1,2,1,0,164,5,19,1,1,3
zieglbr01,Brad Ziegler,5,3,48,4,0,0,3,193,57,24,5,21,46,3,1,2,0,267,12,26,2,2,8
zimmejo02,Jordan Zimmermann,13,7,42,26,2,1,1,544,168,63,15,35,153,1,4,6,0,740,5,69,6,4,13
