playerID,playerName,W,L,G,GS,CG,SHO,SV,IPouts,H,ER,HR,BB,SO,IBB,WP,HBP,BK,BFP,GF,R,SH,SF,GIDP
aardsda01,David Aardsma,2,2,24,3,0,0,1,119,36,18,5,16,41,2,2,2,0,168,6,19,1,1,4
abadfe01,Fernando Abad,3,3,42,4,0,0,1,163,47,22,7,18,50,2,2,2,0,227,11,23,2,2,4
achteaj01,A. J. Achter,2,2,16,3,0,0,1,99,33,15,4,11,27,1,1,1,0,140,4,17,1,1,3
adamsau01,Austin Adams,2,2,23,4,0,0,1,127,44,19,4,14,27,1,2,1,0,181,6,20,1,1,4
adcocna01,Nathan Adcock,2,2,17,3,0,0,1,106,33,16,4,15,25,1,2,2,0,151,4,17,1,1,3
affelje01,Jeremy Affeldt,3,3,36,3,0,0,1,141,46,21,5,16,30,2,2,2,0,201,7,22,1,1,4
alberan01,Andrew Albers,1,2,11,3,0,0,1,79,26,11,3,6,11,0,1,1,0,110,2,13,1,1,2
alberma01,Matt Albers,2,2,25,3,0,0,1,132,41,16,4,14,31,1,2,2,0,184,6,18,1,1,4
albural01,Al Alburquerque,4,3,47,4,0,0,1,185,56,26,6,29,65,2,4,2,1,262,10,27,1,2,5
alexasc01,Scott Alexander,2,2,13,3,0,0,1,85,27,13,3,10,14,1,1,1,0,120,3,13,1,1,3
allenco01,Cody Allen,4,4,50,4,0,0,13,201,55,25,6,24,92,2,5,2,0,280,25,27,2,2,5
almonmi01,Miguel Almonte,2,2,15,3,0,0,1,91,28,14,4,12,32,1,1,1,0,129,4,15,1,1,2
alvarda01,Dario Alvarez,2,1,14,3,0,0,1,82,28,13,4,8,13,1,1,1,0,116,3,14,1,1,2
alvarhe01,Henderson Alvarez,5,5,27,13,1,1,1,274,95,37,7,22,52,2,4,4,1,384,4,40,4,3,9
alvarjo02,Jose Alvarez,3,3,36,5,0,0,1,178,55,25,6,21,51,2,2,3,0,251,9,28,1,2,5
alvarrj01,R. J. Alvarez,2,2,20,4,0,0,1,110,36,19,5,16,38,1,2,1,0,158,6,20,1,1,3
anderbr04,Brett Anderson,8,9,45,23,1,0,2,466,164,65,15,45,106,3,4,3,1,652,7,73,3,3,17
anderch01,Chase Anderson,8,7,42,23,0,0,2,443,151,68,18,44,116,3,5,5,0,623,6,72,4,6,13
anderco01,Cody Anderson,7,5,37,14,1,0,2,323,97,43,12,31,54,2,3,3,1,445,7,46,3,3,9
andrima01,Matt Andriese,4,4,30,8,0,0,2,210,71,31,8,20,52,1,3,2,1,297,8,33,2,2,5
araujel01,Elvis Araujo,2,2,26,4,0,0,1,130,39,19,4,18,42,1,2,1,0,184,5,21,1,1,4
archech01,Chris Archer,11,10,45,28,1,1,1,560,162,72,17,61,196,2,9,6,0,776,5,80,3,5,12
armstsh01,Shawn Armstrong,2,2,14,3,0,0,1,89,27,13,3,9,45,1,1,1,0,124,4,14,1,1,3
arojo01,Jonathan Aro,2,2,14,3,0,0,1,92,32,14,4,10,21,1,1,1,0,131,3,15,1,1,2
arrieja01,Jake Arrieta,15,7,45,26,2,1,2,569,137,55,12,49,199,2,7,5,0,751,6,61,5,3,13
asheral01,Alec Asher,4,6,32,10,0,0,2,229,86,41,11,25,38,1,3,3,1,329,7,43,3,2,5
atchisc01,Scott Atchison,3,2,27,3,0,0,1,122,39,18,5,10,27,1,2,1,0,170,6,19,1,1,4
aumonph01,Phillippe Aumont,3,4,31,7,0,0,2,190,69,32,8,31,48,1,3,3,0,275,8,35,2,2,6
avilalu01,Luis Avilan,2,2,28,3,0,0,1,113,34,17,3,14,27,2,2,2,0,159,5,17,1,1,3
axelrdy01,Dylan Axelrod,2,2,13,4,0,0,1,98,35,16,5,11,22,1,1,1,0,141,3,18,1,1,3
axforjo01,John Axford,3,3,35,4,0,0,7,160,51,24,5,24,57,2,2,2,0,229,16,25,1,2,4
badenbu01,Burke Badenhop,2,3,47,4,0,0,1,193,66,26,5,18,37,3,2,2,0,271,11,28,3,2,7
baezpe01,Pedro Baez,3,3,33,4,0,0,1,160,48,22,6,14,60,1,2,2,0,221,7,24,2,2,4
bailean01,Andrew Bailey,2,2,15,3,0,0,1,87,27,13,4,11,30,1,1,1,0,123,4,14,1,1,2
baileho02,Homer Bailey,4,4,23,11,0,0,1,240,75,35,9,23,70,2,3,3,0,334,4,36,2,2,7
bakersc02,Scott Baker,3,4,29,8,0,0,1,217,71,35,11,18,49,2,2,2,0,302,8,37,1,2,5
balesco01,Collin Balester,2,2,16,3,0,0,1,98,32,16,4,15,24,1,1,1,0,141,4,17,1,1,3
balfogr01,Grant Balfour,2,2,21,2,0,0,4,97,27,15,3,16,30,1,2,1,0,138,9,15,1,1,3
banuema01,Manny Banuelos,4,5,30,9,0,0,2,209,71,32,8,26,47,1,3,3,0,299,6,35,2,2,6
barnema01,Matt Barnes,3,3,26,5,0,0,1,151,56,24,7,16,43,1,3,2,0,218,6,26,2,1,4
barraky01,Kyle Barraclough,2,2,20,4,0,0,1,114,30,16,4,18,49,1,2,1,0,159,5,17,1,1,3
barreaa01,Aaron Barrett,3,2,31,4,0,0,1,132,40,19,4,15,53,1,2,2,0,186,7,21,1,1,4
barriyh01,Yhonathan Barrios,2,2,14,3,0,0,1,87,27,12,3,8,39,1,1,1,0,121,3,13,1,1,2
bassan01,Anthony Bass,2,2,30,4,0,0,1,179,63,29,7,20,37,2,2,2,0,255,8,31,2,2,6
bassich01,Chris Bassitt,4,7,34,13,0,0,2,292,93,41,8,34,72,1,4,6,0,414,7,44,2,2,10
bastaan01,Antonio Bastardo,4,3,45,4,0,0,1,179,45,25,5,27,70,2,4,2,0,252,12,26,2,1,4
bauertr01,Trevor Bauer,9,10,44,25,1,0,2,498,152,79,20,71,157,3,7,7,1,707,6,83,3,4,12
beachbr01,Brandon Beachy,3,4,27,8,0,0,2,191,63,30,8,21,44,2,3,2,0,271,6,32,2,2,5
beckch02,Chris Beck,3,4,28,7,0,0,2,192,66,29,7,23,26,1,2,2,0,274,7,31,2,2,6
bedroca01,Cam Bedrosian,2,2,26,4,0,0,1,134,47,22,5,20,42,1,2,2,0,194,7,24,1,2,3
beeleda01,Dallas Beeler,3,4,29,9,0,0,2,198,68,31,7,28,41,2,3,2,0,284,6,34,2,2,6
beimejo01,Joe Beimel,3,2,36,4,0,0,1,155,50,21,6,17,26,2,2,2,0,216,8,24,2,2,5
belisma01,Matt Belisle,3,3,32,3,0,0,1,142,49,21,4,15,35,1,2,2,0,202,8,22,2,2,4
belisro01,Ronald Belisario,2,3,22,3,0,0,2,105,37,17,3,12,24,2,2,2,0,151,6,19,1,1,4
belivje01,Jeff Beliveau,1,1,16,3,0,0,1,86,28,13,3,9,30,1,1,1,0,122,3,14,1,1,2
bellaan01,Andrew Bellatti,3,2,18,4,0,0,1,113,33,16,5,14,30,1,1,1,0,158,5,17,1,1,3
benoijo01,Joaquin Benoit,4,3,43,4,0,0,5,184,42,21,6,20,67,1,2,2,0,248,12,22,2,1,4
bergmch01,Christian Bergman,4,3,29,8,0,0,1,209,82,34,9,17,38,2,3,2,0,297,6,36,2,2,7
betande01,Dellin Betances,5,3,50,4,0,0,4,229,49,23,7,29,123,2,4,3,0,310,10,26,2,2,4
betanra01,Rafael Betancourt,2,3,27,4,0,0,2,129,43,21,5,14,42,2,1,1,0,184,8,23,1,1,3
bettich01,Chad Bettis,7,7,44,16,0,0,2,364,132,59,13,44,94,3,7,4,0,529,9,64,6,3,10
billich01,Chad Billingsley,4,5,31,10,0,0,2,233,90,37,9,22,31,1,3,3,0,332,6,40,3,2,9
blantjo01,Joe Blanton,3,2,18,4,0,0,1,124,44,17,5,11,38,2,2,1,0,176,5,20,1,1,3
blazemi01,Michael Blazek,3,3,30,4,0,0,1,160,45,21,5,18,46,1,2,2,0,223,9,23,1,2,4
blevije01,Jerry Blevins,2,2,22,3,0,0,1,99,28,15,3,11,34,1,1,1,0,137,6,15,1,1,2
bochybr02,Brett Bochy,1,1,13,3,0,0,1,80,24,12,3,9,27,1,1,1,0,113,3,13,1,1,2
bolsimi01,Mike Bolsinger,6,8,39,18,0,0,2,362,122,54,13,45,108,3,5,3,1,516,6,59,4,4,11
boxbebr01,Brad Boxberger,4,5,45,4,0,0,12,190,50,26,8,26,85,2,3,2,1,265,19,27,2,2,5
boydma01,Matt Boyd,4,5,33,11,0,0,2,252,88,43,12,29,59,1,3,3,0,356,7,46,2,3,9
boyerbl01,Blaine Boyer,3,4,40,4,0,0,1,181,57,24,6,17,35,2,3,1,0,252,9,26,2,2,5
brachbr01,Brad Brach,5,3,43,4,0,0,1,212,58,27,7,31,74,2,2,2,0,295,9,29,2,3,6
brachsi01,Silvino Bracho,2,2,16,3,0,0,1,96,30,13,4,10,46,1,1,1,0,135,4,14,1,1,3
bradlar01,Archie Bradley,5,5,33,11,0,0,2,241,78,39,9,36,49,2,3,3,0,344,7,41,2,2,8
breslcr01,Craig Breslow,3,4,41,4,0,0,1,189,67,30,8,23,42,2,2,2,0,272,12,32,2,2,6
brighja01,Jake Brigham,2,2,16,3,0,0,1,101,38,17,4,12,21,1,2,1,0,145,4,18,1,1,3
brittza01,Zack Britton,4,3,43,4,0,0,16,196,54,22,5,19,66,1,3,2,0,266,25,25,1,1,7
broadmi01,Mike Broadway,2,2,18,3,0,0,1,101,34,15,4,12,24,1,1,1,0,143,4,16,1,1,3
brookaa01,Aaron Brooks,5,5,32,11,0,0,2,242,96,45,11,24,52,1,2,4,0,352,7,47,3,3,8
brothre01,Rex Brothers,2,2,26,3,0,0,2,107,34,16,4,19,33,1,2,1,0,155,7,17,1,1,3
brownbr02,Brooks Brown,2,3,27,4,0,0,1,132,40,20,5,16,29,1,2,2,0,186,6,21,2,1,4
broxtjo01,Jonathan Broxton,2,3,22,3,0,0,1,113,34,16,4,14,38,1,1,1,0,159,5,17,1,1,3
buchada01,David Buchanan,5,8,35,17,0,0,2,331,127,58,14,36,64,2,3,5,0,481,6,61,4,2,12
buchaja01,Jake Buchanan,2,2,15,3,0,0,1,100,33,15,4,11,19,1,2,1,0,142,4,16,1,1,3
buchhcl01,Clay Buchholz,8,7,35,19,1,1,1,397,131,59,11,38,116,1,5,6,0,556,5,64,2,3,13
buehrma01,Mark Buehrle,12,8,42,26,2,0,1,526,191,73,18,38,95,3,2,6,0,739,5,83,6,6,20
bumgama01,Madison Bumgarner,14,9,43,27,2,1,1,580,165,69,19,44,203,3,4,6,0,783,5,73,6,4,14
burawda01,Danny Burawa,2,2,16,3,0,0,1,94,28,14,3,10,27,1,1,1,0,132,4,15,1,1,3
burgoen02,Enrique Burgos,2,2,22,4,0,0,1,118,38,18,4,16,54,1,3,1,0,167,5,19,1,1,3
burneaj01,A. J. Burnett,8,9,38,23,0,0,1,475,155,67,13,57,146,2,7,9,0,678,5,74,5,5,14
butleed01,Eddie Butler,5,8,37,15,1,0,2,311,121,55,14,46,50,3,3,4,0,456,7,59,5,2,12
cabrace01,Cesar Cabral,1,1,13,3,0,0,1,78,25,12,3,9,31,1,1,1,0,110,3,12,1,1,2
cahiltr01,Trevor Cahill,2,3,17,6,0,0,1,135,44,21,4,19,39,1,3,2,0,192,3,23,2,1,4
cainma01,Matt Cain,4,6,28,14,0,0,1,279,90,45,13,30,72,2,2,4,0,395,4,48,3,3,8
caminar01,Arquimedes Caminero,4,3,41,4,0,0,1,189,56,28,7,23,62,1,3,3,0,267,10,29,1,1,5
campole01,Leonel Campos,1,1,12,3,0,0,1,79,26,12,3,9,29,1,1,1,0,111,3,13,1,1,2
cappsca01,Carter Capps,2,2,26,3,0,0,1,130,40,17,5,13,65,1,2,2,0,182,6,19,1,1,3
capuach01,Chris Capuano,2,4,22,8,0,0,1,170,62,30,7,18,46,1,2,2,0,247,5,32,2,2,4
carlybu01,Buddy Carlyle,2,2,17,3,0,0,1,93,29,13,3,8,29,1,1,1,0,130,3,14,1,1,3
carmofa01,Roberto Hernandez,4,6,29,12,0,0,1,267,94,42,11,27,54,2,2,3,0,379,6,47,2,3,9
carpeda01,David Carpenter,2,2,22,3,0,0,1,102,31,14,4,10,37,1,1,1,0,142,5,15,1,1,3
carpeda02,David Carpenter,1,1,13,3,0,0,1,81,27,12,3,8,24,1,1,1,0,115,3,13,1,1,2
carraca01,Carlos Carrasco,11,10,48,22,2,1,2,496,144,66,15,42,185,2,5,5,0,674,9,70,3,5,14
carrosc02,Scott Carroll,3,3,21,6,0,0,1,167,60,26,6,19,31,1,3,3,0,241,6,30,1,2,6
cashnan01,Andrew Cashner,7,11,42,24,1,1,1,493,162,70,15,51,136,3,4,5,0,695,6,81,6,5,13
castran01,Angel Castro,1,2,13,3,0,0,1,80,28,12,3,9,21,1,1,1,0,113,3,12,1,1,2
castrmi01,Miguel Castro,2,2,14,3,0,0,1,86,28,13,4,11,28,1,1,1,0,123,4,14,1,1,2
castrsi01,Simon Castro,2,2,15,3,0,0,1,91,29,14,3,11,25,1,1,1,0,129,4,15,1,1,3
cecilbr01,Brett Cecil,4,3,44,4,0,0,3,172,47,22,5,20,76,2,3,2,0,240,12,23,1,2,4
cedenxa01,Xavier Cedeno,3,2,33,4,0,0,1,141,45,18,5,13,47,1,2,2,0,197,7,20,1,1,4
chacijh01,Jhoulys Chacin,4,4,23,10,0,0,1,219,70,33,8,25,49,1,3,2,0,308,4,35,2,2,7
chafian01,Andrew Chafin,4,3,38,5,0,0,2,195,55,26,5,25,51,3,3,2,0,272,6,27,2,2,6
chambjo03,Joba Chamberlain,2,2,22,3,0,0,1,102,33,15,4,14,32,1,2,1,0,145,5,16,1,1,3
chapmar01,Aroldis Chapman,3,4,45,4,0,0,18,192,42,22,5,28,118,1,4,3,0,265,28,23,1,2,3
chapmke02,Kevin Chapman,2,1,16,3,0,0,1,90,28,13,3,13,28,1,1,1,0,128,3,14,1,1,2
chaveje01,Jesse Chavez,7,10,45,20,0,0,2,440,146,64,16,47,131,3,5,4,0,624,9,70,4,5,12
chenbr01,Bruce Chen,4,4,26,8,0,0,1,198,75,35,8,20,44,2,2,2,0,284,6,35,2,2,5
chenwe02,Wei-Yin Chen,11,8,43,26,0,0,1,520,177,69,22,40,134,2,4,4,0,723,5,75,4,6,15
choatra01,Randy Choate,2,2,39,3,0,0,1,122,37,18,4,12,34,1,1,3,0,171,5,19,1,1,4
cingrto01,Tony Cingrani,2,3,23,6,0,0,1,149,44,23,6,24,53,2,2,2,1,213,5,24,1,2,4
cishest01,Steve Cishek,2,2,30,3,0,0,8,129,38,17,4,16,48,1,1,1,0,181,15,18,2,1,3
claudal01,Alex Claudio,2,2,20,3,0,0,1,105,33,15,4,12,32,1,1,1,0,149,5,16,1,1,3
clippty01,Tyler Clippard,4,2,33,3,0,0,1,144,36,18,5,16,50,1,2,2,0,198,5,20,1,1,3
cokeph01,Phil Coke,2,2,20,3,0,0,1,95,33,14,3,12,23,1,1,1,0,136,6,15,1,1,3
coleaj01,A. J. Cole,2,2,19,5,0,0,1,128,45,19,5,12,37,1,2,1,0,181,5,22,1,1,3
colege01,Gerrit Cole,14,8,44,26,0,0,2,543,165,65,14,45,177,2,8,8,0,741,6,72,7,4,17
colemlo01,Louis Coleman,2,1,16,3,0,0,1,89,29,13,3,11,24,1,1,1,0,126,4,14,1,1,3
collmjo01,Josh Collmenter,6,6,40,13,1,0,2,338,110,47,13,28,71,2,2,3,0,465,11,50,4,4,9
colomal01,Alex Colome,6,5,38,11,0,0,1,280,92,40,9,30,73,2,5,3,0,392,7,43,2,4,8
colonba01,Bartolo Colon,12,10,40,24,1,1,1,504,181,75,19,26,118,3,2,4,0,702,5,77,6,5,14
conlead01,Adam Conley,5,4,33,11,0,0,2,257,83,37,9,27,76,2,2,3,0,361,7,39,2,3,8
contrca01,Carlos Contreras,2,2,22,4,0,0,1,126,37,20,5,22,30,1,2,1,0,181,6,22,1,1,4
cookry01,Ryan Cook,2,2,21,3,0,0,1,96,29,16,4,12,30,1,2,1,0,137,5,16,1,1,2
cooneti01,Tim Cooney,4,4,31,10,0,0,2,231,72,33,8,25,72,2,3,3,0,325,7,35,3,2,6
copelsc01,Scott Copeland,3,3,24,7,0,0,1,161,60,25,6,14,20,1,2,2,0,228,6,27,2,2,5
corbipa01,Patrick Corbin,7,5,32,15,0,0,1,311,103,44,11,26,93,1,5,4,0,435,5,45,3,2,8
cordier01,Erik Cordier,2,2,15,3,0,0,1,95,30,14,3,11,23,1,1,2,0,135,3,16,1,1,3
cornejo01,John Cornely,1,1,12,3,0,0,1,77,26,12,3,9,16,1,1,1,0,110,3,13,1,1,2
correke01,Kevin Correia,4,5,26,10,0,0,1,218,86,37,10,20,41,1,3,2,0,314,5,41,3,2,7
cosarja01,Jarred Cosart,5,6,32,14,0,0,2,302,89,43,10,44,65,1,5,2,0,422,6,44,2,3,10
cothaca01,Caleb Cotham,2,2,15,3,0,0,1,90,31,14,4,8,31,1,1,1,0,127,4,15,1,1,2
cottsne01,Neal Cotts,2,3,26,3,0,0,1,113,35,16,4,13,36,1,2,1,0,159,5,17,1,1,3
couloda01,Danny Coulombe,2,2,15,3,0,0,1,89,29,13,3,10,18,1,2,1,0,126,3,14,1,1,3
cravyty01,Tyler Cravy,3,6,27,8,0,0,1,194,66,31,7,27,50,1,2,3,0,277,6,34,2,1,6
crockky01,Kyle Crockett,2,2,26,3,0,0,1,113,36,16,4,12,34,1,1,2,0,159,5,17,1,1,4
cuetojo01,Johnny Cueto,8,7,32,17,1,1,1,374,109,48,13,33,111,1,2,5,0,513,5,51,3,2,9
cunnibr02,Brandon Cunniff,2,2,25,4,0,0,1,128,37,19,5,20,44,1,2,1,0,181,7,21,1,1,4
danksjo01,John Danks,8,12,42,25,1,0,1,502,178,83,23,52,113,2,7,5,0,720,5,91,5,6,13
davieky01,Kyle Davies,1,1,12,3,0,0,1,78,25,11,3,8,22,1,1,1,0,109,3,12,1,1,2
davieza01,Zach Davies,5,4,32,10,0,0,2,239,71,35,8,30,58,1,3,2,0,335,7,37,2,2,6
daviswa01,Wade Davis,5,3,41,5,0,0,5,196,51,20,5,23,76,1,2,2,0,269,10,24,1,2,5
dedunsa01,Sam Deduno,2,3,18,5,0,0,1,131,42,21,4,16,30,1,2,2,0,186,4,22,1,1,4
defraju01,Justin De Fratus,3,3,47,4,0,0,1,211,71,33,7,26,60,2,4,4,0,303,12,36,2,3,6
degroja01,Jacob deGrom,11,8,44,24,0,0,2,512,142,58,14,42,185,3,5,3,0,691,6,62,7,5,12
delabst01,Steve Delabar,3,2,27,3,0,0,1,125,37,20,5,19,45,1,3,2,0,178,6,21,1,1,3
delarjo01,Jorge De La Rosa,10,8,39,23,0,0,1,451,139,68,16,58,120,3,6,5,1,635,5,72,6,5,16
delarru01,Rubby De La Rosa,10,9,47,25,0,0,2,499,174,81,24,55,128,2,4,5,1,712,7,86,6,5,15
delgara01,Randall Delgado,5,4,39,6,0,0,1,212,65,31,8,25,67,2,4,2,0,299,7,33,2,2,6
delosab01,Abel De Los Santos,1,1,12,3,0,0,1,80,26,12,3,9,42,1,1,1,0,113,3,13,1,1,2
depaujo02,Jose De Paula,1,1,12,3,0,0,1,80,25,12,3,10,15,1,1,1,0,114,3,13,1,1,2
desclan01,Anthony DeSclafani,8,10,47,23,0,0,2,475,166,73,16,46,129,4,6,5,0,674,8,80,8,5,16
despaod01,Odrisamer Despaigne,5,8,38,16,0,0,1,348,118,59,13,33,68,2,4,6,0,495,7,62,6,3,9
detwiro01,Ross Detwiler,2,2,22,4,0,0,1,117,42,18,4,14,24,1,1,2,0,169,5,20,1,1,4
diazja01,Jairo Diaz,2,2,19,4,0,0,1,108,33,15,4,12,37,1,1,1,0,151,5,16,1,1,3
diazju03,Jumbo Diaz,3,2,39,4,0,0,1,174,55,26,7,19,66,2,3,2,0,245,10,27,2,2,4
dickera01,R. A. Dickey,10,10,41,26,1,0,1,544,165,78,22,56,126,2,6,9,1,760,5,85,3,6,14
diekmja01,Jake Diekman,2,2,30,3,0,0,1,129,38,18,4,17,52,1,2,2,0,182,6,19,1,2,4
dominjo01,Jose Dominguez,2,1,14,3,0,0,1,87,27,13,3,10,26,1,1,1,0,122,4,14,1,1,3
doolise01,Sean Doolittle,2,2,24,3,0,0,4,114,31,16,4,9,47,1,1,1,0,156,9,16,1,1,3
doubrfe01,Felix Doubront,5,4,26,11,0,0,2,236,79,39,9,31,62,1,3,2,0,337,5,41,3,3,6
drabeky01,Kyle Drabek,1,1,13,3,0,0,1,84,29,12,3,10,22,1,1,1,0,119,4,13,1,1,2
drakeol01,Oliver Drake,2,2,16,3,0,0,1,98,32,14,4,13,33,1,2,1,0,140,4,16,1,1,3
duensbr01,Brian Duensing,4,3,41,4,0,0,1,162,53,24,6,20,34,2,3,2,0,230,7,25,2,2,5
duffety01,Tyler Duffey,6,4,34,12,0,0,2,272,88,37,9,31,84,1,3,2,0,382,7,40,3,2,10
duffyda01,Danny Duffy,8,8,41,21,0,0,2,411,123,55,14,52,104,2,7,6,0,577,6,60,3,4,12
dukeza01,Zach Duke,4,4,47,4,0,0,1,181,52,24,7,24,69,2,2,2,0,253,9,26,1,1,7
dullry01,Ryan Dull,2,2,17,3,0,0,1,102,31,15,4,11,34,1,1,1,0,142,4,16,1,1,3
dunnmi01,Mike Dunn,4,4,47,4,0,0,1,172,49,25,6,24,66,1,2,2,0,244,9,26,2,1,4
dysonsa01,Sam Dyson,3,2,26,4,0,0,1,135,42,17,4,13,39,1,2,2,0,189,6,19,1,1,4
edwarca01,Carl Edwards,2,2,13,3,0,0,1,84,26,12,3,10,25,1,1,1,0,118,3,13,1,1,3
edwarjo02,Jon Edwards,2,2,16,3,0,0,1,94,30,14,4,13,41,1,2,1,0,133,4,15,1,1,3
eickhje01,Jerad Eickhoff,5,5,33,11,0,0,2,261,77,35,9,25,87,1,3,2,0,362,7,38,2,2,6
eliasro01,Roenis Elias,7,9,38,20,0,0,1,395,122,58,15,49,113,2,4,8,1,558,5,63,3,4,14
ellinbr02,Brian Ellington,2,2,20,4,0,0,1,115,33,16,4,15,28,1,2,2,0,161,5,18,1,1,3
eovalna01,Nathan Eovaldi,9,8,41,24,0,0,1,480,174,74,13,47,119,3,6,5,0,686,5,78,5,4,14
erlinro01,Robbie Erlin,4,5,28,10,0,0,1,228,79,36,8,20,54,1,4,2,0,319,6,38,2,2,8
estrama01,Marco Estrada,9,7,44,21,0,0,1,472,132,64,22,46,126,2,3,4,0,646,7,69,3,3,8
evelada01,Dana Eveland,2,2,17,3,0,0,1,87,28,12,3,9,29,1,1,1,0,123,4,13,1,1,2
familje01,Jeurys Familia,3,3,51,4,0,0,13,218,60,25,6,24,77,2,4,2,0,301,24,27,2,2,6
farmebu01,Buck Farmer,3,4,26,7,0,0,1,180,67,33,9,22,37,2,2,3,0,260,5,35,2,2,6
farquda01,Danny Farquhar,2,4,37,4,0,0,2,173,53,25,6,20,64,2,3,2,1,242,11,28,1,1,5
faulkan01,Andrew Faulkner,2,2,15,3,0,0,1,92,29,13,4,10,32,1,1,1,0,130,3,14,1,1,3
feldmsc01,Scott Feldman,7,7,35,19,1,0,1,392,133,56,14,37,78,3,6,5,0,550,5,62,2,5,14
felizmi01,Michael Feliz,2,2,14,3,0,0,1,90,29,14,4,10,24,1,1,1,0,128,4,15,1,1,2
felizne01,Neftali Feliz,3,2,26,4,0,0,4,128,40,20,5,14,33,1,2,1,0,179,9,21,1,1,4
fernajo02,Jose Fernandez,7,4,30,14,0,0,1,301,82,38,9,30,123,2,3,3,0,413,5,39,2,3,8
ferreje01,Jeff Ferrell,2,2,15,3,0,0,1,94,31,14,4,10,16,1,1,1,0,132,3,15,1,1,3
fieldjo03,Josh Fields,3,3,39,4,0,0,2,166,48,24,5,20,71,2,2,2,0,233,11,26,1,2,3
fienca01,Casey Fien,4,4,46,4,0,0,1,187,60,27,7,12,51,1,2,1,0,258,9,28,2,2,4
fiersmi01,Mike Fiers,5,5,32,12,0,0,1,283,75,37,12,29,94,1,3,2,0,388,6,41,2,3,5
finnebr01,Brandon Finnegan,4,4,28,7,0,0,2,189,59,28,8,20,69,1,2,2,0,265,6,29,2,1,5
fistedo01,Doug Fister,8,6,31,16,0,0,1,339,118,45,12,24,73,2,3,6,0,475,5,50,4,3,11
flandyo01,Yohan Flande,4,5,31,11,0,0,1,250,83,40,11,27,51,2,2,3,0,352,6,42,4,3,10
floreke01,Kendry Flores,2,2,17,4,0,0,1,112,38,17,4,12,25,1,1,2,0,158,4,18,1,1,3
floydga01,Gavin Floyd,2,2,15,4,0,0,1,110,36,15,4,12,29,1,2,2,0,155,3,17,1,1,3
foltymi01,Mike Foltynewicz,5,6,39,13,0,0,2,305,118,53,15,33,85,1,5,4,1,445,9,58,2,4,9
francje01,Jeff Francis,2,2,16,4,0,0,1,107,39,17,5,12,31,1,2,1,0,153,4,19,1,1,3
frasoja01,Jason Frasor,2,1,17,3,0,0,1,85,24,11,3,10,28,1,1,1,0,118,4,12,1,1,2
freemsa01,Sam Freeman,2,2,35,4,0,0,1,144,42,19,5,23,45,1,2,2,0,206,7,21,1,1,4
friasca01,Carlos Frias,5,5,36,12,0,0,2,285,101,44,10,30,59,2,4,3,0,403,8,47,3,3,9
friedch01,Christian Friedrich,2,4,37,5,0,0,1,170,62,28,6,21,45,1,3,2,0,247,8,31,2,3,5
frierer01,Ernesto Frieri,2,2,23,3,0,0,4,113,34,18,5,15,41,1,1,2,0,160,8,19,1,1,3
fujikky01,Kyuji Fujikawa,1,1,14,3,0,0,1,80,27,12,3,8,29,1,1,1,0,113,4,13,1,1,3
furbuch01,Charlie Furbush,2,3,31,3,0,0,1,120,33,16,4,13,44,1,2,2,0,167,5,18,1,1,3
gallayo01,Yovani Gallardo,10,10,43,27,0,0,1,513,174,69,17,58,122,2,8,3,0,729,5,77,4,4,15
garcefr01,Frank Garces,2,2,29,4,0,0,1,140,46,22,7,19,37,1,2,2,0,200,7,23,1,2,4
garcija01,Santiago Casilla,4,3,43,4,0,0,13,176,48,22,6,22,55,2,3,2,0,243,22,23,2,1,6
garcija02,Jaime Garcia,9,6,37,18,0,0,2,386,115,47,11,32,102,1,5,4,0,527,6,51,3,3,13
garcija03,Jason Garcia,2,2,20,4,0,0,1,123,37,18,5,17,29,1,2,2,0,175,6,21,1,1,3
garcilu03,Luis Garcia,3,4,40,4,0,0,2,179,59,26,6,31,52,3,4,1,0,261,9,28,2,2,6
garciyi01,Yimi Garcia,3,4,35,5,0,0,1,168,48,23,7,13,69,1,2,2,0,231,9,25,1,2,4
garzama01,Matt Garza,7,10,39,22,0,0,1,443,152,74,18,49,109,3,6,4,0,634,6,82,7,3,12
gausmke01,Kevin Gausman,6,7,38,17,0,0,1,357,117,53,14,35,105,2,7,3,0,501,6,57,3,4,8
gearrco01,Cory Gearrin,1,1,14,3,0,0,1,80,25,12,3,10,24,1,1,1,0,113,3,13,1,1,2
geedi01,Dillon Gee,4,5,26,13,0,0,1,267,92,42,11,25,61,2,2,3,0,378,4,43,4,2,7
geltzst01,Steve Geltz,3,4,40,5,0,0,2,182,48,26,7,23,60,2,3,2,0,252,8,28,2,1,5
germego01,Gonzalez Germen,2,2,26,4,0,0,1,137,44,20,6,21,39,1,2,1,0,196,6,21,1,1,4
gibsoky01,Kyle Gibson,11,10,45,27,0,0,2,526,173,79,16,58,120,3,8,6,0,743,6,85,5,5,20
gileske01,Ken Giles,4,3,44,4,0,0,5,197,54,22,5,21,86,2,2,2,0,274,14,26,2,2,5
gilmase01,Sean Gilmartin,3,3,32,5,0,0,1,166,51,22,5,18,53,2,2,2,0,232,8,23,2,1,5
givenmy01,Mychal Givens,2,2,20,4,0,0,1,122,35,16,4,11,55,1,1,1,0,170,5,18,1,1,3
godleza01,Zack Godley,5,3,28,8,0,0,2,204,61,29,8,27,65,2,3,3,0,285,6,31,2,2,7
goedder01,Erik Goeddel,2,2,24,4,0,0,1,128,36,17,4,14,45,1,2,2,0,178,6,18,1,2,4
goforda01,David Goforth,2,2,19,4,0,0,1,113,40,17,5,12,35,1,2,1,0,160,5,18,1,1,3
gomesbr01,Brandon Gomes,3,4,39,4,0,0,1,172,53,26,8,17,47,2,3,2,0,241,9,27,2,2,4
gomezje01,Jeanmar Gomez,3,3,41,5,0,0,1,207,71,27,6,21,45,3,3,2,0,293,12,30,2,3,6
gonzach01,Chi Chi Gonzalez,5,6,32,11,1,0,2,258,71,38,9,36,39,2,3,3,1,362,7,41,2,2,7
gonzagi01,Gio Gonzalez,10,8,41,25,0,0,1,488,153,68,12,61,160,2,4,4,0,688,5,72,5,5,13
gonzama02,Marco Gonzales,4,4,29,8,0,0,2,200,66,31,8,27,51,1,2,2,0,287,6,33,2,2,6
gonzami03,Miguel Gonzalez,9,9,39,22,0,0,1,441,145,67,21,49,106,2,4,6,0,623,5,71,2,3,13
gonzase01,Severino Gonzalez,5,5,32,10,0,0,2,233,88,40,10,21,65,1,3,4,1,334,7,42,2,4,6
goodyni01,Nick Goody,2,2,14,3,0,0,1,86,28,13,3,10,14,1,1,1,0,121,4,14,1,1,3
gorzeto01,Tom Gorzelanny,2,2,29,4,0,0,1,138,46,21,5,19,43,1,2,2,0,198,7,23,1,1,4
gotttr01,Trevor Gott,3,3,30,4,0,0,1,151,47,21,5,17,28,2,2,2,0,213,6,23,2,2,4
gracema02,Matt Grace,2,2,19,3,0,0,1,101,37,15,3,12,24,1,1,1,0,145,4,17,1,1,3
grahajr01,J. R. Graham,3,3,30,5,0,0,1,176,62,28,8,19,47,1,3,3,0,252,10,31,2,2,5
graveke01,Kendall Graveman,6,8,41,17,1,0,2,361,126,53,14,38,80,1,5,5,0,515,7,58,2,3,10
grayjo02,Jon Gray,4,4,33,11,0,0,2,247,90,39,9,27,76,2,4,3,0,354,7,42,3,4,7
grayso01,Sonny Gray,12,8,44,26,2,1,1,564,158,66,16,58,160,2,11,4,0,770,5,73,4,4,17
greenni02,Nick Greenwood,2,2,13,3,0,0,1,86,29,13,4,8,14,1,1,1,0,120,4,14,1,1,3
greensh02,Shane Greene,6,7,35,16,0,0,2,319,116,57,13,35,78,3,3,6,0,461,6,61,2,3,11
gregelu01,Luke Gregerson,5,4,46,4,0,0,9,187,52,23,6,15,59,2,3,2,0,254,19,26,2,1,5
greggke01,Kevin Gregg,1,2,18,3,0,0,3,91,30,15,4,13,28,1,1,1,0,130,6,16,1,1,2
greinza01,Zack Greinke,15,6,43,27,1,0,1,568,154,55,16,42,178,2,8,5,0,755,5,59,5,3,15
grillja01,Jason Grilli,2,3,30,3,0,0,8,131,39,18,4,13,58,1,2,2,0,184,13,19,1,1,3
grimmju01,Justin Grimm,3,4,42,4,0,0,2,171,46,22,5,24,68,1,5,2,0,240,9,26,1,2,5
guaipma01,Mayckol Guaipe,2,3,20,4,0,0,1,117,42,18,5,15,30,1,2,2,0,167,4,20,1,1,4
guerrde01,Deolis Guerra,2,2,16,3,0,0,1,101,38,16,5,9,33,1,2,1,0,143,4,17,1,1,3
guerrja01,Javy Guerra,2,2,17,3,0,0,1,91,29,13,3,12,24,1,1,2,0,129,4,14,1,1,3
guerrju02,Junior Guerra,1,1,12,3,0,0,1,81,28,12,3,8,19,1,1,1,0,114,3,13,1,1,2
guilmpr01,Preston Guilmet,1,2,13,3,0,0,1,81,27,13,3,9,20,1,1,1,0,115,3,14,1,1,2
gurkaja01,Jason Gurka,2,2,14,3,0,0,1,87,32,14,3,9,22,1,1,1,0,124,4,15,1,1,2
guthrje01,Jeremy Guthrie,9,8,37,21,1,0,1,432,162,75,20,40,82,1,4,8,0,621,6,78,3,6,11
hagadni01,Nick Hagadone,2,2,28,3,0,0,1,123,38,18,5,17,42,1,2,1,0,174,5,20,1,1,4
hahnje01,Jesse Hahn,8,7,37,16,1,0,2,351,104,47,9,37,89,2,6,6,0,493,7,53,3,3,12
haleda02,David Hale,6,6,39,11,0,0,1,293,105,48,11,31,66,4,7,3,0,421,8,52,3,3,9
hallco01,Cody Hall,2,2,14,3,0,0,1,88,29,13,3,10,21,1,1,1,0,125,3,14,1,1,2
hamelco01,Cole Hamels,7,5,30,16,0,0,1,362,110,45,12,33,115,2,4,5,1,499,4,48,4,3,12
hammeja01,Jason Hammel,8,8,42,23,0,0,2,449,146,66,21,42,136,3,6,6,0,632,6,73,3,5,13
handbr01,Brad Hand,4,6,38,12,0,0,1,287,99,47,10,33,64,2,3,3,0,408,8,49,4,2,9
handdo01,Donovan Hand,1,2,12,3,0,0,1,79,26,11,3,8,16,1,1,1,0,112,3,12,1,1,3
happja01,J. A. Happ,7,6,31,16,0,0,1,318,101,43,12,35,98,1,3,2,0,445,5,47,2,3,8
haranaa01,Aaron Harang,8,11,41,24,0,0,1,486,171,76,19,53,114,3,6,4,0,695,5,81,7,4,14
hardybl01,Blaine Hardy,4,3,41,4,0,0,1,179,57,24,5,22,51,2,3,2,0,254,8,26,2,2,5
harenda01,Dan Haren,7,6,30,16,0,0,1,317,106,47,15,22,85,2,5,3,0,443,4,54,3,3,6
harrima01,Matt Harrison,4,5,28,9,0,0,2,208,72,33,8,28,34,1,3,2,1,297,6,35,2,2,7
harrimi03,Mitch Harris,2,2,20,4,0,0,1,115,39,17,5,14,20,1,2,1,0,164,5,18,1,1,3
harriwi02,Will Harris,4,4,43,4,0,0,2,188,51,23,7,20,66,1,2,2,0,259,11,25,2,2,5
harvema01,Matt Harvey,10,7,41,22,0,0,2,470,132,55,14,33,163,2,4,5,0,635,6,58,5,3,12
hatchch02,Chris Hatcher,2,3,34,4,0,0,2,149,48,21,5,15,55,1,2,2,0,211,8,24,1,1,4
hatlema01,Marcus Hatley,1,1,12,3,0,0,1,77,25,11,3,9,31,1,1,1,0,109,3,12,1,1,2
hawkila01,LaTroy Hawkins,2,2,24,3,0,0,4,111,38,15,4,8,27,1,1,1,0,155,10,17,1,1,4
heanean01,Andrew Heaney,6,6,39,17,0,0,2,356,115,51,13,33,87,2,5,6,0,498,7,54,3,3,11
hellije01,Jeremy Hellickson,8,10,40,22,0,0,1,418,145,68,19,42,113,2,7,5,0,599,6,73,4,4,10
hembrhe01,Heath Hembree,2,2,21,4,0,0,1,117,38,17,5,14,27,1,2,1,0,165,6,18,1,1,4
hendrky01,Kyle Hendricks,9,7,45,24,1,0,2,480,149,67,15,39,139,2,4,7,1,661,6,70,5,2,15
hendrli01,Liam Hendriks,3,3,33,5,0,0,1,180,62,25,6,14,59,1,3,2,0,253,7,28,1,2,4
hernada01,David Hernandez,2,3,26,3,0,0,1,125,39,19,5,14,42,1,2,2,0,176,6,20,1,1,3
hernafe02,Felix Hernandez,13,8,41,26,1,1,1,552,156,66,17,46,187,1,10,6,0,746,5,70,4,4,15
herreke01,Kelvin Herrera,4,4,49,4,0,0,1,203,55,24,6,24,66,1,3,2,0,282,9,26,2,2,5
hesslke01,Keith Hessler,2,2,17,3,0,0,1,95,32,15,4,10,28,1,1,1,0,134,3,16,1,1,2
hestoch01,Chris Heston,9,9,45,22,1,1,2,451,144,66,15,54,119,3,5,8,1,633,8,70,3,2,18
hillri01,Rich Hill,4,4,39,8,1,0,2,220,61,29,7,28,98,2,3,3,0,307,7,33,2,2,6
hillta01,Taylor Hill,2,2,15,3,0,0,1,97,35,15,4,10,21,1,1,2,0,137,4,16,1,1,4
hinojda01,Dalier Hinojosa,2,2,18,4,0,0,1,109,31,14,4,12,35,1,1,1,0,153,4,16,1,1,3
hochelu01,Luke Hochevar,2,2,31,4,0,0,1,149,44,21,6,15,53,1,2,2,0,207,9,22,1,1,4
hollade01,Derek Holland,5,4,28,13,1,1,1,278,91,40,10,27,74,2,3,4,0,388,5,42,3,3,10
hollagr01,Greg Holland,3,3,38,3,0,0,18,160,42,20,4,21,72,1,4,1,0,221,25,21,2,1,4
holmbda01,David Holmberg,4,5,31,11,0,0,2,237,80,40,13,35,39,2,3,5,0,344,6,43,4,3,7
hoovejj01,J. J. Hoover,4,4,45,4,0,0,1,190,52,27,8,27,62,2,2,2,0,267,12,29,2,2,5
housead01,Adrian Houser,2,1,12,3,0,0,1,81,26,12,3,10,0,1,1,1,0,114,3,13,1,1,2
housetj01,T. J. House,4,5,28,11,0,0,1,233,85,37,8,25,56,2,2,4,0,334,5,40,2,2,8
howeljp01,J. P. Howell,4,2,42,3,0,0,1,154,45,18,4,19,47,1,3,2,0,215,9,19,1,1,5
hudsoda01,Daniel Hudson,3,3,37,5,0,0,2,179,57,27,6,21,61,1,3,1,0,254,8,29,1,2,4
hudsoti01,Tim Hudson,8,9,35,20,0,0,1,399,138,59,13,35,80,2,4,5,0,558,5,63,3,3,15
huffda01,David Huff,3,2,21,4,0,0,1,130,41,18,5,14,31,1,2,2,0,183,6,20,2,1,3
hugheja02,Jared Hughes,4,3,47,4,0,0,1,194,62,23,5,21,37,2,3,4,0,271,10,27,4,2,8
hugheph01,Phil Hughes,10,9,39,23,1,0,1,467,173,70,20,24,117,2,3,4,0,652,5,74,3,5,12
hunteto02,Tommy Hunter,2,2,25,3,0,0,2,116,37,17,5,9,32,1,1,1,0,161,7,17,1,1,4
hutchdr01,Drew Hutchison,11,8,43,24,1,1,2,462,161,80,20,47,140,1,6,8,1,663,6,86,2,6,11
hynesco01,Colt Hynes,1,1,13,3,0,0,1,79,29,12,3,10,20,1,1,1,0,113,3,13,1,1,2
ibarred01,Edgar Ibarra,2,1,12,3,0,0,1,82,26,12,3,10,18,1,1,1,0,116,3,13,1,1,2
iglesra01,Raisel Iglesias,5,7,37,14,0,0,2,317,94,47,12,32,117,1,3,5,1,443,7,50,3,2,9
iwakuhi01,Hisashi Iwakuma,10,6,34,20,0,0,1,420,128,56,17,25,122,2,3,2,0,567,5,57,3,3,11
jacksed01,Edwin Jackson,3,4,19,7,0,0,1,152,54,27,6,19,40,1,3,1,0,219,4,29,2,1,4
jacksja01,Jay Jackson,1,1,13,3,0,0,1,82,28,12,3,9,23,1,1,1,0,115,3,13,1,1,2
jackslu01,Luke Jackson,2,2,14,3,0,0,1,87,27,13,3,9,27,1,1,1,0,122,4,14,1,1,2
jaimeju01,Juan Jaime,1,2,14,3,0,0,1,81,25,12,3,12,30,1,1,1,0,115,3,13,1,1,2
janseke01,Kenley Jansen,3,3,41,4,0,0,17,173,46,21,6,14,91,1,2,2,0,236,26,22,1,2,3
janssca01,Casey Janssen,3,3,35,3,0,0,7,146,46,22,5,12,36,1,1,2,0,204,15,23,2,1,4
jeffrje01,Jeremy Jeffress,4,2,42,4,0,0,1,186,59,23,6,20,61,2,3,2,1,260,8,25,2,1,8
jenkich01,Chad Jenkins,2,1,14,3,0,0,1,90,30,13,3,8,16,1,1,1,0,127,4,14,1,1,3
jennida01,Dan Jennings,3,3,39,4,0,0,1,172,57,23,5,22,49,2,3,1,0,245,10,26,2,2,5
jepseke01,Kevin Jepsen,2,2,32,3,0,0,3,135,37,17,4,15,48,1,3,1,0,188,8,18,1,1,4
jimence01,Cesar Jimenez,2,2,20,3,0,0,1,108,33,15,4,14,31,1,1,1,0,152,5,16,1,1,3
jimenub01,Ubaldo Jimenez,10,9,43,25,0,0,1,489,154,75,17,70,154,1,6,7,0,700,5,79,2,4,13
johnsbr02,Brian Johnson,3,4,28,7,0,0,2,190,60,29,7,24,42,1,2,2,0,268,6,31,2,2,6
johnser04,Erik Johnson,5,4,30,11,0,0,2,242,80,36,11,34,62,1,5,3,0,347,6,40,2,3,6
johnsji04,Jim Johnson,2,2,22,3,0,0,4,106,38,18,4,12,29,1,1,2,0,152,7,20,1,1,4
johnsst02,Steve Johnson,2,1,13,3,0,0,1,83,27,13,3,12,22,1,1,1,0,119,3,14,1,1,2
jonesna01,Nate Jones,2,2,20,3,0,0,1,103,31,15,4,12,45,1,2,1,0,144,4,17,1,1,3
jordata01,Taylor Jordan,2,3,18,5,0,0,1,136,49,21,4,13,27,1,2,2,0,195,4,23,2,2,4
jungmta01,Taylor Jungmann,8,7,40,17,1,0,2,363,110,52,12,46,109,2,6,6,0,510,7,57,3,4,10
kahnlto01,Tommy Kahnle,2,2,30,4,0,0,1,147,42,23,5,25,49,1,3,1,0,210,6,26,1,2,4
karnsna01,Nate Karns,7,6,42,20,0,0,2,400,121,57,17,49,132,2,9,5,0,565,7,61,3,4,9
kazmisc01,Scott Kazmir,7,7,31,17,0,0,1,344,111,49,13,34,99,1,5,4,0,484,4,55,3,2,10
kelake01,Keone Kela,4,4,37,5,0,0,1,171,53,22,6,18,67,1,3,1,0,238,7,24,1,1,6
kellesh01,Shawn Kelley,3,3,40,4,0,0,2,166,49,23,6,19,71,2,2,1,0,232,10,25,1,2,3
kellyca01,Casey Kelly,3,4,24,6,0,0,1,164,60,26,6,17,29,1,2,2,0,234,6,29,1,1,5
kellyjo05,Joe Kelly,9,6,41,20,0,0,2,402,132,64,14,50,100,2,6,6,0,575,7,66,2,4,13
kellyry01,Ryan Kelly,2,2,17,3,0,0,1,100,35,16,4,11,19,1,1,1,0,142,5,17,1,1,3
kendrky01,Kyle Kendrick,8,11,38,23,0,0,1,449,167,83,22,44,87,3,4,7,0,650,5,87,7,4,12
kenneia01,Ian Kennedy,9,11,42,25,0,0,1,488,156,72,21,55,167,3,6,5,1,688,5,80,6,4,11
kensilo01,Logan Kensing,2,2,17,3,0,0,1,97,30,15,4,12,28,1,2,1,0,136,4,16,1,1,3
kershcl01,Clayton Kershaw,15,7,43,26,3,2,1,592,145,55,13,40,244,2,8,4,2,773,5,59,5,2,12
keuchda01,Dallas Keuchel,13,9,45,27,2,1,1,592,180,68,17,51,170,2,8,5,0,804,6,76,3,4,23
kimbrcr01,Craig Kimbrel,3,3,44,4,0,0,21,184,42,22,6,22,94,1,3,2,0,251,29,23,1,1,4
kintzbr01,Brandon Kintzler,2,2,22,3,0,0,1,102,35,15,4,10,23,1,1,1,0,143,5,15,1,1,4
kleinph01,Phil Klein,2,2,21,4,0,0,1,127,40,20,6,17,35,2,2,2,0,182,5,21,1,1,4
klubeco01,Corey Kluber,11,11,43,27,2,0,1,582,174,72,18,43,214,3,5,7,0,790,5,78,5,3,16
knebeco01,Corey Knebel,2,2,31,4,0,0,1,157,49,22,6,17,61,1,2,2,0,220,9,24,1,1,4
knudsgu01,Guido Knudson,2,1,13,3,0,0,1,83,31,14,4,10,23,1,1,1,0,120,3,15,1,1,2
koehlto01,Tom Koehler,9,11,43,26,0,0,1,514,163,76,18,66,126,2,4,6,0,725,5,83,5,4,19
kohnmi01,Michael Kohn,2,2,18,3,0,0,1,89,23,12,3,15,29,1,1,1,0,126,4,13,1,1,2
kontoge01,George Kontos,4,3,43,4,0,0,1,194,57,24,7,17,46,2,2,1,0,265,9,26,1,2,6
krolia01,Ian Krol,2,2,30,3,0,0,1,130,46,21,6,17,36,2,2,2,0,188,6,23,1,1,4
lackejo01,John Lackey,10,9,42,24,1,0,2,511,168,63,19,42,139,3,5,4,2,709,6,69,7,3,18
laffeaa01,Aaron Laffey,2,2,13,3,0,0,1,85,28,13,3,11,9,1,1,1,0,121,3,13,1,1,2
lafrobo01,Bobby LaFromboise,2,2,16,3,0,0,1,88,27,12,3,9,32,1,1,1,0,123,4,13,1,1,3
lambjo02,John Lamb,4,6,34,12,0,0,2,259,92,43,11,30,97,1,3,3,0,370,7,45,3,2,8
latosma01,Mat Latos,2,2,11,5,0,0,1,111,35,15,4,10,31,1,1,1,0,155,2,16,2,1,3
layneto01,Tommy Layne,3,3,38,4,0,0,1,151,45,21,5,23,44,1,2,2,0,213,7,23,2,1,4
lazora01,Raudel Lazo,2,2,14,3,0,0,1,85,27,12,3,9,25,1,1,1,0,119,3,13,1,1,2
leakemi01,Mike Leake,6,6,29,15,0,0,1,327,108,47,13,28,74,2,3,5,0,456,4,49,3,3,11
leathja01,Jack Leathersich,2,2,17,3,0,0,1,94,31,13,3,12,36,1,1,1,0,133,4,14,1,1,3
lecursa01,Sam LeCure,2,2,27,3,0,0,1,121,38,17,4,15,36,1,2,1,0,171,6,18,1,1,4
leech01,C. C. Lee,2,1,16,3,0,0,1,86,29,13,3,10,26,1,1,1,0,122,3,14,1,1,2
leeza01,Zach Lee,3,4,28,7,0,0,2,191,70,30,7,20,34,1,2,2,0,272,7,32,2,2,6
leonar01,Arnold Leon,2,2,19,4,0,0,1,116,39,17,4,13,27,1,1,1,0,164,5,19,1,1,3
leonedo01,Dominic Leone,2,2,19,3,0,0,1,103,31,14,4,11,35,1,2,1,0,145,3,15,1,1,2
lestejo01,Jon Lester,10,9,41,24,1,0,1,506,155,65,15,44,162,1,6,5,0,695,5,71,4,4,13
lewisco01,Colby Lewis,12,10,44,26,1,1,2,525,191,89,22,42,126,3,5,8,0,749,6,96,3,8,12
liberad01,Adam Liberatore,2,2,24,4,0,0,1,120,37,18,4,13,40,2,2,1,0,168,5,19,1,1,3
linceti01,Tim Lincecum,8,7,33,17,0,0,1,338,109,53,12,46,98,2,7,3,1,483,5,57,4,3,9
lindgja01,Jacob Lindgren,2,2,14,3,0,0,1,89,28,13,4,11,34,1,1,1,0,125,3,14,1,1,3
liriafr01,Francisco Liriano,10,8,42,26,0,0,1,503,140,66,14,68,181,2,9,4,1,702,5,70,4,3,16
lizra01,Radhames Liz,2,3,17,4,0,0,1,109,36,16,4,14,39,1,1,2,0,155,5,17,1,1,4
lobstky01,Kyle Lobstein,5,7,32,12,0,0,2,274,97,46,10,32,50,2,3,2,1,390,7,49,2,2,9
lockeje01,Jeff Locke,8,9,41,24,0,0,1,472,156,73,16,60,116,3,5,6,0,673,5,79,6,6,14
loewead01,Adam Loewen,2,2,18,3,0,0,1,103,33,17,4,17,35,1,2,2,0,148,5,18,1,1,3
loganbo02,Boone Logan,2,3,36,3,0,0,1,134,46,21,6,17,54,1,3,2,0,194,8,22,2,2,4
lohseky01,Kyle Lohse,7,8,37,19,1,1,2,414,143,68,19,34,96,2,3,4,0,582,6,70,5,4,11
lopezja02,Javier Lopez,2,2,44,3,0,0,1,141,36,18,4,18,34,3,2,1,0,195,9,19,2,1,5
lopezjo02,Jorge Lopez,4,4,29,8,0,0,2,202,70,30,7,24,62,1,3,3,0,286,7,33,2,2,7
lorenmi01,Michael Lorenzen,5,7,40,16,0,0,2,336,121,57,15,50,79,4,4,5,0,490,7,60,3,2,8
loupaa01,Aaron Loup,3,4,40,3,0,0,2,159,49,23,5,15,48,2,2,4,0,224,7,24,2,2,5
lowema01,Mark Lowe,2,2,20,3,0,0,1,104,33,15,4,12,26,1,1,1,0,147,4,17,1,1,3
luetglu01,Lucas Luetge,1,1,14,3,0,0,1,81,25,12,3,10,20,1,1,1,0,115,4,13,1,1,2
lylesjo01,Jordan Lyles,5,6,30,15,0,0,1,297,103,48,10,35,65,2,4,5,0,426,5,54,3,2,10
lynnla01,Lance Lynn,11,9,41,26,1,0,1,504,159,61,13,62,157,3,5,6,0,715,5,69,7,4,14
lyonsty01,Tyler Lyons,4,4,29,9,0,0,1,227,72,33,10,22,72,1,3,3,0,320,5,38,2,2,6
machije01,Jean Machi,3,2,29,3,0,0,2,127,36,18,5,13,37,1,2,1,0,175,7,19,1,1,4
madsory01,Ryan Madson,2,3,36,4,0,0,2,166,47,21,6,15,54,1,2,2,0,229,7,23,1,2,4
manesse01,Seth Maness,4,3,49,4,0,0,2,195,69,27,7,14,45,3,2,2,0,271,9,30,3,2,9
manshje01,Jeff Manship,2,2,26,4,0,0,1,140,40,19,4,16,37,2,1,1,0,194,6,21,1,2,4
marcush01,Shaun Marcum,4,5,27,9,0,0,1,214,70,34,10,21,59,2,3,3,0,299,6,37,2,2,6
marimsu01,Sugar Ray Marimon,2,2,18,4,0,0,1,114,39,19,4,15,19,1,1,1,0,163,5,20,1,1,4
mariomi01,Michael Mariot,2,1,14,3,0,0,1,88,30,14,3,11,20,1,2,1,0,125,4,15,1,1,2
marksma01,Matt Marksberry,2,2,22,4,0,0,1,112,35,17,4,17,31,1,2,1,0,160,4,19,1,1,3
marquja01,Jason Marquis,5,5,29,11,0,0,1,244,87,41,12,34,55,2,3,3,0,352,5,44,3,4,7
marshev01,Evan Marshall,2,2,23,3,0,0,1,112,39,16,4,13,33,1,2,1,0,159,5,17,1,1,4
martica04,Carlos Martinez,10,7,58,21,0,0,2,481,154,63,13,57,160,6,8,7,1,679,11,68,7,4,15
martich02,Chris Martin,2,2,21,3,0,0,1,110,41,18,4,11,30,1,2,1,0,158,5,19,1,1,3
martico01,Cody Martin,3,3,22,6,0,0,1,143,51,24,6,17,13,1,2,2,0,205,5,26,1,2,4
martini01,Nick Martinez,7,9,40,20,0,0,2,404,141,61,16,49,78,2,5,8,0,584,7,69,2,5,13
martira04,Rafael Martin,2,2,15,3,0,0,1,93,30,14,4,10,59,1,1,1,0,131,4,15,1,1,2
masseni01,Nick Masset,2,2,23,3,0,0,1,110,39,18,4,15,27,1,2,2,0,159,5,20,1,1,4
masteju01,Justin Masterson,5,4,26,10,0,0,1,224,73,38,8,30,67,1,5,6,0,323,5,38,2,1,7
mateoma01,Marcos Mateo,2,2,20,4,0,0,1,114,35,17,5,13,47,1,2,2,0,161,5,19,1,1,3
matthry01,Ryan Mattheus,2,3,34,4,0,0,1,158,59,23,5,17,31,1,3,2,0,228,9,26,2,2,6
matusbr01,Brian Matusz,2,3,42,4,0,0,1,164,49,22,6,19,59,2,2,2,0,231,9,24,1,2,4
matzety01,Tyler Matzek,5,6,29,12,0,0,1,253,83,37,8,37,62,1,3,4,0,361,5,39,3,2,9
matzst01,Steven Matz,5,4,32,10,0,0,2,239,77,32,9,24,77,1,3,3,0,336,7,34,2,2,7
maurebr01,Brandon Maurer,4,4,33,6,0,0,1,176,58,26,6,17,45,1,3,2,0,248,6,29,1,2,5
maytr01,Trevor May,6,7,41,13,0,0,1,299,110,48,11,28,94,2,4,4,0,429,8,51,2,3,7
mazzavi01,Vin Mazzaro,2,1,17,3,0,0,1,96,31,14,3,11,19,1,1,1,0,136,5,14,1,1,3
mazzoco01,Cory Mazzoni,2,2,14,3,0,0,1,89,35,16,4,10,19,1,1,1,0,129,4,18,1,1,3
mcallza01,Zach McAllister,4,4,32,8,0,0,1,206,70,30,7,23,66,2,3,2,0,295,6,34,1,2,5
mccarbr01,Brandon McCarthy,5,4,25,11,0,0,1,239,84,35,11,15,66,1,2,2,0,334,4,38,2,1,6
mcculla02,Lance McCullers,7,7,41,18,1,0,2,382,112,51,12,43,132,2,7,5,1,533,7,55,2,3,11
mcfartj01,T. J. McFarland,3,2,28,4,0,0,1,155,58,23,5,18,33,2,2,2,0,224,7,25,2,1,5
mcgeeja01,Jake McGee,3,3,36,3,0,0,5,152,41,19,5,14,66,1,2,2,0,208,9,20,1,1,3
mcgousc01,Scott McGough,2,2,14,3,0,0,1,86,30,13,3,10,14,1,1,1,0,123,3,14,1,1,3
mcgowdu01,Dustin McGowan,3,2,25,5,0,0,1,140,46,22,7,21,37,1,2,2,0,203,5,24,1,1,4
mchugco01,Collin McHugh,13,9,45,26,0,0,2,532,168,73,18,47,157,2,6,7,0,741,6,77,5,4,12
mckiran01,Andrew McKirahan,2,2,21,4,0,0,1,118,45,19,4,13,29,1,1,2,0,170,4,20,1,1,4
medinyo01,Yoervis Medina,2,2,22,3,0,0,1,106,31,15,3,16,35,1,2,2,0,151,6,16,1,1,3
medlekr01,Kris Medlen,5,4,25,9,0,0,1,217,71,31,8,20,55,1,3,3,0,304,5,34,2,2,6
mejiaje01,Jenrry Mejia,2,2,20,4,0,0,4,115,38,16,4,13,39,2,2,1,0,164,8,17,1,1,4
melanma01,Mark Melancon,3,3,52,4,0,0,20,210,57,24,5,14,66,1,3,2,0,283,29,25,1,1,6
mendero01,Roman Mendez,1,2,16,3,0,0,1,89,25,12,3,12,20,1,1,1,0,126,4,13,1,1,3
meyeral01,Alex Meyer,1,1,12,3,0,0,1,80,26,13,3,10,23,1,1,1,0,114,3,13,1,1,2
mileywa01,Wade Miley,9,10,42,27,0,0,1,529,180,83,18,60,140,2,9,4,0,752,5,86,5,4,15
millean01,Andrew Miller,3,3,38,4,0,0,10,172,40,21,6,20,97,1,2,3,0,238,19,23,1,2,4
milleju02,Justin Miller,3,3,24,4,0,0,1,129,37,19,5,14,46,1,2,1,0,179,6,21,1,1,3
millesh01,Shelby Miller,9,12,45,28,1,1,1,553,164,71,18,66,151,5,5,5,1,772,5,78,7,4,15
millsbr02,Brad Mills,3,3,28,7,0,0,2,188,67,31,8,21,27,1,2,3,0,268,7,33,2,2,6
milonto01,Tommy Milone,8,6,38,19,0,0,2,375,130,57,17,36,91,2,3,3,0,535,6,64,4,5,9
mitchbr01,Bryan Mitchell,2,3,22,5,0,0,1,136,47,22,5,18,38,1,3,2,0,196,6,24,1,1,4
montafr01,Frankie Montas,2,3,20,5,0,0,1,132,42,20,5,17,57,1,2,1,0,187,5,21,1,1,4
montera01,Rafael Montero,2,3,18,5,0,0,1,127,40,19,5,17,42,1,1,1,0,180,4,20,1,1,4
montgmi01,Mike Montgomery,6,6,37,15,1,1,2,319,106,50,12,40,74,2,7,4,0,456,7,53,2,2,11
moorema02,Matt Moore,6,5,31,14,0,0,1,281,91,45,11,39,76,2,6,4,0,401,5,46,2,3,8
moralfr01,Franklin Morales,4,4,37,7,0,0,1,211,73,33,8,26,48,1,4,3,1,303,7,36,2,2,7
morendi01,Diego Moreno,2,2,14,3,0,0,1,90,29,14,3,10,23,1,1,1,0,128,3,15,1,1,2
morgaad01,Adam Morgan,6,7,36,14,0,0,2,312,106,48,14,25,61,1,4,4,1,438,7,52,2,3,8
morinmi01,Mike Morin,3,3,35,4,0,0,1,149,47,23,5,15,52,2,2,2,0,210,7,25,2,2,4
morriak01,Akeel Morris,1,1,12,3,0,0,1,78,26,12,3,10,0,1,1,1,0,111,3,13,1,1,2
morribr01,Bryan Morris,4,4,42,4,0,0,1,182,58,23,5,23,44,2,3,2,0,258,10,25,3,2,7
morrobr01,Brandon Morrow,4,4,30,10,0,0,2,237,80,35,9,26,62,1,2,2,0,333,6,38,2,2,8
mortoch02,Charlie Morton,8,9,37,21,0,0,1,416,136,64,12,46,105,4,5,12,0,592,5,71,5,3,17
moscojo01,Jon Moscot,4,4,30,8,0,0,2,202,65,30,8,23,34,1,3,2,0,285,7,32,2,2,5
motteja01,Jason Motte,4,2,35,4,0,0,2,153,51,23,6,14,35,2,2,2,0,216,10,24,2,2,3
moylape01,Peter Moylan,2,1,17,3,0,0,1,88,31,13,3,8,18,1,1,1,0,124,4,14,1,1,3
mujiced01,Edward Mujica,2,3,33,3,0,0,5,142,50,21,6,9,33,1,1,1,0,198,12,23,1,1,5
muratto01,Toru Murata,3,4,28,7,0,0,2,184,60,28,8,20,32,1,2,2,0,260,6,31,2,2,5
murraco01,Colton Murray,2,2,14,3,0,0,1,88,30,13,4,9,30,1,1,1,0,125,4,14,1,1,2
narvech01,Chris Narveson,3,2,20,5,0,0,1,132,40,20,6,14,47,1,2,1,0,184,5,21,1,1,4
nathajo01,Joe Nathan,2,2,19,2,0,0,6,89,27,13,3,11,31,1,1,1,0,126,11,14,1,1,2
nelsoji02,Jimmy Nelson,9,11,45,23,0,0,2,472,152,72,16,55,130,3,8,10,1,671,7,79,4,5,15
nerishe01,Hector Neris,3,2,24,4,0,0,1,137,43,20,6,13,47,1,2,2,0,193,6,22,1,1,4
nesbian01,Angel Nesbitt,2,2,20,4,0,0,1,109,35,17,4,12,22,1,2,2,0,156,5,18,1,1,3
neshepa01,Pat Neshek,4,4,44,4,0,0,2,173,50,23,7,14,55,1,2,2,0,239,9,24,2,2,4
nicasju01,Juan Nicasio,3,4,30,7,0,0,1,192,67,31,7,26,53,2,2,2,0,278,6,33,2,1,5
nicolju01,Justin Nicolino,6,5,35,13,0,0,2,298,98,44,11,29,32,2,4,4,0,414,7,46,4,3,11
niesejo01,Jonathon Niese,8,9,41,24,0,0,1,487,171,70,17,48,111,2,4,7,0,694,5,78,9,4,16
noesihe01,Hector Noesi,3,5,25,10,0,0,1,226,80,38,11,27,52,2,4,2,1,324,5,41,2,2,8
nolaaa01,Aaron Nola,7,5,36,14,0,0,2,307,99,44,13,28,92,2,3,3,0,428,7,46,2,2,8
nolasri01,Ricky Nolasco,6,5,27,13,0,0,1,268,105,47,10,25,70,2,3,3,0,386,5,50,2,3,8
nolinse01,Sean Nolin,4,4,31,10,0,0,2,226,81,36,9,27,35,1,4,2,1,325,7,39,2,4,6
norribu01,Bud Norris,4,3,19,7,0,0,1,149,47,22,6,17,46,1,2,3,0,209,4,23,1,1,4
norrida01,Daniel Norris,4,4,34,11,0,0,2,246,73,36,10,24,61,1,3,2,0,343,7,40,2,3,7
novaiv01,Ivan Nova,7,8,34,16,0,0,2,327,114,55,13,36,77,1,5,7,0,469,6,55,3,3,10
nunovi01,Vidal Nuno,3,5,31,11,0,0,1,245,79,36,11,21,66,1,3,4,0,343,7,38,2,3,6
obergsc01,Scott Oberg,3,3,35,4,0,0,1,165,53,26,7,24,40,1,3,3,0,237,7,28,2,1,6
oberhbr01,Brett Oberholtzer,5,6,29,14,0,0,1,284,104,43,10,25,62,1,3,3,1,405,5,46,3,4,8
odayda01,Darren O'Day,4,3,47,4,0,0,3,191,49,21,6,17,75,2,1,4,0,260,12,22,1,2,5
odorija01,Jake Odorizzi,9,10,44,25,0,0,2,493,150,69,18,50,154,1,5,5,1,691,6,72,4,5,8
oflaher01,Eric O'Flaherty,2,1,18,3,0,0,1,93,31,15,4,10,20,1,2,2,0,133,4,16,1,1,3
ogandal01,Alexi Ogando,3,3,35,5,0,0,1,178,56,27,7,24,46,1,3,2,1,253,9,28,1,2,5
ogandne01,Nefi Ogando,2,1,13,3,0,0,1,82,28,12,3,9,11,1,1,1,0,116,3,14,1,1,2
ohlenro01,Ross Ohlendorf,2,2,17,3,0,0,1,102,34,15,4,10,29,1,1,1,0,144,4,16,1,1,2
olmosed01,Edgar Olmos,3,2,20,5,0,0,1,133,45,20,5,17,12,1,2,2,0,190,5,22,1,1,4
olsonty01,Tyler Olson,2,2,16,3,0,0,1,96,33,15,4,13,17,2,1,1,0,137,4,16,1,1,3
orourry01,Ryan O'Rourke,2,2,20,4,0,0,1,109,32,17,4,16,38,1,2,1,0,154,5,18,1,1,3
osichjo01,Josh Osich,2,2,23,4,0,0,1,119,36,16,5,12,38,1,2,1,0,167,5,18,1,1,3
osullse01,Sean O'Sullivan,4,6,34,13,0,0,2,290,113,51,14,30,46,4,4,5,0,422,7,53,4,4,9
osunaro01,Roberto Osuna,3,4,39,5,0,0,7,188,51,24,7,17,71,1,3,2,0,258,16,26,1,2,5
oteroda01,Dan Otero,4,3,36,4,0,0,1,170,61,26,5,11,33,2,2,2,0,238,7,26,2,2,6
ottavad01,Adam Ottavino,2,2,23,3,0,0,1,109,34,15,4,12,40,1,2,2,0,153,5,15,1,1,3
owenshe02,Henry Owens,6,5,35,12,0,0,2,283,92,43,11,34,74,1,4,4,1,401,7,47,2,3,7
papeljo01,Jonathan Papelbon,2,2,28,3,0,0,9,128,37,16,4,10,38,1,1,2,0,177,16,18,1,1,3
parnebo01,Bobby Parnell,2,3,22,3,0,0,2,110,37,17,3,15,25,1,2,1,0,157,7,19,1,1,4
parrama01,Manny Parra,2,3,33,3,0,0,1,132,43,20,5,14,40,1,2,1,0,186,6,21,2,1,4
pattosp01,Spencer Patton,2,2,22,4,0,0,1,114,36,19,5,14,41,1,1,2,0,162,5,20,1,1,3
paxtoja01,James Paxton,6,6,33,15,0,0,2,305,92,42,10,39,83,2,6,2,0,431,6,47,2,3,9
pazosja01,James Pazos,2,2,14,3,0,0,1,84,26,12,3,10,17,1,1,1,0,119,3,13,1,1,2
peacobr01,Brad Peacock,4,5,26,11,0,0,1,228,75,36,10,34,66,2,3,3,0,330,5,41,1,3,7
peavyja01,Jake Peavy,8,6,35,17,0,0,2,363,109,48,12,31,88,2,4,4,1,499,6,51,4,3,10
pelfrmi01,Mike Pelfrey,6,10,41,23,0,0,2,430,166,69,13,46,78,2,5,8,0,622,6,77,3,4,18
penaar01,Ariel Pena,4,4,29,9,0,0,2,206,63,31,7,27,66,2,3,3,0,292,6,33,2,2,6
peraljo01,Joel Peralta,3,3,32,3,0,0,2,133,40,20,6,15,46,1,2,1,0,186,6,21,1,1,3
peralwi01,Wily Peralta,9,9,36,21,0,0,1,407,143,61,16,47,91,2,6,5,0,582,5,68,5,3,15
perezma02,Martin Perez,6,6,33,15,1,1,1,321,112,49,9,34,69,2,4,3,0,453,5,53,2,3,13
perezol01,Oliver Perez,2,3,26,3,0,0,1,109,34,16,4,14,46,1,2,2,0,155,6,18,1,1,3
perezwi01,Williams Perez,7,6,39,16,1,0,2,349,124,56,13,47,71,2,4,6,1,502,7,60,3,4,15
perkigl01,Glen Perkins,3,3,42,4,0,0,16,177,57,24,7,14,63,1,3,2,0,247,26,26,2,2,4
pestavi01,Vinnie Pestano,2,2,19,3,0,0,1,95,31,14,4,14,33,1,1,1,0,136,5,15,1,1,2
petityu01,Yusmeiro Petit,3,3,32,7,0,0,1,225,70,32,9,17,73,2,2,2,0,309,9,34,1,3,5
petrija01,Jake Petricka,3,4,42,4,0,0,4,176,58,24,5,22,40,2,2,2,0,248,13,25,2,2,8
phelpda01,David Phelps,6,7,39,17,0,0,2,363,123,57,13,42,91,2,3,5,0,519,7,62,3,4,10
pimenst01,Stolmy Pimentel,2,2,17,3,0,0,1,104,33,16,4,12,33,1,2,1,0,147,5,17,1,1,2
pindebr01,Branden Pinder,2,2,21,4,0,0,1,118,38,17,5,15,34,1,1,1,0,167,6,18,1,1,3
pinedmi01,Michael Pineda,10,9,42,22,1,0,2,449,150,64,17,24,141,1,5,3,0,619,6,69,4,5,9
pinoyo01,Yohan Pino,2,3,18,5,0,0,1,135,48,21,5,12,35,1,2,1,0,191,4,22,1,1,3
pomerdr01,Drew Pomeranz,5,5,39,10,0,0,2,244,69,33,9,32,77,1,2,3,0,341,8,38,3,3,8
porceri01,Rick Porcello,10,11,41,24,1,1,1,502,180,78,19,38,130,2,6,6,1,704,5,85,3,4,20
pressry01,Ryan Pressly,3,2,24,3,0,0,1,126,41,17,4,15,28,1,2,1,0,177,6,19,1,2,4
priceda01,David Price,7,4,29,14,1,0,1,313,95,39,9,22,107,1,3,2,0,428,5,43,2,2,8
putnaza01,Zach Putnam,3,3,35,4,0,0,2,164,48,23,6,22,62,2,3,2,0,231,10,25,2,2,5
quackke01,Kevin Quackenbush,3,3,40,4,0,0,2,180,53,25,6,20,61,2,2,2,1,251,12,27,1,3,4
quallch01,Chad Qualls,3,4,40,3,0,0,5,160,52,23,6,13,47,2,2,2,0,223,14,24,2,2,5
quintjo01,Jose Quintana,9,9,44,27,0,0,1,556,187,73,16,47,160,3,5,5,0,775,5,79,4,5,16
ramirer02,Erasmo Ramirez,8,7,44,22,0,0,2,434,139,65,17,44,113,2,4,7,0,609,8,70,2,3,12
ramirjc01,J. C. Ramirez,1,2,15,3,0,0,1,88,30,14,4,13,16,1,1,1,0,126,3,15,1,1,2
ramirjo02,Jose Ramirez,2,2,14,3,0,0,1,87,29,14,3,12,18,1,1,2,0,125,4,15,1,1,2
ramirne01,Neil Ramirez,2,2,23,3,0,0,1,110,31,14,4,13,44,1,2,1,0,155,5,16,1,1,3
ramirno01,Noe Ramirez,2,2,17,3,0,0,1,96,31,14,4,12,29,1,1,1,0,136,4,16,1,1,3
ramosaj01,AJ Ramos,4,3,48,4,0,0,9,199,47,24,6,31,79,2,3,3,0,276,19,25,2,2,5
ramosce01,Cesar Ramos,3,3,38,4,0,0,1,177,56,24,5,21,47,2,3,2,0,251,12,26,2,2,5
ranauan01,Anthony Ranaudo,3,3,22,7,0,0,1,164,55,27,8,21,27,1,2,2,0,235,4,28,2,2,4
rasmuco02,Cory Rasmus,2,2,22,4,0,0,1,129,37,19,5,17,48,1,1,1,0,181,5,20,1,1,3
rasmuro01,Rob Rasmussen,2,2,19,3,0,0,1,101,36,17,4,13,33,1,2,1,0,146,5,18,1,1,3
ravinjo01,Josh Ravin,2,2,14,3,0,0,1,90,30,14,4,10,33,1,1,1,0,128,4,15,1,1,2
rayro02,Robbie Ray,6,10,42,19,0,0,2,389,131,58,13,48,116,3,4,6,0,555,7,63,5,5,12
reaco01,Colin Rea,4,4,31,10,0,0,2,232,73,34,8,26,64,1,3,3,0,326,7,37,2,3,6
rearich01,Chris Rearick,1,1,13,3,0,0,1,80,27,12,3,9,28,1,1,1,0,113,3,13,1,1,2
redmoto01,Todd Redmond,2,2,20,4,0,0,1,136,44,20,5,15,39,1,2,2,0,192,5,22,1,1,4
reedad01,Addison Reed,2,3,26,3,0,0,7,116,35,16,5,12,43,1,1,1,0,163,13,18,1,1,3
reedch01,Chris Reed,2,1,13,3,0,0,1,82,28,12,3,9,6,1,1,1,0,116,3,13,1,1,2
reyesjo03,Jo-Jo Reyes,2,1,11,3,0,0,1,75,24,11,3,8,0,1,1,1,0,105,3,12,1,1,2
reynoma02,Matt Reynolds,2,2,18,3,0,0,1,95,30,14,4,10,34,1,1,1,0,134,4,15,1,1,3
richacl01,Clayton Richard,3,3,23,6,0,0,1,150,53,22,6,14,24,1,2,2,0,214,4,25,1,1,4
richaga01,Garrett Richards,12,9,46,25,1,1,2,545,157,71,15,61,157,3,15,5,0,756,6,78,5,6,15
riefecj01,C. J. Riefenhauser,2,2,18,3,0,0,1,100,33,16,4,12,15,1,1,1,0,142,4,17,1,1,3
rienzan01,Andre Rienzo,2,2,17,5,0,0,1,125,43,22,6,19,29,1,3,2,0,182,4,24,1,1,3
riverfe01,Felipe Vazquez,3,2,30,4,0,0,2,151,43,20,5,14,47,1,2,2,0,209,8,22,1,1,4
roachdo01,Donn Roach,3,4,30,7,0,0,2,196,71,30,7,24,31,1,3,3,0,281,7,33,2,2,7
roarkta01,Tanner Roark,7,6,36,14,0,0,1,332,106,45,12,26,75,2,2,4,0,457,6,46,3,3,10
roberda08,David Robertson,4,4,44,4,0,0,15,188,50,25,7,18,88,2,2,2,0,258,25,27,1,1,4
roberke02,Kenny Roberts,2,1,13,3,0,0,1,82,29,13,3,8,5,1,1,1,0,116,3,14,1,1,2
robleha01,Hansel Robles,3,3,33,4,0,0,1,159,43,23,7,18,62,1,2,2,0,221,6,26,1,1,4
rodnefe01,Fernando Rodney,2,2,24,3,0,0,8,110,32,14,3,15,43,1,2,2,0,155,13,16,1,1,3
rodonca01,Carlos Rodon,8,6,42,18,1,0,2,388,121,55,12,60,127,1,6,6,0,555,7,60,5,4,14
rodried05,Eduardo Rodriguez,9,7,41,18,0,0,2,376,122,54,14,39,100,2,5,4,1,533,7,58,4,4,10
rodrife02,Fernando Rodriguez,3,3,33,4,0,0,1,164,45,23,5,20,59,1,3,2,0,229,8,25,1,1,4
rodrifr03,Francisco Rodriguez,3,3,42,4,0,0,17,178,48,22,8,15,68,1,2,1,0,242,27,24,2,1,5
rodrist02,Paco Rodriguez,2,2,22,3,0,0,1,97,28,14,3,11,36,1,1,1,0,134,4,14,1,1,3
rodriwa01,Wandy Rodriguez,6,5,33,15,0,0,2,298,108,49,14,33,77,2,3,4,1,432,6,52,2,4,8
roech01,Chaz Roe,3,2,26,4,0,0,1,137,46,20,5,19,44,1,2,1,0,195,6,22,1,1,4
rogeres01,Esmil Rogers,2,2,20,4,0,0,1,131,46,22,6,15,34,1,3,2,0,188,4,24,1,2,4
rollida01,David Rollins,2,2,19,4,0,0,1,114,43,19,4,12,29,1,1,2,0,163,5,20,1,1,3
romeren01,Enny Romero,2,2,21,4,0,0,1,123,43,19,4,16,37,1,2,1,0,176,5,20,1,1,4
romose01,Sergio Romo,3,4,45,4,0,0,8,176,52,24,6,13,67,2,3,2,0,243,16,25,2,1,4
rondobr01,Bruce Rondon,2,2,25,4,0,0,2,124,40,20,4,18,44,1,2,2,0,177,8,21,2,2,3
rondohe01,Hector Rondon,4,4,48,4,0,0,13,200,58,23,6,19,65,2,3,2,0,277,24,27,2,2,4
rondojo01,Jorge Rondon,2,2,15,3,0,0,1,96,34,15,4,11,16,1,1,1,0,137,3,17,1,1,3
rosentr01,Trevor Rosenthal,3,4,49,4,0,0,20,203,59,25,5,26,86,2,3,3,0,286,28,26,2,2,6
rosinse01,Seth Rosin,2,1,12,3,0,0,1,80,29,13,3,8,8,1,1,1,0,114,3,13,1,1,2
rosscza01,Zac Rosscup,2,2,25,4,0,0,1,120,38,19,5,18,45,1,1,1,0,171,6,20,1,1,3
rossjo01,Joe Ross,6,6,35,13,0,0,2,285,85,41,10,28,87,1,3,3,0,398,7,44,3,2,6
rossro01,Robbie Ross,3,3,37,6,0,0,2,192,69,31,7,21,50,2,3,3,0,276,10,34,2,2,7
rossty01,Tyson Ross,10,11,45,26,1,0,1,533,154,66,12,69,185,3,10,8,0,742,6,74,5,4,17
rucindr01,Drew Rucinski,2,2,17,4,0,0,1,115,39,18,4,15,26,1,2,2,0,163,5,19,1,1,3
rumbeni01,Nick Rumbelow,2,2,17,3,0,0,1,101,33,15,4,11,31,1,2,1,0,143,4,16,1,1,3
rusinch01,Chris Rusin,6,8,39,17,1,0,2,371,145,64,16,40,77,4,4,4,1,540,7,70,3,2,12
russeja02,James Russell,2,3,32,4,0,0,1,133,45,20,5,13,28,2,1,1,0,187,6,22,1,1,4
ryanky01,Kyle Ryan,4,4,28,8,0,0,1,207,71,31,8,23,36,1,2,2,0,290,6,33,2,2,8
rzepcma01,Marc Rzepczynski,2,2,28,3,0,0,1,110,35,16,4,12,38,1,2,2,0,155,4,18,1,1,4
sabatcc01,CC Sabathia,7,9,39,22,1,0,1,435,159,72,21,43,121,3,5,5,1,626,5,78,4,5,14
sadleca02,Casey Sadler,4,4,29,7,0,0,2,194,63,30,7,21,52,1,3,2,0,274,7,32,2,2,5
salasfe01,Fernando Salas,4,3,45,4,0,0,1,187,58,27,7,15,68,3,2,2,0,262,10,30,3,2,4
salazda01,Danny Salazar,11,10,44,25,0,0,2,499,153,70,20,50,181,3,5,6,1,695,6,76,3,5,12
salech01,Chris Sale,11,9,42,25,1,0,1,552,157,67,19,41,228,2,6,10,0,752,5,73,3,4,14
samarje01,Jeff Samardzija,9,10,42,25,2,1,1,531,176,85,22,46,149,1,6,8,0,742,5,90,3,6,15
sampske01,Keyvius Sampson,4,6,34,12,0,0,2,256,94,44,10,35,63,1,4,2,0,374,7,49,3,3,7
sanchaa01,Aaron Sanchez,6,5,41,9,0,0,2,259,69,33,9,36,61,2,5,3,0,357,8,36,2,2,10
sanchan01,Anibal Sanchez,9,8,38,22,1,1,1,449,138,70,17,44,138,2,6,3,1,625,5,71,4,3,10
santaer01,Ervin Santana,8,7,33,19,0,0,1,395,127,57,14,40,108,3,5,4,0,551,4,60,5,4,11
santihe01,Hector Santiago,8,9,46,25,0,0,1,486,146,68,22,66,143,4,4,8,1,694,6,75,3,4,9
santose01,Sergio Santos,1,2,16,3,0,0,1,85,27,14,4,10,34,1,1,1,0,120,5,14,1,1,3
scahiro01,Rob Scahill,2,3,23,3,0,0,1,126,43,18,5,16,29,2,2,2,0,181,7,20,1,1,3
schepta01,Tanner Scheppers,3,2,29,4,0,0,1,139,45,23,6,19,36,2,2,2,0,200,5,24,1,2,5
scherma01,Max Scherzer,14,8,43,27,2,1,1,584,160,69,20,44,232,2,8,5,1,787,5,72,6,5,10
schlibr01,Brian Schlitter,2,2,21,3,0,0,1,102,35,16,3,11,18,1,1,1,0,145,4,17,1,1,3
schugaj01,A. J. Schugel,2,2,14,3,0,0,1,90,32,13,4,10,13,1,1,1,0,129,3,16,1,1,3
schulbo02,Bo Schultz,2,2,24,4,0,0,1,141,43,21,6,15,34,1,2,2,0,197,7,23,1,2,5
scribev01,Evan Scribner,3,3,34,4,0,0,1,167,55,25,9,10,58,1,2,2,0,232,9,27,1,1,4
severlu01,Luis Severino,6,5,35,13,0,0,2,285,86,38,12,33,87,1,4,3,1,398,7,41,2,2,8
shawbr01,Bryan Shaw,4,3,49,4,0,0,2,194,57,25,7,21,57,2,3,2,0,270,11,27,2,1,5
shielja02,James Shields,11,7,41,26,1,0,1,542,173,74,22,57,169,3,8,8,1,758,5,79,4,4,16
shoemma01,Matt Shoemaker,10,8,41,20,0,0,2,418,134,61,19,34,124,2,5,4,0,580,7,64,4,4,8
shrevch01,Chasen Shreve,4,3,36,4,0,0,1,169,50,23,7,25,62,1,3,2,0,239,8,24,2,1,5
siegrke01,Kevin Siegrist,4,3,49,4,0,0,3,198,53,26,6,29,81,1,2,3,0,279,10,27,2,2,4
simonal01,Alfredo Simon,11,10,48,24,1,0,2,510,167,80,20,56,109,3,8,8,0,725,8,85,7,5,12
sippto01,Tony Sipp,3,3,42,4,0,0,2,170,45,22,6,20,68,1,3,2,0,235,9,23,2,1,4
smithca02,Carson Smith,3,4,40,5,0,0,5,185,48,23,5,20,83,2,3,3,0,256,11,24,2,1,5
smithch08,Chad Smith,1,1,13,3,0,0,1,81,29,13,3,10,20,1,1,1,0,116,3,14,1,1,2
smithjo05,Joe Smith,5,3,48,4,0,0,5,194,55,25,6,19,58,2,2,3,0,266,12,25,2,1,6
smithjo07,Josh Smith,3,5,29,9,0,0,2,206,73,34,8,30,56,2,2,4,0,299,6,37,2,2,6
smithwi04,Will Smith,4,3,49,4,0,0,1,192,57,25,7,24,88,2,4,2,0,270,8,29,1,2,6
smylydr01,Drew Smyly,6,4,38,12,0,0,2,298,82,38,12,28,111,2,5,2,0,408,7,39,2,2,7
socolmi01,Miguel Socolovich,3,2,21,4,0,0,1,119,36,16,4,13,36,1,2,1,0,168,6,17,1,1,3
solissa01,Sammy Solis,2,2,18,4,0,0,1,108,37,15,4,10,28,1,1,1,0,153,5,17,1,1,3
soriajo01,Joakim Soria,2,2,24,3,0,0,1,117,37,16,4,14,40,1,3,1,0,164,6,18,1,1,3
soriara01,Rafael Soriano,2,2,21,3,0,0,6,100,31,14,4,10,29,1,1,1,0,139,11,15,1,1,3
sotogi01,Giovanni Soto,2,1,13,3,0,0,1,82,26,12,3,8,0,1,1,1,0,115,3,13,1,1,2
stammcr01,Craig Stammen,2,2,18,2,0,0,1,102,34,14,3,10,29,1,1,1,0,143,5,15,1,1,3
staufti01,Tim Stauffer,2,2,18,3,0,0,1,101,33,15,4,11,35,1,1,1,0,143,5,16,1,1,3
stitema01,Matt Stites,2,2,19,3,0,0,1,100,34,17,4,13,23,1,1,1,0,143,5,19,1,1,3
storedr01,Drew Storen,3,3,43,4,0,0,9,174,52,22,5,17,61,2,3,3,0,243,16,24,2,2,4
straida01,Dan Straily,3,3,23,8,0,0,1,184,58,30,7,24,50,1,3,3,0,263,4,33,1,2,4
strasst01,Stephen Strasburg,10,8,37,22,0,0,1,438,131,57,16,36,169,2,5,5,0,600,5,63,5,2,11
streehu01,Huston Street,3,3,40,4,0,0,16,174,51,23,7,18,53,3,3,1,0,242,24,24,2,2,4
strichu01,Hunter Strickland,3,3,33,4,0,0,1,155,43,20,5,13,57,1,2,2,0,211,8,21,1,1,4
stromma01,Marcus Stroman,7,4,30,12,0,0,2,266,83,36,8,22,73,1,5,3,1,367,5,38,1,2,8
stroppe01,Pedro Strop,3,4,48,4,0,0,2,194,46,24,5,25,79,3,4,3,0,267,9,27,1,2,6
stulter01,Eric Stults,5,7,27,14,0,0,1,286,102,46,12,23,61,2,2,2,0,404,4,49,5,3,8
surkaer01,Eric Surkamp,2,1,16,3,0,0,1,87,29,14,4,10,23,1,1,2,0,124,3,15,1,1,3
swarzan01,Anthony Swarzak,2,2,20,3,0,0,1,120,43,18,4,12,27,1,1,1,0,171,5,20,1,1,4
syndeno01,Noah Syndergaard,8,7,42,19,0,0,2,417,122,55,17,33,158,2,6,4,0,573,7,61,4,3,10
tanakma01,Masahiro Tanaka,11,7,40,21,1,0,2,455,134,59,20,29,147,1,5,3,0,615,6,65,2,5,10
tazawju01,Junichi Tazawa,3,4,45,4,0,0,2,181,61,26,6,15,61,1,4,1,0,254,9,27,1,2,5
teafoev01,Everett Teaford,1,1,13,3,0,0,1,83,27,12,3,10,19,1,1,1,0,117,3,13,1,1,3
teherju01,Julio Teheran,11,9,44,27,1,1,1,560,171,76,22,55,162,3,3,7,0,775,5,83,9,4,13
teperry01,Ryan Tepera,2,2,23,4,0,0,1,124,36,18,6,11,30,1,2,2,0,173,6,19,1,1,4
thatcjo01,Joe Thatcher,2,3,26,3,0,0,1,109,38,16,4,14,34,1,1,1,0,156,4,17,1,1,4
thayeda01,Dale Thayer,3,3,35,3,0,0,1,148,45,20,6,16,43,2,2,1,0,206,8,21,1,1,4
thielca01,Caleb Thielbar,2,2,20,3,0,0,1,97,30,14,3,10,27,1,1,1,0,135,4,14,1,1,2
thomaia01,Ian Thomas,2,2,20,4,0,0,1,117,37,17,4,14,42,1,1,1,0,164,5,18,1,1,4
thompaa01,Aaron Thompson,2,3,26,4,0,0,1,126,41,19,4,14,23,1,2,1,0,177,5,21,1,2,4
thornma01,Matt Thornton,2,2,33,4,0,0,1,136,42,17,4,13,26,1,2,2,0,190,7,19,2,1,4
thornty01,Tyler Thornburg,2,2,23,4,0,0,1,136,40,19,5,18,40,1,3,2,0,193,6,22,1,1,3
tillmch01,Chris Tillman,11,8,42,26,0,0,1,505,161,78,20,58,125,2,5,4,0,710,5,80,3,6,13
tollesh01,Shawn Tolleson,4,3,47,4,0,0,10,206,61,27,8,21,71,3,2,2,0,288,20,28,2,2,6
tomlijo01,Josh Tomlin,7,6,34,14,1,0,2,307,99,45,15,18,92,2,4,3,0,424,7,49,2,2,6
tonkimi01,Michael Tonkin,2,2,24,3,0,0,1,117,38,17,5,13,32,1,2,2,0,166,7,19,1,1,3
torreal01,Alex Torres,2,2,33,3,0,0,1,143,38,19,5,24,47,1,3,2,0,203,7,21,1,1,4
torreca01,Carlos Torres,4,4,39,4,0,0,1,188,61,27,7,19,57,3,3,2,0,263,11,29,2,2,6
tracyma01,Matt Tracy,1,1,12,3,0,0,1,78,25,11,3,9,10,1,1,1,0,111,3,13,1,1,2
treinbl01,Blake Treinen,3,4,35,5,0,0,1,193,64,27,5,25,55,3,3,2,0,270,10,29,1,1,9
tropeni01,Nick Tropeano,5,5,30,10,0,0,2,234,77,34,7,24,70,1,3,2,0,330,6,38,3,2,6
tsaoch01,Chin-hui Tsao,2,2,13,3,0,0,1,84,31,13,4,9,23,1,1,1,0,120,3,14,1,1,2
tuivasa01,Sam Tuivailala,2,2,17,3,0,0,1,100,33,15,4,13,41,1,2,1,0,143,4,16,1,1,3
ueharko01,Koji Uehara,3,3,35,3,0,0,11,149,39,18,5,10,66,1,2,1,0,202,20,19,1,1,3
urenajo01,Jose Urena,3,5,30,9,0,0,1,220,79,35,8,27,32,2,3,3,1,315,7,38,2,3,8
valdejo03,Jose Valdez,2,2,14,3,0,0,1,90,30,13,4,10,13,1,2,1,0,127,4,14,1,1,3
vargaja01,Jason Vargas,6,5,28,15,1,0,1,297,104,43,11,27,68,2,2,3,0,420,4,45,2,2,8
varvaan01,Anthony Varvaro,2,2,22,3,0,0,1,107,34,15,3,12,27,1,2,1,0,150,6,15,1,1,3
vealdo01,Donnie Veal,1,2,16,3,0,0,1,83,27,13,3,12,23,1,2,1,0,118,4,14,1,1,2
velasvi01,Vince Velasquez,3,3,29,8,0,0,1,203,63,31,7,24,71,1,3,2,0,285,7,33,1,1,6
vendipa01,Pat Venditte,2,2,21,4,0,0,1,117,35,18,4,14,32,1,1,1,0,165,5,19,1,1,3
ventuyo01,Yordano Ventura,12,9,43,25,0,0,2,491,153,69,15,59,150,2,9,7,0,695,6,72,3,4,13
verhadr01,Drew VerHagen,2,2,20,4,0,0,1,118,35,16,4,16,22,1,2,1,0,165,4,17,1,1,5
verlaju01,Justin Verlander,8,8,35,21,0,0,1,436,142,64,14,44,125,2,4,4,0,611,4,69,3,5,10
verrelo01,Logan Verrett,3,3,24,6,0,0,2,166,45,23,6,17,56,2,2,2,0,229,6,25,2,2,4
villaca01,Carlos Villanueva,4,4,30,5,0,0,2,188,60,27,6,19,55,2,2,2,0,263,10,29,2,2,4
villape01,Pedro Villarreal,2,3,26,4,0,0,1,154,54,22,6,15,31,1,2,2,0,219,6,25,1,2,4
vinceni01,Nick Vincent,2,2,28,3,0,0,1,126,38,17,4,12,46,1,1,1,0,174,6,18,1,1,4
vizcaar01,Arodys Vizcaino,3,2,25,4,0,0,3,129,39,17,4,16,47,1,3,1,0,182,10,18,1,1,4
vogelry01,Ryan Vogelsong,7,9,37,20,0,0,1,391,132,62,15,48,101,2,3,5,0,562,6,67,4,4,12
volqued01,Edinson Volquez,11,8,45,26,1,0,2,529,162,70,17,63,134,3,7,8,0,745,6,78,7,6,16
volstch01,Chris Volstad,1,1,12,3,0,0,1,78,27,11,3,7,5,1,1,1,0,110,3,13,1,1,2
wachami01,Michael Wacha,12,8,44,25,0,0,2,496,148,65,16,52,144,3,5,6,1,694,6,70,5,4,12
wadats01,Tsuyoshi Wada,4,4,28,11,0,0,1,232,74,32,9,24,69,2,2,3,0,326,5,35,2,2,6
wagnety01,Tyler Wagner,4,4,30,8,0,0,2,205,75,32,7,25,22,1,3,2,0,293,7,35,3,2,7
wainwad01,Adam Wainwright,6,4,21,11,1,1,1,241,71,27,5,16,68,1,2,2,0,325,3,29,3,1,8
waldejo01,Jordan Walden,2,2,23,3,0,0,1,106,29,14,3,14,43,1,3,1,0,147,4,15,1,1,3
walketa01,Taijuan Walker,9,8,45,22,1,0,2,459,144,71,19,42,141,2,5,7,1,641,7,76,4,4,11
warread01,Adam Warren,6,6,53,11,0,0,2,337,100,44,10,36,95,2,5,5,0,467,11,47,3,3,11
watsoto01,Tony Watson,5,3,52,4,0,0,2,210,58,23,6,16,64,1,2,4,0,284,6,24,2,2,6
weaveje02,Jered Weaver,10,9,39,23,1,0,1,475,152,72,20,41,109,2,3,8,0,664,5,73,4,3,10
webbda01,Daniel Webb,3,2,28,3,0,0,1,142,47,23,5,24,36,2,4,2,0,206,9,25,1,2,5
webbry01,Ryan Webb,3,3,35,4,0,0,1,165,52,23,5,16,37,2,2,2,0,230,9,25,2,1,6
weberry01,Ryan Weber,4,5,31,9,0,0,2,227,72,34,8,22,55,1,3,3,0,314,7,37,2,2,8
webstal01,Allen Webster,4,3,25,9,0,0,1,201,66,33,9,32,39,1,3,4,0,290,5,39,1,3,6
westma03,Matt West,1,1,13,3,0,0,1,81,27,12,3,9,20,1,1,1,0,114,3,13,1,1,3
whitlch01,Chase Whitley,4,4,31,10,0,0,2,234,86,37,10,21,62,1,3,4,0,334,6,39,2,2,6
wielajo01,Joe Wieland,4,4,29,8,0,0,2,200,69,32,9,25,35,2,2,2,0,285,6,34,2,2,5
wilheto01,Tom Wilhelmsen,3,3,40,4,0,0,6,189,51,24,5,28,58,3,3,2,0,265,14,26,2,2,6
wilkad01,Adam Wilk,1,1,12,3,0,0,1,78,25,11,3,9,22,1,1,1,0,110,3,12,1,1,2
willije02,Jerome Williams,6,8,36,16,0,0,2,334,125,57,15,34,69,2,4,4,0,483,6,61,2,3,11
wilsoal01,Alex Wilson,3,3,38,4,0,0,2,190,58,23,6,16,39,1,2,2,0,260,9,26,2,2,7
wilsocj01,C. J. Wilson,9,8,36,21,0,0,1,422,131,63,14,56,120,3,8,8,1,598,5,67,3,4,13
wilsoju10,Justin Wilson,4,3,47,4,0,0,1,184,51,25,5,23,63,2,3,2,0,256,7,26,2,1,6
wilsoty01,Tyler Wilson,4,4,26,7,0,0,1,190,65,27,6,20,23,1,2,2,0,266,6,29,1,2,6
winklda01,Dan Winkler,1,1,12,3,0,0,1,79,26,12,3,9,28,1,1,1,0,111,3,13,1,1,2
wislema01,Matt Wisler,7,7,39,16,0,0,2,348,121,55,15,41,75,3,4,4,2,499,7,59,4,4,10
wojcias01,Asher Wojciechowski,3,3,24,7,0,0,1,163,58,26,6,19,47,1,2,2,0,234,6,28,1,2,4
wolfra02,Randy Wolf,3,6,29,10,0,0,2,219,83,36,9,25,54,2,4,2,0,315,6,40,2,2,7
woodal02,Alex Wood,7,7,36,16,0,0,1,345,107,47,11,35,103,2,4,4,1,477,6,50,5,3,12
woodtr01,Travis Wood,5,6,35,13,0,0,2,296,93,46,11,37,91,2,3,3,0,420,6,49,3,2,7
wootero01,Rob Wooten,2,2,18,3,0,0,1,94,32,15,3,11,25,1,1,1,0,133,5,16,1,1,3
worleva01,Vance Worley,5,5,28,11,0,0,1,252,92,35,9,23,56,2,3,3,0,358,6,41,3,2,9
wrighmi01,Mike Wright,4,5,31,10,0,0,2,225,78,37,10,27,41,2,3,4,0,323,6,39,2,2,6
wrighst01,Steven Wright,5,4,30,9,0,0,1,247,78,36,10,29,63,1,3,2,0,349,7,40,2,2,6
wrighwe01,Wesley Wright,1,2,21,3,0,0,1,97,31,14,3,12,27,1,1,1,0,138,5,15,1,1,3
yateski01,Kirby Yates,2,2,23,3,0,0,1,116,38,19,6,13,41,1,1,2,0,166,7,20,1,1,3
youngch03,Chris Young,9,6,37,17,0,0,1,356,99,47,16,42,80,2,4,2,0,493,6,50,3,4,5
zieglbr01,Brad Ziegler,3,3,46,4,0,0,9,192,54,23,5,20,41,3,2,2,0,264,18,25,2,2,7
zimmejo02,Jordan Zimmermann,12,8,43,27,1,1,1,541,174,70,18,35,151,2,4,6,0,741,5,75,6,3,13
zitoba01,Barry Zito,3,3,20,7,0,0,1,151,58,25,7,20,28,1,2,2,0,219,5,28,1,1,5
zychto01,Tony Zych,2,2,18,4,0,0,1,113,36,16,4,10,50,1,2,2,0,158,4,17,1,1,3
