playerID,playerName,G,AB,R,H,2B,3B,HR,RBI,BB,SO,SB,CS,HBP,SH,SF
abreujo02,Jose Abreu,144,554,72,159,30,2,26,91,42,118,2,1,12,0,5
ackledu01,Dustin Ackley,69,219,28,55,11,2,6,28,18,39,3,1,1,1,2
adamecr01,Cristhian Adames,129,302,36,75,12,3,5,29,29,64,3,3,4,3,1
adamsma01,Matt Adams,114,352,40,92,20,1,14,52,25,87,2,1,2,0,3
adriaeh01,Ehire Adrianza,93,223,25,56,12,1,5,25,18,46,3,2,4,4,1
ahmedni01,Nick Ahmed,117,372,42,89,15,3,8,33,23,75,5,3,3,3,3
alberha01,Hanser Alberto,86,231,27,55,9,1,4,24,9,57,3,1,1,3,1
alcanar01,Arismendy Alcantara,61,198,25,48,9,1,6,23,15,63,6,3,2,1,1
alfarjo01,Jorge Alfaro,58,194,25,50,10,1,6,24,17,56,3,1,2,1,1
almonab01,Abraham Almonte,93,293,41,76,20,3,6,35,19,65,8,1,2,1,3
almoral01,Albert Almora,84,249,33,65,15,2,8,32,16,49,3,1,2,0,1
alonsyo01,Yonder Alonso,140,454,55,118,28,1,8,50,44,70,5,3,2,0,4
altheaa01,Aaron Altherr,85,293,41,73,15,3,8,38,33,93,9,3,7,1,2
altuvjo01,Jose Altuve,145,578,84,181,36,4,16,70,43,63,32,9,6,2,5
alvarda02,Dariel Alvarez,57,184,24,48,10,1,7,22,18,41,3,1,2,0,1
alvarpe01,Pedro Alvarez,125,389,51,98,19,1,22,59,43,111,4,1,2,0,2
amarial01,Alexi Amarista,102,285,28,70,10,2,4,29,20,52,8,2,1,3,3
anderti01,Tim Anderson,105,404,56,107,21,4,10,38,16,114,9,2,2,4,2
andinro01,Robert Andino,62,193,25,50,9,1,6,24,13,41,3,1,2,1,1
andruel01,Elvis Andrus,136,494,64,135,28,3,7,54,42,71,20,8,3,5,6
aokino01,Nori Aoki,115,417,56,115,20,4,5,35,35,45,11,7,7,4,1
arciaor01,Orlando Arcia,83,293,36,73,15,3,8,32,23,69,8,1,2,0,1
arciaos01,Oswaldo Arcia,62,212,26,52,9,1,10,29,17,65,2,1,3,0,1
arenano01,Nolan Arenado,148,566,92,160,36,4,34,108,48,95,3,3,4,0,8
ascheco01,Cody Asche,103,329,37,81,20,1,9,35,26,86,2,1,2,1,1
asuajca01,Carlos Asuaje,58,197,26,51,11,1,6,25,16,41,3,1,2,1,1
austity01,Tyler Austin,72,226,28,59,11,1,11,31,20,80,3,1,2,0,1
avilaal01,Alex Avila,89,271,33,67,13,0,9,28,50,105,1,1,2,1,1
avilemi01,Mike Aviles,98,289,35,71,12,1,5,25,17,46,6,3,2,5,2
aybarer01,Erick Aybar,78,281,35,75,14,1,3,28,18,36,6,3,2,2,3
baezja01,Javier Baez,130,414,49,105,19,1,14,51,20,116,10,3,7,1,2
bandyje01,Jett Bandy,92,291,37,74,14,1,11,37,18,56,3,1,4,2,4
barneau01,Austin Barnes,72,194,26,51,11,1,5,22,25,46,3,1,2,1,1
barnebr02,Brandon Barnes,102,258,32,65,14,3,5,25,16,75,4,3,2,4,1
barneda01,Darwin Barney,115,317,43,84,15,2,7,33,27,56,3,2,3,3,3
barnhtu01,Tucker Barnhart,124,398,41,103,20,1,8,46,38,77,2,1,3,3,3
bautijo02,Jose Bautista,119,422,73,111,23,1,25,75,82,91,5,2,4,0,5
beckhgo01,Gordon Beckham,118,318,39,78,18,1,9,38,31,66,2,1,4,1,4
beckhti01,Tim Beckham,102,305,39,76,16,5,10,39,22,98,4,2,3,1,3
belljo02,Josh Bell,77,243,34,67,14,1,7,34,34,41,2,2,2,0,3
beltbr01,Brandon Belt,143,499,71,137,33,5,18,71,76,136,5,3,5,0,4
beltrad01,Adrian Beltre,136,514,76,149,28,2,22,80,43,63,2,1,4,0,5
beltrca01,Carlos Beltran,87,312,38,82,19,1,12,42,27,57,2,1,2,0,3
beninan01,Andrew Benintendi,73,240,34,65,16,2,7,32,23,56,3,1,2,1,2
beresja01,James Beresford,60,193,24,50,10,1,6,23,16,46,3,1,2,1,1
bethach01,Christian Bethancourt,98,305,34,74,15,1,8,35,16,80,3,2,1,0,1
bettsmo01,Mookie Betts,147,590,98,172,37,5,23,85,46,78,20,5,3,1,5
blackch02,Charlie Blackmon,137,529,85,154,28,5,21,65,38,94,23,9,11,4,4
blancan01,Andres Blanco,121,295,40,78,22,2,8,34,22,61,3,2,6,3,1
blancgr01,Gregor Blanco,119,325,46,85,16,4,5,31,37,66,10,4,2,2,2
blashja01,Jabari Blash,75,212,27,55,10,1,8,25,27,77,3,1,3,0,1
bogaexa01,Xander Bogaerts,150,585,86,165,31,2,15,73,44,114,9,3,5,1,4
bonifem01,Emilio Bonifacio,81,208,25,51,8,1,4,21,15,60,7,3,2,2,1
borboju01,Julio Borbon,57,187,25,49,9,1,6,23,14,42,3,2,2,2,1
bourjpe01,Peter Bourjos,149,375,49,92,19,6,7,32,25,100,8,6,6,5,2
bourju01,Justin Bour,117,361,43,96,17,1,18,60,40,79,1,1,2,0,2
bournmi01,Michael Bourn,63,213,26,55,8,3,3,21,21,50,5,2,1,2,2
bradlja02,Jackie Bradley,146,486,76,124,28,5,18,69,52,130,8,1,7,1,4
brantmi02,Michael Brantley,67,251,35,74,18,1,7,39,25,28,7,1,2,0,2
braunry02,Ryan Braun,129,479,73,134,24,3,24,78,44,98,15,4,4,0,3
bregmal01,Alex Bregman,79,292,43,76,17,3,11,44,23,74,4,1,2,0,2
brentbr01,Bryce Brentz,69,215,30,56,11,1,6,27,14,57,3,1,2,0,1
brignre01,Reid Brignac,72,194,23,49,11,1,5,23,17,56,3,1,1,1,1
britoso01,Socrates Brito,85,243,32,59,12,2,9,30,11,59,5,1,2,0,1
browntr01,Trevor Brown,99,278,31,70,14,1,8,34,19,63,3,2,2,0,2
broxtke01,Keon Broxton,92,279,38,74,15,1,12,31,43,105,17,4,1,1,1
bruceja01,Jay Bruce,90,321,40,76,16,1,13,44,31,84,5,2,2,0,3
bryankr01,Kris Bryant,146,544,95,153,30,4,30,90,69,151,9,4,12,0,4
burnsbi02,Billy Burns,75,258,37,69,9,3,4,24,13,45,11,4,3,1,2
burriem01,Emmanuel Burriss,82,201,26,51,10,2,5,22,17,45,3,1,3,1,1
bussni01,Nick Buss,74,220,27,56,14,2,6,27,18,59,4,2,2,1,3
buterdr01,Drew Butera,93,245,30,62,13,1,7,27,20,66,2,1,2,3,1
butlebi03,Billy Butler,71,247,29,65,14,0,6,31,22,48,1,0,3,0,3
buxtoby01,Byron Buxton,111,355,50,87,21,5,11,41,26,130,9,3,3,4,3
byrdma01,Marlon Byrd,69,249,29,65,13,1,10,38,17,76,2,1,2,0,2
cabreas01,Asdrubal Cabrera,136,487,62,130,27,3,18,58,38,98,6,2,5,1,4
cabreme01,Melky Cabrera,137,535,66,150,33,3,13,71,40,68,4,1,2,2,6
cabremi01,Miguel Cabrera,137,507,78,155,31,1,26,88,66,99,2,1,3,0,5
cabrera01,Ramon Cabrera,91,275,29,71,14,1,7,36,15,52,3,2,2,2,3
cainlo01,Lorenzo Cain,117,435,65,124,24,3,10,57,31,90,18,5,5,0,3
calhoko01,Kole Calhoun,143,543,80,144,28,3,19,69,51,117,4,2,5,1,4
campber01,Eric Campbell,89,230,30,57,11,1,5,26,28,60,4,2,3,1,3
candeje01,Jeimer Candelario,57,188,25,50,10,1,6,24,20,49,3,1,3,1,1
canhama01,Mark Canha,73,248,34,62,12,1,10,37,17,65,4,2,4,1,2
canoro01,Robinson Cano,144,561,81,161,30,2,24,79,44,87,4,3,5,0,4
cardust01,Stephen Cardullo,70,210,27,53,11,2,8,27,16,47,3,1,2,0,1
carpema01,Matt Carpenter,126,462,77,126,32,3,17,61,71,105,3,3,5,1,4
carreez01,Ezequiel Carrera,136,332,53,87,15,1,8,37,29,83,8,3,4,6,3
cartech02,Chris Carter,146,487,69,115,24,1,33,80,64,177,4,2,7,0,6
casalcu01,Curt Casali,104,300,37,72,16,1,13,37,31,100,2,1,4,3,1
casteni01,Nick Castellanos,127,455,48,120,26,4,15,60,32,122,2,2,3,0,5
castiru01,Rusney Castillo,66,216,30,56,10,1,6,26,13,46,4,2,2,1,1
castiwe01,Welington Castillo,118,415,44,107,22,1,16,63,32,116,2,1,6,1,4
castrda01,Daniel Castro,86,266,31,65,9,1,5,25,16,51,3,1,1,2,1
castrja01,Jason Castro,116,377,44,89,20,2,12,41,41,129,2,1,4,1,2
castrst01,Starlin Castro,144,535,58,143,27,1,16,67,26,105,5,3,4,1,4
cecchga02,Gavin Cecchini,58,189,27,50,11,1,7,26,16,45,3,1,3,1,1
cecilda01,Darrell Ceciliani,75,205,25,51,11,1,5,22,14,69,5,1,3,0,1
centeju01,Juan Centeno,85,274,30,70,16,1,6,35,21,61,2,1,2,2,1
cervefr01,Francisco Cervelli,116,384,49,107,18,3,5,40,50,84,4,2,7,1,3
cespeyo01,Yoenis Cespedes,120,442,66,121,23,3,26,75,39,100,5,1,6,0,5
chiriro01,Robinson Chirinos,89,272,37,68,17,1,13,37,25,72,1,1,6,3,3
chiselo01,Lonnie Chisenhall,127,407,49,109,24,3,10,55,28,80,5,1,4,3,3
choiji01,Ji-Man Choi,85,236,28,59,12,1,10,29,30,55,4,4,2,0,2
choosh01,Shin-Soo Choo,86,312,47,82,16,1,11,38,41,82,4,2,8,1,2
clevest01,Steve Clevenger,70,225,27,58,12,2,5,28,19,44,2,1,1,0,1
coatsja01,Jason Coats,71,206,29,54,12,1,6,25,20,47,3,1,3,1,1
coghlch01,Chris Coghlan,92,270,40,72,17,3,8,31,36,60,5,2,3,1,1
colabch01,Chris Colabello,68,228,30,60,12,1,8,35,16,66,2,1,2,0,1
collity01,Tyler Collins,94,273,31,70,12,3,8,34,23,68,3,2,2,1,1
colonch01,Christian Colon,92,267,30,70,13,1,4,28,23,53,4,2,2,2,1
confomi01,Michael Conforto,118,358,50,90,24,1,15,49,40,97,3,2,4,0,3
congeha01,Hank Conger,89,259,28,63,14,0,9,32,26,75,1,1,2,2,2
contrwi01,Willson Contreras,93,312,42,84,17,1,14,42,32,81,4,2,4,0,2
correca01,Carlos Correa,140,523,70,143,31,2,21,85,63,121,13,4,4,0,4
cowarka01,Kaleb Cowart,86,238,31,57,12,1,6,28,12,66,3,1,2,1,2
cowgico01,Collin Cowgill,78,191,26,48,8,1,5,19,18,54,3,1,2,1,1
cozarza01,Zack Cozart,119,431,56,107,22,3,13,47,31,76,5,2,4,2,3
crawfbr01,Brandon Crawford,146,503,62,133,27,7,14,76,50,112,6,2,6,1,7
crawfca02,Carl Crawford,78,239,32,62,10,2,5,28,14,43,9,3,3,0,2
crispco01,Coco Crisp,63,209,28,52,11,1,5,22,27,38,6,1,1,1,2
croncj01,C. J. Cron,129,434,52,114,23,2,18,65,24,88,3,2,6,0,4
cruzne02,Nelson Cruz,138,522,79,147,24,1,36,87,52,137,3,2,6,0,4
culbech01,Charlie Culberson,82,218,24,54,10,1,5,27,12,53,3,1,3,2,2
cunnito01,Todd Cunningham,76,206,30,52,12,1,4,22,14,45,3,2,3,1,1
cuthbch01,Cheslor Cuthbert,124,435,50,115,24,2,12,48,31,90,3,1,1,1,2
dahlda01,David Dahl,88,304,50,84,15,3,10,36,22,80,6,1,2,0,1
darnach01,Chase d'Arnaud,100,296,35,76,17,3,4,32,29,65,8,3,3,0,3
darnatr01,Travis d'Arnaud,96,332,41,85,16,1,10,38,28,65,2,0,4,1,2
davidma02,Matt Davidson,55,184,26,49,9,1,7,25,17,43,3,1,2,1,1
davisch02,Chris Davis,143,510,84,124,23,0,34,84,74,189,2,1,7,0,4
davisik02,Ike Davis,70,202,24,51,12,0,5,24,26,45,1,1,1,0,2
daviskh01,Khris Davis,142,496,72,124,25,2,32,80,41,143,4,2,6,0,5
davisra01,Rajai Davis,131,435,66,113,22,5,11,47,29,95,29,7,5,2,3
deazaal01,Alejandro De Aza,122,296,42,75,15,2,8,33,34,79,6,4,4,1,2
deckeja01,Jaff Decker,72,208,27,53,10,1,5,22,22,53,3,1,2,1,2
dejesiv02,Ivan De Jesus,119,311,33,80,15,1,5,37,26,75,3,2,3,1,2
dendema01,Matt den Dekker,77,204,27,53,12,1,6,22,22,47,4,2,2,1,1
descada01,Daniel Descalso,137,318,44,82,15,2,9,40,39,71,4,2,2,2,3
deshide02,Delino DeShields,101,316,57,81,16,4,5,30,33,83,14,5,3,4,2
desmoia01,Ian Desmond,144,547,78,143,25,2,20,72,41,152,16,5,4,2,3
diazal02,Aledmys Diaz,108,385,62,108,24,3,16,58,39,60,5,3,6,2,5
dickeal01,Alex Dickerson,102,310,45,81,18,2,12,43,31,57,6,2,4,0,2
dickeco01,Corey Dickerson,136,464,62,124,30,4,22,67,31,118,3,3,2,0,2
dietrde01,Derek Dietrich,129,380,52,101,20,4,11,44,34,91,2,1,19,1,4
difowi01,Wilmer Difo,80,213,34,57,11,1,6,27,24,45,5,1,2,0,1
donaljo02,Josh Donaldson,140,524,97,147,30,3,31,90,79,109,6,1,6,1,5
doziebr01,Brian Dozier,140,542,90,138,31,3,29,74,58,122,14,3,7,1,6
doziehu01,Hunter Dozier,59,192,28,50,10,1,6,24,19,53,3,1,2,1,1
drewst01,Stephen Drew,101,285,35,68,16,1,12,36,29,60,1,1,2,1,4
drurybr01,Brandon Drury,127,430,54,115,26,1,15,52,29,93,3,1,4,0,3
dudalu01,Lucas Duda,87,294,41,75,17,0,16,46,37,77,1,1,6,0,2
duffyma01,Matt Duffy,82,286,38,78,13,2,6,37,15,52,5,1,3,1,2
duvalad01,Adam Duvall,136,464,67,115,25,4,26,76,35,137,5,3,6,0,5
dysonja01,Jarrod Dyson,131,345,50,92,14,7,3,34,29,55,32,6,4,7,2
eatonad02,Adam Eaton,142,551,84,156,26,8,11,52,54,106,14,6,10,4,3
eibnebr01,Brett Eibner,77,232,28,58,12,2,7,29,26,56,2,2,2,0,2
ellisaj01,A. J. Ellis,64,198,23,50,10,0,5,24,31,42,2,0,2,2,1
ellsbja01,Jacoby Ellsbury,131,494,66,130,21,4,10,51,45,82,21,7,4,2,4
elmorja01,Jake Elmore,92,228,25,58,10,1,4,25,30,47,3,3,2,2,2
encared01,Edwin Encarnacion,142,519,85,140,30,1,36,103,73,110,3,1,5,0,6
escobal02,Alcides Escobar,147,561,64,147,24,5,6,50,25,83,17,4,5,8,4
escobed01,Eduardo Escobar,122,403,46,103,25,3,9,47,26,85,2,3,2,2,3
escobyu01,Yunel Escobar,130,483,59,138,23,1,7,45,40,65,2,2,5,2,3
espinda01,Danny Espinosa,149,475,63,112,21,2,19,57,44,153,8,2,13,4,3
ethiean01,Andre Ethier,81,226,27,61,11,3,6,29,23,47,2,1,3,0,1
feathta01,Taylor Featherston,95,212,29,51,10,1,5,21,14,63,5,2,3,2,1
federti01,Tim Federowicz,65,198,23,49,11,1,5,23,13,56,2,1,2,1,2
fieldpr01,Prince Fielder,107,396,47,105,19,0,12,57,42,69,1,0,7,0,4
figueco01,Cole Figueroa,73,195,25,50,10,1,5,25,15,32,3,1,2,0,2
flahery01,Ryan Flaherty,102,282,35,68,13,2,8,33,27,79,2,0,3,2,2
florera02,Ramon Flores,113,312,32,77,14,1,5,30,35,70,4,1,3,3,4
florewi01,Wilmer Flores,120,396,48,103,19,1,15,53,23,59,2,1,3,1,3
floripe01,Pedro Florimon,77,193,27,47,9,2,4,21,17,63,5,1,1,1,1
flowety01,Tyler Flowers,111,356,35,91,17,1,11,46,29,115,1,1,8,1,2
forsylo01,Logan Forsythe,137,485,65,128,25,3,16,54,45,114,6,4,9,1,4
fowlede01,Dexter Fowler,125,460,76,124,24,6,13,44,71,119,13,4,6,1,3
francje02,Jeff Francoeur,85,240,28,61,11,1,8,29,14,60,2,2,1,1,2
francma02,Maikel Franco,139,515,65,133,25,1,21,77,38,96,3,1,5,0,3
frankni01,Nick Franklin,96,284,34,72,15,2,10,36,21,74,6,1,3,2,1
fraziad01,Adam Frazier,93,258,36,70,13,1,6,28,22,50,5,2,2,0,2
frazito01,Todd Frazier,143,536,77,135,26,1,31,79,50,136,13,6,5,1,5
freemfr01,Freddie Freeman,141,513,81,147,35,3,24,75,74,137,5,2,8,0,3
freemmi01,Mike Freeman,63,188,25,49,10,1,6,24,15,40,3,1,2,1,1
freesda01,David Freese,131,435,57,115,24,1,13,55,39,127,2,1,9,0,2
fryerer01,Eric Fryer,78,216,30,56,11,1,4,25,25,51,2,2,2,2,2
fuentre01,Rey Fuentes,61,205,25,54,9,1,5,27,18,44,3,3,2,0,1
gallojo01,Joey Gallo,68,204,28,52,9,1,9,25,27,89,4,1,1,0,1
galvifr01,Freddy Galvis,150,536,61,133,20,4,15,58,27,119,12,3,3,6,4
gamelbe01,Ben Gamel,72,202,30,53,11,1,7,26,22,58,3,1,2,2,1
garciad01,Adonis Garcia,127,468,58,124,25,1,15,59,22,85,3,2,4,0,2
garciav01,Avisail Garcia,127,452,59,115,18,2,13,55,35,120,6,4,5,0,3
garcigr01,Greg Garcia,122,288,40,78,16,1,6,28,44,64,3,1,5,1,2
garcile02,Leury Garcia,83,214,26,52,9,1,5,22,11,61,8,2,2,2,1
gardnbr01,Brett Gardner,135,499,76,131,22,5,11,50,59,106,15,4,6,6,4
garnedu01,Dustin Garneau,68,221,27,56,13,1,6,26,20,59,2,1,1,0,2
gattiev01,Evan Gattis,131,463,57,118,20,4,27,70,35,119,2,1,5,0,4
gennesc01,Scooter Gennett,140,478,58,127,27,3,12,52,30,100,6,2,3,2,2
gentrcr01,Craig Gentry,72,200,28,50,8,2,3,19,16,42,8,2,3,1,1
giavojo01,Johnny Giavotella,115,399,50,104,22,3,7,43,22,52,4,2,3,5,4
gillaco01,Conor Gillaspie,99,284,33,75,16,3,7,37,21,48,2,2,2,0,2
gilleco01,Cole Gillespie,92,220,29,57,12,2,4,25,17,49,4,2,1,1,2
gimench01,Chris Gimenez,92,254,36,65,14,1,8,29,22,66,3,1,2,4,1
goeddty01,Tyler Goeddel,107,294,32,71,10,3,7,30,25,71,4,1,3,1,2
goinsry01,Ryan Goins,108,309,35,74,14,3,5,33,23,75,2,1,2,5,2
goldspa01,Paul Goldschmidt,143,514,91,154,34,2,24,87,95,133,20,4,4,0,6
gomesya01,Yan Gomes,97,346,39,83,18,1,13,47,15,93,1,0,4,0,4
gomezca01,Carlos Gomez,69,250,38,68,14,1,11,33,21,64,12,4,5,1,1
gonzaad01,Adrian Gonzalez,141,510,67,140,30,0,20,83,51,102,1,2,4,0,5
gonzaca01,Carlos Gonzalez,142,524,78,143,30,2,27,86,42,121,3,1,2,1,3
gonzaer01,Erik Gonzalez,70,192,26,51,9,1,6,23,17,56,3,2,2,1,1
gonzama01,Marwin Gonzalez,147,463,56,121,24,2,13,49,24,109,8,6,5,6,1
goodwbr01,Brian Goodwin,68,206,24,54,12,2,5,27,16,57,3,1,2,0,1
gordoal01,Alex Gordon,122,426,58,109,21,1,16,50,51,124,7,3,9,0,3
gordode01,Dee Gordon,102,410,59,117,15,6,3,29,21,69,35,10,2,2,2
gosean01,Anthony Gose,86,276,39,69,12,3,5,21,27,88,10,5,3,2,1
gosewtu01,Tuffy Gosewisch,75,239,24,57,11,1,6,25,16,52,2,1,2,1,1
gosseph01,Philip Gosselin,123,299,42,80,15,2,6,28,22,63,4,2,3,2,2
gourryu01,Yuli Gurriel,71,247,30,63,13,1,7,31,14,33,3,2,2,0,2
grandcu01,Curtis Granderson,136,493,76,123,25,3,23,58,69,120,7,3,6,0,4
grandya01,Yasmani Grandal,129,400,51,99,17,1,21,60,65,114,2,2,3,1,3
grateju01,Juan Graterol,60,190,26,50,11,1,6,26,14,43,3,1,2,1,1
greengr01,Grant Green,74,212,27,54,10,1,6,26,13,46,2,3,1,0,2
gregodi01,Didi Gregorius,149,521,63,136,26,3,15,61,27,83,6,2,7,4,5
grichra01,Randal Grichuk,139,447,64,113,28,5,22,63,29,140,5,4,4,1,2
grossro01,Robbie Grossman,105,346,47,91,18,1,10,39,52,98,5,3,2,1,1
gutiefr01,Franklin Gutierrez,110,315,44,83,15,1,19,50,33,100,2,1,4,0,3
guyerbr01,Brandon Guyer,91,250,36,68,15,1,6,28,19,47,6,2,13,3,1
gyorkje01,Jedd Gyorko,128,423,49,104,15,1,21,58,36,103,2,1,3,0,3
hamilbi02,Billy Hamilton,123,435,63,110,18,4,5,32,33,93,47,10,2,8,3
hanigmi01,Mitch Haniger,71,235,28,61,10,2,10,33,25,56,3,1,2,0,2
hanigry01,Ryan Hanigan,77,239,29,59,11,0,5,30,25,54,2,1,3,1,1
hansoal01,Alen Hanson,74,201,28,52,10,1,6,24,17,41,4,2,2,1,1
hardyjj01,J. J. Hardy,118,422,47,108,23,0,9,46,25,79,1,0,2,2,4
harpebr03,Bryce Harper,142,487,84,137,26,2,26,77,96,117,11,6,4,1,6
harrijo05,Josh Harrison,130,471,62,132,28,4,7,49,21,77,14,6,5,3,4
hazelje01,Jeremy Hazelbaker,119,279,43,71,12,3,14,38,25,84,6,2,1,3,2
headlch01,Chase Headley,134,464,60,120,21,1,13,51,48,114,5,2,6,0,4
healyry01,Ryon Healy,92,328,44,89,20,1,15,44,18,74,2,1,2,1,1
hechaad01,Adeiny Hechavarria,141,490,54,127,18,6,4,43,29,77,5,2,2,2,4
hedgeau01,Austin Hedges,71,213,26,51,9,1,6,23,13,55,2,1,2,2,3
heisech01,Chris Heisey,109,250,33,62,12,2,11,29,25,69,4,2,2,2,2
heredgu01,Guillermo Heredia,80,226,31,60,11,1,6,30,26,42,3,2,3,1,1
hernace02,Cesar Hernandez,155,499,65,138,18,7,6,42,55,107,16,8,3,4,2
hernaen02,Enrique Hernandez,124,314,38,79,16,2,11,34,32,84,3,1,2,1,2
hernago01,Gorkys Hernandez,69,208,28,54,12,1,8,25,16,46,3,2,2,0,1
hernama02,Marco Hernandez,82,210,32,56,9,1,7,26,20,45,4,1,2,0,1
hernaos01,Oscar Hernandez,63,194,26,50,9,1,7,23,16,46,3,1,2,1,1
hernate01,Teoscar Hernandez,77,234,33,61,14,1,9,29,24,61,3,2,2,0,2
herreod01,Odubel Herrera,152,532,75,149,25,4,13,49,48,126,18,7,7,3,2
herrmch01,Chris Herrmann,94,264,35,67,12,3,8,36,24,76,4,1,2,1,1
heywaja01,Jason Heyward,137,501,65,131,26,2,10,52,52,88,15,3,4,1,3
hicksaa01,Aaron Hicks,123,377,46,92,16,2,10,39,40,81,8,4,2,1,3
hicksjo02,John Hicks,60,187,24,47,10,1,6,22,14,53,3,2,2,1,1
hillaa01,Aaron Hill,86,270,30,67,14,1,6,32,22,46,3,1,2,0,4
holadbr01,Bryan Holaday,70,207,23,52,10,1,4,26,12,53,2,1,1,1,2
hollima01,Matt Holliday,109,376,49,99,22,1,15,58,44,72,2,1,8,0,2
holtbr01,Brock Holt,106,371,52,100,20,3,6,38,34,78,7,2,3,3,3
holtty01,Tyler Holt,118,270,33,70,11,3,3,26,30,71,6,3,3,3,2
hoodde01,Destin Hood,63,198,27,51,10,1,7,25,13,60,3,2,2,1,1
hosmeer01,Eric Hosmer,146,546,75,149,28,2,18,82,51,112,6,3,3,0,4
howarry01,Ryan Howard,112,381,44,88,17,1,21,62,32,123,1,1,3,0,3
hoyinja01,Jared Hoying,81,205,30,53,10,1,5,26,17,42,4,1,2,0,1
hundlni01,Nick Hundley,104,360,43,96,20,2,12,49,27,82,3,2,2,1,2
huntece01,Cedric Hunter,61,198,26,50,9,1,7,23,16,42,3,1,2,0,1
iannech01,Chris Iannetta,110,339,37,82,18,0,10,39,48,96,2,1,4,1,3
iglesjo01,Jose Iglesias,136,464,56,124,23,2,5,36,29,54,9,5,7,5,3
inciaen01,Ender Inciarte,133,506,74,142,24,5,6,39,36,66,17,7,3,3,3
infanom01,Omar Infante,81,292,31,71,15,3,3,33,14,46,3,1,1,2,4
iribahe01,Hernan Iribarren,69,205,28,53,8,3,5,24,11,50,4,1,2,0,1
jacksau01,Austin Jackson,83,280,35,71,15,2,3,30,23,65,7,2,2,1,2
janispa01,Paul Janish,64,197,26,51,10,1,5,22,15,33,2,1,2,0,2
jankotr01,Travis Jankowski,129,361,52,92,15,3,5,29,40,103,20,8,2,3,1
jasojo01,John Jaso,127,379,48,102,25,2,10,46,44,75,2,3,5,1,2
jayjo02,Jon Jay,113,367,49,100,19,2,4,34,25,78,3,2,11,2,2
jennide01,Desmond Jennings,82,286,36,71,14,2,8,28,28,72,7,3,3,3,2
jenseky01,Kyle Jensen,64,196,28,51,9,2,8,28,17,58,3,1,3,0,1
johnsch05,Chris Johnson,104,315,29,80,15,0,7,33,19,92,3,0,2,1,1
johnske05,Kelly Johnson,105,280,35,73,14,1,12,35,24,66,4,1,2,0,1
johnsmi04,Micah Johnson,64,195,25,50,9,1,4,20,17,49,4,2,2,1,1
jonesad01,Adam Jones,139,547,75,146,22,2,25,77,29,105,4,1,7,1,5
jonesja07,JaCoby Jones,64,202,27,52,12,1,6,25,13,61,3,1,2,1,1
josepca01,Caleb Joseph,89,276,30,65,12,1,7,31,20,64,1,1,2,3,2
josepto01,Tommy Joseph,111,345,50,90,17,1,20,49,25,82,3,2,4,0,5
joycema01,Matthew Joyce,125,309,41,78,16,2,11,41,54,83,2,3,4,0,3
judgeaa01,Aaron Judge,68,226,30,57,10,1,9,29,23,88,3,2,2,0,2
kalisry01,Ryan Kalish,66,185,24,48,9,2,4,21,16,39,3,2,2,1,1
kangju01,Jung Ho Kang,117,380,54,102,21,1,19,60,35,91,5,2,13,0,2
kawasmu01,Munenori Kawasaki,67,185,26,50,9,1,3,19,20,40,3,1,2,3,1
kellyca02,Carson Kelly,63,195,26,50,10,1,6,25,15,41,3,1,3,1,1
kellydo01,Don Kelly,73,187,25,48,8,2,3,20,19,37,4,1,2,1,1
kellyty01,Ty Kelly,76,202,29,55,9,2,6,26,28,37,3,1,2,0,3
kempma01,Matt Kemp,93,345,49,93,20,1,15,56,28,88,5,2,2,0,5
kempto01,Tony Kemp,88,242,32,62,11,3,5,25,26,54,4,2,2,1,2
kendrho01,Howie Kendrick,129,467,64,127,24,2,8,51,40,89,9,3,3,1,2
keplema01,Max Kepler,113,388,51,98,20,2,16,57,40,91,6,2,3,1,4
kiermke01,Kevin Kiermaier,127,424,56,109,22,6,12,42,34,85,15,4,5,2,2
kimhy01,Hyun Soo Kim,100,329,42,92,17,1,8,32,38,58,3,3,4,0,2
kinslia01,Ian Kinsler,137,549,89,153,28,4,18,71,36,89,11,5,6,1,4
kipnija01,Jason Kipnis,140,539,77,147,34,4,15,60,53,120,14,4,6,3,5
kivlepa01,Patrick Kivlehan,56,187,28,50,9,1,8,25,19,56,3,1,3,1,1
kratzer01,Erik Kratz,68,211,26,51,10,1,7,25,10,58,2,1,2,1,2
ladenty01,Tyler Ladendorf,88,210,29,51,9,2,5,23,13,51,4,1,2,1,1
lagarju01,Juan Lagares,103,303,35,79,14,3,5,31,16,61,7,3,4,2,3
lakeju01,Junior Lake,72,208,25,50,11,1,6,21,14,66,4,1,1,1,1
lallibl01,Blake Lalli,60,185,24,48,10,1,6,24,14,43,3,1,2,1,1
lambja01,Jake Lamb,142,482,66,124,25,7,21,67,53,137,5,2,3,0,4
lasteto01,Tommy La Stella,94,260,27,69,16,1,4,29,28,43,3,1,2,1,1
lawribr01,Brett Lawrie,115,421,47,107,22,1,14,49,29,115,5,2,4,1,3
leeda02,Dae-ho Lee,106,322,40,83,13,1,14,49,24,81,2,1,5,0,1
lemahdj01,DJ LeMahieu,143,517,81,155,23,5,9,57,52,86,13,6,2,5,4
leonsa01,Sandy Leon,100,319,41,85,16,2,8,36,28,82,2,1,3,5,2
lindad01,Adam Lind,130,422,56,112,24,1,17,64,40,89,1,1,1,0,2
lindofr01,Francisco Lindor,142,535,80,155,27,3,15,70,47,84,15,4,4,7,11
lobatjo01,Jose Lobaton,77,240,26,60,10,1,6,26,24,57,2,1,2,1,2
loneyja01,James Loney,109,387,37,104,18,1,8,41,23,47,2,1,3,1,3
longoev01,Evan Longoria,144,549,71,146,31,2,25,77,43,123,3,2,5,0,7
loughda01,David Lough,104,226,30,57,9,2,5,24,19,44,5,4,3,3,1
lowrije01,Jed Lowrie,101,364,43,93,18,1,6,38,34,68,1,0,3,1,4
lucrojo01,Jonathan Lucroy,81,290,38,80,19,1,10,39,29,49,2,1,2,0,2
machadi01,Dixon Machado,62,192,24,51,10,1,5,22,22,45,3,1,2,2,1
machama01,Manny Machado,148,576,88,162,30,1,30,78,49,109,8,4,4,1,4
mahtomi01,Mikie Mahtook,96,289,38,71,15,1,10,33,15,97,4,3,4,1,2
mailelu01,Luke Maile,82,254,29,63,15,1,7,31,12,71,2,1,2,3,1
maldoma01,Martin Maldonado,105,302,33,74,13,1,10,34,39,79,2,1,5,2,2
mancitr01,Trey Mancini,58,193,27,51,10,1,11,28,15,46,3,1,3,1,1
margoma01,Manuel Margot,61,210,28,54,12,2,6,26,12,46,5,1,2,1,1
marisja01,Jake Marisnick,133,367,49,89,20,2,8,37,20,106,15,6,5,4,3
markani01,Nick Markakis,139,534,64,147,30,1,10,60,60,84,2,2,4,0,4
marrede01,Deven Marrero,69,194,26,50,8,1,6,22,18,55,4,2,2,0,1
marteje01,Jefry Marte,107,324,45,83,17,1,17,49,25,76,3,2,4,1,3
marteke01,Ketel Marte,120,435,55,114,22,3,4,39,26,86,11,5,2,3,5
martest01,Starling Marte,131,484,70,138,28,4,13,57,26,108,31,9,14,1,2
martijd02,J. D. Martinez,127,471,69,136,30,2,25,74,44,132,3,2,4,0,4
martijo08,Jose Martinez,61,186,27,50,10,1,6,24,19,35,3,1,2,1,1
martile01,Leonys Martin,138,471,60,120,17,3,11,44,37,124,21,7,3,4,4
martimi02,Michael Martinez,80,200,28,50,10,1,4,22,14,52,2,1,1,1,1
martiru01,Russell Martin,129,437,63,112,21,1,19,71,58,123,4,3,10,1,5
martivi01,Victor Martinez,134,482,59,136,23,0,21,75,45,69,2,1,5,0,5
mathije01,Jeff Mathis,81,250,27,60,11,1,5,29,16,73,2,1,2,2,2
mauerjo01,Joe Mauer,130,477,62,128,25,3,9,53,65,92,3,1,2,0,3
maxwebr01,Bruce Maxwell,72,229,28,61,13,2,6,31,21,57,3,1,2,0,2
maybica01,Cameron Maybin,119,406,58,111,17,4,7,46,38,83,14,5,2,1,2
mazarno01,Nomar Mazara,131,458,55,120,15,3,18,58,36,100,2,2,5,0,5
mcbrima02,Matt McBride,76,209,28,52,10,1,5,23,11,48,2,1,2,0,1
mccanbr01,Brian McCann,128,435,58,108,15,1,21,68,47,92,1,0,7,0,4
mccanja02,James McCann,120,403,40,100,16,3,12,50,24,113,2,1,3,2,2
mccutan01,Andrew McCutchen,140,518,77,144,29,3,21,76,71,121,9,5,7,0,5
mcgehca01,Casey McGehee,72,231,22,61,11,1,2,25,21,41,2,1,1,0,2
mercejo03,Jordy Mercer,140,479,55,123,24,2,10,52,41,82,3,2,4,5,3
merriwh01,Whit Merrifield,94,341,48,91,21,3,5,37,23,80,7,3,1,1,2
mesorde01,Devin Mesoraco,64,206,25,53,11,1,9,31,21,49,2,2,4,0,1
middlwi01,Will Middlebrooks,69,223,23,52,9,1,6,25,15,63,2,1,2,0,2
millebr02,Brad Miller,151,498,62,124,25,5,21,63,46,130,8,4,3,2,4
molinya01,Yadier Molina,136,489,48,137,28,1,8,56,35,62,3,2,4,1,5
moncayo01,Yoan Moncada,61,198,28,52,10,1,6,25,17,66,3,1,2,1,1
mondera02,Adalberto Mondesi,82,261,34,64,9,3,6,31,15,84,9,2,3,5,1
montemi01,Miguel Montero,102,325,37,82,14,1,11,46,44,78,2,1,4,0,3
moralke01,Kendrys Morales,142,506,63,134,27,1,23,82,47,104,1,0,7,0,4
moranco01,Colin Moran,60,197,25,50,10,1,6,25,16,52,3,1,3,1,1
morelmi01,Mitch Moreland,137,455,51,116,23,1,20,67,34,114,2,1,6,1,3
morneju01,Justin Morneau,83,294,34,82,17,2,9,39,20,57,1,1,3,0,3
morrilo01,Logan Morrison,123,402,48,100,19,2,15,49,39,88,6,3,5,1,2
mossbr01,Brandon Moss,120,388,55,95,19,2,21,56,42,125,2,1,6,0,3
motteta01,Taylor Motter,72,217,30,56,11,1,7,27,26,50,3,2,2,0,2
moustmi01,Mike Moustakas,81,287,35,74,16,1,12,39,23,44,1,1,4,1,2
moyast01,Steven Moya,77,236,29,61,11,3,10,28,17,82,2,2,2,0,2
muncyma01,Max Muncy,90,245,32,62,13,1,7,26,32,57,2,1,1,0,1
murphda08,Daniel Murphy,131,497,69,146,36,3,17,74,33,57,6,3,4,0,6
murphjr01,J. R. Murphy,84,243,28,61,12,1,5,25,18,60,2,1,2,2,3
murphto04,Tom Murphy,68,208,30,55,10,1,13,35,20,66,3,1,2,0,1
myerswi01,Wil Myers,137,507,78,130,25,3,20,71,57,133,17,4,3,0,3
napolmi01,Mike Napoli,129,447,65,114,20,1,24,70,66,148,4,2,4,0,3
naquity01,Tyler Naquin,115,344,52,96,18,4,14,46,38,113,6,3,4,2,2
narvaom01,Omar Narvaez,71,232,31,62,11,1,6,28,28,39,3,1,2,0,3
navada01,Daniel Nava,61,187,23,49,10,0,4,20,19,44,2,1,4,0,1
navardi01,Dioner Navarro,65,213,22,56,9,0,6,28,17,39,2,0,1,0,3
nichobr01,Brett Nicholas,61,199,27,53,13,1,8,25,19,45,3,1,3,0,1
nieuwki01,Kirk Nieuwenhuis,131,346,46,87,24,2,13,47,51,127,7,6,3,0,1
nimmobr01,Brandon Nimmo,74,223,32,59,9,1,6,27,20,57,3,1,2,0,1
noonani01,Nick Noonan,63,193,24,49,10,1,6,24,17,49,3,2,2,0,2
norride01,Derek Norris,133,441,55,106,23,1,13,53,40,128,6,2,4,0,2
nunezed02,Eduardo Nunez,94,294,38,77,15,3,7,35,19,50,12,5,2,2,2
nunezre01,Renato Nunez,62,196,25,50,10,1,6,25,15,44,3,1,2,1,1
obriepe04,Peter O'Brien,74,217,28,54,10,1,12,30,17,75,3,1,2,0,1
odorro01,Rougned Odor,148,546,73,143,27,6,24,76,23,117,10,7,8,2,4
olivehe01,Hector Olivera,59,197,23,51,10,1,6,26,15,42,2,1,3,0,2
olsonma02,Matt Olson,60,189,26,51,11,1,6,23,29,39,3,1,2,0,1
omallsh01,Shawn O'Malley,108,285,39,73,13,2,5,31,29,79,8,2,3,2,1
orlanpa01,Paulo Orlando,132,437,54,118,23,5,8,47,14,100,10,3,5,3,3
ortegra01,Rafael Ortega,90,279,37,71,14,1,5,31,21,41,8,3,2,3,1
ortizda01,David Ortiz,133,475,65,135,34,1,32,97,68,81,2,1,2,0,6
owingch01,Chris Owings,132,464,55,118,24,7,7,47,24,104,16,3,3,3,3
ozunama01,Marcell Ozuna,140,515,65,135,25,4,19,66,38,118,2,3,3,0,4
pachejo01,Jordan Pacheco,85,213,24,53,10,1,5,23,14,49,2,1,2,1,2
paganan01,Angel Pagan,125,473,62,128,22,3,8,45,36,71,13,4,1,0,4
panikjo01,Joe Panik,125,457,65,123,24,4,9,52,45,52,4,1,4,3,4
paredji01,Jimmy Paredes,101,295,37,75,14,1,9,36,15,87,3,2,1,1,2
parkby01,Byung Ho Park,83,284,38,69,14,2,14,35,27,97,3,1,5,0,3
parkeja03,Jarrett Parker,92,245,39,66,10,1,12,34,31,78,3,2,5,0,1
parmech01,Chris Parmelee,65,198,26,51,11,1,8,25,13,51,2,2,2,0,1
parrage01,Gerardo Parra,111,392,50,98,23,2,9,42,14,78,7,3,3,2,2
pattejo03,Jordan Patterson,61,194,25,52,10,1,6,25,17,36,3,2,2,1,1
paulsbe01,Ben Paulsen,92,261,33,68,14,2,8,36,18,73,2,1,2,1,2
pearcst01,Steve Pearce,73,235,34,61,13,1,12,31,24,54,2,1,4,0,1
pederjo01,Joc Pederson,139,428,62,106,23,1,23,58,71,138,5,4,6,2,2
pedrodu01,Dustin Pedroia,132,526,76,152,29,1,13,59,51,67,6,4,2,1,4
penabr01,Brayan Pena,71,219,18,57,11,1,3,18,17,29,2,1,1,1,1
penafr01,Francisco Pena,66,204,27,52,9,1,7,25,15,58,3,1,2,1,1
penara02,Ramiro Pena,82,224,25,58,12,1,5,25,14,49,2,1,2,2,1
pencehu01,Hunter Pence,105,395,59,109,21,3,13,55,37,90,5,2,2,0,2
pennicl01,Cliff Pennington,99,267,33,66,10,3,6,26,26,75,4,1,2,3,2
peralda01,David Peralta,93,313,41,86,15,6,10,42,23,71,5,2,3,0,3
peraljh01,Jhonny Peralta,104,374,44,99,20,1,12,46,32,74,2,2,3,0,3
perazjo01,Jose Peraza,95,319,38,87,13,3,6,36,14,49,18,8,5,1,3
perezca02,Carlos Perez,110,348,36,85,19,1,7,38,21,66,3,1,2,5,3
perezhe01,Hernan Perez,137,420,47,110,21,3,11,53,18,96,21,5,2,3,3
perezro02,Roberto Perez,93,267,35,67,14,2,8,30,37,77,2,1,2,6,3
perezsa02,Salvador Perez,137,506,55,128,25,1,19,64,20,101,2,0,5,0,3
perezye01,Yefri Perez,64,185,29,49,10,1,7,24,17,43,6,3,2,1,1
peterja01,Jace Peterson,127,410,48,104,19,3,7,40,50,87,8,6,3,4,3
petitgr01,Gregorio Petit,107,286,36,73,18,1,5,31,20,73,3,2,2,2,2
phamth01,Tommy Pham,100,271,43,71,13,3,12,33,32,98,4,2,3,1,1
phegljo01,Josh Phegley,77,245,32,63,15,1,9,35,16,52,2,1,3,0,2
phillbr01,Brandon Phillips,133,509,62,140,25,1,11,60,22,68,12,5,6,2,5
pierzaj01,A. J. Pierzynski,102,338,32,87,18,1,6,38,14,42,2,1,5,0,3
pillake01,Kevin Pillar,148,522,64,138,30,2,9,52,25,87,15,5,5,3,4
pinama01,Manny Pina,71,211,25,56,11,1,7,30,25,46,3,2,2,0,1
pindech01,Chad Pinder,68,212,27,55,12,1,7,26,17,53,3,1,2,0,2
pireljo01,Jose Pirela,73,214,27,53,11,2,5,22,11,48,3,2,1,2,2
piscost01,Stephen Piscotty,137,504,71,137,29,4,18,74,44,116,6,4,8,1,3
plaweke01,Kevin Plawecki,87,273,26,67,13,1,5,29,27,67,2,1,4,1,2
plouftr01,Trevor Plouffe,106,393,50,101,23,2,14,58,32,81,2,1,3,1,3
polangr01,Gregory Polanco,142,512,76,132,29,4,16,65,50,112,19,7,1,1,4
polanjo01,Jorge Polanco,92,313,37,84,17,4,7,38,25,61,5,3,3,2,3
polloaj01,A. J. Pollock,71,262,44,75,15,3,9,31,23,44,14,3,1,0,3
poseybu01,Buster Posey,138,504,71,147,27,1,16,78,53,62,4,1,3,0,7
pradoma01,Martin Prado,139,525,62,150,28,2,10,66,40,68,3,1,4,1,5
preslal01,Alex Presley,62,186,21,47,7,1,5,20,12,37,3,1,1,1,1
profaju01,Jurickson Profar,102,323,43,83,12,3,8,32,35,72,4,2,3,2,1
puigya01,Yasiel Puig,108,377,52,102,19,4,12,49,35,85,6,3,6,1,2
pujolal01,Albert Pujols,137,525,70,137,22,1,28,90,43,67,5,1,4,0,5
quereju01,Juniel Querecuto,57,191,26,49,9,2,6,26,15,54,3,1,2,1,1
quinnro01,Roman Quinn,61,211,31,57,12,1,5,27,24,58,7,2,3,2,1
raburry01,Ryan Raburn,124,300,38,76,17,2,11,41,34,92,1,1,3,0,3
ramiral03,Alexei Ramirez,72,268,31,69,15,1,6,31,14,36,8,2,2,1,2
ramirha01,Hanley Ramirez,134,488,71,133,25,1,23,81,48,101,9,3,6,0,3
ramirjo01,Jose Ramirez,143,504,73,138,32,3,10,58,41,62,17,5,3,6,4
ramoswi01,Wilson Ramos,129,474,52,127,21,0,18,71,30,85,1,0,2,0,5
rasmuco01,Colby Rasmus,122,406,53,97,19,1,19,55,43,134,4,1,2,1,3
realmjt01,J. T. Realmuto,139,494,59,135,26,3,12,54,27,95,10,4,4,1,4
reckean01,Anthony Recker,75,227,25,57,13,1,7,30,27,66,3,1,3,2,2
reddijo01,Josh Reddick,91,311,42,82,14,3,10,40,26,47,5,2,1,0,2
reedaj01,A. J. Reed,78,243,29,61,11,1,7,26,32,82,2,1,2,0,2
reedmi02,Michael Reed,63,196,28,51,10,1,6,23,18,51,4,1,2,1,1
refsnro01,Rob Refsnyder,88,263,37,70,15,1,5,29,28,53,5,2,2,0,3
reimono01,Nolan Reimold,114,291,39,74,13,2,10,32,33,85,2,2,2,0,2
rendato01,Tony Renda,74,214,26,55,11,1,5,24,19,43,3,1,2,2,1
rendoan01,Anthony Rendon,134,500,79,136,30,2,16,65,54,101,9,4,6,1,6
renfrhu01,Hunter Renfroe,61,205,31,54,11,1,11,35,14,40,3,1,2,1,1
reverbe01,Ben Revere,105,386,50,103,12,4,3,29,18,41,18,4,3,3,2
reyesjo01,Jose Reyes,81,326,49,88,16,3,8,32,24,53,12,3,1,2,2
reynoma01,Mark Reynolds,132,405,52,102,21,1,16,52,45,119,3,2,4,0,3
reynoma03,Matt Reynolds,84,230,31,58,15,1,8,31,15,75,3,2,2,2,1
rickajo01,Joey Rickard,99,316,41,83,16,1,8,32,24,68,5,2,3,2,2
riverre01,Rene Rivera,103,300,26,71,14,1,9,37,22,83,1,0,3,3,2
rivertj01,T. J. Rivera,72,237,29,64,11,1,8,33,12,44,3,1,2,0,4
riverya01,Yadiel Rivera,80,224,32,56,12,1,5,24,13,61,3,1,2,3,1
rizzoan01,Anthony Rizzo,142,523,83,148,33,3,28,88,68,100,8,4,17,0,4
roberda09,Dan Robertson,71,197,26,52,9,1,3,23,15,33,3,2,1,3,1
robincl01,Clint Robinson,125,303,38,79,13,1,9,38,33,57,2,1,4,1,3
robinsh01,Shane Robinson,111,245,35,60,11,2,4,27,21,44,6,2,2,2,1
rodrial01,Alex Rodriguez,94,323,43,80,14,1,16,48,38,92,4,0,3,0,4
rodrise01,Sean Rodriguez,157,352,49,90,19,2,16,52,27,108,3,2,7,3,3
rogerja02,Jason Rogers,89,204,27,54,9,2,6,24,25,49,2,1,3,0,1
rojasmi02,Miguel Rojas,138,296,37,74,15,1,4,30,20,46,3,2,2,4,3
rolliji01,Jimmy Rollins,81,296,43,72,14,2,8,27,30,57,9,4,1,1,1
romerst01,Stefen Romero,69,194,26,48,9,1,5,22,12,48,2,2,3,1,2
rominan01,Andrew Romine,131,285,37,71,10,1,4,26,21,66,11,3,4,4,1
rominau01,Austin Romine,89,267,33,68,16,1,8,38,15,54,3,1,2,1,3
rondojo02,Jose Rondon,60,201,26,51,10,1,6,25,16,42,3,1,2,1,1
rosalad01,Adam Rosales,117,293,43,75,15,2,13,38,33,100,6,3,3,0,3
rosaral01,Alberto Rosario,66,200,26,51,11,1,5,24,16,38,3,1,2,1,1
rosared01,Eddie Rosario,113,408,58,106,19,7,12,45,16,109,8,4,2,2,3
rossda01,David Ross,96,265,30,65,14,1,11,34,37,85,2,1,1,3,4
ruary01,Ryan Rua,109,316,46,82,15,1,11,35,24,93,7,1,5,0,2
rufda01,Darin Ruf,96,247,30,61,12,1,10,32,18,67,2,1,4,1,3
ruggiju01,Justin Ruggiano,64,192,28,52,10,1,8,28,16,56,3,2,3,1,2
ruizca01,Carlos Ruiz,65,216,23,55,12,1,3,21,23,35,2,1,4,1,2
ruizri01,Rio Ruiz,59,191,26,50,9,2,7,26,16,45,4,1,2,1,1
ruppca01,Cameron Rupp,115,403,41,101,22,1,15,51,29,115,2,1,5,0,2
russead02,Addison Russell,149,509,66,127,28,2,18,76,50,136,5,2,8,1,4
rutlejo01,Josh Rutledge,78,213,31,57,11,2,4,25,17,63,3,1,3,2,2
ryanbr01,Brendan Ryan,78,196,22,48,10,2,3,21,11,56,2,1,3,2,1
saladty01,Tyler Saladino,108,360,46,93,15,2,9,42,19,77,11,4,3,3,3
saltaja01,Jarrod Saltalamacchia,106,311,39,74,16,1,13,42,44,117,1,1,2,1,4
sanchca01,Carlos Sanchez,96,309,33,74,18,1,6,32,15,74,2,2,3,3,2
sanchga02,Gary Sanchez,80,284,43,78,16,1,22,48,32,77,3,1,3,0,2
sanchhe01,Hector Sanchez,80,211,22,52,11,1,7,30,14,54,2,1,2,1,2
sandsje01,Jerry Sands,79,222,24,56,9,1,7,31,16,72,2,1,2,0,1
sanomi01,Miguel Sano,120,431,61,111,24,1,24,67,59,170,3,1,2,0,3
santaca01,Carlos Santana,142,508,71,129,27,2,25,76,92,98,7,2,3,0,4
santada01,Danny Santana,101,333,46,86,17,4,4,31,16,81,13,6,3,3,1
santado01,Domingo Santana,97,316,42,83,17,1,14,42,40,110,4,2,4,0,2
sardilu01,Luis Sardinas,82,253,30,66,11,2,5,26,21,55,5,2,2,2,1
saundmi01,Michael Saunders,125,422,60,110,25,3,18,52,50,128,3,3,4,1,3
schaflo01,Logan Schafer,90,217,29,55,13,2,3,19,24,51,3,1,3,4,1
schebsc01,Scott Schebler,102,317,45,83,15,2,12,45,25,75,4,4,6,0,1
schimry01,Ryan Schimpf,97,311,49,79,19,4,19,50,44,108,3,1,7,0,3
schoojo01,Jonathan Schoop,150,535,67,136,29,1,22,67,19,126,3,1,7,2,2
scrugxa01,Xavier Scruggs,72,217,23,55,11,1,5,27,16,61,3,1,4,0,1
seageco01,Corey Seager,137,521,84,151,31,4,21,64,48,111,5,2,4,0,2
seageky01,Kyle Seager,145,541,74,146,30,2,24,79,55,97,5,3,6,0,3
segedro01,Rob Segedin,78,216,29,56,10,2,7,30,19,58,3,1,3,0,3
segurje01,Jean Segura,148,569,76,157,26,5,13,53,29,91,24,8,8,5,2
selskst01,Steve Selsky,69,210,30,55,10,1,8,28,14,69,4,1,2,1,1
semiema01,Marcus Semien,149,528,66,132,24,4,20,60,45,130,9,3,1,1,1
severpe01,Pedro Severino,65,196,29,53,11,1,9,26,23,36,3,1,3,0,1
shaffri01,Richie Shaffer,71,211,28,55,13,1,8,24,23,69,2,2,3,0,2
shawtr01,Travis Shaw,133,449,60,114,27,2,17,66,40,121,4,2,3,0,4
shuckja01,JB Shuck,117,306,38,75,13,3,6,29,22,36,6,4,2,3,2
simmoan01,Andrelton Simmons,129,465,50,122,20,2,6,44,31,46,7,3,3,1,3
smithke04,Kevan Smith,58,190,26,49,9,1,6,23,14,50,3,1,2,1,1
smithma05,Mallex Smith,94,281,40,73,13,4,7,35,29,69,14,6,3,3,2
smithse01,Seth Smith,132,395,56,103,24,3,14,52,51,91,1,1,5,0,4
smoakju01,Justin Smoak,136,356,45,85,17,1,16,50,41,116,2,1,3,0,1
smolija01,Jake Smolinski,111,340,39,87,13,3,10,42,23,59,2,2,7,1,3
snydebr03,Brandon Snyder,79,206,30,53,13,2,11,29,13,60,3,1,2,0,1
solando01,Donovan Solano,75,203,23,51,9,1,4,22,12,41,2,1,2,2,1
solarya01,Yangervis Solarte,122,435,57,118,24,2,14,59,33,62,2,1,5,1,3
solerjo01,Jorge Soler,105,338,45,88,17,1,14,47,36,99,3,1,3,0,4
sotoge01,Geovany Soto,80,232,29,60,13,1,10,29,23,65,2,1,2,2,1
souzast01,Steven Souza,128,432,61,107,19,1,18,50,39,157,9,5,5,1,2
spande01,Denard Span,124,486,67,134,25,4,9,44,44,65,15,5,3,3,3
spangco01,Cory Spangenberg,77,238,31,63,12,3,5,26,21,58,6,3,2,3,2
springe01,George Springer,141,537,88,142,24,3,25,69,71,152,11,6,10,1,2
stallja01,Jacob Stallings,57,191,25,50,10,1,6,25,14,46,4,1,2,1,1
stantmi03,Giancarlo Stanton,114,409,61,108,21,1,28,76,54,133,5,1,3,0,3
stassma01,Max Stassi,66,194,27,50,9,1,6,25,13,52,3,1,2,1,1
stewach01,Chris Stewart,80,241,24,64,11,1,3,25,20,44,2,1,4,2,2
storytr01,Trevor Story,102,374,62,100,20,3,24,64,35,125,7,4,5,2,2
stubbdr01,Drew Stubbs,72,191,30,51,10,1,7,22,19,64,7,2,2,1,1
suareeu01,Eugenio Suarez,146,510,67,131,24,2,17,63,41,136,8,3,7,3,3
sucreje01,Jesus Sucre,70,208,24,52,11,1,5,23,12,43,2,1,2,5,1
susacan01,Andrew Susac,70,204,27,53,12,1,7,28,20,58,2,1,2,0,1
suzukic01,Ichiro Suzuki,142,369,48,98,13,4,3,28,30,54,11,3,2,3,3
suzukku01,Kurt Suzuki,117,390,38,101,23,1,7,51,25,54,1,1,6,2,4
swansda01,Dansby Swanson,74,252,36,69,13,2,7,33,25,63,5,1,2,1,3
swihabl01,Blake Swihart,73,247,37,66,12,2,5,28,23,64,3,2,1,1,1
szczuma01,Matt Szczur,131,284,38,73,15,1,8,35,22,60,4,3,2,1,1
tapiara01,Raimel Tapia,70,208,28,54,9,1,6,26,16,53,5,1,2,1,2
tayloch03,Chris Taylor,80,222,28,56,11,2,4,21,17,58,5,2,2,1,1
taylomi02,Michael Taylor,108,347,41,84,15,1,11,40,25,116,13,3,2,1,2
teixema01,Mark Teixeira,115,395,51,95,18,0,20,58,51,100,3,1,4,0,3
tejadru01,Ruben Tejada,73,228,24,59,12,0,4,22,27,45,2,1,3,2,1
telisto01,Tomas Telis,67,198,24,50,8,1,6,25,11,38,2,1,2,1,1
tholejo01,Josh Thole,87,241,25,59,10,1,4,22,24,53,2,2,2,2,2
thomptr01,Trayce Thompson,102,314,43,81,17,2,15,42,34,82,5,1,1,0,1
tilsoch01,Charlie Tilson,55,185,25,49,9,1,7,24,17,40,3,1,2,1,1
tolesan01,Andrew Toles,83,239,36,65,14,2,8,33,20,56,3,2,2,0,2
tomasya01,Yasmany Tomas,139,498,62,132,26,2,23,70,28,129,4,3,2,0,2
tomlike01,Kelby Tomlinson,87,254,33,70,11,2,4,28,24,51,7,3,2,1,1
torrero01,Ronald Torreyes,101,266,36,69,13,4,5,29,20,41,4,2,2,2,2
travide01,Devon Travis,112,418,60,116,27,1,13,56,26,89,5,2,2,1,2
troutmi01,Mike Trout,144,515,99,153,30,5,30,87,90,134,17,5,9,0,5
trumbma01,Mark Trumbo,141,518,71,133,23,1,31,82,43,142,3,1,2,0,2
tuckepr01,Preston Tucker,92,284,33,68,17,1,11,30,20,74,2,1,3,0,1
tulowtr01,Troy Tulowitzki,118,431,63,116,21,1,21,64,43,90,2,1,6,0,4
turneju01,Justin Turner,149,489,70,138,30,2,21,75,44,95,6,2,10,1,5
turnetr01,Trea Turner,101,353,55,100,15,5,14,44,20,72,24,6,2,0,2
uptonbj01,B. J. Upton,88,270,34,65,12,3,7,25,28,85,10,4,1,1,2
uptonju01,Justin Upton,141,512,74,132,27,2,26,79,52,156,11,4,4,0,4
uribeju01,Juan Uribe,92,309,33,79,16,0,10,40,20,66,1,1,3,0,2
utleych01,Chase Utley,118,433,60,111,24,3,11,49,36,90,4,1,9,1,3
valaipa01,Pat Valaika,64,197,27,51,10,1,8,25,14,56,3,1,2,1,1
valbulu01,Luis Valbuena,111,363,50,92,20,1,16,46,48,92,2,1,3,1,2
valenda01,Danny Valencia,121,429,63,117,22,2,16,56,38,103,2,2,3,0,3
vanslsc01,Scott Van Slyke,100,249,30,65,15,1,8,31,23,66,4,2,5,1,2
vargake01,Kennys Vargas,83,279,38,72,14,1,13,37,28,89,2,1,2,0,2
vazquch01,Christian Vazquez,84,269,33,67,14,1,4,29,21,60,2,1,2,1,2
venabwi01,Will Venable,69,191,23,47,9,1,4,18,18,50,5,2,3,1,1
villajo01,Jonathan Villar,147,494,72,133,29,3,15,54,59,141,38,11,3,4,3
vogelda01,Dan Vogelbach,60,190,25,49,10,1,6,24,18,53,3,1,2,1,1
vogtst01,Stephen Vogt,136,463,55,120,24,3,15,61,40,85,2,1,3,0,4
vottojo01,Joey Votto,140,487,82,148,29,2,24,74,103,109,8,2,5,0,5
waldrky02,Kyle Waldrop,65,196,25,51,10,1,6,24,16,45,3,2,2,1,1
walkene01,Neil Walker,121,435,59,118,19,2,19,59,40,87,3,1,5,0,4
wallabr01,Brett Wallace,134,293,34,74,16,1,10,35,35,100,2,1,7,0,2
walshco02,Colin Walsh,75,192,25,51,10,1,5,22,36,62,3,1,2,0,1
weeksje01,Jemile Weeks,65,205,28,52,10,2,5,23,17,49,4,1,3,3,2
weeksri01,Rickie Weeks,121,271,38,69,15,1,11,35,28,77,5,2,6,0,1
wendljo01,Joey Wendle,68,233,30,60,9,1,6,29,17,44,4,1,2,0,3
werthja01,Jayson Werth,126,456,71,118,26,1,17,62,61,114,5,1,5,0,5
whitety01,Tyler White,99,308,36,77,19,1,10,37,29,79,3,1,3,0,2
wietema01,Matt Wieters,121,417,48,108,19,1,16,58,32,89,2,1,3,1,4
wilkian01,Andy Wilkins,72,192,25,49,10,1,6,24,18,61,3,1,2,0,1
willima07,Mason Williams,64,202,28,53,11,1,6,25,15,58,3,1,2,1,1
willima08,Mac Williamson,86,241,31,62,10,1,10,30,24,68,2,2,3,0,2
wilsobo02,Bobby Wilson,73,228,30,58,11,1,8,28,17,63,2,1,2,3,2
wolteto01,Tony Wolters,92,288,39,76,18,2,6,40,29,72,5,2,2,3,1
wongko01,Kolten Wong,123,402,52,103,16,4,9,41,32,69,11,3,8,1,4
worthda01,Danny Worth,66,201,26,50,10,1,5,23,13,42,2,1,2,0,2
wrighda03,David Wright,69,259,32,69,14,1,8,30,32,72,4,2,2,0,2
yelicch01,Christian Yelich,140,525,74,150,31,3,14,67,61,121,13,5,3,1,3
youngch04,Chris Young,114,307,46,81,22,1,13,39,30,73,4,2,4,1,1
zimmery01,Ryan Zimmerman,117,422,56,104,25,1,15,63,34,99,3,1,3,0,7
zobribe01,Ben Zobrist,123,452,72,124,27,2,13,55,70,70,6,4,3,2,4
zuninmi01,Mike Zunino,95,306,33,68,14,1,15,39,23,110,1,1,7,2,2
