playerID,playerName,G,AB,R,H,2B,3B,HR,RBI,BB,SO,SB,CS,HBP,SH,SF
abreujo02,Jose Abreu,127,489,66,135,30,2,22,76,34,102,2,1,11,0,5
acunaro01,Ronald Acuna,111,411,68,112,23,3,23,58,42,114,12,4,5,0,3
adamewi01,Willy Adames,98,331,48,88,12,1,12,41,35,104,6,4,2,1,2
adamsla01,Lane Adams,97,200,33,52,9,1,9,31,21,58,8,1,2,1,2
adamsma01,Matt Adams,84,238,31,59,13,1,13,40,18,63,1,1,2,0,2
adducji02,Jim Adduci,88,275,36,69,14,3,6,34,17,73,3,1,2,2,2
adriaeh01,Ehire Adrianza,130,361,49,92,21,2,8,45,28,84,7,2,3,4,4
aguilje01,Jesus Aguilar,155,452,69,120,23,1,29,86,49,132,2,1,6,0,7
ahmedni01,Nick Ahmed,138,458,55,110,25,3,13,56,34,98,6,4,3,1,4
alberha01,Hanser Alberto,70,198,22,48,10,1,5,22,14,45,3,2,2,2,1
albieoz01,Ozzie Albies,142,544,86,141,30,5,20,65,36,101,13,3,5,1,3
alfarjo01,Jorge Alfaro,113,374,42,96,18,2,12,43,20,140,4,1,11,0,2
alforan01,Anthony Alford,65,194,26,48,10,1,6,23,18,59,4,1,2,0,1
allengr01,Greg Allen,112,324,45,82,14,3,5,34,20,72,16,3,7,3,2
almonab01,Abraham Almonte,92,263,35,64,14,3,6,27,26,67,5,2,2,1,2
almoral01,Albert Almora,162,447,61,121,25,2,9,53,27,85,2,2,3,2,4
alonsyo01,Yonder Alonso,133,446,56,113,22,0,16,63,45,99,2,1,2,0,4
altheaa01,Aaron Altherr,112,339,46,81,18,2,13,51,39,110,6,3,6,0,2
altuvjo01,Jose Altuve,132,504,84,156,29,3,17,66,50,73,20,5,6,2,3
alvarpe01,Pedro Alvarez,78,235,32,58,11,1,14,33,27,69,2,1,1,0,1
anderbr06,Brian Anderson,134,489,70,130,28,3,10,56,52,110,3,3,10,0,3
anderti01,Tim Anderson,142,542,72,136,26,4,17,56,23,145,17,4,3,3,2
andrejo03,John Andreoli,67,208,26,52,10,1,5,24,18,57,4,1,2,0,2
andruel01,Elvis Andrus,116,440,64,120,26,3,10,53,32,72,13,5,3,1,3
andujmi01,Miguel Andujar,133,487,69,133,35,2,22,76,24,86,4,1,4,0,3
arciafr01,Francisco Arcia,78,237,29,57,12,1,11,38,10,62,3,1,3,0,1
arciaor01,Orlando Arcia,130,418,46,104,18,2,9,42,26,98,10,4,2,1,2
arenano01,Nolan Arenado,143,537,92,155,33,4,33,104,61,104,3,2,3,1,6
arroych01,Christian Arroyo,68,226,25,56,11,1,6,28,20,60,3,2,2,0,2
astudwi01,Willians Astudillo,71,233,29,61,11,2,8,37,12,25,3,1,3,0,2
asuajca01,Carlos Asuaje,100,306,31,76,15,1,5,30,32,74,2,1,2,3,3
austity01,Tyler Austin,78,247,32,62,11,1,14,38,23,82,2,1,2,0,3
aveliab01,Abiatal Avelino,59,192,26,49,9,1,6,24,16,47,3,1,2,0,1
avilaal01,Alex Avila,96,271,29,65,11,1,10,32,50,113,2,1,2,1,2
baderha01,Harrison Bader,133,388,58,100,20,2,13,43,31,122,12,3,8,1,4
baezja01,Javier Baez,158,540,82,146,30,4,26,87,29,151,15,5,6,3,3
bandyje01,Jett Bandy,76,230,25,55,10,1,8,25,16,63,2,1,5,1,2
barneau01,Austin Barnes,124,292,44,74,14,1,8,35,45,82,5,2,6,1,1
barnebr02,Brandon Barnes,71,188,24,47,9,2,5,22,14,49,3,2,2,2,1
barnhtu01,Tucker Barnhart,137,447,45,115,24,2,10,52,50,91,3,2,3,3,3
baronst01,Steven Baron,54,182,24,46,9,1,6,23,16,46,3,1,2,0,1
barrefr02,Franklin Barreto,79,237,32,57,11,2,11,33,13,86,3,1,2,0,1
bauerja01,Jake Bauers,102,343,49,83,23,2,12,48,53,104,6,5,4,2,5
bautijo02,Jose Bautista,71,243,39,58,13,0,10,31,39,66,3,1,3,0,2
beckhgo01,Gordon Beckham,70,199,23,48,11,1,4,22,20,44,3,1,2,1,2
beckhti01,Tim Beckham,106,390,53,98,20,3,13,42,28,107,3,2,3,1,2
bellico01,Cody Bellinger,148,517,82,135,27,5,28,81,65,143,11,2,3,0,3
belljo02,Josh Bell,144,487,69,127,27,4,16,68,67,101,3,4,1,0,5
beltbr01,Brandon Belt,114,403,57,104,25,3,15,53,61,108,3,2,4,0,2
beltrad01,Adrian Beltre,115,416,55,116,22,1,18,70,37,78,2,1,5,0,5
beninan01,Andrew Benintendi,143,535,85,147,32,3,16,79,64,102,17,3,4,2,6
bertijo01,Jon Berti,56,189,26,48,10,2,6,25,15,47,4,1,2,0,1
bettsmo01,Mookie Betts,130,513,98,153,37,3,25,80,64,79,22,4,4,0,5
birdgr01,Greg Bird,101,331,37,77,19,1,14,48,37,92,2,1,5,0,4
blackch02,Charlie Blackmon,139,549,105,163,29,7,27,74,51,114,12,6,9,2,3
blancgr01,Gregor Blanco,106,288,39,70,13,4,4,24,29,79,10,2,1,1,1
blandal01,Alex Blandino,95,245,31,62,11,1,5,26,24,72,2,1,5,2,1
blashja01,Jabari Blash,77,207,27,50,10,1,6,22,29,84,3,2,3,0,2
bogaexa01,Xander Bogaerts,131,501,78,139,32,3,17,74,50,100,10,2,5,0,4
bonifjo01,Jorge Bonifacio,101,342,47,85,18,2,11,37,36,100,2,1,3,1,2
bostich01,Christopher Bostick,70,189,26,49,10,1,5,23,22,53,3,2,3,0,1
boteda01,David Bote,95,274,36,69,14,2,9,42,28,83,4,4,5,0,3
bourjpe01,Peter Bourjos,91,223,29,54,12,3,5,21,14,61,4,2,2,2,1
bourju01,Justin Bour,75,236,32,63,11,1,12,42,28,56,2,0,1,0,2
bradlja02,Jackie Bradley,134,462,68,116,26,4,16,62,47,126,11,2,9,0,3
brantmi02,Michael Brantley,131,494,73,140,28,2,14,69,43,61,11,2,4,1,5
braunry02,Ryan Braun,118,411,61,110,24,2,20,63,37,85,11,4,3,0,3
bregmal01,Alex Bregman,148,545,89,151,40,3,24,83,72,88,11,4,8,1,4
bricejo01,Jose Briceno,80,242,30,61,10,1,10,28,19,68,3,2,3,1,1
brinsle01,Lewis Brinson,116,388,38,87,14,4,12,44,22,121,4,1,5,0,2
britoso01,Socrates Brito,74,206,25,49,9,1,7,25,14,49,3,2,2,0,2
broxtke01,Keon Broxton,94,256,39,61,11,2,12,31,30,98,13,4,3,1,1
bruceja01,Jay Bruce,102,348,39,85,19,2,12,45,42,83,3,2,2,0,2
bryankr01,Kris Bryant,115,426,76,119,27,3,20,60,59,109,5,4,13,0,3
buterdr01,Drew Butera,78,201,26,50,9,1,6,24,17,50,2,1,2,1,1
butleda01,Dan Butler,54,180,24,46,9,1,6,24,16,44,3,1,2,0,2
buxtoby01,Byron Buxton,84,276,38,66,12,3,8,31,21,91,12,1,2,3,2
cabreas01,Asdrubal Cabrera,87,309,40,81,19,0,11,37,27,62,3,1,4,0,2
cabreme01,Melky Cabrera,91,325,39,88,20,2,8,46,24,46,2,1,2,1,4
cabremi01,Miguel Cabrera,79,284,37,79,15,0,12,43,36,61,1,1,2,0,2
cainlo01,Lorenzo Cain,135,504,77,145,23,3,12,48,55,91,22,4,5,0,3
calhoko01,Kole Calhoun,131,473,67,115,22,2,17,58,54,117,5,2,4,0,5
calhowi01,Willie Calhoun,77,240,28,60,11,1,7,30,17,58,2,1,3,0,3
camarjo01,Johan Camargo,135,445,59,119,28,2,16,64,43,102,2,1,4,1,3
candeje01,Jeimer Candelario,129,463,67,114,25,2,16,51,56,132,4,2,7,0,4
canhama01,Mark Canha,123,380,53,93,23,1,16,48,31,98,3,2,9,1,3
canoro01,Robinson Cano,100,388,56,109,22,1,17,61,34,60,1,1,4,0,3
caratvi01,Victor Caratini,105,282,35,70,13,1,6,32,21,66,2,1,6,2,2
carpema01,Matt Carpenter,138,489,88,128,34,2,26,69,90,129,3,2,6,1,4
casalcu01,Curt Casali,86,247,30,62,14,1,8,30,25,66,2,2,3,2,2
casteni01,Nick Castellanos,147,561,74,155,35,6,22,83,42,137,3,2,5,0,4
castiwe01,Welington Castillo,85,299,35,78,13,0,12,42,21,83,2,0,2,0,2
castrda01,Daniel Castro,68,210,22,50,8,1,5,24,13,41,2,1,2,1,1
castrha01,Harold Castro,58,189,26,48,9,1,6,23,16,44,4,1,2,0,1
castrja01,Jason Castro,75,240,31,58,14,1,7,28,31,79,1,1,2,1,1
castrst01,Starlin Castro,139,528,69,144,26,2,15,61,35,111,5,2,3,0,5
caveja01,Jake Cave,102,328,55,84,18,2,14,48,23,112,4,2,4,2,3
centeju01,Juan Centeno,64,205,24,51,10,1,6,25,15,45,2,1,2,2,1
cervefr01,Francisco Cervelli,111,361,45,94,17,2,9,49,52,87,3,3,10,1,4
cespeyo01,Yoenis Cespedes,77,274,40,73,14,1,16,44,26,72,3,1,3,0,3
chapmma01,Matt Chapman,136,489,79,128,35,4,21,63,52,133,2,3,7,0,3
chiriro01,Robinson Chirinos,120,374,54,92,19,1,20,58,45,130,3,1,14,1,2
chiselo01,Lonnie Chisenhall,80,245,32,67,15,2,7,39,21,48,3,1,3,2,2
choiji01,Ji-Man Choi,85,257,32,66,15,1,12,37,35,64,4,2,3,0,3
choosh01,Shin-Soo Choo,134,494,77,130,23,1,19,61,75,131,8,2,8,1,3
ciuffni01,Nick Ciuffo,64,203,26,51,10,1,7,27,18,54,3,1,3,2,2
confomi01,Michael Conforto,146,490,74,125,26,1,26,75,71,142,4,2,8,0,4
contrwi01,Willson Contreras,137,458,56,120,25,3,16,65,51,117,5,3,8,1,2
coopega03,Garrett Cooper,63,201,24,51,11,1,5,25,18,57,2,1,3,0,2
cordefr02,Franchy Cordero,79,265,37,66,12,3,11,34,25,99,6,3,2,1,1
cordery01,Ryan Cordell,67,204,26,49,10,1,7,26,12,63,3,1,3,0,3
correca01,Carlos Correa,117,430,66,115,24,2,18,72,55,108,5,1,3,0,6
cowarka01,Kaleb Cowart,92,250,30,57,14,2,6,28,20,81,4,2,4,1,2
cozarza01,Zack Cozart,90,329,50,85,18,3,12,39,35,62,3,1,4,0,3
cozendy01,Dylan Cozens,71,199,25,51,11,1,7,24,24,79,3,1,2,0,1
crawfbr01,Brandon Crawford,140,492,59,127,27,3,13,64,46,110,5,3,5,0,6
crawfjp01,J. P. Crawford,83,246,33,62,14,3,6,28,32,71,4,1,5,2,2
croncj01,C. J. Cron,134,468,60,120,25,2,24,71,33,126,3,3,11,0,5
cruzne02,Nelson Cruz,132,476,71,129,21,1,33,88,53,117,2,1,10,0,4
cruzto03,Tony Cruz,58,193,25,47,10,1,7,24,13,59,3,1,2,0,1
cuevano01,Noel Cuevas,100,259,32,63,11,2,6,27,15,49,3,1,3,0,1
culbech01,Charlie Culberson,123,331,47,86,18,2,12,46,24,92,5,2,4,0,2
cuthbch01,Cheslor Cuthbert,77,253,27,63,13,1,7,27,20,57,2,1,2,0,2
dahlda01,David Dahl,94,315,45,84,15,3,16,48,25,84,6,2,2,0,2
darnach01,Chase d'Arnaud,82,230,27,56,13,1,5,25,17,70,7,2,3,1,2
darnatr01,Travis d'Arnaud,69,224,26,56,10,1,8,29,17,45,1,0,2,1,2
davidma02,Matt Davidson,129,444,52,106,22,1,22,66,41,164,2,1,6,0,4
davisch02,Chris Davis,125,447,58,97,16,1,21,57,52,179,2,1,5,0,3
davisjd01,J. D. Davis,83,242,29,58,11,1,7,25,22,67,3,1,2,0,2
davisjo05,Jonathan Davis,68,196,26,49,10,1,6,23,16,47,5,1,3,0,1
daviskh01,Khris Davis,141,519,83,130,25,1,39,99,54,160,2,1,8,0,6
davisra01,Rajai Davis,100,276,44,68,13,1,5,25,18,68,20,5,4,2,2
davista01,Taylor Davis,60,184,24,47,9,1,6,25,15,44,3,1,2,0,2
deanau01,Austin Dean,72,243,33,60,11,1,9,31,18,51,3,1,3,0,1
dejonpa01,Paul DeJong,122,453,65,116,26,1,22,68,33,127,2,1,8,0,3
delmoni01,Nick Delmonico,102,336,44,82,14,3,12,39,37,90,3,2,6,0,1
descada01,Daniel Descalso,140,378,55,95,21,4,13,57,59,106,3,1,3,0,5
deshide02,Delino DeShields,124,385,65,95,17,2,6,30,45,100,21,5,4,10,3
desmoia01,Ian Desmond,135,487,73,126,20,4,17,69,41,126,17,5,5,1,4
deverra01,Rafael Devers,122,444,61,112,24,1,20,62,38,118,6,2,1,0,2
diazal02,Aledmys Diaz,123,420,58,110,25,1,16,52,27,65,5,3,4,1,4
diazel01,Elias Diaz,104,328,41,84,18,1,10,41,26,59,2,1,2,0,3
diazya01,Yandy Diaz,78,248,36,66,12,2,4,29,28,51,3,1,2,0,1
dickeco01,Corey Dickerson,135,494,65,133,30,4,18,58,27,102,5,3,3,0,3
dietrde01,Derek Dietrich,147,463,63,120,25,4,14,52,34,123,2,1,19,0,4
difowi01,Wilmer Difo,151,422,60,106,16,5,8,42,38,88,11,2,2,3,4
dixonbr01,Brandon Dixon,101,245,32,58,13,1,10,28,16,81,3,1,2,0,1
donaljo02,Josh Donaldson,64,230,40,63,12,1,15,38,41,53,2,1,3,0,1
doziebr01,Brian Dozier,82,308,49,80,17,2,17,46,38,70,8,2,4,0,2
doziehu01,Hunter Dozier,106,366,42,88,19,3,11,39,26,109,3,3,2,0,2
drurybr01,Brandon Drury,73,244,28,64,17,1,8,32,17,57,1,1,3,0,2
dudalu01,Lucas Duda,66,199,25,48,11,1,11,28,24,59,1,1,3,0,2
duffyma01,Matt Duffy,118,435,53,119,19,1,6,43,40,82,9,5,5,1,2
duggast01,Steven Duggar,75,256,36,65,16,2,6,32,20,76,6,2,2,0,2
duvalad01,Adam Duvall,77,265,37,64,15,2,13,42,19,77,3,2,4,0,4
dysonja01,Jarrod Dyson,100,310,46,77,12,4,4,28,31,51,21,5,4,4,2
eatonad02,Adam Eaton,95,343,55,96,18,3,7,37,39,68,8,2,8,2,1
ellisaj01,A. J. Ellis,91,257,33,67,13,1,6,31,33,59,2,1,4,3,2
encared01,Edwin Encarnacion,129,465,73,120,20,1,30,91,68,117,3,0,5,0,5
engelad01,Adam Engel,138,429,51,98,19,4,8,36,23,135,13,5,8,7,1
ervinph01,Phil Ervin,102,298,39,76,14,1,10,41,27,79,8,2,5,1,4
escobal02,Alcides Escobar,134,485,54,120,24,4,6,43,23,78,8,4,4,6,4
escobed01,Eduardo Escobar,94,328,42,83,14,2,12,43,25,66,3,2,3,1,3
evansph01,Phillip Evans,69,194,25,49,10,1,5,22,20,53,3,1,3,0,1
farmeky01,Kyle Farmer,86,217,23,55,12,2,4,28,17,48,2,1,4,0,2
federti01,Tim Federowicz,65,182,25,46,10,1,8,25,17,51,3,1,2,0,2
fernajo03,Jose Fernandez,72,240,28,60,13,1,6,28,16,40,3,1,3,0,1
fieldjo04,Johnny Field,68,213,30,53,12,1,9,28,11,55,3,1,3,0,2
fishede01,Derek Fisher,85,237,34,57,10,2,9,30,22,95,5,2,3,0,2
flahery01,Ryan Flaherty,107,259,31,63,12,1,5,27,28,67,4,2,2,1,2
fletcda02,David Fletcher,96,333,43,86,19,2,4,35,20,47,4,1,4,2,2
florewi01,Wilmer Flores,133,413,50,108,22,1,16,59,29,56,2,1,4,0,7
floripe01,Pedro Florimon,89,220,32,55,13,2,6,26,17,78,3,3,2,0,1
flowety01,Tyler Flowers,101,327,41,85,16,0,11,45,38,94,1,1,13,0,2
fontano01,Nolan Fontana,63,186,24,46,9,1,8,23,20,56,3,2,2,0,1
forsylo01,Logan Forsythe,86,297,42,76,14,1,7,31,40,75,3,2,4,0,2
fowlede01,Dexter Fowler,102,352,55,88,17,4,12,44,51,90,7,3,5,0,4
fowledu01,Dustin Fowler,94,287,34,69,10,2,9,36,16,71,7,4,3,0,3
francma02,Maikel Franco,130,462,54,116,21,1,21,66,33,75,2,1,2,0,4
fraziad01,Adam Frazier,126,381,56,102,22,3,9,45,34,64,6,4,5,1,2
frazicl01,Clint Frazier,67,217,31,55,13,3,6,26,19,65,3,1,3,0,2
frazito01,Todd Frazier,113,393,57,93,16,1,21,60,48,107,7,3,7,0,5
freemfr01,Freddie Freeman,141,522,85,153,36,3,25,81,69,119,8,3,7,0,4
freesda01,David Freese,74,232,30,62,11,1,7,30,28,69,1,1,6,0,1
freitda01,David Freitas,74,228,28,56,14,1,5,24,19,59,2,1,2,1,1
gallaca01,Cam Gallagher,70,218,26,54,11,1,6,28,17,51,3,1,3,1,2
gallois01,Isaac Galloway,79,207,27,53,11,1,8,26,25,59,3,2,2,1,1
gallojo01,Joey Gallo,147,474,79,108,23,2,37,80,72,194,5,3,5,0,1
galvifr01,Freddy Galvis,148,544,61,136,27,4,14,61,38,124,11,5,3,3,4
gamelbe01,Ben Gamel,117,366,51,96,19,4,6,39,35,88,6,2,3,1,2
garciad02,Adolis Garcia,71,194,27,48,10,1,6,24,15,55,3,1,2,0,1
garciar01,Aramis Garcia,65,219,29,55,9,1,10,29,14,84,3,1,2,0,1
garciav01,Avisail Garcia,114,415,58,110,18,3,17,58,28,109,4,2,5,0,3
garcigr01,Greg Garcia,136,284,34,73,13,1,5,27,38,65,3,1,5,2,2
garcile02,Leury Garcia,105,346,41,89,14,3,8,42,15,89,11,3,6,3,2
gardnbr01,Brett Gardner,130,488,79,124,21,5,12,47,59,99,15,3,6,3,4
garnedu01,Dustin Garneau,58,180,23,46,10,1,5,21,22,46,2,1,2,0,1
garvemi01,Mitch Garver,112,336,43,87,19,3,8,46,33,82,2,1,3,1,2
gattiev01,Evan Gattis,122,410,53,101,21,0,23,70,33,99,2,1,4,0,5
gennesc01,Scooter Gennett,147,522,76,146,27,2,21,82,38,117,5,2,4,1,3
gentrcr01,Craig Gentry,112,261,32,66,11,2,5,27,22,56,11,4,3,2,1
gerbemi01,Mike Gerber,64,202,25,49,10,1,5,23,20,71,3,1,2,0,2
gimench01,Chris Gimenez,76,202,29,51,10,1,8,23,26,58,2,1,3,2,1
goinsry01,Ryan Goins,96,280,28,66,15,2,5,33,18,68,2,1,1,3,2
goldspa01,Paul Goldschmidt,141,513,90,147,30,3,27,85,83,143,14,4,6,0,3
gomesya01,Yan Gomes,121,414,51,100,22,1,16,56,26,120,1,1,7,1,3
gomezca01,Carlos Gomez,118,388,51,95,20,2,14,48,31,116,12,4,16,2,2
gomezmi01,Miguel Gomez,69,197,27,49,10,1,5,23,12,49,3,1,2,0,2
gonzaad01,Adrian Gonzalez,83,281,30,73,15,0,8,41,25,57,1,1,2,0,3
gonzaal04,Alfredo Gonzalez,56,187,24,47,9,1,6,24,16,50,3,1,2,0,1
gonzaca01,Carlos Gonzalez,127,451,68,122,30,2,16,63,41,109,4,1,2,0,3
gonzaer01,Erik Gonzalez,122,267,37,67,15,1,6,31,13,73,4,2,3,1,1
gonzama01,Marwin Gonzalez,139,470,61,124,27,2,17,69,45,115,7,4,5,4,2
goodrni01,Niko Goodrum,123,408,52,101,25,3,14,49,39,121,9,3,4,0,2
goodwbr01,Brian Goodwin,77,253,35,64,17,1,10,32,21,74,4,1,2,0,2
gordoal01,Alex Gordon,137,468,56,111,21,1,13,49,47,123,9,2,10,1,3
gordode01,Dee Gordon,134,528,75,143,17,7,4,35,17,80,35,11,7,4,4
gorete01,Terrance Gore,65,183,29,47,9,1,6,23,17,43,8,1,2,0,1
gosseph01,Philip Gosselin,85,192,25,49,10,1,5,19,17,47,3,1,2,1,1
gourryu01,Yuli Gurriel,132,499,65,137,32,1,14,72,23,62,5,2,6,0,6
grandcu01,Curtis Granderson,60,199,32,49,9,2,10,22,30,48,2,1,3,0,1
grandya01,Yasmani Grandal,135,438,58,108,23,1,24,66,61,123,2,2,2,0,3
grateju01,Juan Graterol,73,196,24,48,10,1,4,25,12,38,2,1,2,1,2
gregodi01,Didi Gregorius,133,494,72,133,25,2,23,75,34,70,7,3,5,2,6
greingr01,Grayson Greiner,67,223,27,58,13,1,4,29,32,65,2,2,2,0,3
grichra01,Randal Grichuk,130,441,61,108,29,2,24,63,29,131,5,2,5,0,2
grossro01,Robbie Grossman,126,406,58,108,25,1,9,49,63,90,3,2,3,1,3
guerrga01,Gabriel Guerrero,65,194,25,48,9,1,7,24,15,57,3,1,2,0,1
guerrja02,Javy Guerra,63,190,26,49,10,1,6,24,22,58,3,1,2,0,1
guilllu01,Luis Guillorme,76,217,26,54,10,1,5,25,22,28,3,1,2,0,1
gurrilo01,Lourdes Gurriel,88,316,40,81,12,1,13,43,15,76,3,2,3,1,2
guyerbr01,Brandon Guyer,120,286,39,71,15,1,8,39,24,69,3,1,12,2,2
guzmaro01,Ronald Guzman,119,382,48,94,19,2,15,55,33,116,3,1,6,0,2
gyorkje01,Jedd Gyorko,126,396,53,103,18,2,18,57,44,91,4,1,2,0,4
haaseer01,Eric Haase,60,192,24,48,9,1,6,24,15,52,3,1,3,0,1
hamilbi02,Billy Hamilton,137,491,73,122,18,7,5,33,42,121,41,9,1,4,3
hampsga01,Garrett Hampson,69,199,25,52,11,2,5,25,26,52,4,1,3,0,1
hanigmi01,Mitch Haniger,139,514,75,140,30,3,22,74,55,127,7,3,9,1,4
hansoal01,Alen Hanson,132,352,49,86,19,4,10,41,16,87,10,4,2,2,4
happia01,Ian Happ,138,414,63,104,21,3,19,59,61,161,8,4,4,1,3
harpebr03,Bryce Harper,140,492,91,132,29,1,29,87,101,134,11,4,4,0,7
harrijo05,Josh Harrison,110,400,51,105,19,3,9,44,21,76,9,2,9,2,4
headlch01,Chase Headley,76,249,33,64,12,1,6,29,28,67,4,1,3,0,3
healyry01,Ryon Healy,134,498,58,127,23,0,23,69,25,117,1,1,3,0,2
hechaad01,Adeiny Hechavarria,70,229,26,56,9,2,5,21,14,45,2,1,1,1,2
hedgeau01,Austin Hedges,115,378,40,89,18,1,17,49,25,113,4,1,3,1,3
heredgu01,Guillermo Heredia,132,366,42,91,17,1,7,31,35,65,3,4,7,4,2
hermomi01,Michael Hermosillo,75,216,29,54,12,1,6,23,16,59,3,2,4,0,1
hernace02,Cesar Hernandez,143,531,78,144,19,5,11,47,73,125,15,7,4,2,2
hernaen02,Enrique Hernandez,160,409,62,100,22,2,18,50,52,90,4,1,2,2,4
hernago01,Gorkys Hernandez,148,415,54,102,21,2,11,40,32,109,10,5,4,2,3
hernate01,Teoscar Hernandez,128,432,62,107,26,4,21,57,38,145,4,4,3,0,3
herredi01,Dilson Herrera,88,228,30,56,13,1,10,29,22,84,3,1,3,0,1
herreod01,Odubel Herrera,139,511,66,135,25,3,17,58,39,117,10,4,5,1,2
herrero02,Rosell Herrera,92,318,36,79,17,3,4,32,24,65,4,4,3,1,2
herrmch01,Chris Herrmann,92,235,32,58,10,2,9,31,28,68,4,1,1,0,2
heywaja01,Jason Heyward,126,441,60,112,21,3,9,54,43,68,5,3,3,2,2
hicksaa01,Aaron Hicks,135,444,71,113,21,2,21,65,72,99,9,4,3,2,5
hicksjo02,John Hicks,103,342,45,88,17,1,11,41,27,98,3,2,3,1,2
higasky01,Kyle Higashioka,70,216,27,53,10,1,8,25,19,50,3,1,3,0,1
holadbr01,Bryan Holaday,91,259,25,62,12,1,4,29,18,53,2,1,3,1,2
hollima01,Matt Holliday,70,234,30,59,12,1,11,35,28,61,1,0,3,0,2
holtbr01,Brock Holt,119,349,48,90,19,1,8,42,39,78,6,5,6,0,3
hoskirh01,Rhys Hoskins,134,473,77,121,29,1,30,85,75,125,5,2,7,0,4
hosmeer01,Eric Hosmer,145,544,74,147,26,1,19,76,56,118,6,3,1,0,2
hudsojo03,Joe Hudson,59,188,24,47,10,1,6,24,15,37,3,1,2,0,1
hundlni01,Nick Hundley,112,346,40,86,21,1,12,44,25,97,2,1,2,1,1
iannech01,Chris Iannetta,114,344,41,84,19,1,14,43,50,98,1,0,6,1,3
iglesjo01,Jose Iglesias,129,447,52,114,29,2,6,48,23,56,10,4,6,3,2
inciaen01,Ender Inciarte,140,547,79,150,24,5,9,50,44,80,19,9,4,3,3
jacksau01,Austin Jackson,90,302,39,80,17,2,6,35,27,91,3,2,2,1,2
jankotr01,Travis Jankowski,122,359,50,91,14,2,5,23,40,86,21,7,2,3,1
janseda01,Danny Jansen,72,224,31,58,13,1,8,27,23,49,3,1,5,0,2
jayjo02,Jon Jay,111,358,55,95,18,3,4,33,25,74,4,1,11,2,2
jonesad01,Adam Jones,133,526,64,141,25,1,19,64,26,93,4,1,5,1,4
jonesja07,JaCoby Jones,132,417,52,94,21,4,11,40,25,141,11,4,9,1,2
jonesry01,Ryder Jones,67,205,24,49,10,2,7,21,15,66,3,1,3,0,1
josepca01,Caleb Joseph,110,341,39,80,17,2,7,30,16,88,2,1,3,2,1
josepco01,Corban Joseph,63,188,24,48,10,1,6,25,17,47,3,1,2,0,1
joycema01,Matthew Joyce,115,314,51,78,18,1,14,41,51,79,2,2,2,1,3
judgeaa01,Aaron Judge,122,431,83,118,21,1,31,74,83,158,6,3,4,0,4
kangju01,Jung Ho Kang,55,177,24,46,10,1,9,28,18,42,2,1,5,0,1
kellyca02,Carson Kelly,78,210,23,50,10,1,4,24,17,43,2,1,3,2,1
kellyty01,Ty Kelly,86,188,25,47,10,1,5,25,20,43,2,1,2,2,3
kempma01,Matt Kemp,130,450,58,122,24,1,20,73,34,110,2,1,2,0,5
kempto01,Tony Kemp,114,310,43,79,16,2,7,35,35,57,8,3,3,2,2
kendrho01,Howie Kendrick,79,267,35,70,15,1,7,28,20,55,5,2,3,0,2
keplema01,Max Kepler,147,505,70,122,29,3,19,65,58,101,6,3,5,1,4
kiebosp01,Spencer Kieboom,82,240,32,61,12,1,6,29,28,54,2,1,3,0,2
kiermke01,Kevin Kiermaier,105,383,54,95,17,5,12,39,33,98,14,5,6,2,2
kineris01,Isiah Kiner-Falefa,113,369,47,95,19,2,6,40,30,67,7,4,6,4,2
kingesc01,Scott Kingery,133,420,53,100,22,2,9,40,25,116,8,3,4,0,4
kinslia01,Ian Kinsler,77,294,48,75,14,2,11,34,26,53,8,3,4,0,1
kipnija01,Jason Kipnis,129,473,63,118,29,2,17,62,49,103,8,2,5,2,4
kivlepa01,Patrick Kivlehan,88,200,28,50,8,2,8,26,21,64,2,2,3,0,1
knappan01,Andrew Knapp,102,285,37,71,13,2,7,28,39,101,3,1,2,1,2
kozmape01,Pete Kozma,79,220,28,53,11,2,6,26,13,57,2,2,3,2,2
krameke01,Kevin Kramer,68,203,28,50,9,1,5,26,16,74,3,1,2,0,2
kratzer01,Erik Kratz,89,280,30,67,11,1,8,34,11,60,3,1,6,1,2
lagarju01,Juan Lagares,91,236,32,60,12,2,4,22,16,48,6,2,3,2,2
lamarry01,Ryan LaMarre,74,215,29,55,13,1,7,29,13,59,3,2,3,0,3
lambja01,Jake Lamb,93,330,52,83,18,3,16,56,45,96,4,2,3,0,3
lasteto01,Tommy La Stella,137,271,36,72,15,1,6,34,31,47,2,1,4,0,2
laurera01,Ramon Laureano,79,262,40,69,16,2,9,33,27,78,7,2,3,0,3
lavarry01,Ryan Lavarnway,59,182,24,47,10,1,6,24,16,42,3,1,3,0,1
leebr01,Braxton Lee,59,192,24,48,9,1,6,25,17,57,3,1,2,0,1
lemahdj01,DJ LeMahieu,128,499,82,145,26,3,11,58,44,78,7,5,4,3,5
leonsa01,Sandy Leon,107,338,42,80,18,1,8,41,26,93,2,1,3,3,3
lindofr01,Francisco Lindor,147,584,99,161,35,3,28,79,58,92,17,6,6,3,5
lintz01,Tzu-Wei Lin,81,219,34,57,12,3,5,24,27,56,3,2,2,1,1
lobatjo01,Jose Lobaton,73,211,23,50,9,1,6,22,24,52,2,1,2,1,2
locasti01,Tim Locastro,67,184,29,47,10,1,6,23,20,50,6,1,3,0,1
longoev01,Evan Longoria,124,476,56,121,27,3,19,64,30,99,3,1,4,0,6
lopezra02,Rafael Lopez,77,230,30,56,10,1,9,32,27,83,3,1,2,0,3
lowebr01,Brandon Lowe,76,247,32,63,13,2,10,38,28,68,4,2,3,0,2
lowrije01,Jed Lowrie,141,523,69,140,34,2,16,71,64,107,1,1,3,0,3
lucrojo01,Jonathan Lucroy,120,393,45,101,19,2,8,51,36,66,2,1,5,1,4
lugoda01,Dawel Lugo,68,233,30,58,12,2,6,27,20,52,3,1,2,0,1
luplojo01,Jordan Luplow,78,236,32,57,10,3,8,28,23,53,3,3,3,0,2
machadi01,Dixon Machado,106,309,35,74,16,2,4,31,22,62,3,1,3,2,2
machama01,Manny Machado,98,384,54,103,21,1,20,57,32,74,5,2,2,0,4
mahtomi01,Mikie Mahtook,102,329,41,80,13,3,11,37,25,91,5,1,5,0,3
mailelu01,Luke Maile,98,298,33,72,17,1,6,35,26,90,3,1,3,1,2
maldoma01,Martin Maldonado,89,271,31,64,12,1,9,28,17,71,1,1,7,3,1
mancitr01,Trey Mancini,147,535,66,138,24,3,23,65,38,139,2,1,6,0,4
margoma01,Manuel Margot,136,482,54,121,23,7,11,49,34,95,13,7,3,1,5
marisja01,Jake Marisnick,128,313,51,74,16,1,13,38,23,111,9,4,5,2,2
marjami01,Mike Marjama,61,194,24,48,12,1,6,22,17,44,3,2,2,0,1
markani01,Nick Markakis,144,535,67,148,34,1,11,75,62,82,1,2,4,0,6
marrede01,Deven Marrero,96,237,36,56,11,1,5,31,19,72,6,1,1,2,2
marteje01,Jefry Marte,106,291,39,69,14,1,12,38,23,66,3,2,5,0,2
marteke01,Ketel Marte,139,472,62,122,23,6,10,49,45,78,7,2,3,1,4
martest01,Starling Marte,130,490,71,134,25,4,15,57,30,99,30,10,10,1,2
martijd02,J. D. Martinez,130,482,85,144,30,2,35,97,55,127,4,1,3,0,5
martijo08,Jose Martinez,148,470,64,134,24,1,17,71,46,95,3,2,2,2,3
martile01,Leonys Martin,57,187,26,47,8,1,6,21,17,50,6,2,2,1,2
martini02,Nick Martini,81,251,38,68,14,3,5,32,31,58,2,1,5,0,2
martiru01,Russell Martin,102,339,47,80,13,0,13,42,55,96,2,2,7,1,2
martivi01,Victor Martinez,123,436,43,113,19,0,13,56,35,59,1,0,4,0,4
mathije01,Jeff Mathis,94,292,28,69,15,2,4,30,25,92,2,1,2,1,2
mauerjo01,Joe Mauer,124,459,61,126,26,2,8,52,56,82,2,1,2,0,3
maxwebr01,Bruce Maxwell,73,226,25,57,13,1,5,27,24,59,2,1,1,1,2
maybica01,Cameron Maybin,68,229,35,60,9,2,5,29,20,51,7,3,2,1,1
mazarno01,Nomar Mazara,135,494,60,127,23,2,19,76,43,115,2,1,5,0,4
mccanbr01,Brian McCann,90,300,39,73,10,1,13,43,33,62,2,1,6,0,3
mccanja02,James McCann,125,430,42,102,17,1,12,51,29,118,2,2,5,1,3
mccutan01,Andrew McCutchen,75,276,42,73,13,1,12,38,37,62,4,3,3,0,2
mcguire01,Reese McGuire,64,202,28,52,11,1,9,26,18,52,4,1,2,0,1
mckinbi01,Billy McKinney,73,242,32,62,13,1,11,30,23,64,3,1,3,0,2
mcmahry01,Ryan McMahon,113,276,32,69,15,2,8,32,29,90,3,1,3,0,2
mcneije01,Jeff McNeil,86,298,44,82,14,5,6,32,21,39,7,2,5,3,1
meadoau01,Austin Meadows,61,197,27,50,10,1,7,26,19,45,4,1,2,0,1
mejiafr01,Francisco Mejia,72,216,28,53,10,1,9,28,17,64,3,1,3,0,1
mercejo03,Jordy Mercer,123,421,49,107,23,3,9,47,39,84,2,2,4,2,2
merriwh01,Whit Merrifield,144,559,77,158,34,4,13,62,44,101,30,7,5,1,5
mesorde01,Devin Mesoraco,95,290,35,70,13,1,12,36,33,64,2,1,4,0,2
millebr02,Brad Miller,75,246,31,59,12,2,10,32,30,76,3,2,2,0,2
molinya01,Yadier Molina,124,453,54,122,24,1,15,66,29,66,5,3,6,0,5
moncayo01,Yoan Moncada,135,499,67,122,27,5,16,55,59,183,9,5,3,1,2
mondera02,Adalberto Mondesi,102,336,49,83,14,3,13,41,17,98,25,6,3,6,1
mooread01,Adam Moore,57,185,25,47,10,1,7,24,16,51,3,1,2,1,1
moralke01,Kendrys Morales,125,435,52,111,19,0,22,64,43,99,2,1,4,0,4
moranco01,Colin Moran,131,392,49,104,18,2,11,54,37,80,2,2,4,0,5
morelmi01,Mitch Moreland,129,426,57,106,25,2,18,64,46,105,2,1,4,0,3
morofma01,Max Moroff,80,221,31,54,10,1,8,32,26,74,2,1,3,1,1
morrilo01,Logan Morrison,113,381,52,90,18,1,20,53,48,100,3,1,5,0,2
motteta01,Taylor Motter,73,215,26,50,11,1,6,24,20,50,6,1,1,0,1
moustmi01,Mike Moustakas,92,335,43,87,17,0,19,50,26,63,2,1,3,0,3
mullice01,Cedric Mullins,76,270,37,68,14,1,8,27,27,60,4,3,3,2,1
muncyma01,Max Muncy,125,367,61,96,16,2,26,60,67,113,3,1,4,0,2
munozya01,Yairo Munoz,113,334,45,88,18,1,10,46,34,81,6,5,4,0,2
murphda08,Daniel Murphy,81,298,49,89,21,2,13,48,24,44,3,1,3,0,3
murphjr01,J. R. Murphy,103,290,31,67,14,1,11,33,18,91,2,1,2,2,2
murphto04,Tom Murphy,81,234,26,56,14,1,8,31,15,93,3,2,2,0,1
myerswi01,Wil Myers,106,388,55,98,22,2,17,53,43,114,14,3,3,0,3
naquity01,Tyler Naquin,93,272,38,71,13,2,8,34,20,75,4,2,3,1,2
narvaom01,Omar Narvaez,114,343,39,92,16,1,8,34,46,73,2,2,2,2,1
navaref01,Efren Navarro,59,185,25,47,8,1,6,20,19,55,2,1,2,0,1
negrokr01,Kristopher Negron,68,194,28,48,9,1,6,23,17,52,4,1,3,1,1
newmake01,Kevin Newman,72,233,28,57,10,1,4,26,15,58,3,2,3,0,2
ngoepgi01,Gift Ngoepe,69,192,27,48,9,1,5,23,20,72,2,1,2,1,1
nidoto01,Tomas Nido,77,232,30,55,12,1,6,30,15,67,3,1,2,0,3
nimmobr01,Brandon Nimmo,138,412,66,110,25,5,15,47,70,128,7,4,13,1,2
nottija01,Jacob Nottingham,59,191,25,49,10,1,6,23,24,53,3,1,2,0,1
nunezed02,Eduardo Nunez,118,438,55,114,22,3,12,49,19,68,11,3,3,1,2
nunezre01,Renato Nunez,90,290,37,74,16,1,10,34,24,74,2,1,4,0,2
obriepe04,Peter O'Brien,68,213,27,53,11,1,11,29,20,66,2,1,2,0,2
odorro01,Rougned Odor,134,500,72,122,23,3,23,66,33,128,12,7,7,1,4
ohearry01,Ryan O'Hearn,75,255,37,66,15,2,16,40,32,72,2,1,3,0,1
ohtansh01,Shohei Ohtani,114,348,57,93,20,2,21,57,39,105,9,3,3,0,2
olsonma02,Matt Olson,144,495,74,125,24,1,29,76,60,139,3,1,8,0,2
oneilty01,Tyler O'Neill,92,255,43,64,12,1,14,38,17,97,4,1,4,0,3
orfna01,Nate Orf,62,187,26,47,9,1,7,23,20,51,4,1,3,0,1
orlanpa01,Paulo Orlando,72,237,27,59,11,1,4,23,9,59,5,1,3,1,1
ortegra01,Rafael Ortega,78,250,29,61,10,1,3,24,20,44,7,3,1,1,1
osunajo01,Jose Osuna,106,264,36,63,16,2,8,34,13,55,2,1,3,0,2
owingch01,Chris Owings,111,365,44,91,21,3,8,42,24,89,13,3,3,1,3
ozunama01,Marcell Ozuna,140,532,71,147,21,3,24,86,43,110,2,2,3,0,3
palkada01,Daniel Palka,117,393,53,97,16,3,23,59,30,140,3,1,3,0,1
panikjo01,Joe Panik,114,407,50,106,19,3,8,42,36,42,4,1,4,2,5
parrage01,Gerardo Parra,132,423,56,115,23,1,9,59,27,80,7,4,4,1,5
pearcst01,Steve Pearce,86,271,36,70,15,1,12,37,31,57,1,1,5,0,3
pederjo01,Joc Pederson,140,401,63,99,27,2,22,57,49,97,4,4,6,1,2
pedrodu01,Dustin Pedroia,58,220,31,62,11,0,5,29,24,29,3,1,1,1,2
penafr01,Francisco Pena,89,251,29,60,9,1,7,26,15,77,3,1,2,1,2
pencehu01,Hunter Pence,104,339,40,86,14,2,9,44,26,80,3,2,2,0,3
pennicl01,Cliff Pennington,81,210,25,51,8,1,4,21,20,65,3,1,1,1,2
peralda01,David Peralta,138,509,72,141,25,4,21,67,42,109,6,2,5,0,3
perazjo01,Jose Peraza,155,565,69,153,22,4,11,53,26,75,24,8,8,4,4
perezca02,Carlos Perez,69,211,22,49,11,1,5,25,11,50,2,1,2,3,1
perezhe01,Hernan Perez,132,389,46,99,16,3,12,46,21,85,16,4,1,1,3
perezmi03,Michael Perez,67,222,29,57,12,1,6,30,15,56,3,1,2,1,3
perezro02,Roberto Perez,95,284,31,65,16,1,7,38,34,96,2,1,2,6,3
perezsa02,Salvador Perez,132,490,56,121,24,1,25,73,19,106,2,1,8,0,4
peterja01,Jace Peterson,112,292,34,71,16,2,6,33,41,72,8,2,3,1,2
petitgr01,Gregorio Petit,74,207,25,52,11,1,4,21,18,50,4,2,2,1,1
phamth01,Tommy Pham,89,286,55,82,14,3,14,42,43,83,10,3,6,1,2
phegljo01,Josh Phegley,84,242,31,58,16,1,6,29,17,57,2,1,3,0,3
phillbr01,Brandon Phillips,55,203,28,53,11,1,5,23,10,34,4,2,2,1,2
phillbr02,Brett Phillips,81,250,31,61,11,2,8,28,23,96,5,1,3,1,2
pillake01,Kevin Pillar,136,498,61,126,33,2,13,50,23,91,12,4,6,2,4
pinama01,Manny Pina,118,365,47,94,19,1,11,43,26,79,3,1,5,1,4
pindech01,Chad Pinder,121,363,49,91,18,1,16,43,30,107,2,2,6,1,2
pireljo01,Jose Pirela,133,430,55,110,25,3,8,43,32,92,6,3,3,1,2
piscost01,Stephen Piscotty,138,486,67,127,30,1,20,70,46,108,4,3,9,0,4
plaweke01,Kevin Plawecki,100,306,37,74,17,2,9,37,36,77,2,1,8,1,2
plouftr01,Trevor Plouffe,61,196,23,48,8,1,7,25,16,48,2,1,2,0,1
polangr01,Gregory Polanco,128,453,64,116,28,3,19,66,49,103,11,3,3,0,5
polanjo01,Jorge Polanco,106,386,48,103,22,3,9,53,32,74,9,5,3,4,3
polloaj01,A. J. Pollock,118,427,66,110,25,5,18,58,34,94,15,3,7,1,4
pompeda01,Dalton Pompey,57,186,24,47,9,1,6,23,18,55,3,1,2,0,1
poseybu01,Buster Posey,116,419,55,119,25,1,9,54,49,58,5,1,4,0,4
powelbo02,Boog Powell,63,203,31,52,11,1,6,24,19,50,3,2,2,0,2
pradoma01,Martin Prado,78,289,32,76,16,1,4,33,20,46,2,1,2,0,2
profaju01,Jurickson Profar,134,453,66,114,25,4,15,58,48,83,7,1,8,2,3
puigya01,Yasiel Puig,131,429,61,112,21,2,22,62,43,92,12,4,3,0,3
pujolal01,Albert Pujols,119,460,50,115,17,0,20,74,31,68,3,0,2,0,3
quinnro01,Roman Quinn,80,248,32,63,13,3,5,28,22,66,11,4,3,2,1
ramirha01,Hanley Ramirez,84,309,41,80,15,0,14,48,31,68,4,2,4,0,2
ramirjo01,Jose Ramirez,146,540,93,155,40,4,27,83,71,71,22,5,5,0,5
ramoswi01,Wilson Ramos,74,247,29,68,12,1,10,39,19,46,1,0,1,0,3
rasmuco01,Colby Rasmus,64,211,26,50,9,1,9,29,20,71,2,1,1,0,2
realmjt01,J. T. Realmuto,129,480,65,131,28,3,17,62,35,101,7,2,7,0,3
reddijo01,Josh Reddick,130,440,65,117,21,2,14,57,44,76,7,3,1,1,5
reedmi02,Michael Reed,60,186,25,47,9,1,6,22,16,50,3,1,2,0,1
refsnro01,Rob Refsnyder,85,222,30,55,11,1,4,21,32,55,3,2,2,0,2
reinhja01,Jack Reinheimer,67,193,26,49,9,1,5,22,23,50,3,2,2,0,1
rendoan01,Anthony Rendon,134,487,77,139,36,2,21,82,60,83,6,2,6,0,6
renfrhu01,Hunter Renfroe,125,435,56,108,25,1,26,66,31,121,3,1,5,0,3
reyesfr01,Franmil Reyes,101,320,44,84,13,1,17,40,30,95,2,1,2,0,1
reyesjo01,Jose Reyes,110,336,49,81,17,4,9,35,33,59,11,3,1,2,2
reyespa01,Pablo Reyes,63,212,30,55,10,1,9,27,20,45,3,2,2,0,1
reyesvi01,Victor Reyes,115,300,45,71,11,3,5,28,12,68,9,2,2,1,2
reynoma01,Mark Reynolds,103,325,48,86,15,1,17,54,39,100,2,1,2,0,3
reynoma03,Matt Reynolds,84,196,25,49,9,2,5,21,19,59,2,1,3,1,1
rickajo01,Joey Rickard,114,318,40,79,16,1,9,31,20,78,7,2,4,2,1
riddljt01,JT Riddle,114,362,38,88,16,3,10,45,24,80,2,3,1,3,3
riverre01,Rene Rivera,74,221,25,55,11,1,9,32,18,72,2,1,3,1,1
riverya01,Yadiel Rivera,124,250,31,60,11,1,4,24,28,81,3,1,2,1,2
rizzoan01,Anthony Rizzo,140,510,77,142,29,2,25,90,68,80,6,4,17,0,5
roberda10,Daniel Robertson,108,344,48,88,17,1,10,39,48,95,3,2,10,1,3
robindr01,Drew Robinson,89,243,35,60,12,1,9,28,32,102,3,2,2,0,1
robinsh01,Shane Robinson,84,202,31,48,9,1,5,21,19,36,5,1,2,2,1
roblevi01,Victor Robles,72,222,29,57,11,3,8,31,16,49,5,3,5,1,2
rodriro03,Ronny Rodriguez,87,282,32,68,13,1,8,33,18,64,4,1,2,2,3
rodrise01,Sean Rodriguez,101,257,37,62,12,1,11,35,30,91,2,1,4,0,1
rojasmi02,Miguel Rojas,157,450,52,115,19,1,8,48,29,66,5,2,7,3,4
rominan01,Andrew Romine,118,269,36,65,12,2,4,23,19,69,5,2,4,3,1
rominau01,Austin Romine,106,325,37,79,16,1,10,45,23,83,2,1,3,2,4
rondojo02,Jose Rondon,80,237,32,58,13,1,11,31,19,66,4,2,2,0,1
rosalad01,Adam Rosales,75,192,28,47,11,1,9,26,17,65,3,1,2,1,2
rosaram01,Amed Rosario,140,495,65,124,22,7,10,48,25,112,18,8,4,2,3
rosared01,Eddie Rosario,140,520,78,142,28,2,22,69,30,105,8,4,1,2,4
ruary01,Ryan Rua,102,262,37,63,11,1,9,27,20,92,6,2,3,1,2
ruizri01,Rio Ruiz,71,202,28,50,9,1,6,25,23,54,3,1,3,0,2
russead02,Addison Russell,131,433,57,107,23,2,11,55,41,106,4,1,5,1,3
saladty01,Tyler Saladino,87,266,29,65,11,1,6,28,20,71,6,4,3,2,2
sanchad01,Adrian Sanchez,80,222,28,55,12,1,4,27,10,50,2,2,2,1,1
sanchca01,Carlos Sanchez,151,537,62,134,27,8,11,59,41,125,10,6,6,4,4
sanchga02,Gary Sanchez,107,391,62,98,20,0,25,67,45,107,3,1,6,0,3
sandopa01,Pablo Sandoval,104,310,35,77,15,1,11,45,24,68,2,1,3,0,2
sanomi01,Miguel Sano,98,358,51,87,17,1,20,56,43,144,1,0,2,0,2
santaan02,Anthony Santander,76,242,27,59,13,2,5,25,16,54,3,1,3,0,2
santaca01,Carlos Santana,141,504,75,127,28,2,23,73,87,85,4,1,3,0,5
santada01,Danny Santana,77,213,27,51,12,2,4,24,14,55,7,3,2,1,1
santade01,Dennis Santana,56,186,25,48,10,1,7,26,18,46,3,1,2,0,1
santado01,Domingo Santana,107,336,48,89,19,1,14,46,41,116,6,2,3,0,3
sardilu01,Luis Sardinas,67,197,24,49,9,1,6,22,19,46,4,1,2,1,1
schebsc01,Scott Schebler,123,417,58,105,21,1,20,57,38,107,5,3,10,0,3
schimry01,Ryan Schimpf,60,188,29,45,9,2,13,29,28,67,1,1,4,0,2
schoojo01,Jonathan Schoop,87,313,44,82,17,0,14,47,16,78,2,1,4,0,3
schwaky01,Kyle Schwarber,135,437,65,107,18,2,27,61,70,141,4,2,3,1,2
seageco01,Corey Seager,78,291,45,82,17,1,11,38,31,63,2,1,3,0,2
seageky01,Kyle Seager,140,520,65,128,31,2,22,76,45,114,3,2,6,0,4
segurje01,Jean Segura,132,529,81,153,28,3,12,55,32,74,20,8,6,2,3
semiema01,Marcus Semien,140,531,74,133,28,2,17,63,52,117,12,3,2,1,4
severpe01,Pedro Severino,99,281,30,66,15,1,6,30,27,69,3,1,5,0,2
shawch01,Chris Shaw,66,207,24,52,11,1,6,27,23,68,3,1,2,0,2
shawtr01,Travis Shaw,141,484,70,123,28,1,26,80,61,113,7,1,4,1,4
shuckja01,JB Shuck,93,245,28,57,9,2,4,21,18,40,4,3,2,2,1
sierrma01,Magneuris Sierra,90,273,32,66,9,1,4,26,16,71,5,3,2,2,1
sierrmo01,Moises Sierra,70,208,26,51,10,1,5,25,14,63,3,2,4,0,3
simmoan01,Andrelton Simmons,141,517,64,142,27,3,11,63,36,50,12,3,4,1,5
siscoch01,Chance Sisco,93,268,31,65,15,1,7,32,24,98,3,1,10,0,1
skolema01,Matt Skole,54,182,25,47,9,1,7,23,20,44,3,1,2,0,1
slateau01,Austin Slater,96,295,36,76,11,2,5,37,27,91,6,1,5,0,2
smithdo02,Dominic Smith,90,280,32,66,16,1,11,34,17,86,2,1,3,0,1
smithdw02,Dwight Smith,78,217,29,56,15,1,7,26,21,49,3,1,4,0,2
smithke04,Kevan Smith,91,297,34,78,14,1,6,35,16,45,2,1,5,1,2
smithma05,Mallex Smith,140,453,61,123,21,7,5,41,44,98,29,10,5,5,2
smoakju01,Justin Smoak,147,479,65,121,27,1,26,70,70,138,1,1,3,0,2
smolija01,Jake Smolinski,71,204,22,49,8,2,5,21,13,41,2,1,4,1,1
snydebr03,Brandon Snyder,65,183,25,46,11,1,8,25,14,49,3,1,2,0,1
sogarer01,Eric Sogard,92,242,31,61,13,1,4,21,35,48,4,2,4,1,1
solarya01,Yangervis Solarte,125,458,53,114,22,1,17,62,34,71,3,2,4,1,3
solerjo01,Jorge Soler,94,300,39,75,18,1,12,36,37,90,3,1,4,0,3
sotoju01,Juan Soto,113,395,67,111,23,1,20,61,70,93,5,2,2,1,1
souzast01,Steven Souza,100,348,45,85,17,2,14,46,43,114,8,3,4,1,1
spande01,Denard Span,103,371,49,98,19,4,9,37,31,62,7,4,4,1,3
spangco01,Cory Spangenberg,122,377,48,94,15,3,10,40,31,122,8,2,4,3,1
springe01,George Springer,130,499,91,133,24,1,23,68,60,115,6,5,7,0,3
stallja01,Jacob Stallings,62,199,25,51,10,1,5,27,18,47,3,1,2,0,2
stantmi03,Giancarlo Stanton,146,542,92,143,29,1,38,97,66,173,3,1,6,0,5
stassma01,Max Stassi,106,291,39,72,16,1,11,37,31,91,2,1,5,0,2
stevean01,Andrew Stevenson,102,227,29,57,10,1,5,28,21,65,4,2,2,2,3
stewach01,Chris Stewart,64,194,22,47,8,1,3,19,17,35,2,1,3,1,1
stewach02,Christin Stewart,61,208,27,55,9,2,7,29,27,46,3,1,3,0,2
stewadj01,DJ Stewart,64,202,29,52,11,1,9,30,20,52,4,2,4,0,2
storytr01,Trevor Story,147,535,79,142,34,4,31,91,47,165,15,4,5,1,3
strawmy01,Myles Straw,61,187,28,48,9,1,8,24,19,38,5,1,2,0,1
suareeu01,Eugenio Suarez,140,496,74,132,22,2,26,79,61,133,5,3,8,0,4
sucreje01,Jesus Sucre,101,290,30,71,12,1,7,37,16,53,3,1,4,3,4
susacan01,Andrew Susac,64,197,24,48,10,1,6,22,13,64,3,1,2,0,1
suzukic01,Ichiro Suzuki,94,210,27,54,8,1,3,20,19,36,4,1,2,1,1
suzukku01,Kurt Suzuki,113,376,48,99,22,1,15,56,24,52,1,0,11,1,4
swansda01,Dansby Swanson,139,477,57,118,24,3,12,57,49,120,7,3,2,3,4
swihabl01,Blake Swihart,100,278,39,69,13,2,6,30,27,80,6,2,2,0,1
szczuma01,Matt Szczur,114,230,34,57,13,1,6,26,28,58,3,2,3,2,1
tapiara01,Raimel Tapia,88,217,33,55,12,2,5,27,15,53,5,2,2,1,1
tauchmi01,Mike Tauchman,79,194,26,49,9,2,5,21,23,63,4,2,2,1,1
taylobe04,Beau Taylor,58,180,24,46,10,1,6,23,19,45,3,1,2,0,1
tayloch03,Chris Taylor,147,500,78,131,31,6,17,64,50,154,11,4,6,0,3
taylomi02,Michael Taylor,133,402,54,99,23,3,12,43,31,132,19,6,2,1,2
telisto01,Tomas Telis,82,210,27,52,10,2,4,24,13,42,2,1,3,0,2
tellero01,Rowdy Tellez,69,225,31,58,15,1,10,33,14,63,3,1,2,0,2
thameer01,Eric Thames,109,338,55,84,17,3,21,47,46,121,6,1,4,0,1
thomptr01,Trayce Thompson,87,247,32,55,12,1,9,28,22,82,5,1,1,1,1
tilsoch01,Charlie Tilson,77,234,26,60,9,2,4,28,22,48,4,3,3,2,2
toccica01,Carlos Tocci,96,248,30,62,11,2,4,24,18,74,3,3,3,5,2
tolesan01,Andrew Toles,73,210,32,54,11,1,7,29,16,48,3,1,2,0,1
tomlike01,Kelby Tomlinson,112,267,33,67,10,2,3,23,25,63,6,2,2,2,2
torregl01,Gleyber Torres,118,408,53,107,17,1,21,66,40,113,6,2,5,1,4
torrera01,Ramon Torres,68,208,28,51,10,1,4,22,15,39,3,1,2,0,1
torrero01,Ronald Torreyes,96,270,32,70,13,2,3,29,12,44,3,1,2,2,2
trahabl01,Blake Trahan,62,192,26,48,9,1,6,23,15,48,3,1,2,0,1
travide01,Devon Travis,107,386,48,98,22,2,12,48,19,76,5,2,4,1,2
travisa01,Sam Travis,74,210,30,53,13,1,5,24,17,57,3,1,2,0,1
trevijo01,Jose Trevino,56,186,24,47,9,1,6,26,16,42,3,1,2,0,1
troutmi01,Mike Trout,129,443,92,134,25,4,31,74,102,110,21,4,8,0,4
trumbma01,Mark Trumbo,107,399,56,100,17,1,22,55,31,106,2,0,2,0,1
tuckeky01,Kyle Tucker,72,220,31,54,11,2,5,25,21,48,3,2,4,0,1
tuckepr01,Preston Tucker,67,187,22,45,10,1,6,20,16,45,2,1,3,0,1
turneju01,Justin Turner,112,397,61,115,27,1,17,59,46,62,4,1,11,0,4
turnetr01,Trea Turner,142,568,91,157,26,7,17,66,51,113,42,8,5,1,1
uptonju01,Justin Upton,125,453,67,115,20,1,25,69,51,144,8,2,6,0,3
urenari01,Richard Urena,80,246,29,63,12,1,5,25,20,77,4,2,2,2,1
uriaslu01,Luis Urias,61,213,28,53,10,1,8,27,17,48,4,1,3,0,2
urshegi01,Gio Urshela,79,223,28,54,10,1,5,25,14,45,2,1,2,1,1
utleych01,Chase Utley,101,282,39,69,16,2,7,30,27,59,4,1,6,1,1
valaipa01,Pat Valaika,123,266,33,63,14,1,11,36,17,70,2,1,1,4,1
valbulu01,Luis Valbuena,110,336,39,78,16,1,15,49,37,111,3,1,2,1,3
valenda01,Danny Valencia,101,347,45,91,15,2,12,43,31,82,2,1,2,0,4
valenje01,Jesmuel Valentin,83,223,28,55,13,2,6,26,22,62,3,1,3,0,2
valerbr01,Breyvic Valera,62,200,26,51,9,2,5,25,19,46,3,1,2,1,3
vargail01,Ildemaro Vargas,69,193,27,49,9,1,7,28,15,45,4,1,2,0,1
vazquch01,Christian Vazquez,107,343,42,84,17,1,6,32,20,65,5,2,4,1,1
velazan01,Andrew Velazquez,64,188,27,48,10,1,6,23,18,46,4,1,3,0,1
verdual01,Alex Verdugo,83,227,30,58,13,1,6,24,23,46,3,2,2,1,1
vielmen01,Engelb Vielma,58,186,25,47,9,1,6,23,19,51,3,1,2,0,1
villach01,Christian Villanueva,113,364,46,90,17,1,20,49,24,106,4,1,7,0,2
villajo01,Jonathan Villar,91,325,45,85,15,1,11,36,34,95,24,6,2,2,2
vilorme01,Meibrys Viloria,62,203,28,51,11,1,6,27,16,55,3,1,2,1,1
vinceza01,Zach Vincej,58,182,25,47,9,1,6,23,17,47,3,1,3,0,1
vogelda01,Dan Vogelbach,80,225,26,56,10,1,8,29,28,63,2,1,3,0,1
voitlu01,Luke Voit,90,258,42,69,13,1,17,44,25,72,2,1,4,0,1
vottojo01,Joey Votto,133,462,74,138,27,2,20,72,97,88,4,1,6,0,4
wadety01,Tyler Wade,85,226,30,53,13,1,5,24,18,69,4,1,2,0,1
waldimi01,Mitch Walding,62,189,25,47,9,1,7,24,19,66,3,1,2,0,1
walkech02,Christian Walker,83,207,28,51,11,1,10,27,17,71,3,1,4,0,1
walkene01,Neil Walker,108,356,50,90,14,1,14,46,45,85,2,1,4,0,3
wallach01,Chad Wallach,64,205,25,51,10,1,6,25,18,74,3,1,4,1,1
wardta01,Taylor Ward,75,253,31,60,11,1,10,31,19,78,4,1,4,0,1
wendljo01,Joey Wendle,125,426,55,117,24,4,8,55,33,85,11,3,6,1,7
whitety01,Tyler White,93,290,36,74,18,2,13,44,30,70,2,1,3,0,2
wietema01,Matt Wieters,101,337,38,82,15,1,11,45,34,69,2,1,3,1,3
wilkest01,Stevie Wilkerson,63,206,25,51,11,1,5,24,17,60,3,1,2,0,1
willima07,Mason Williams,85,247,30,64,11,1,6,24,17,60,4,2,2,2,1
willima08,Mac Williamson,79,232,31,57,10,1,10,28,24,67,3,2,2,0,1
willini01,Nick Williams,131,424,57,110,16,4,17,59,32,118,4,2,8,0,2
wilsobo02,Bobby Wilson,77,242,30,58,13,1,7,30,21,66,2,1,2,3,2
winkeje01,Jesse Winker,106,331,47,93,18,1,11,46,51,58,2,1,3,1,1
wisdopa01,Patrick Wisdom,73,203,31,53,9,1,10,29,22,62,4,2,4,0,1
wolteto01,Tony Wolters,103,293,37,71,13,3,5,36,38,62,3,1,4,2,2
wongko01,Kolten Wong,130,388,51,100,21,4,8,42,39,68,7,3,12,3,4
wynnsau01,Austin Wynns,77,238,33,60,9,1,9,28,15,56,3,1,2,3,1
yelicch01,Christian Yelich,139,525,89,153,31,4,24,85,64,123,14,3,5,0,4
youngch04,Chris Young,93,253,34,62,14,2,10,30,27,67,4,2,3,1,1
younger03,Eric Young,84,243,36,60,11,2,6,29,15,63,11,3,5,2,2
zagunma01,Mark Zagunis,57,183,24,47,10,1,6,24,19,43,3,1,2,0,1
zimmebr01,Bradley Zimmer,85,266,36,66,14,1,7,32,22,93,10,1,3,0,2
zimmery01,Ryan Zimmerman,105,371,54,97,22,1,18,61,33,81,2,1,3,0,4
zobribe01,Ben Zobrist,127,429,64,116,24,3,11,55,57,64,4,3,3,2,4
zuninmi01,Mike Zunino,125,405,48,95,22,0,23,58,34,159,2,1,8,0,2
