playerID,playerName,G,AB,R,H,2B,3B,HR,RBI,BB,SO,SB,CS,HBP,SH,SF
abreujo02,Jose Abreu,140,543,76,150,34,2,27,93,34,124,3,1,11,0,6
acunaro01,Ronald Acuna,143,553,103,153,25,3,34,85,64,162,25,7,8,0,2
adamecr01,Cristhian Adames,59,190,26,50,10,1,7,26,18,53,2,1,2,0,1
adamewi01,Willy Adames,141,485,67,126,21,1,18,54,45,142,6,4,3,2,2
adamsma01,Matt Adams,117,341,47,84,18,1,21,59,23,114,1,1,2,0,2
adriaeh01,Ehire Adrianza,112,313,47,82,17,2,8,39,28,66,5,2,4,2,4
aguilje01,Jesus Aguilar,93,271,41,73,14,1,16,51,30,76,1,0,3,0,4
ahmedni01,Nick Ahmed,150,512,69,129,30,5,18,72,44,107,7,3,4,1,7
alberha01,Hanser Alberto,127,454,56,125,19,2,12,49,17,51,4,4,4,2,3
albieoz01,Ozzie Albies,151,587,93,161,36,6,22,75,45,106,13,3,5,1,4
alfarjo01,Jorge Alfaro,132,438,49,115,18,2,17,56,24,156,4,2,12,0,2
alforan01,Anthony Alford,70,201,28,50,10,1,8,25,16,63,5,1,3,0,1
allenau01,Austin Allen,75,216,27,55,12,1,6,26,21,62,2,1,2,0,1
allengr01,Greg Allen,116,329,46,82,15,3,7,37,18,75,14,3,9,4,2
almonab01,Abraham Almonte,72,204,31,52,10,3,6,22,25,52,3,1,1,1,1
almoral01,Albert Almora,147,405,54,106,19,1,11,46,23,77,2,2,2,3,4
alonspe01,Pete Alonso,133,482,80,127,25,2,39,89,57,144,2,1,14,0,3
alonsyo01,Yonder Alonso,87,263,36,68,13,0,12,40,29,62,1,0,2,0,2
altheaa01,Aaron Altherr,78,217,31,54,12,2,9,33,24,71,3,2,4,0,2
altuvjo01,Jose Altuve,124,479,82,144,26,3,22,65,44,77,13,4,5,1,2
alvaryo01,Yordan Alvarez,97,340,58,98,24,1,26,70,52,98,2,1,3,0,2
anderbr06,Brian Anderson,130,472,65,125,30,2,15,60,47,114,4,2,12,0,3
anderti01,Tim Anderson,130,500,72,136,26,2,17,56,19,121,16,4,4,1,2
andruel01,Elvis Andrus,131,520,74,141,27,3,12,62,32,86,18,6,4,0,5
andujmi01,Miguel Andujar,75,274,37,73,18,1,11,41,13,52,2,1,2,0,2
aquinar01,Aristides Aquino,82,288,43,75,13,1,22,53,24,82,7,1,3,0,2
arciaor01,Orlando Arcia,148,476,52,118,19,1,13,54,36,106,9,5,2,2,4
arenano01,Nolan Arenado,142,530,90,157,31,3,34,102,58,93,3,2,4,1,6
arozara01,Randy Arozarena,67,193,29,51,10,1,9,27,19,44,4,2,3,0,1
arraelu01,Luis Arraez,101,353,56,103,20,1,7,38,38,39,3,2,2,0,3
arroych01,Christian Arroyo,65,216,28,54,11,1,8,29,20,62,2,1,2,1,1
arteahu01,Humberto Arteaga,76,247,31,61,12,1,5,25,19,58,3,2,3,2,1
astudwi01,Willians Astudillo,88,291,41,77,14,1,9,41,11,23,2,1,5,0,4
austity01,Tyler Austin,67,199,30,52,10,1,11,33,23,61,2,1,1,0,3
aveliab01,Abiatal Avelino,59,189,27,49,9,1,7,26,18,50,3,1,2,0,1
avilaal01,Alex Avila,95,266,32,65,13,1,12,36,50,104,2,1,2,0,1
baderha01,Harrison Bader,139,397,61,98,19,3,14,46,43,127,12,3,10,1,3
baezja01,Javier Baez,141,513,84,140,32,4,27,85,28,149,13,6,2,2,3
barneau01,Austin Barnes,115,296,44,74,16,1,9,37,39,78,5,2,6,0,1
barnhtu01,Tucker Barnhart,122,380,40,97,20,2,11,45,47,88,2,1,3,2,2
baronst01,Steven Baron,58,186,26,48,10,1,7,26,15,57,3,1,2,0,1
barrefr02,Franklin Barreto,78,229,32,54,11,1,10,32,11,84,3,1,2,0,1
bauerja01,Jake Bauers,121,399,55,96,23,2,14,53,53,122,5,4,4,1,4
beatyma01,Matt Beaty,109,310,45,80,20,1,12,51,23,48,5,1,3,0,1
beckhgo01,Gordon Beckham,104,294,39,71,16,2,9,28,20,85,5,1,4,1,1
beckhti01,Tim Beckham,101,371,50,93,21,1,16,48,27,113,2,2,4,0,1
bellico01,Cody Bellinger,149,524,95,146,29,4,37,92,77,120,12,3,3,0,3
belljo02,Josh Bell,141,493,77,132,30,4,25,84,68,108,2,3,3,0,5
beltbr01,Brandon Belt,136,472,68,118,28,3,17,57,70,118,4,2,4,0,3
bemboan01,Anthony Bemboom,67,207,26,50,9,1,7,26,13,66,2,1,2,1,1
beninan01,Andrew Benintendi,135,513,78,140,33,4,15,73,59,118,14,3,5,2,6
bertijo01,Jon Berti,89,308,54,82,17,2,9,36,28,85,13,3,6,0,2
bettsmo01,Mookie Betts,136,529,109,155,38,4,26,78,79,87,19,4,4,0,6
bichebo01,Bo Bichette,77,291,45,79,20,1,15,37,23,74,5,4,3,0,2
biggica01,Cavan Biggio,102,354,61,92,19,2,16,49,65,116,11,1,3,0,2
birdgr01,Greg Bird,67,221,27,53,12,1,10,31,26,66,1,0,3,0,2
bishobr01,Braden Bishop,71,212,27,52,10,1,6,27,16,67,2,1,2,1,1
blackch02,Charlie Blackmon,131,522,100,155,30,7,27,73,44,103,7,5,7,1,3
blandal01,Alex Blandino,82,206,28,55,10,1,6,23,28,61,2,1,5,1,2
bogaexa01,Xander Bogaerts,142,540,87,155,40,2,23,91,61,109,8,2,4,0,5
boltsk01,Skye Bolt,57,187,27,49,11,1,7,25,18,47,3,1,2,0,1
bonifjo01,Jorge Bonifacio,63,215,30,55,12,1,7,25,22,64,1,1,2,0,1
boteda01,David Bote,131,349,51,91,19,1,13,51,45,104,6,3,7,0,3
bourjpe01,Peter Bourjos,91,208,29,50,10,2,6,23,13,61,4,2,2,1,2
bourju01,Justin Bour,82,255,35,65,12,0,14,45,29,75,2,0,2,0,2
bradlbo01,Bobby Bradley,62,208,29,53,14,1,8,28,20,70,2,1,2,0,1
bradlja02,Jackie Bradley,139,472,67,115,27,3,18,61,50,139,10,3,10,1,3
brantmi02,Michael Brantley,136,518,78,152,32,2,18,76,46,64,8,2,5,0,5
braunry02,Ryan Braun,132,440,66,118,28,2,21,67,36,98,11,3,5,0,3
bregmal01,Alex Bregman,145,524,96,150,38,2,30,89,89,81,9,3,8,0,5
brinsle01,Lewis Brinson,105,342,32,75,13,3,7,36,20,108,3,1,6,1,2
britoso01,Socrates Brito,71,204,28,50,9,2,6,25,19,63,2,1,2,0,2
brossmi01,Mike Brosseau,83,253,36,66,13,1,11,34,17,72,3,1,3,1,1
brownse01,Seth Brown,67,218,32,58,14,2,6,33,21,61,3,1,3,0,1
broxtke01,Keon Broxton,82,210,32,50,9,2,9,26,21,81,9,3,3,0,1
bruceja01,Jay Bruce,85,279,34,68,15,1,14,42,25,63,2,1,1,0,2
bryankr01,Kris Bryant,132,482,87,135,32,2,24,66,67,126,4,3,14,0,3
buterdr01,Drew Butera,72,199,27,50,10,1,6,24,18,53,2,1,2,1,1
buxtoby01,Byron Buxton,101,330,50,83,21,3,11,44,24,91,15,2,3,2,1
cabreas01,Asdrubal Cabrera,73,253,37,69,17,1,9,40,28,46,2,1,2,0,3
cabreme01,Melky Cabrera,123,388,47,104,22,1,9,53,23,50,3,1,3,1,3
cabremi01,Miguel Cabrera,119,426,45,115,21,0,12,56,46,95,1,1,3,0,4
cainlo01,Lorenzo Cain,135,504,75,140,25,2,11,45,51,94,20,5,6,0,3
calhoko01,Kole Calhoun,138,495,75,119,23,2,23,64,59,136,5,1,5,0,4
calhowi01,Willie Calhoun,103,352,51,91,17,1,20,51,27,67,2,1,4,0,3
camarjo01,Johan Camargo,114,346,47,91,21,1,12,50,29,74,2,1,3,1,2
candeje01,Jeimer Candelario,112,402,53,97,22,2,12,44,49,115,3,1,7,0,3
canhama01,Mark Canha,132,418,69,110,22,2,22,57,53,107,3,2,13,0,2
canoro01,Robinson Cano,106,396,52,107,25,0,14,55,32,67,1,0,4,0,3
caratvi01,Victor Caratini,120,323,42,84,15,1,11,42,32,77,2,1,5,1,3
carpema01,Matt Carpenter,123,421,71,106,26,1,20,56,72,121,4,1,6,1,4
casalcu01,Curt Casali,105,292,37,77,15,1,11,42,32,78,2,1,3,1,3
casteni01,Nick Castellanos,91,352,52,99,24,3,17,54,24,83,2,2,3,0,2
castiwe01,Welington Castillo,92,313,36,79,14,0,16,46,21,93,2,0,3,0,2
castiwi01,Wilkin Castillo,53,180,26,47,10,1,7,26,16,48,3,1,2,0,1
castrha01,Harold Castro,106,370,41,98,13,3,8,44,13,91,5,2,2,2,4
castrja01,Jason Castro,92,296,43,74,16,0,12,38,39,100,1,0,4,1,2
castrst01,Starlin Castro,146,559,70,152,27,3,18,69,33,107,4,2,3,0,6
castrwi01,Willi Castro,71,240,32,61,13,2,7,29,18,74,2,2,4,1,2
caveja01,Jake Cave,101,310,50,81,17,2,13,44,27,105,2,1,6,1,2
centeju01,Juan Centeno,60,191,24,48,8,1,7,25,16,41,3,1,2,1,1
cervefr01,Francisco Cervelli,68,217,28,58,12,2,8,33,29,55,2,2,6,1,2
changyu01,Yu Chang,69,217,30,56,11,2,7,27,28,59,2,1,2,0,1
chapmma01,Matt Chapman,145,531,89,138,36,4,28,75,62,138,2,2,8,0,3
chavimi01,Michael Chavis,102,362,50,93,14,1,18,57,33,127,3,1,4,0,1
chiriro01,Robinson Chirinos,120,384,58,96,21,1,19,61,50,129,2,1,14,1,3
choiji01,Ji-Man Choi,120,393,53,105,22,2,19,61,58,101,3,2,6,0,6
choosh01,Shin-Soo Choo,134,495,79,132,25,1,20,60,71,138,10,2,10,1,2
ciuffni01,Nick Ciuffo,60,190,26,49,10,1,7,26,16,53,2,1,3,2,2
colliza01,Zack Collins,67,222,31,57,11,2,9,31,30,81,2,1,3,0,1
colonch01,Christian Colon,61,181,26,47,9,1,6,24,17,39,2,1,4,1,1
confomi01,Michael Conforto,143,507,81,133,26,1,30,82,76,140,5,2,8,0,4
contrwi01,Willson Contreras,120,406,55,108,22,2,20,63,44,109,4,2,8,1,2
coopega03,Garrett Cooper,109,373,50,100,18,2,14,49,33,107,2,1,5,0,2
cordefr02,Franchy Cordero,63,204,30,53,10,2,8,27,22,74,4,2,1,1,1
cordery01,Ryan Cordell,112,294,36,72,14,1,10,37,24,90,4,1,4,4,3
correca01,Carlos Correa,98,361,58,99,20,1,20,65,45,93,3,1,3,0,6
courtry01,Ryan Court,60,191,26,49,10,1,8,28,16,60,2,1,2,0,1
cowarka01,Kaleb Cowart,73,204,26,49,13,1,6,24,18,61,4,1,3,1,1
cozarza01,Zack Cozart,71,242,34,61,13,2,9,29,24,45,2,0,4,0,3
crawfbr01,Brandon Crawford,137,477,58,119,26,2,13,59,46,110,4,3,4,0,5
crawfjp01,J. P. Crawford,110,366,49,90,22,4,9,47,46,92,5,2,5,3,3
croncj01,C. J. Cron,129,458,58,116,24,1,25,72,32,117,2,1,11,0,3
cronke01,Kevin Cron,78,220,34,56,12,1,13,36,16,73,2,2,4,0,2
cruzne02,Nelson Cruz,121,438,69,123,21,1,33,89,51,116,1,1,9,0,3
culbech01,Charlie Culberson,127,278,39,72,14,2,11,41,19,83,3,2,3,1,2
cuthbch01,Cheslor Cuthbert,105,349,36,86,16,1,10,44,25,80,2,1,3,0,1
dahlda01,David Dahl,114,401,63,111,24,4,19,66,31,114,6,4,4,1,4
darnatr01,Travis d'Arnaud,102,345,48,89,18,1,16,61,29,79,1,1,3,0,4
davisch02,Chris Davis,110,372,41,80,13,1,16,45,42,155,2,1,4,0,3
davisja03,Jaylin Davis,64,205,27,52,9,1,8,27,18,51,3,2,4,0,1
davisjd01,J. D. Davis,135,400,58,109,20,1,19,51,37,98,4,1,3,0,2
davisjo05,Jonathan Davis,83,227,30,56,10,1,7,26,16,61,6,2,6,1,2
davisjo06,Johnny Davis,59,181,30,47,9,2,8,25,17,47,3,1,2,0,1
daviskh01,Khris Davis,127,466,70,114,20,1,30,83,49,144,2,0,6,0,4
davisra01,Rajai Davis,91,208,33,52,10,1,5,22,13,51,11,4,3,2,1
davista01,Taylor Davis,61,188,26,49,9,1,8,28,17,45,2,1,2,0,2
dazayo01,Yonathan Daza,80,234,29,59,10,2,5,25,19,53,3,1,2,0,2
deanau01,Austin Dean,92,288,37,70,17,1,11,37,18,72,2,2,3,1,2
dejonpa01,Paul DeJong,142,525,81,132,30,1,27,76,48,139,5,3,10,0,5
delmoni01,Nick Delmonico,73,238,31,59,10,2,9,28,24,70,2,2,4,0,1
demertr01,Travis Demeritte,78,269,39,68,13,2,7,28,23,93,4,1,3,1,2
descada01,Daniel Descalso,110,285,40,69,15,3,8,40,43,86,2,1,2,0,3
deshide02,Delino DeShields,123,387,58,98,17,3,6,34,44,105,22,5,4,9,2
desmoia01,Ian Desmond,133,448,65,114,23,4,18,65,38,119,11,4,4,1,3
deverra01,Rafael Devers,147,568,96,157,38,2,27,91,45,119,7,5,3,1,2
diazal02,Aledmys Diaz,101,333,46,87,19,1,13,45,26,50,4,2,4,0,4
diazel01,Elias Diaz,115,358,43,91,19,0,7,42,28,67,2,1,2,1,3
diazis01,Isan Diaz,78,275,34,66,13,2,9,37,29,85,2,3,3,0,2
diazya01,Yandy Diaz,99,342,54,92,19,2,12,43,39,70,3,2,2,0,3
dickeal01,Alex Dickerson,83,257,41,69,17,3,10,39,23,59,3,1,3,0,2
dickeco01,Corey Dickerson,80,301,40,83,18,3,12,40,15,67,3,1,2,0,2
dietrde01,Derek Dietrich,121,355,53,88,17,3,16,45,30,96,2,1,18,0,2
difowi01,Wilmer Difo,99,288,39,73,10,3,6,28,26,63,6,2,2,2,2
dinini01,Nick Dini,65,210,33,54,12,1,9,28,18,59,2,1,4,1,2
dixonbr01,Brandon Dixon,135,395,47,97,21,3,16,51,23,134,5,1,4,0,3
donaljo02,Josh Donaldson,125,441,73,118,25,0,30,74,78,120,3,2,5,0,2
doziebr01,Brian Dozier,115,392,57,100,20,1,19,53,54,95,7,3,4,0,2
doziehu01,Hunter Dozier,133,480,63,126,26,7,21,66,45,136,3,3,3,0,3
drurybr01,Brandon Drury,117,397,44,97,25,1,14,48,26,104,2,1,3,0,2
dubonma01,Mauricio Dubon,68,240,33,62,12,1,10,30,16,50,5,2,2,0,1
dudalu01,Lucas Duda,77,226,27,54,12,1,12,33,26,69,2,1,3,0,2
duffyma01,Matt Duffy,85,303,36,83,14,1,4,31,32,59,5,3,4,0,2
duggast01,Steven Duggar,95,332,42,83,18,2,7,41,23,98,5,3,2,0,3
duvalad01,Adam Duvall,75,245,34,61,13,1,13,37,17,73,2,1,4,0,3
dysonja01,Jarrod Dyson,123,388,60,95,14,3,7,33,43,78,25,5,4,2,2
eatonad02,Adam Eaton,135,485,86,135,24,4,13,51,56,94,12,2,11,5,2
edmanto01,Tommy Edman,102,356,60,97,18,5,13,44,20,70,12,1,6,0,1
elmorja01,Jake Elmore,64,203,27,52,10,1,6,27,15,43,2,2,2,0,1
encared01,Edwin Encarnacion,83,300,48,77,13,1,19,58,41,78,2,0,4,0,3
engelad01,Adam Engel,114,339,41,80,15,3,8,32,19,111,8,4,7,4,1
ervinph01,Phil Ervin,115,321,43,84,15,4,11,41,27,85,7,3,5,0,3
escobed01,Eduardo Escobar,137,516,75,136,24,6,26,84,41,106,5,1,4,0,7
estrath01,Thairo Estrada,78,221,35,57,11,1,10,34,16,53,6,1,3,1,1
farmeky01,Kyle Farmer,123,280,33,70,13,1,11,40,18,83,4,1,5,0,2
federti01,Tim Federowicz,74,216,29,54,11,1,11,29,18,75,3,1,2,2,1
fishede01,Derek Fisher,86,234,35,56,10,2,11,31,27,93,4,1,2,0,2
flahery01,Ryan Flaherty,81,202,27,50,10,1,5,23,19,53,3,1,2,1,1
fletcda02,David Fletcher,140,517,71,142,27,3,7,50,44,61,7,2,3,2,2
florewi01,Wilmer Flores,114,353,44,97,21,1,13,50,23,48,1,1,4,0,5
flowety01,Tyler Flowers,102,328,45,84,15,2,13,44,38,109,1,1,10,0,2
fordmi01,Mike Ford,79,250,43,66,13,1,17,39,28,52,2,1,4,0,1
forsylo01,Logan Forsythe,106,342,45,85,18,1,7,39,50,100,3,1,4,0,3
fowlede01,Dexter Fowler,132,439,64,108,22,3,17,60,63,120,7,4,6,1,4
fraleja01,Jake Fraley,62,209,28,52,11,1,7,26,12,62,3,1,3,0,1
francma02,Maikel Franco,126,424,52,105,20,1,19,61,34,69,1,0,1,0,3
francty01,Ty France,93,280,36,70,14,1,11,38,17,74,2,2,7,0,2
fraziad01,Adam Frazier,146,488,72,132,28,5,11,54,39,72,6,4,7,2,2
frazicl01,Clint Frazier,93,303,44,78,18,2,13,44,23,93,3,2,3,0,3
frazito01,Todd Frazier,127,429,61,106,19,1,20,64,46,108,4,2,11,0,4
freemfr01,Freddie Freeman,142,531,91,155,34,2,29,92,72,114,7,3,6,0,3
freemmi01,Mike Freeman,94,261,39,70,13,1,8,35,30,82,3,2,4,4,4
freesda01,David Freese,89,250,38,70,13,1,11,37,33,68,1,1,5,0,1
freitda01,David Freitas,69,194,25,49,11,1,6,22,20,52,2,1,2,1,1
fuentjo01,Josh Fuentes,69,214,32,54,10,1,10,30,13,67,3,1,2,0,1
galero01,Rocky Gale,56,188,27,47,9,1,8,25,14,55,2,1,2,0,1
gallaca01,Cam Gallagher,83,251,31,64,14,1,8,32,21,57,2,1,4,1,2
gallois01,Isaac Galloway,78,213,29,52,10,1,7,25,16,63,4,1,2,1,1
gallojo01,Joey Gallo,105,348,63,84,18,2,28,62,59,146,4,2,4,0,1
galvifr01,Freddy Galvis,81,295,34,74,15,2,8,34,22,70,5,3,2,1,2
gamelbe01,Ben Gamel,126,365,52,96,20,3,8,40,39,104,5,2,3,0,2
garciar01,Aramis Garcia,66,212,30,54,9,1,10,29,17,82,2,1,2,0,1
garciav01,Avisail Garcia,123,464,63,128,22,3,20,68,30,117,7,3,7,0,3
garcigr01,Greg Garcia,155,343,47,88,15,3,6,36,51,87,3,2,6,2,2
garcile02,Leury Garcia,136,500,71,133,22,4,10,49,20,122,14,4,7,7,3
garciro02,Robel Garcia,71,217,30,56,11,2,12,31,21,83,2,1,2,0,2
gardnbr01,Brett Gardner,126,461,78,117,22,5,19,55,52,99,12,2,5,2,3
garliky01,Kyle Garlick,72,204,31,53,12,1,10,28,21,64,2,1,2,0,1
garnedu01,Dustin Garneau,58,182,26,48,10,1,8,28,22,44,2,1,2,0,1
garvemi01,Mitch Garver,115,364,62,97,20,3,23,62,42,96,1,1,4,1,2
gennesc01,Scooter Gennett,78,273,43,76,14,1,12,45,18,66,2,1,2,1,2
gerbemi01,Mike Gerber,65,197,24,48,11,1,6,23,19,76,2,1,2,0,2
goinsry01,Ryan Goins,88,263,28,66,14,1,6,31,23,69,2,1,1,2,2
goldspa01,Paul Goldschmidt,142,521,88,144,27,3,30,85,74,145,7,3,5,0,2
gomesya01,Yan Gomes,111,374,48,93,21,0,15,52,34,103,2,0,7,0,2
gomezca01,Carlos Gomez,79,251,33,61,13,1,9,30,20,78,8,2,11,2,2
gonzaca01,Carlos Gonzalez,71,241,37,64,16,1,8,32,25,65,2,1,1,0,2
gonzaer01,Erik Gonzalez,110,270,36,69,14,1,6,28,16,72,5,2,3,2,2
gonzama01,Marwin Gonzalez,125,435,58,116,24,1,17,65,40,103,4,2,5,2,2
goodrni01,Niko Goodrum,125,438,60,110,27,4,14,51,45,137,11,3,3,0,2
goodwbr01,Brian Goodwin,123,395,60,103,26,2,17,49,36,120,7,2,3,1,3
gordoal01,Alex Gordon,141,497,63,125,25,1,12,60,47,104,7,3,13,1,4
gordode01,Dee Gordon,117,436,56,119,14,6,4,34,16,68,26,8,5,4,4
gorete01,Terrance Gore,84,204,37,54,10,2,6,24,21,60,16,5,3,0,1
gosseph01,Philip Gosselin,92,214,29,54,11,1,6,28,17,55,2,1,2,0,1
gourryu01,Yuli Gurriel,134,511,72,145,34,1,21,83,29,63,5,2,6,0,6
grandcu01,Curtis Granderson,122,325,49,75,17,2,14,38,45,96,2,2,4,0,2
grandya01,Yasmani Grandal,143,474,68,121,26,2,25,69,81,128,3,1,4,0,4
grateju01,Juan Graterol,67,193,25,48,9,1,5,25,11,41,2,1,2,0,2
greenza01,Zach Green,58,188,27,49,10,1,7,26,20,53,3,1,2,0,1
gregodi01,Didi Gregorius,104,392,60,103,19,2,19,66,27,61,5,2,3,0,5
greingr01,Grayson Greiner,85,293,33,71,13,1,8,35,26,95,2,1,2,1,3
grichra01,Randal Grichuk,145,519,70,126,31,3,28,73,33,148,4,2,6,0,3
grishtr01,Trent Grisham,80,261,39,68,13,2,11,38,31,75,3,1,5,0,3
grossro01,Robbie Grossman,133,417,59,108,24,2,8,47,61,87,5,2,3,1,3
grullde01,Deivy Grullon,57,190,27,49,11,1,8,27,16,46,3,1,2,0,1
guerrvl02,Vladimir Guerrero,118,431,53,115,24,2,15,63,43,87,2,1,3,0,2
guilllu01,Luis Guillorme,91,219,29,57,12,1,6,25,23,43,3,1,2,2,1
gurrilo01,Lourdes Gurriel,102,371,55,99,18,2,20,55,22,98,5,3,5,1,3
gutieke01,Kelvin Gutierrez,64,221,27,57,10,2,7,32,18,65,3,1,2,0,2
guzmaro01,Ronald Guzman,112,352,46,87,21,1,14,51,37,112,2,1,5,0,3
gyorkje01,Jedd Gyorko,76,227,30,60,12,1,9,32,26,54,2,1,2,0,3
haaseer01,Eric Haase,63,192,26,48,9,1,8,27,15,60,2,1,3,0,1
hamilbi02,Billy Hamilton,74,252,38,63,9,4,3,20,23,64,17,4,1,1,1
hampsga01,Garrett Hampson,116,339,46,87,14,4,10,38,30,98,12,3,2,1,2
hanigmi01,Mitch Haniger,96,359,57,96,22,2,17,51,40,100,5,2,7,0,3
hansoal01,Alen Hanson,85,238,33,59,12,2,7,29,13,65,6,2,2,1,3
happia01,Ian Happ,98,286,45,74,15,2,16,44,39,99,5,2,2,1,2
harpebr03,Bryce Harper,143,510,93,139,32,1,31,95,94,151,11,3,5,0,5
harrijo05,Josh Harrison,77,281,35,70,14,1,7,29,16,56,5,2,7,1,3
haselad01,Adam Haseley,90,302,43,78,17,1,9,39,21,81,5,1,5,1,1
haysau01,Austin Hays,66,220,32,58,13,1,10,33,20,49,4,1,2,0,1
healyry01,Ryon Healy,88,324,39,82,16,0,15,47,19,77,1,0,2,0,2
hechaad01,Adeiny Hechavarria,69,218,31,57,11,2,9,29,15,51,3,1,2,0,2
hedgeau01,Austin Hedges,115,373,39,84,16,1,16,48,29,120,3,1,4,1,2
heinesc01,Scott Heineman,66,216,30,56,13,1,8,28,24,55,3,2,3,0,1
heinety01,Tyler Heineman,56,186,27,48,10,1,9,27,15,49,3,1,2,1,1
heredgu01,Guillermo Heredia,114,310,39,77,16,1,7,28,28,71,3,3,6,3,2
hermomi01,Michael Hermosillo,74,207,31,52,12,2,6,24,20,70,4,1,6,0,2
hernace02,Cesar Hernandez,143,537,77,145,23,3,13,56,58,105,12,4,5,0,3
hernaen02,Enrique Hernandez,147,422,64,105,22,2,18,59,45,98,4,0,4,2,4
hernago01,Gorkys Hernandez,85,244,32,60,12,2,6,24,20,63,6,2,2,2,2
hernama02,Marco Hernandez,90,263,36,66,13,1,6,28,10,73,3,2,4,1,1
hernate01,Teoscar Hernandez,128,439,63,108,24,4,25,63,43,155,5,4,3,0,2
herreod01,Odubel Herrera,84,303,37,78,17,2,9,38,22,72,4,2,3,0,1
herrero02,Rosell Herrera,92,262,30,65,15,2,5,28,23,60,5,3,3,1,2
herrmch01,Chris Herrmann,84,223,30,54,11,1,8,27,26,68,3,1,1,1,1
heywaja01,Jason Heyward,138,478,71,125,21,4,16,62,55,91,5,3,4,1,3
hicksaa01,Aaron Hicks,92,324,57,84,16,1,17,52,52,87,6,3,2,1,4
hicksjo02,John Hicks,110,369,44,90,18,1,14,44,22,118,2,1,2,1,2
higasky01,Kyle Higashioka,69,218,30,53,12,1,10,31,13,73,2,1,2,0,2
hillisa01,Sam Hilliard,68,220,34,58,12,2,14,33,24,60,4,1,3,0,1
hiurake01,Keston Hiura,97,348,54,96,22,2,19,52,29,114,8,3,7,0,2
hoernni01,Nico Hoerner,65,230,35,60,9,2,9,37,15,43,2,1,2,0,2
holadbr01,Bryan Holaday,87,251,27,64,12,1,7,30,21,48,2,1,3,1,2
holtbr01,Brock Holt,113,334,47,90,18,2,6,42,37,76,4,3,6,0,3
hoskirh01,Rhys Hoskins,146,517,82,129,32,2,30,86,94,148,4,2,9,0,5
hosmeer01,Eric Hosmer,144,546,71,147,27,2,20,78,47,132,4,3,2,0,3
hundlni01,Nick Hundley,82,242,28,60,14,1,8,29,15,68,2,1,2,1,1
iannech01,Chris Iannetta,90,266,36,67,16,1,12,37,37,85,1,0,5,0,2
iglesjo01,Jose Iglesias,138,480,58,128,27,2,9,57,22,67,9,5,5,2,2
inciaen01,Ender Inciarte,92,342,49,93,16,3,7,36,31,57,12,5,3,1,2
jankotr01,Travis Jankowski,79,224,31,57,9,1,4,18,24,52,11,3,2,1,1
janseda01,Danny Jansen,115,368,48,89,17,1,14,47,34,84,2,1,6,1,2
jayjo02,Jon Jay,89,285,41,75,13,2,3,26,19,57,3,1,8,3,2
jimenel02,Eloy Jimenez,116,430,63,112,18,2,27,69,29,122,2,1,4,0,2
joeco01,Connor Joe,58,188,27,48,10,1,7,25,17,50,3,1,2,0,1
jonesad01,Adam Jones,127,480,60,128,25,1,17,60,26,94,4,1,6,0,3
jonesja07,JaCoby Jones,115,377,49,88,21,4,12,37,28,122,10,3,8,1,2
josepca01,Caleb Joseph,75,230,29,56,12,1,6,24,11,61,2,1,2,1,1
josepco01,Corban Joseph,65,187,26,48,10,1,7,26,15,42,2,1,2,0,1
joycema01,Matthew Joyce,114,286,46,75,17,0,12,35,46,67,2,1,2,0,2
judgeaa01,Aaron Judge,110,396,78,110,20,1,29,66,73,144,5,3,4,0,3
kangju01,Jung Ho Kang,89,266,32,63,13,1,14,37,19,87,2,1,3,0,2
kellyca02,Carson Kelly,119,341,46,86,19,1,16,48,46,82,2,1,3,2,1
kempma01,Matt Kemp,75,255,32,68,13,0,11,40,18,64,1,1,1,0,2
kempto01,Tony Kemp,91,244,34,62,13,1,6,32,25,49,5,2,4,1,2
kendrho01,Howie Kendrick,115,357,56,104,22,1,16,54,26,61,4,2,4,0,4
keplema01,Max Kepler,139,499,79,124,30,2,26,71,57,97,4,4,6,0,3
kieboca01,Carter Kieboom,60,205,29,52,10,1,9,26,21,65,3,1,2,0,1
kiermke01,Kevin Kiermaier,121,435,60,106,19,7,14,50,30,108,15,5,6,2,2
kineris01,Isiah Kiner-Falefa,100,325,41,83,18,2,5,36,25,71,5,2,5,2,2
kingesc01,Scott Kingery,138,467,63,116,29,3,16,51,32,142,12,3,5,1,3
kinslia01,Ian Kinsler,91,314,44,76,15,1,11,33,27,61,7,4,3,0,1
kipnija01,Jason Kipnis,125,455,57,112,26,1,17,62,44,92,7,2,4,3,5
knappan01,Andrew Knapp,103,260,32,65,14,2,6,25,35,90,2,0,3,2,2
kniznan01,Andrew Knizner,64,212,31,54,11,1,9,30,19,54,4,1,3,0,1
krameke01,Kevin Kramer,73,205,29,52,10,1,6,28,21,70,2,2,2,0,3
kratzer01,Erik Kratz,65,207,24,51,9,1,7,26,10,51,2,1,4,1,2
lagarju01,Juan Lagares,130,315,47,79,16,2,7,33,24,83,6,2,3,2,2
lamarry01,Ryan LaMarre,70,197,28,52,11,1,9,28,16,50,3,2,2,0,2
lambja01,Jake Lamb,88,286,44,71,15,2,12,48,43,81,3,2,4,0,3
lasteto01,Tommy La Stella,135,339,52,92,14,0,14,49,30,43,1,1,4,0,1
laurera01,Ramon Laureano,122,421,72,115,27,1,21,61,30,120,12,2,8,1,6
lavarry01,Ryan Lavarnway,59,188,28,49,11,1,9,30,16,47,2,1,3,0,1
lemahdj01,DJ LeMahieu,133,529,89,155,28,2,17,72,42,82,5,3,3,2,5
leonsa01,Sandy Leon,96,293,34,67,13,0,8,35,22,80,1,0,3,3,2
lewisky01,Kyle Lewis,63,224,33,58,13,1,13,34,15,77,2,1,2,0,2
leybado01,Domingo Leyba,68,193,30,52,11,2,7,29,22,53,3,1,2,0,2
lindofr01,Francisco Lindor,136,549,94,150,35,2,29,73,49,90,17,5,5,2,4
lintz01,Tzu-Wei Lin,74,196,31,51,11,2,5,23,23,52,3,2,2,1,1
locasti01,Tim Locastro,111,288,49,75,16,2,5,31,21,62,15,1,17,1,2
longoev01,Evan Longoria,122,450,55,115,23,2,17,62,35,101,4,1,5,0,6
longsh01,Shed Long,75,260,37,68,17,1,10,32,27,67,4,3,2,0,1
lopesti01,Tim Lopes,75,235,31,63,13,1,6,31,29,59,7,3,3,0,2
lopezni01,Nicky Lopez,107,384,49,95,22,2,5,39,21,57,3,1,2,3,1
lowebr01,Brandon Lowe,101,345,49,90,19,3,18,57,32,122,5,1,5,0,2
lowena01,Nate Lowe,81,262,40,68,14,1,12,35,23,80,2,1,3,0,3
lucrojo01,Jonathan Lucroy,77,242,27,62,12,1,5,30,23,43,1,0,3,0,3
lugoda01,Dawel Lugo,97,338,41,83,15,4,9,38,16,75,2,1,3,0,3
luplojo01,Jordan Luplow,104,301,48,78,16,3,16,43,38,77,4,3,4,0,2
luxga01,Gavin Lux,67,225,34,58,12,2,8,31,22,65,4,1,2,0,1
machama01,Manny Machado,132,505,69,132,23,2,26,75,50,106,7,3,4,0,4
mailelu01,Luke Maile,86,260,29,61,13,1,6,30,22,75,3,1,2,1,2
maldoma01,Martin Maldonado,74,232,32,56,11,1,10,26,16,63,1,1,6,2,1
mancitr01,Trey Mancini,146,547,79,149,28,3,27,75,48,134,2,1,7,0,4
margoma01,Manuel Margot,137,438,55,110,21,5,12,45,36,93,14,6,3,2,3
marisja01,Jake Marisnick,140,348,58,85,17,2,15,46,24,118,10,3,7,2,1
markani01,Nick Markakis,119,436,59,122,27,2,10,62,50,67,2,1,3,0,5
marteke01,Ketel Marte,146,520,78,148,29,8,23,70,52,82,8,2,4,0,2
martest01,Starling Marte,130,505,81,139,26,4,19,69,29,94,24,8,11,1,3
martija03,Jason Martin,67,201,29,53,11,1,7,26,21,52,4,1,2,0,1
martijd02,J. D. Martinez,136,515,92,154,30,2,37,104,62,129,4,1,4,0,5
martijo08,Jose Martinez,131,396,54,111,19,1,14,58,40,90,3,1,2,1,2
martile01,Leonys Martin,89,296,42,72,13,1,12,33,27,92,5,4,4,2,1
martini02,Nick Martini,73,229,33,62,13,2,4,28,30,56,2,1,4,0,2
martiri01,Richie Martin,122,331,40,79,13,3,9,36,19,95,9,1,6,4,2
martiru01,Russell Martin,96,296,42,71,11,0,11,32,47,82,2,2,7,0,1
mathije01,Jeff Mathis,105,307,30,68,16,1,5,28,25,108,2,0,2,1,2
maybica01,Cameron Maybin,98,304,50,80,17,1,13,42,33,86,9,5,1,1,1
mayfija01,Jack Mayfield,69,216,31,53,13,1,8,28,12,55,2,1,2,0,1
mazarno01,Nomar Mazara,123,455,62,118,25,1,19,73,36,111,3,1,5,0,4
mcbrory01,Ryan McBroom,65,218,30,58,12,1,6,27,21,65,2,1,3,0,1
mccanbr01,Brian McCann,98,327,40,82,12,1,15,50,35,63,1,1,5,0,5
mccanja02,James McCann,125,443,52,112,22,1,15,55,31,129,3,2,6,1,2
mccutan01,Andrew McCutchen,80,286,50,78,15,1,14,41,46,66,4,3,3,0,1
mcguire01,Reese McGuire,74,239,35,63,14,1,12,32,19,51,3,1,2,0,1
mckinbi01,Billy McKinney,102,323,46,80,19,1,15,40,27,92,2,2,3,1,3
mcmahry01,Ryan McMahon,149,443,61,112,22,2,20,67,50,145,5,1,3,1,2
mcneije01,Jeff McNeil,126,462,73,135,28,3,18,62,32,69,7,4,14,2,1
meadoau01,Austin Meadows,125,457,70,126,24,5,27,73,46,113,10,5,6,0,1
mejiaer01,Erick Mejia,58,190,28,51,10,1,7,28,23,49,2,1,2,0,2
mejiafr01,Francisco Mejia,103,309,40,79,15,2,12,37,20,79,3,1,5,0,2
mejiase01,Seth Mejias-Brean,61,194,27,51,11,1,9,28,19,51,2,1,2,0,1
mendida01,Danny Mendick,64,205,30,53,9,1,9,28,14,54,3,1,2,0,1
mercaos01,Oscar Mercado,111,408,64,107,22,3,15,53,28,81,11,3,5,5,3
mercejo03,Jordy Mercer,100,341,38,88,20,2,10,37,27,73,1,1,4,0,2
merriwh01,Whit Merrifield,145,581,84,167,34,6,15,66,43,106,26,8,5,1,5
millebr02,Brad Miller,86,237,33,59,10,2,12,33,30,73,3,1,2,0,2
milleia01,Ian Miller,62,191,28,49,10,1,7,26,15,44,3,1,2,0,1
molinya01,Yadier Molina,117,426,51,112,22,1,14,64,26,64,6,2,6,0,5
moncayo01,Yoan Moncada,133,501,73,135,29,5,21,66,49,163,9,4,4,1,2
mondera02,Adalberto Mondesi,117,430,63,111,20,6,14,60,21,133,36,7,2,4,4
mooredy01,Dylan Moore,116,303,41,75,18,2,12,38,30,106,9,7,8,1,1
moralke01,Kendrys Morales,72,246,30,62,11,0,11,35,27,53,1,1,2,0,2
moranco01,Colin Moran,149,457,53,123,25,2,14,71,35,109,1,2,4,0,5
morelmi01,Mitch Moreland,108,359,53,91,21,2,17,60,41,88,2,1,2,0,3
morofma01,Max Moroff,75,201,28,49,9,1,8,30,21,71,2,1,3,1,1
morrilo01,Logan Morrison,70,220,31,53,10,0,13,31,28,59,1,0,3,0,1
moustmi01,Mike Moustakas,127,459,65,120,25,1,29,73,42,87,3,1,5,0,3
mullice01,Cedric Mullins,68,232,32,56,11,2,6,24,21,52,3,2,4,2,1
muncyma01,Max Muncy,139,450,85,119,21,2,33,85,82,137,4,1,6,0,3
munozya01,Yairo Munoz,116,303,40,80,15,1,8,38,23,70,7,4,3,0,2
murphda08,Daniel Murphy,116,406,61,114,28,1,15,66,32,69,3,1,3,0,3
murphjr01,J. R. Murphy,84,235,29,56,12,1,11,30,17,82,2,1,2,2,1
murphse01,Sean Murphy,64,208,35,55,13,1,11,30,22,56,2,1,3,0,1
murphto04,Tom Murphy,101,323,39,82,17,2,18,46,23,109,3,1,2,0,1
myerswi01,Wil Myers,129,424,58,106,25,2,19,54,48,147,14,4,3,0,3
naquity01,Tyler Naquin,111,340,45,90,19,1,11,44,18,83,4,2,3,1,3
narvaom01,Omar Narvaez,134,419,54,114,17,1,17,48,50,91,1,1,4,2,2
naylojo01,Josh Naylor,106,317,41,82,18,1,11,42,31,80,3,1,2,0,2
negrokr01,Kristopher Negron,78,208,32,53,9,1,8,27,16,59,3,1,2,1,1
neusesh01,Sheldon Neuse,69,212,27,55,11,1,6,29,18,62,2,1,2,0,2
newmake01,Kevin Newman,124,445,56,123,18,4,11,57,27,65,11,6,6,1,2
nidoto01,Tomas Nido,90,265,30,63,13,1,8,33,16,73,2,1,2,1,2
nimmobr01,Brandon Nimmo,103,313,52,83,19,3,12,40,59,101,5,2,10,1,2
nolaau01,Austin Nola,93,296,45,78,15,1,13,40,29,77,3,1,4,1,2
nollja01,Jake Noll,59,188,27,49,10,1,7,27,18,49,3,1,2,0,1
nottija01,Jacob Nottingham,62,187,27,49,10,1,8,27,20,50,2,1,3,0,1
nunezdo01,Dom Nunez,64,204,29,52,12,1,9,28,18,66,2,1,2,0,2
nunezed02,Eduardo Nunez,91,316,38,81,16,1,8,37,12,52,6,2,2,1,2
nunezre01,Renato Nunez,139,480,65,122,24,1,25,72,40,126,2,1,8,0,3
obriepe04,Peter O'Brien,63,205,27,53,11,1,9,28,20,69,3,1,2,0,2
odorro01,Rougned Odor,138,499,73,116,25,2,25,74,43,153,11,8,7,1,3
ogradbr01,Brian O'Grady,71,201,28,52,11,2,9,26,19,63,2,1,4,0,1
ohearry01,Ryan O'Hearn,110,359,45,87,19,2,18,50,43,106,2,1,2,0,2
ohtansh01,Shohei Ohtani,124,411,62,113,23,4,21,67,39,119,11,3,3,0,3
olsonma02,Matt Olson,135,484,73,126,25,0,33,82,54,137,2,1,9,0,2
oneilty01,Tyler O'Neill,102,272,43,70,13,1,13,38,20,99,3,1,3,0,2
ortegra01,Rafael Ortega,76,239,27,59,10,1,6,27,21,55,6,2,2,0,1
osunajo01,Jose Osuna,125,329,49,83,22,2,12,44,20,64,1,1,3,0,3
owingch01,Chris Owings,77,234,29,58,14,1,7,28,18,67,7,2,2,1,2
ozunama01,Marcell Ozuna,128,482,70,131,20,2,26,83,49,108,6,2,2,0,2
palkada01,Daniel Palka,81,267,34,64,10,2,14,37,22,96,2,1,2,0,1
panikjo01,Joe Panik,77,262,33,70,12,2,5,27,21,30,3,1,3,1,3
parrage01,Gerardo Parra,109,313,45,85,16,1,9,51,21,63,6,3,4,1,3
pearcst01,Steve Pearce,71,229,30,58,12,1,9,31,24,59,1,0,4,0,2
pederjo01,Joc Pederson,152,443,75,111,24,3,29,66,49,106,3,3,9,0,3
pedrodu01,Dustin Pedroia,50,183,23,49,9,0,4,26,20,27,2,1,1,1,1
pencehu01,Hunter Pence,105,342,46,90,16,2,14,52,27,80,5,2,2,0,3
peralda01,David Peralta,113,423,59,118,24,3,16,60,37,92,3,1,5,0,2
perazjo01,Jose Peraza,133,445,53,116,19,3,9,42,21,66,14,5,7,3,3
perezhe01,Hernan Perez,119,334,41,83,15,2,11,36,18,81,9,2,1,1,2
perezmi03,Michael Perez,68,210,29,55,14,1,6,27,22,64,2,1,2,1,2
perezro02,Roberto Perez,121,384,45,92,16,1,18,58,44,125,2,1,3,7,3
peterdu01,Dustin Peterson,64,207,28,53,12,1,6,29,16,58,3,1,3,0,1
peterja01,Jace Peterson,91,244,30,59,13,2,6,31,28,62,8,2,3,1,1
phamth01,Tommy Pham,126,462,77,131,25,4,20,64,68,107,19,4,7,1,2
phegljo01,Josh Phegley,117,347,47,84,21,1,12,55,20,73,2,1,5,1,4
phillbr02,Brett Phillips,77,226,29,56,11,2,8,26,25,78,5,1,2,2,2
pillake01,Kevin Pillar,144,531,71,136,34,2,17,64,21,87,13,4,7,1,5
pinama01,Manny Pina,100,288,35,74,15,1,10,37,23,74,2,0,5,1,3
pindech01,Chad Pinder,130,384,53,96,20,1,16,49,27,106,2,2,6,1,3
pireljo01,Jose Pirela,73,233,31,61,14,2,6,25,18,51,3,2,2,0,1
piscost01,Stephen Piscotty,115,409,55,105,24,1,16,57,38,95,3,2,6,0,3
plaweke01,Kevin Plawecki,93,278,35,69,16,1,8,35,28,62,2,1,7,1,2
polangr01,Gregory Polanco,85,301,43,77,18,2,12,42,31,76,6,1,2,0,2
polanjo01,Jorge Polanco,138,532,79,147,32,5,17,72,48,99,8,5,4,3,5
polloaj01,A. J. Pollock,103,372,58,97,21,3,17,53,29,84,10,2,7,0,4
poseybu01,Buster Posey,115,412,50,114,24,1,9,47,42,68,3,1,5,0,2
pradoma01,Martin Prado,106,320,36,79,15,0,5,31,18,58,2,1,2,0,2
profaju01,Jurickson Profar,136,464,69,113,27,3,19,67,49,80,9,1,9,1,3
puellce01,Cesar Puello,73,220,30,55,10,1,6,26,20,69,2,1,6,1,1
puigya01,Yasiel Puig,92,309,45,83,17,1,14,45,33,69,9,3,2,0,2
pujolal01,Albert Pujols,122,463,51,115,19,0,20,76,35,69,3,0,3,0,5
quinnro01,Roman Quinn,86,250,35,64,11,3,8,30,24,71,11,3,3,1,1
ramirha01,Hanley Ramirez,60,216,28,54,10,0,9,30,22,53,2,1,2,0,1
ramirha02,Harold Ramirez,115,403,54,106,19,2,12,51,20,90,3,1,5,0,2
ramirjo01,Jose Ramirez,129,475,79,131,34,3,25,78,60,71,20,4,4,0,5
ramoswi01,Wilson Ramos,128,422,49,116,19,1,14,66,38,68,2,1,3,0,4
ravelra01,Rangel Ravelo,73,200,28,52,11,1,9,30,18,54,2,1,2,0,2
readra01,Raudy Read,60,189,26,48,9,1,7,25,15,54,3,1,2,0,1
realmjt01,J. T. Realmuto,135,499,77,135,31,3,21,73,38,111,7,2,7,0,5
reddijo01,Josh Reddick,135,466,64,126,21,3,15,60,41,71,6,2,1,1,7
reedaj01,A. J. Reed,61,203,26,51,9,1,8,27,19,71,2,1,2,0,2
rendoan01,Anthony Rendon,136,499,90,149,38,2,27,97,67,80,5,1,8,0,7
renfrhu01,Hunter Renfroe,133,447,61,107,23,1,29,66,39,143,4,1,4,0,4
rengilu01,Luis Rengifo,110,368,49,94,20,3,9,41,40,95,3,4,5,1,3
reyesfr01,Franmil Reyes,92,300,43,78,14,1,17,45,30,98,2,1,1,0,2
reyespa01,Pablo Reyes,96,261,37,65,13,2,8,35,24,64,3,2,2,0,1
reyesvi01,Victor Reyes,113,353,47,92,16,4,6,35,17,82,10,3,1,1,2
reynobr01,Bryan Reynolds,121,435,71,125,29,3,15,61,41,107,4,2,5,0,3
reynoma01,Mark Reynolds,93,258,36,66,12,1,13,44,34,89,2,1,2,0,3
rickajo01,Joey Rickard,85,231,29,58,12,1,7,25,15,62,5,1,3,1,1
riddljt01,JT Riddle,91,281,31,67,13,2,9,35,17,73,1,2,2,2,2
rileyau01,Austin Riley,97,331,49,82,15,1,20,54,22,124,2,2,5,0,2
riosed01,Edwin Rios,70,201,32,54,11,2,11,29,28,67,2,1,2,0,1
riverre01,Rene Rivera,64,192,27,50,10,1,9,29,18,57,2,1,2,1,1
riverya01,Yadiel Rivera,107,221,29,54,10,1,5,23,25,70,4,1,2,0,2
rizzoan01,Anthony Rizzo,134,481,76,135,26,2,24,85,65,78,6,3,19,0,4
roberda10,Daniel Robertson,100,309,42,77,15,1,8,35,40,88,3,2,9,0,2
robindr01,Drew Robinson,69,192,28,48,9,1,8,23,23,72,2,2,1,0,1
roblevi01,Victor Robles,141,476,73,123,28,4,16,61,31,120,19,7,18,4,4
rodgebr02,Brendan Rodgers,69,227,31,57,11,1,6,29,16,71,2,1,3,0,1
rodriro03,Ronny Rodriguez,105,344,40,82,16,2,15,48,19,96,4,1,1,1,4
rodrise01,Sean Rodriguez,103,242,38,59,11,1,9,29,33,83,2,1,4,2,1
rogerja03,Jake Rogers,72,239,31,57,12,1,9,28,26,92,2,1,3,2,1
rojasjo01,Josh Rojas,74,249,34,64,14,1,7,33,30,70,5,2,3,0,1
rojasmi02,Miguel Rojas,139,469,53,126,22,1,8,50,31,65,7,3,6,1,4
rominau01,Austin Romine,101,317,39,81,16,1,10,46,20,77,2,1,2,1,3
rondojo02,Jose Rondon,93,268,33,65,12,1,10,31,22,72,3,1,3,1,1
rosaram01,Amed Rosario,152,563,73,150,26,7,13,61,29,120,19,9,4,2,3
rosared01,Eddie Rosario,135,521,81,142,28,2,26,83,27,90,6,3,1,1,5
ruizri01,Rio Ruiz,126,369,43,90,15,2,12,47,41,90,2,1,2,1,3
russead02,Addison Russell,109,337,45,84,16,2,10,38,31,86,3,1,3,1,2
saladty01,Tyler Saladino,76,223,26,52,9,1,6,24,19,69,4,2,3,1,1
sanchad01,Adrian Sanchez,83,207,28,52,10,1,5,25,10,55,2,1,2,1,1
sanchca01,Carlos Sanchez,140,493,59,125,23,6,7,51,41,115,8,5,5,4,3
sanchga02,Gary Sanchez,112,410,65,101,18,1,29,73,44,120,2,1,7,0,2
sandopa01,Pablo Sandoval,120,337,45,86,21,1,15,51,24,80,2,0,3,1,3
sanomi01,Miguel Sano,110,398,67,100,20,2,28,71,52,160,1,1,3,0,2
santaan02,Anthony Santander,108,392,48,99,21,2,18,54,22,90,3,2,3,1,3
santaca01,Carlos Santana,141,505,84,134,28,2,25,77,90,92,4,1,3,0,4
santada01,Danny Santana,131,423,67,110,22,4,22,67,25,131,15,4,5,1,3
santado01,Domingo Santana,126,424,61,112,22,1,20,61,49,149,8,3,3,0,3
schebsc01,Scott Schebler,76,256,36,63,13,1,13,34,27,70,3,2,5,0,2
schoojo01,Jonathan Schoop,117,413,59,108,21,1,20,62,22,108,2,1,7,0,3
schwaky01,Kyle Schwarber,147,485,74,120,23,3,32,75,70,149,3,3,4,0,3
schwifr01,Frank Schwindel,57,190,26,48,10,1,7,25,15,42,3,1,2,0,1
seageco01,Corey Seager,121,439,69,120,31,1,17,69,44,93,3,1,4,0,3
seageky01,Kyle Seager,117,431,54,105,24,1,21,63,40,94,2,2,5,0,3
segurje01,Jean Segura,134,529,78,149,29,3,11,56,30,72,14,6,6,2,3
semiema01,Marcus Semien,145,568,93,152,34,4,22,73,67,103,11,5,2,1,4
senzeni01,Nick Senzel,107,377,55,97,20,3,13,46,31,101,11,4,4,0,2
severpe01,Pedro Severino,116,355,41,87,17,1,12,45,34,86,4,1,5,1,2
shawch01,Chris Shaw,68,194,23,49,10,1,7,25,21,63,3,1,2,0,2
shawtr01,Travis Shaw,104,339,47,83,17,1,17,51,47,98,4,1,4,1,2
shuckja01,JB Shuck,85,212,25,53,9,2,4,21,23,44,3,2,3,1,1
sierrma01,Magneuris Sierra,74,226,28,57,8,1,4,22,14,53,5,4,1,2,1
simmoan01,Andrelton Simmons,116,433,55,117,22,2,10,53,29,45,10,3,3,0,3
siscoch01,Chance Sisco,96,281,39,69,15,1,11,35,31,98,2,1,11,0,1
skolema01,Matt Skole,68,214,29,55,10,1,6,27,22,75,2,1,2,0,2
slateau01,Austin Slater,98,284,36,74,13,3,7,37,31,91,4,1,5,0,1
smithdo02,Dominic Smith,109,292,42,74,17,1,15,38,25,78,2,2,3,0,1
smithdw02,Dwight Smith,114,368,49,94,20,2,13,52,29,86,5,1,5,1,4
smithke04,Kevan Smith,93,294,35,78,16,0,7,35,20,53,2,0,5,1,2
smithma05,Mallex Smith,138,487,67,126,22,8,6,41,43,124,35,9,8,4,2
smithwi05,Will Smith,82,269,43,70,15,1,19,51,28,77,4,1,5,0,3
smoakju01,Justin Smoak,124,426,59,106,23,1,24,65,69,111,1,1,4,0,2
sogarer01,Eric Sogard,85,233,31,60,13,1,5,22,29,42,4,1,3,1,1
solakni01,Nick Solak,70,239,37,65,13,1,10,34,28,59,4,1,5,0,1
solando01,Donovan Solano,97,288,39,79,15,1,8,36,17,68,2,1,2,0,2
solarya01,Yangervis Solarte,74,263,31,64,13,0,9,33,19,44,2,1,2,1,2
solerjo01,Jorge Soler,140,495,73,129,30,1,33,83,60,149,4,1,8,0,3
sosaed01,Edmundo Sosa,60,188,28,49,10,1,8,26,19,45,3,1,3,0,1
sotoju01,Juan Soto,141,502,94,142,29,3,29,91,95,120,9,2,3,1,3
spangco01,Cory Spangenberg,84,259,33,65,10,2,7,28,21,85,6,1,2,2,1
springe01,George Springer,122,468,89,130,22,1,29,75,59,106,5,3,6,0,3
stallja01,Jacob Stallings,93,278,38,72,11,1,9,31,24,61,2,1,3,1,1
stameer01,Eric Stamets,60,198,28,49,11,1,6,25,21,76,2,1,2,1,2
stantmi03,Giancarlo Stanton,71,265,46,72,14,0,19,48,34,83,2,1,3,0,3
starlbu01,Bubba Starling,83,279,40,68,13,1,8,30,17,82,4,1,3,1,1
stassma01,Max Stassi,79,219,29,54,12,1,8,28,24,67,2,1,4,0,2
stevean01,Andrew Stevenson,96,202,27,53,9,1,5,25,23,59,3,2,3,1,2
stewach02,Christin Stewart,106,372,41,94,23,2,12,46,37,101,2,1,6,0,5
stewadj01,DJ Stewart,80,247,35,64,13,1,10,35,26,55,4,3,4,0,2
storytr01,Trevor Story,143,539,86,148,34,4,30,85,50,162,18,5,6,0,3
strawmy01,Myles Straw,89,232,44,63,11,2,6,27,34,51,9,1,2,1,1
stubbga01,Garrett Stubbs,65,198,31,51,12,1,7,26,21,45,3,1,2,0,1
suareeu01,Eugenio Suarez,144,513,78,139,22,2,35,89,65,155,3,2,9,0,5
sucreje01,Jesus Sucre,79,230,23,57,9,0,5,28,14,46,2,0,3,2,2
suzukku01,Kurt Suzuki,103,346,47,92,18,0,18,60,24,49,1,1,10,0,4
swansda01,Dansby Swanson,134,476,64,119,25,3,14,60,50,121,8,4,3,2,4
swihabl01,Blake Swihart,88,236,34,57,11,1,8,29,19,79,4,1,1,0,1
tapiara01,Raimel Tapia,142,408,57,107,23,4,10,48,23,97,8,3,2,1,1
tatisfe02,Fernando Tatis,97,363,61,103,15,4,22,55,33,115,13,5,5,0,3
tauchmi01,Mike Tauchman,110,307,49,81,18,2,14,47,39,85,6,1,2,1,2
taylobe04,Beau Taylor,60,186,27,49,10,1,9,25,23,47,2,1,3,0,1
tayloch03,Chris Taylor,124,415,64,110,28,5,15,55,42,127,9,3,5,1,3
taylomi02,Michael Taylor,94,262,35,66,16,2,8,28,21,88,12,3,1,1,1
tayloty01,Tyrone Taylor,65,187,27,50,11,1,7,26,18,41,3,1,3,0,1
tellero01,Rowdy Tellez,115,383,53,96,23,1,21,57,29,117,2,1,6,0,3
thaisma01,Matt Thaiss,82,257,35,65,14,1,13,38,29,83,2,1,2,0,1
thameer01,Eric Thames,133,391,65,98,21,3,24,57,51,136,5,2,7,0,1
thomala02,Lane Thomas,78,202,30,54,9,2,12,34,20,46,3,2,4,0,1
tilsoch01,Charlie Tilson,89,264,32,67,10,1,5,31,22,65,5,2,4,1,1
toroab01,Abraham Toro,67,223,34,58,11,2,8,30,24,54,3,2,3,0,2
torregl01,Gleyber Torres,141,509,79,138,23,1,32,84,47,126,6,2,4,1,5
torrelu01,Luis Torrens,65,190,24,48,10,1,5,22,20,51,2,1,2,1,1
torrero01,Ronald Torreyes,69,206,26,54,10,1,4,24,9,36,2,0,2,1,2
tovarwi01,Wilfredo Tovar,71,223,28,56,13,1,5,27,17,47,2,1,2,0,1
travisa01,Sam Travis,94,260,36,65,13,1,9,32,21,67,3,1,3,0,2
trevijo01,Jose Trevino,77,248,36,63,14,1,7,33,12,58,2,1,2,1,3
troutmi01,Mike Trout,129,444,95,132,25,3,38,82,102,110,16,2,11,0,4
trumbma01,Mark Trumbo,63,228,30,57,10,0,10,29,17,58,1,0,1,0,1
tuckeco01,Cole Tucker,87,263,35,65,16,3,7,32,20,70,2,1,3,1,1
tuckeky01,Kyle Tucker,74,228,38,58,13,1,9,31,19,60,6,1,4,0,1
tulowtr01,Troy Tulowitzki,53,183,21,47,9,1,7,23,16,39,2,1,2,0,1
turneju01,Justin Turner,125,438,71,128,27,1,21,63,51,75,4,1,13,0,4
turnetr01,Trea Turner,127,513,86,142,28,5,17,59,46,108,34,6,4,1,1
uptonju01,Justin Upton,94,333,51,85,14,1,18,53,43,110,5,1,4,0,4
urenari01,Richard Urena,80,237,27,60,13,1,5,24,15,73,3,1,2,3,1
uriaslu01,Luis Urias,92,300,40,75,14,1,8,37,32,75,2,1,8,0,1
urshegi01,Gio Urshela,131,410,62,113,25,1,17,61,25,82,2,1,4,1,3
valaipa01,Pat Valaika,105,236,31,57,13,1,9,29,17,75,1,1,1,2,1
valerbr01,Breyvic Valera,59,192,27,50,9,1,7,27,15,42,3,1,2,1,2
vanmejo01,Josh VanMeter,106,297,43,77,17,1,11,36,36,72,8,3,3,0,2
vargail01,Ildemaro Vargas,114,288,40,74,13,1,10,39,16,44,3,1,2,0,2
vazquch01,Christian Vazquez,134,450,59,117,23,1,16,55,29,92,6,2,3,2,2
velazan01,Andrew Velazquez,63,188,28,49,11,1,7,25,18,58,4,1,3,0,1
verdual01,Alex Verdugo,122,371,49,100,22,2,13,46,30,59,4,2,3,1,4
villajo01,Jonathan Villar,141,523,80,138,24,3,19,61,49,146,30,7,4,2,3
vilorme01,Meibrys Viloria,79,259,29,65,14,1,6,34,20,80,2,1,2,2,4
vogelda01,Dan Vogelbach,133,412,60,100,18,1,24,64,75,127,2,1,3,0,2
vogtst01,Stephen Vogt,106,304,39,79,22,2,13,46,23,76,3,1,2,1,3
voitlu01,Luke Voit,123,403,68,110,21,1,22,64,58,126,2,1,7,0,1
vottojo01,Joey Votto,130,460,71,130,27,1,17,60,83,98,4,1,6,0,3
wadela01,LaMonte Wade,67,204,31,54,11,2,8,27,29,40,2,2,4,0,1
wadety01,Tyler Wade,92,238,35,59,13,1,6,28,23,69,7,1,2,1,1
walkech02,Christian Walker,142,446,70,116,23,1,24,62,54,131,7,1,6,0,1
walkene01,Neil Walker,119,369,48,94,19,1,11,46,48,87,2,1,3,0,2
wallach01,Chad Wallach,66,206,26,53,11,1,7,25,21,60,2,1,3,1,1
walshja01,Jared Walsh,73,222,29,56,13,2,7,27,19,81,2,1,4,0,1
waltodo01,Donnie Walton,57,187,27,50,10,1,7,26,22,48,3,2,2,0,1
wardta01,Taylor Ward,68,217,28,53,11,1,9,26,21,78,3,1,3,0,1
wendljo01,Joey Wendle,104,347,47,92,21,3,7,41,25,70,10,3,7,1,5
whitety01,Tyler White,67,209,28,55,12,2,10,34,23,48,1,1,2,0,1
wietema01,Matt Wieters,90,282,31,68,12,0,11,39,27,68,2,1,2,0,3
wilkest01,Stevie Wilkerson,119,354,45,86,20,2,11,41,25,113,4,3,6,1,2
willima07,Mason Williams,70,209,27,55,10,1,6,22,17,48,4,2,2,1,2
willima08,Mac Williamson,71,226,32,56,9,1,10,29,24,69,2,2,2,0,1
willini01,Nick Williams,97,278,37,70,11,2,10,36,19,87,2,1,5,0,1
wilsobo02,Bobby Wilson,66,211,25,50,12,1,5,26,17,54,2,1,2,2,2
winkeje01,Jesse Winker,121,375,55,103,20,1,16,49,48,68,2,2,5,1,1
wisdopa01,Patrick Wisdom,69,197,29,51,9,1,9,28,18,71,3,1,3,1,1
wolteto01,Tony Wolters,128,374,47,94,16,3,4,45,43,75,2,1,7,2,4
wongke01,Kean Wong,58,193,28,50,10,1,7,26,15,52,3,2,2,0,1
wongko01,Kolten Wong,142,448,60,122,25,3,11,55,44,79,14,4,13,4,4
wynnsau01,Austin Wynns,77,229,32,57,9,1,8,27,14,51,2,1,2,2,1
yastrmi01,Mike Yastrzemski,106,364,60,97,21,3,20,53,32,103,3,3,4,1,3
yelicch01,Christian Yelich,127,479,90,145,28,3,31,83,67,113,19,2,6,0,3
zagunma01,Mark Zagunis,76,198,26,52,12,1,6,28,21,64,2,1,2,0,1
zavalse01,Seby Zavala,57,189,27,48,10,1,7,25,15,64,3,1,2,0,1
zimmery01,Ryan Zimmerman,83,288,41,78,17,1,15,50,27,65,1,1,2,0,3
zobribe01,Ben Zobrist,87,288,42,77,15,2,7,36,36,46,2,2,2,1,3
zuninmi01,Mike Zunino,110,350,42,79,18,1,17,47,28,132,1,0,5,0,1
