playerID,playerName,W,L,G,GS,CG,SHO,SV,IPouts,H,ER,HR,BB,SO,IBB,WP,HBP,BK,BFP,GF,R,SH,SF,GIDP
aasedo01,Don Aase,9,8,35,23,5,1,2,495,171,78,15,65,87,5,4,2,0,713,6,85,7,5,15
abbotgl01,Glenn Abbott,6,10,28,19,4,0,1,383,142,67,17,41,53,3,2,3,0,556,4,75,7,5,12
alexado01,Doyle Alexander,7,7,26,18,3,0,1,383,128,57,10,54,57,3,3,1,0,552,5,62,6,5,10
allarbr01,Brian Allard,3,4,17,7,2,0,1,193,66,29,6,23,33,3,2,1,0,274,5,32,3,2,7
allenne01,Neil Allen,5,6,30,7,1,0,4,244,82,34,6,33,48,6,3,1,0,350,13,39,4,4,7
anderla02,Larry Andersen,2,2,11,3,1,0,1,101,35,16,3,12,18,1,1,1,0,145,4,18,2,1,3
anderri01,Rick Anderson,1,1,7,3,1,0,1,79,26,12,2,10,14,1,1,1,0,113,2,13,1,1,2
andujjo01,Joaquin Andujar,9,9,38,18,5,0,3,454,137,61,8,65,70,5,4,3,2,645,9,70,9,5,12
arroyfe01,Fernando Arroyo,2,2,8,4,1,0,0,95,34,15,3,10,14,1,1,1,0,136,2,16,2,1,3
atkinbi01,Bill Atkinson,2,2,15,3,1,0,1,111,36,16,4,14,21,2,1,1,0,159,6,17,2,1,3
augusje01,Jerry Augustine,6,6,25,10,3,0,2,266,94,41,8,31,38,2,2,2,0,383,8,45,4,4,9
babcobo01,Bob Babcock,1,1,8,3,1,0,1,83,28,13,3,11,15,1,1,1,0,119,2,14,1,1,2
bacsimi01,Mike Bacsik,3,3,20,4,1,0,1,175,58,27,5,22,31,3,2,1,0,250,7,31,4,2,5
bahnsst01,Stan Bahnsen,3,4,31,6,1,0,3,234,76,33,8,30,46,3,2,1,0,329,10,36,4,2,5
bairdo01,Doug Bair,6,5,41,4,1,0,10,245,79,33,7,36,61,5,2,1,0,355,25,36,6,3,6
bakerst01,Steve Baker,4,6,25,12,1,0,2,288,102,52,11,47,56,3,6,3,1,427,5,57,5,4,11
bannifl01,Floyd Bannister,8,12,36,24,5,2,1,498,169,77,19,69,109,4,4,3,1,724,5,84,7,4,12
barkele01,Len Barker,6,7,35,14,2,0,2,374,130,61,9,56,79,3,8,2,0,546,10,66,6,4,16
barlomi01,Mike Barlow,3,3,22,4,1,0,1,203,73,33,6,24,32,2,3,2,0,291,8,37,3,2,10
barrifr01,Francisco Barrios,8,7,25,18,4,1,1,385,125,56,11,46,57,2,2,4,1,550,4,64,5,5,7
barrji01,Jim Barr,8,10,34,22,4,1,1,488,178,74,14,46,64,5,2,2,1,690,5,80,6,6,17
baumgro01,Ross Baumgarten,10,8,33,22,4,2,1,484,157,68,15,65,73,3,5,2,1,694,6,75,7,6,11
beattji01,Jim Beattie,5,7,25,16,2,1,1,324,110,51,8,45,54,2,4,3,0,470,5,55,7,5,10
beckwjo01,Joe Beckwith,2,2,14,4,1,0,1,134,46,20,4,16,26,2,1,1,0,193,5,22,3,1,4
berenju01,Juan Berenguer,4,4,21,10,2,0,1,234,79,35,7,30,46,2,2,2,1,334,5,39,4,3,7
bernadw01,Dwight Bernard,2,3,22,4,1,0,1,160,58,25,4,23,28,3,2,1,0,234,6,28,2,2,5
bibbyji01,Jim Bibby,8,6,31,15,4,1,1,358,110,46,10,42,78,5,5,3,1,503,6,54,6,3,8
billija01,Jack Billingham,9,7,30,18,4,1,2,419,148,60,12,50,57,6,5,5,0,597,7,69,6,5,19
birddo01,Doug Bird,4,3,25,5,1,0,2,199,71,33,6,21,36,3,3,2,0,284,9,35,4,3,6
bluevi01,Vida Blue,12,11,34,27,8,1,1,609,201,91,16,75,120,6,6,1,0,863,4,100,10,8,15
blylebe01,Bert Blyleven,11,8,36,28,7,2,1,609,192,77,17,69,141,5,7,5,1,855,4,86,11,6,16
boggsto01,Tommy Boggs,3,6,20,11,2,0,1,222,84,39,7,28,35,3,2,2,0,329,5,43,5,2,7
boitada01,Dan Boitano,2,2,9,3,1,0,1,85,29,12,3,10,16,1,1,1,0,122,3,14,2,1,2
bonhabi01,Bill Bonham,9,8,32,24,2,0,1,481,161,69,13,57,84,6,6,4,2,684,4,75,9,3,13
borbope01,Pedro Borbon,4,3,26,3,1,0,3,171,60,27,5,17,27,3,1,1,0,243,11,29,4,2,5
bottira01,Ralph Botting,3,2,13,4,1,0,1,131,48,23,5,17,25,2,2,1,0,192,4,26,2,2,4
bradfla01,Larry Bradford,2,2,13,3,1,0,1,103,33,14,3,13,19,1,1,1,1,146,4,16,2,1,3
brancro01,Roy Branch,3,4,18,8,2,0,1,199,67,32,6,25,36,3,2,1,0,286,5,35,3,3,6
brettke01,Ken Brett,3,3,19,6,1,0,1,174,60,27,5,20,25,2,1,1,1,247,6,30,2,2,5
brizzto01,Tony Brizzolara,7,8,28,16,3,0,1,348,128,58,9,39,65,3,4,3,0,509,6,65,7,5,10
brunoto01,Tom Bruno,3,3,19,4,1,0,1,153,50,22,4,21,30,3,2,1,0,220,6,24,2,2,4
brusswa01,Warren Brusstar,3,2,18,3,1,0,1,124,41,17,3,14,23,2,1,1,0,172,5,19,2,1,5
burgmto01,Tom Burgmeier,3,3,31,4,1,0,3,221,77,31,7,23,40,2,2,2,0,315,13,35,4,2,7
burnsbr01,Britt Burns,2,2,9,3,1,0,1,89,32,14,3,11,16,1,1,1,0,129,2,16,2,1,3
burnssh01,Sheldon Burnside,2,2,11,4,1,0,1,110,38,18,3,13,20,2,1,1,0,158,3,20,2,1,4
burrira01,Ray Burris,4,6,20,13,2,0,1,271,96,44,8,32,45,4,3,3,1,392,3,49,4,3,8
busbyst01,Steve Busby,5,5,24,12,3,0,1,278,85,42,9,46,47,3,2,2,0,401,7,47,7,4,7
busketo01,Tom Buskey,4,5,26,4,1,0,3,195,65,28,7,22,35,4,2,1,0,277,16,31,4,2,5
caldwmi01,Mike Caldwell,14,8,34,25,12,3,1,617,205,73,14,47,90,4,5,4,1,850,5,84,9,5,20
campbbi02,Bill Campbell,4,4,25,3,1,0,5,171,57,24,5,22,35,3,3,1,0,244,14,27,4,1,4
candejo01,John Candelaria,12,9,34,25,5,1,1,544,177,66,19,46,93,5,3,3,1,754,5,73,6,5,15
capildo01,Doug Capilla,2,2,12,5,1,0,1,113,37,17,3,16,22,1,1,1,0,163,4,19,2,1,3
carltst01,Steve Carlton,14,10,34,27,10,2,1,617,181,77,21,67,146,7,5,4,6,847,4,87,8,5,13
castibo01,Bobby Castillo,2,2,16,4,1,0,2,125,41,17,3,19,27,2,1,1,0,181,7,19,3,2,3
castrbi01,Bill Castro,4,3,27,3,1,0,4,157,51,19,4,18,23,4,2,2,0,222,16,23,3,2,6
caudibi01,Bill Caudill,3,6,26,11,1,0,1,261,87,42,11,35,68,4,3,3,1,378,7,48,4,3,7
chambcr01,Craig Chamberlain,6,6,23,12,4,0,1,295,98,43,9,32,49,2,3,2,0,415,6,47,5,4,10
chrisga01,Gary Christenson,2,2,9,3,1,0,1,92,31,13,3,11,16,1,1,1,0,131,3,15,1,1,3
chrisla01,Larry Christenson,8,8,26,19,4,1,1,401,135,57,11,38,72,4,4,2,3,561,4,63,6,4,11
chrismi01,Mike Chris,4,4,20,9,1,0,1,205,72,35,6,27,40,2,2,1,0,297,6,38,3,3,6
clancji01,Jim Clancy,6,8,23,16,4,0,1,333,113,54,9,49,60,2,4,1,0,481,4,60,5,6,11
clayke01,Ken Clay,3,5,26,7,1,0,2,236,84,39,8,27,36,2,4,2,0,339,11,43,5,3,7
clearma01,Mark Clear,6,4,30,5,1,0,6,246,75,35,6,39,57,3,4,2,1,355,16,39,5,3,5
clevere01,Reggie Cleveland,3,4,23,5,1,0,3,182,65,30,6,20,31,3,2,1,0,263,10,33,3,4,5
clydeda01,David Clyde,5,6,22,14,3,0,1,290,101,47,8,35,49,2,5,2,0,416,5,52,4,4,10
colemjo05,Joe Coleman,2,2,14,3,1,0,1,123,42,19,4,16,21,1,2,1,0,178,5,21,2,2,4
comerst01,Steve Comer,14,10,40,25,5,1,2,589,189,77,17,68,87,5,5,5,0,827,9,88,11,4,16
cruzvi01,Victor Cruz,4,5,35,5,1,0,5,215,66,30,7,34,49,3,2,1,1,307,22,33,5,3,5
curtijo01,John Curtis,7,7,38,13,2,1,1,342,116,52,10,44,70,7,6,1,0,492,12,58,6,5,10
dacqujo01,John D'Acquisto,6,7,39,10,1,1,4,326,105,50,9,59,79,4,4,2,1,478,15,56,7,3,8
darwida01,Danny Darwin,4,4,21,8,2,0,1,232,68,34,6,28,48,2,1,3,1,323,6,37,3,4,5
davisro02,Ron Davis,7,3,26,5,1,0,4,209,70,28,5,25,36,4,2,1,0,295,11,31,3,2,7
deckejo01,Joe Decker,2,2,13,5,1,0,1,138,46,21,4,18,24,2,2,1,0,197,5,23,2,2,4
dennyjo01,John Denny,9,10,34,26,6,1,1,563,182,85,16,75,89,5,6,4,2,796,4,91,10,5,23
devinad01,Adrian Devine,4,3,27,5,1,0,2,195,72,29,6,23,31,4,2,1,1,283,9,32,4,2,7
dixonto01,Tom Dixon,3,4,17,6,1,0,1,165,59,26,4,19,27,2,1,1,0,239,4,29,4,2,4
dotsori01,Richard Dotson,5,4,20,10,2,1,1,227,78,33,6,26,40,2,2,1,0,325,6,38,4,3,7
dragodi01,Dick Drago,6,5,33,5,1,0,6,229,75,30,6,25,46,4,3,2,0,325,19,34,4,3,8
dressro01,Rob Dressler,4,4,24,11,2,0,1,295,110,47,9,29,44,3,2,1,0,424,7,52,5,2,11
easteja01,Jamie Easterly,2,2,12,3,1,0,1,104,38,18,3,15,19,2,1,1,0,152,3,20,2,1,3
eastwra01,Rawly Eastwick,3,4,31,4,1,0,3,210,73,34,7,25,37,3,3,1,0,300,13,37,3,2,7
eatoncr01,Craig Eaton,2,2,9,3,1,0,1,92,30,13,3,11,16,1,1,1,0,130,3,15,2,1,3
eckerde01,Dennis Eckersley,14,9,35,27,12,2,1,642,204,78,24,58,131,6,3,5,1,891,4,85,8,6,12
eddyst01,Steve Eddy,3,3,17,7,1,0,1,190,65,29,5,26,30,2,2,2,0,276,6,32,4,3,6
edgebu01,Butch Edge,5,5,22,11,2,0,1,265,93,42,9,34,43,3,4,2,0,387,6,47,4,3,8
eicheju01,Juan Eichelberger,4,4,19,8,2,0,1,215,70,32,6,28,39,3,2,1,1,304,6,36,3,3,7
ellisdo01,Dock Ellis,3,3,12,7,1,0,1,160,52,23,5,17,24,1,2,1,0,224,2,26,3,2,5
erickro01,Roger Erickson,7,9,29,21,4,0,1,444,159,73,14,51,68,2,5,3,2,639,4,81,6,5,13
espinni01,Nino Espinosa,11,12,35,27,6,2,1,566,193,83,19,62,85,7,3,3,1,798,4,91,8,5,16
esserma01,Mark Esser,1,1,8,3,1,0,1,80,27,12,2,10,14,1,1,1,0,114,2,14,1,1,2
falcope01,Pete Falcone,6,11,36,24,2,1,1,478,169,78,19,69,89,7,8,2,1,696,6,85,7,7,14
farmeed01,Ed Farmer,3,4,25,6,1,0,5,207,64,26,5,26,38,4,3,1,0,294,13,32,5,2,6
feltote01,Terry Felton,1,1,8,3,1,0,1,81,27,12,2,10,14,1,1,1,0,115,2,13,1,1,2
ferribo01,Bob Ferris,2,2,8,3,1,0,1,86,29,12,3,10,15,1,1,1,0,123,3,14,2,1,2
fidryma01,Mark Fidrych,4,4,18,9,3,0,1,212,73,33,6,24,36,3,2,1,0,302,4,36,3,2,8
figueed01,Ed Figueroa,8,6,25,18,5,1,1,409,133,55,11,45,59,2,3,2,0,570,3,60,6,4,12
finchjo01,Joel Finch,3,4,20,8,1,0,1,216,75,34,7,28,37,3,2,1,0,311,6,37,3,2,7
fingero01,Rollie Fingers,5,6,37,4,1,0,12,229,74,31,6,27,51,6,2,1,1,324,26,35,4,3,5
flanami01,Mike Flanagan,16,10,38,30,12,3,1,660,211,88,18,66,140,3,6,3,0,911,4,97,9,5,24
flinnjo01,John Flinn,2,2,10,3,1,0,1,85,30,13,3,11,15,1,1,1,0,123,4,15,1,1,3
fordda02,Dave Ford,3,2,14,5,1,0,1,152,48,19,4,17,24,1,1,1,0,211,5,22,3,2,5
forscbo01,Bob Forsch,11,11,35,27,6,1,1,573,183,80,15,62,89,4,6,3,1,798,4,90,7,8,18
forscke01,Ken Forsch,10,7,41,16,6,1,4,471,149,57,10,43,70,6,2,1,1,648,15,64,8,5,13
forstte01,Terry Forster,2,2,17,3,1,0,4,120,40,17,3,15,23,2,1,1,0,170,9,19,2,1,4
frazige01,George Frazier,2,3,17,4,1,0,1,132,45,20,4,16,22,2,1,1,0,190,7,23,2,2,4
freisda01,Dave Freisleben,3,4,25,8,1,0,2,230,81,40,7,37,37,3,4,2,0,337,10,45,4,3,8
frostda01,Dave Frost,12,9,35,24,7,1,2,558,179,74,14,61,87,5,5,4,0,781,6,83,9,7,17
frymawo01,Woodie Fryman,3,4,22,7,1,1,3,184,61,26,5,24,37,2,2,2,0,262,10,29,4,1,5
fulghjo01,John Fulgham,8,7,28,16,6,1,1,406,125,49,11,36,71,4,3,3,1,555,6,55,5,3,12
galasbo01,Bob Galasso,3,3,18,5,1,0,2,153,56,25,5,20,28,2,2,1,0,225,7,28,2,2,4
galeri01,Rich Gale,10,9,35,25,4,1,1,510,171,83,15,82,89,4,5,3,0,746,5,95,9,6,16
garbege01,Gene Garber,5,7,40,4,1,0,13,254,84,35,8,23,50,5,2,2,1,356,27,41,3,2,6
garlawa01,Wayne Garland,5,8,22,14,4,0,1,307,112,50,10,36,48,3,3,2,0,446,4,59,6,5,10
garvije01,Jerry Garvin,2,4,13,7,2,0,1,169,60,28,6,20,29,2,1,1,0,245,2,30,3,2,5
geiseda01,Dave Geisel,2,2,12,3,1,0,1,107,35,15,3,13,19,2,1,1,0,152,4,16,2,1,3
gleatje01,Jerry Don Gleaton,2,3,13,5,1,0,1,136,47,21,4,16,23,2,2,1,0,195,4,23,2,2,4
glynned01,Ed Glynn,2,3,25,4,1,0,3,171,57,24,5,25,31,4,1,1,0,248,10,26,3,3,5
goltzda01,Dave Goltz,12,10,34,27,10,1,1,615,211,82,16,62,111,3,5,2,1,863,4,91,8,5,20
gossari01,Rich Gossage,5,4,29,3,1,0,10,203,56,22,5,25,50,3,2,1,0,278,20,25,4,2,5
griffmi02,Mike Griffin,2,2,8,3,1,0,1,84,28,12,2,10,16,1,1,1,0,120,3,14,2,1,3
griffto02,Tom Griffin,4,5,31,7,1,0,1,236,77,35,8,36,51,4,3,2,1,345,8,42,5,3,5
grillst01,Steve Grilli,1,1,8,3,1,0,0,78,26,12,2,10,14,1,1,1,0,112,3,13,2,1,2
grimsro02,Ross Grimsley,10,8,31,23,6,1,1,468,166,70,15,46,55,3,3,2,1,664,4,80,9,6,17
guidrro01,Ron Guidry,15,6,34,25,10,3,2,605,169,62,15,61,160,2,6,1,0,812,5,70,8,4,16
gullibi01,Bill Gullickson,1,1,8,3,1,0,1,80,27,12,2,10,14,1,1,1,0,114,2,13,1,1,2
gurala01,Larry Gura,12,8,41,23,6,1,2,574,180,81,18,59,79,4,4,4,1,801,7,93,10,8,16
haasmo01,Moose Haas,9,10,32,23,6,1,1,476,165,79,19,55,88,4,6,1,1,679,5,89,5,6,10
haliced01,Ed Halicki,6,7,27,17,4,1,1,383,123,53,11,40,74,5,2,3,1,544,4,62,6,3,6
hamilda01,Dave Hamilton,3,4,30,6,1,0,3,223,73,31,6,32,43,3,2,1,0,322,11,38,5,3,5
hannage01,Gerry Hannahs,2,3,14,6,1,0,1,154,51,23,5,21,28,2,2,1,0,221,4,27,3,2,4
hannapr01,Preston Hanna,4,5,19,11,1,0,1,228,76,37,6,38,44,3,4,1,1,336,4,42,4,3,6
hartzpa01,Paul Hartzell,7,9,39,19,4,0,3,470,171,74,14,45,61,6,3,4,1,667,12,82,7,6,18
hasslan01,Andy Hassler,4,4,23,9,1,0,2,233,79,33,5,34,45,4,4,1,1,337,7,38,4,2,7
hausmto01,Tom Hausman,4,6,23,11,2,0,2,267,86,36,8,27,42,2,2,3,1,372,7,40,4,3,7
heaveda01,Dave Heaverlo,4,5,39,4,1,0,4,242,85,33,7,30,42,7,1,2,1,350,20,38,6,4,7
hernawi01,Willie Hernandez,5,4,37,5,1,0,2,219,73,33,7,30,44,6,3,2,1,317,13,37,5,3,5
hillejo01,John Hiller,5,5,29,4,1,0,5,216,69,31,8,33,47,4,3,1,0,312,18,34,5,3,6
hintori01,Rich Hinton,2,3,15,4,1,0,1,135,46,21,4,16,24,2,1,1,0,192,5,23,2,2,3
hoffmgu01,Guy Hoffman,2,3,15,4,1,0,1,124,42,19,3,18,23,2,2,1,0,180,5,21,2,1,4
hollaal01,Al Holland,2,2,8,3,1,0,1,86,28,12,2,11,16,1,1,1,0,122,2,14,1,1,2
hollyje01,Jeff Holly,2,2,10,3,1,0,1,96,33,15,3,12,17,1,1,1,0,138,3,17,2,2,3
holtzke01,Ken Holtzman,5,7,31,16,2,1,2,352,130,60,14,50,55,5,5,4,0,519,7,68,5,3,12
honeyri01,Rick Honeycutt,9,11,36,24,5,1,1,504,175,78,18,60,76,6,5,5,1,728,6,90,9,6,16
hooddo01,Don Hood,4,3,24,9,1,0,1,244,81,35,6,35,39,3,3,2,0,352,6,38,4,3,8
hootobu01,Burt Hooton,12,9,32,25,8,1,1,567,170,65,13,56,105,4,5,2,0,777,4,74,10,6,12
houghch01,Charlie Hough,6,6,43,9,1,0,5,362,113,55,11,52,70,4,6,5,0,519,18,61,6,3,11
howarfr02,Fred Howard,3,4,22,7,1,0,1,205,71,29,6,27,37,2,1,1,0,296,7,34,4,4,7
hoytla01,LaMarr Hoyt,1,1,8,3,1,0,1,81,27,12,2,10,14,1,1,1,0,115,2,13,1,1,3
hraboal01,Al Hrabosky,6,4,36,4,1,0,7,194,62,27,5,29,40,4,3,1,0,278,21,30,4,3,6
huffmph01,Phil Huffman,7,13,34,23,3,1,2,458,176,84,18,58,64,2,5,1,2,683,6,97,5,5,10
humeto01,Tom Hume,7,8,39,14,2,0,6,399,139,54,11,38,68,6,3,2,0,562,16,60,7,5,12
hunteca01,Catfish Hunter,7,8,26,18,3,1,1,367,125,59,16,41,54,2,3,2,0,520,4,65,7,5,9
jacksda01,Darrell Jackson,4,5,23,10,2,0,1,249,89,38,7,33,47,2,5,2,1,361,6,43,4,3,7
jacksgr01,Grant Jackson,5,4,39,4,1,0,5,215,70,28,7,28,37,4,2,1,1,306,15,32,5,4,6
jacksro03,Roy Lee Jackson,2,2,10,4,1,0,1,105,35,16,3,13,19,1,1,1,0,150,2,18,2,1,4
jamesbo01,Bob James,2,2,8,3,1,0,1,83,28,13,3,11,15,1,1,1,0,118,3,14,1,1,2
jeffeje01,Jesse Jefferson,4,8,25,14,3,0,1,341,123,57,14,44,53,3,2,2,0,492,6,63,5,4,11
jenkife01,Fergie Jenkins,13,10,36,27,9,2,1,626,202,87,25,57,125,4,3,3,0,865,5,95,9,6,16
johnsjo04,John Henry Johnson,6,7,25,16,3,1,1,338,107,50,12,46,59,4,3,1,1,482,4,56,7,4,7
johnto01,Tommy John,16,9,37,28,10,2,1,640,215,77,11,57,105,4,7,4,1,886,5,91,8,4,29
jonesod01,Odell Jones,5,8,29,15,3,0,1,340,127,62,13,46,66,5,4,3,0,501,7,69,7,4,11
jonesra01,Randy Jones,10,12,39,30,5,1,1,648,220,86,13,59,87,11,3,2,1,907,4,100,15,6,23
kaatji01,Jim Kaat,3,3,21,8,1,0,1,199,72,31,6,19,29,2,2,2,0,283,5,34,4,3,7
kammebo01,Bob Kammeyer,1,1,8,3,1,0,1,81,29,14,3,10,14,1,1,1,0,118,3,15,1,1,2
keougma02,Matt Keough,6,13,34,25,5,1,1,509,181,79,14,71,92,3,9,5,1,740,5,93,7,6,15
kernji01,Jim Kern,8,6,47,4,1,0,13,317,89,34,6,46,85,5,4,2,0,443,31,39,9,3,9
kingmbr01,Brian Kingman,7,7,26,15,4,1,1,349,117,53,11,38,61,3,7,3,0,497,6,59,6,3,8
kinnede01,Dennis Kinney,2,2,12,3,1,0,1,105,35,15,4,13,19,2,1,1,0,150,4,17,2,1,3
kisonbr01,Bruce Kison,9,7,34,20,2,1,1,441,141,60,12,47,87,4,5,4,1,617,6,68,8,6,14
knappch01,Chris Knapp,8,6,27,19,4,0,1,377,129,63,13,46,70,3,3,3,0,546,4,72,5,5,8
kneppbo01,Bob Knepper,11,10,36,28,7,2,1,579,194,80,18,70,110,7,5,3,1,828,4,90,9,5,16
knowlda01,Darold Knowles,3,3,30,3,1,0,3,165,55,22,5,21,27,3,2,1,0,234,12,25,3,2,4
kobelke01,Kevin Kobel,7,8,36,20,2,1,1,450,150,59,13,47,71,6,3,3,1,632,8,69,9,6,14
koosmje01,Jerry Koosman,11,12,37,28,6,1,1,626,204,84,16,71,132,6,3,4,1,876,5,93,11,5,20
kraveke01,Ken Kravec,12,12,36,28,7,2,1,613,186,89,18,86,124,3,5,9,1,869,5,99,11,7,15
krukomi01,Mike Krukow,9,8,33,24,2,1,1,471,160,72,13,65,98,8,4,4,1,679,5,78,8,4,13
kucekja01,Jack Kucek,2,2,9,3,1,0,1,98,32,14,3,12,18,1,1,1,0,140,3,16,2,1,2
laceybo01,Bob Lacey,3,4,30,3,1,0,3,185,65,27,6,22,34,5,2,1,0,267,12,31,4,2,6
lacorfr01,Frank LaCorte,2,3,15,6,1,0,1,146,49,25,5,19,29,2,2,1,0,211,4,27,3,2,3
lacosmi01,Mike LaCoss,10,9,36,25,5,1,1,524,176,74,12,68,72,8,4,2,2,744,5,85,10,6,18
laddpe01,Pete Ladd,2,2,10,3,1,0,1,96,31,14,3,12,17,1,1,1,0,138,3,16,2,1,3
lagrole01,Lerrin LaGrow,4,3,24,3,1,0,5,155,51,22,5,20,28,2,2,1,0,220,14,25,3,2,5
lampde01,Dennis Lamp,8,10,38,26,5,1,1,534,187,72,14,49,76,7,2,4,1,751,6,84,8,4,17
langfri01,Rick Langford,9,13,37,24,7,1,1,549,188,81,17,57,95,6,8,3,1,780,5,91,8,7,13
larocda01,Dave LaRoche,6,6,36,4,1,0,8,232,78,35,8,31,49,5,1,2,0,334,20,38,6,3,6
larsoda01,Dan Larson,3,4,20,8,1,0,1,213,72,34,7,28,37,2,3,2,0,306,5,38,4,3,6
lavelga01,Gary Lavelle,6,6,43,4,1,0,9,248,79,29,5,32,55,8,2,1,1,351,26,34,5,4,7
leebi03,Bill Lee,12,9,35,25,6,2,1,558,197,72,18,52,62,3,2,2,1,788,5,86,7,5,19
leema01,Mark Lee,3,3,32,4,1,0,2,203,72,29,4,26,31,5,2,2,1,294,11,33,6,2,7
leibrch01,Charlie Leibrandt,2,2,8,3,1,0,1,84,28,12,2,10,15,1,1,1,0,119,3,14,1,1,3
lemanda01,Dave Lemanczyk,7,10,28,19,6,1,1,425,150,69,13,52,66,3,8,4,1,610,5,76,8,4,13
lemonma01,Mark Lemongello,5,8,23,14,3,0,1,329,114,53,12,37,49,4,2,3,1,470,5,58,6,5,9
leonade01,Dennis Leonard,13,11,34,27,11,3,1,622,198,85,22,57,125,4,8,4,0,858,4,96,9,5,15
lerchra01,Randy Lerch,10,10,38,28,5,1,1,560,196,83,17,64,90,4,5,2,1,797,5,91,11,10,15
lewalde01,Dennis Lewallyn,2,2,10,3,1,0,1,95,34,14,3,11,16,2,1,1,0,137,3,16,2,1,3
lewisji01,Jim Lewis,1,1,8,3,1,0,1,80,28,12,3,10,14,1,1,1,0,116,2,14,1,1,2
littema01,Mark Littell,5,4,39,4,1,0,7,233,66,28,5,35,62,5,5,1,0,328,23,32,4,3,5
lockwsk01,Skip Lockwood,3,5,24,3,1,0,6,163,50,21,5,19,38,3,2,1,0,226,15,22,3,2,5
lolicmi01,Mickey Lolich,3,3,21,6,1,0,1,173,60,25,5,22,28,3,2,1,0,248,6,29,4,2,6
lonboji01,Jim Lonborg,3,3,11,7,1,0,1,142,51,24,5,17,24,1,2,1,0,206,2,26,2,1,4
lopezau01,Aurelio Lopez,6,4,35,6,1,0,7,282,82,35,8,37,64,3,3,2,0,395,19,39,5,4,7
luebbst01,Steve Luebber,1,1,7,3,1,0,1,75,25,11,2,9,13,1,1,0,0,107,2,12,1,1,2
lylesp01,Sparky Lyle,5,4,39,4,1,0,7,246,78,31,6,26,39,4,2,1,0,341,25,35,6,3,8
mahlemi01,Mickey Mahler,5,9,30,17,2,0,1,340,121,60,12,48,71,5,6,4,1,505,5,68,7,6,8
mahleri01,Rick Mahler,2,2,12,4,1,0,1,109,38,17,4,14,20,2,1,1,0,157,4,19,2,1,3
marshmi01,Mike Marshall,7,9,49,5,1,0,14,312,98,37,7,37,58,2,4,2,0,435,38,41,7,3,12
martide01,Dennis Martinez,13,12,42,30,12,2,2,711,227,98,20,75,119,4,7,3,1,988,6,109,10,9,23
martire01,Renie Martin,2,3,16,4,1,0,2,130,43,20,3,16,25,2,2,1,0,185,6,22,2,2,4
martisi01,Silvio Martinez,12,9,36,24,6,2,1,534,172,71,14,67,84,5,4,2,1,754,6,84,6,7,17
martiti01,Tippy Martinez,5,3,30,4,1,0,3,212,67,29,4,29,46,3,4,1,0,302,14,33,3,2,6
matlajo01,Jon Matlack,7,7,23,17,5,1,1,387,130,48,10,32,72,3,3,2,0,537,4,57,6,3,11
matulri01,Rick Matula,8,8,32,21,2,0,1,442,158,67,13,54,67,7,3,3,1,640,6,75,6,5,18
mayru01,Rudy May,6,5,23,11,3,1,1,275,90,36,8,30,52,2,1,3,1,388,5,41,5,3,8
mccalla01,Larry McCall,3,3,14,5,1,0,1,146,50,22,4,17,25,1,2,1,0,209,5,24,3,2,5
mccatst01,Steve McCatty,8,9,33,17,5,0,1,445,160,68,13,60,74,6,3,6,0,659,8,81,9,7,9
mcclubo01,Bob McClure,3,3,28,4,1,0,4,172,56,24,6,23,36,2,2,2,0,248,13,28,3,2,5
mcenawi01,Will McEnaney,2,3,27,4,1,0,2,175,59,25,5,18,26,3,1,1,0,248,11,28,3,3,4
mcgloly01,Lynn McGlothen,9,10,45,19,4,1,2,488,173,73,18,56,104,7,2,2,1,699,11,81,6,5,14
mcgratu01,Tug McGraw,5,4,38,4,1,0,7,224,72,33,7,25,47,4,2,1,0,314,22,39,3,2,6
mcgresc01,Scott McGregor,11,8,33,21,6,2,2,505,163,67,16,38,79,3,3,3,1,692,7,74,8,5,13
mclaubo01,Bo McLaughlin,2,3,23,5,1,0,1,161,58,26,4,20,34,3,2,2,0,236,9,30,3,2,4
mclauby01,Byron McLaughlin,6,6,31,11,2,0,5,316,101,49,11,43,65,4,5,3,0,450,14,52,5,4,9
mclaujo01,Joey McLaughlin,4,3,22,5,1,0,2,184,58,24,5,25,33,3,1,1,0,260,7,28,4,2,6
mcwilla01,Larry McWilliams,7,5,24,15,3,1,1,315,102,48,9,37,52,4,3,3,0,448,5,52,6,2,6
medicdo01,Doc Medich,8,7,30,17,4,1,2,415,140,61,10,46,62,3,4,3,0,591,5,68,7,4,12
messean01,Andy Messersmith,4,6,22,13,2,0,1,275,90,44,11,39,49,3,3,2,0,396,5,49,6,3,8
milledy01,Dyar Miller,2,2,15,3,1,0,1,122,42,18,4,15,20,2,1,1,0,175,7,20,2,2,4
minetcr01,Craig Minetto,3,5,29,11,1,0,1,299,105,52,11,42,53,3,3,3,1,440,10,60,5,5,10
mingost01,Steve Mingori,3,3,25,4,1,0,2,166,59,25,6,18,26,2,1,1,0,239,9,28,4,2,5
mintogr01,Greg Minton,3,3,26,5,1,0,2,199,62,25,4,24,32,4,4,2,1,278,9,30,5,2,8
mirabpa01,Paul Mirabella,2,3,13,4,1,0,1,117,40,20,4,16,21,1,2,1,0,170,3,22,2,1,4
mitchpa01,Paul Mitchell,5,6,22,13,2,1,1,283,98,47,11,33,45,2,2,2,0,405,4,51,4,4,9
moffira01,Randy Moffitt,3,4,26,3,1,0,3,151,54,24,4,19,29,5,2,2,0,220,12,27,4,2,4
mongesi01,Sid Monge,7,6,46,5,1,0,8,297,87,36,8,46,66,5,5,1,1,422,25,41,5,5,6
montajo01,John Montague,2,2,12,3,1,0,2,113,39,18,4,15,19,1,2,1,0,163,5,20,1,1,4
montejo01,John Montefusco,6,8,29,22,2,0,1,456,155,65,15,50,95,6,4,3,1,647,4,73,8,6,11
mooreba02,Balor Moore,6,7,33,15,3,0,1,377,130,63,14,55,59,3,4,5,1,548,8,71,7,4,15
mooredo01,Donnie Moore,4,4,33,4,1,0,2,222,82,35,6,25,40,5,3,2,1,322,10,40,4,3,7
morgami01,Mike Morgan,5,9,25,14,3,0,1,314,119,55,10,49,43,2,5,3,0,467,6,62,5,4,13
morrija02,Jack Morris,11,8,36,20,5,1,1,520,166,71,16,61,94,5,7,4,1,729,8,78,7,7,19
moskapa01,Paul Moskau,6,5,26,17,2,1,1,357,119,52,11,48,68,4,4,2,2,513,4,57,6,4,9
murast01,Steve Mura,4,4,25,7,1,0,2,205,65,29,6,28,43,2,2,1,1,293,8,33,4,2,6
murphto02,Tom Murphy,2,3,16,3,1,0,2,128,44,19,4,16,20,2,2,1,0,183,8,21,3,2,4
murrada01,Dale Murray,3,2,17,3,1,0,1,121,42,18,3,15,19,4,1,1,0,173,8,20,3,2,4
nastuph01,Phil Nastu,4,5,26,12,2,0,1,293,100,45,11,37,50,4,2,2,0,420,6,49,5,2,9
niekrjo01,Joe Niekro,15,11,40,27,8,2,2,623,187,79,15,79,101,3,11,6,0,871,6,89,7,6,19
niekrph01,Phil Niekro,15,15,40,32,15,2,1,765,236,97,23,89,168,6,11,8,2,1075,4,116,10,6,17
niemara01,Randy Niemann,4,3,22,8,2,1,1,209,70,30,5,24,33,3,1,1,1,297,5,34,5,4,7
nolesdi01,Dickie Noles,5,6,25,14,2,0,1,324,104,47,9,42,55,3,2,2,1,459,6,51,7,4,9
normafr01,Fred Norman,10,10,35,25,4,0,1,503,164,69,16,62,95,5,4,2,1,715,4,78,8,4,13
norrimi01,Mike Norris,5,8,31,15,3,0,1,383,127,64,11,66,77,6,6,6,1,568,6,72,6,6,9
obrieda03,Dan O'Brien,2,2,10,3,1,0,1,99,36,16,3,12,18,1,1,1,0,143,3,18,2,2,2
oroscje01,Jesse Orosco,2,3,16,5,1,0,1,144,48,22,5,20,27,1,1,1,0,207,5,25,3,1,4
owchibo01,Bob Owchinko,7,9,33,20,3,1,1,420,140,60,13,52,69,6,3,2,1,594,6,67,10,4,13
paceljo01,John Pacella,3,4,17,7,1,0,1,184,61,27,5,21,34,2,2,1,0,261,5,30,3,2,5
palmeda01,David Palmer,7,4,30,10,2,1,2,305,97,38,9,31,57,5,2,2,0,425,10,43,4,3,8
palmeji01,Jim Palmer,10,7,27,21,8,2,1,489,146,56,12,52,81,2,3,1,0,668,4,63,6,4,12
parromi01,Mike Parrott,9,10,40,22,7,1,2,536,187,80,15,66,97,10,3,5,1,771,9,89,9,6,19
paschbi01,Bill Paschall,2,2,10,3,1,0,1,100,34,15,3,12,17,2,1,1,0,144,4,17,1,1,3
pastofr01,Frank Pastore,5,5,25,9,2,1,3,258,89,39,8,27,51,4,2,1,0,368,8,43,4,3,6
patteda03,Dave Patterson,3,2,21,4,1,0,3,159,56,25,5,20,30,3,1,1,0,230,9,29,2,2,4
pattima01,Marty Pattin,5,3,26,8,2,0,2,257,88,38,9,26,40,3,3,2,0,363,9,43,5,4,9
paxtomi01,Mike Paxton,9,8,34,20,3,1,1,454,168,77,12,50,75,3,3,4,1,661,6,86,6,5,11
perryga01,Gaylord Perry,12,8,33,26,7,1,1,584,189,69,12,56,117,7,4,3,1,806,4,81,9,5,17
petryda01,Dan Petry,7,6,26,15,3,0,2,341,110,50,11,40,56,5,3,3,1,477,6,55,6,5,11
pladsgo01,Gordie Pladson,2,2,8,3,1,0,1,83,29,12,3,10,15,1,1,1,0,120,3,14,1,1,3
planked02,Ed Plank,1,1,9,3,1,0,1,83,29,12,3,10,14,1,1,1,0,119,3,14,1,1,2
prolymi01,Mike Proly,4,5,26,8,1,0,4,243,81,34,6,29,36,4,3,1,0,346,11,38,2,3,7
quiseda01,Dan Quisenberry,3,2,18,4,1,0,2,137,46,19,5,15,22,3,1,1,0,193,8,22,3,2,5
rainech01,Chuck Rainey,7,6,26,14,3,1,2,320,104,46,9,40,51,3,3,3,0,453,6,51,4,3,11
rajsida01,Dave Rajsich,3,3,19,6,1,0,1,171,59,24,6,20,32,1,1,1,0,244,6,28,2,2,4
rasmuer01,Eric Rasmussen,7,8,32,18,4,2,2,403,131,55,12,40,59,5,2,1,2,561,7,60,8,5,12
raudo01,Doug Rau,6,6,22,15,3,1,1,321,117,45,9,36,56,2,2,3,0,463,3,51,6,4,10
rautzla01,Lance Rautzhan,2,2,14,3,1,0,1,98,33,14,2,13,17,1,2,1,0,141,4,16,2,1,3
rawlesh01,Shane Rawley,4,6,34,6,1,0,5,247,84,36,5,34,46,3,3,2,0,355,16,41,4,4,9
reardje01,Jeff Reardon,2,2,13,4,1,0,1,109,34,15,3,13,19,2,1,1,0,153,5,17,2,1,3
redfepe01,Pete Redfern,5,4,26,9,1,0,1,261,89,39,8,32,54,2,3,1,1,373,7,44,4,3,7
reedro01,Ron Reed,6,5,39,4,1,0,6,254,81,33,7,26,52,5,2,2,0,353,21,37,4,3,8
remmewi01,Win Remmerswaal,2,2,10,4,1,0,1,107,37,17,3,14,20,1,1,1,0,155,4,19,2,2,3
renkost01,Steve Renko,9,9,32,23,3,1,1,472,159,71,16,56,90,3,3,2,0,675,5,78,7,4,10
reploan01,Andy Replogle,2,2,11,5,1,0,1,133,49,20,4,15,19,1,1,1,0,191,3,22,2,2,5
reuscpa01,Paul Reuschel,3,3,19,4,1,0,1,174,65,29,5,18,28,2,1,1,0,251,6,32,3,2,6
reuscri01,Rick Reuschel,14,11,36,28,6,1,1,608,203,79,14,60,108,7,7,6,1,854,4,86,10,6,17
reussje01,Jerry Reuss,6,8,32,17,4,1,2,394,142,58,7,46,69,4,5,3,1,572,8,70,10,3,12
rhoderi01,Rick Rhoden,5,4,17,10,2,1,1,240,80,34,7,26,42,1,3,1,0,339,4,38,4,3,7
riccefr01,Frank Riccelli,3,3,13,5,1,0,1,130,43,19,3,18,25,1,2,1,0,186,4,21,2,1,3
richajr01,J. R. Richard,15,11,37,30,12,3,1,699,185,80,13,92,219,4,12,2,1,957,4,89,11,6,15
righeda01,Dave Righetti,4,4,19,9,2,0,1,215,69,31,7,27,40,2,2,1,0,303,5,35,4,3,6
rileyge01,George Riley,2,2,12,5,1,0,1,124,43,19,4,15,22,2,1,1,0,178,3,21,2,1,4
rineeje01,Jeff Rineer,1,1,7,3,1,0,1,78,26,11,2,9,14,1,1,1,0,111,2,13,1,1,2
ripleal01,Allen Ripley,3,3,18,7,1,0,1,215,79,36,8,25,36,3,2,2,0,313,5,41,3,2,6
robbibr01,Bruce Robbins,5,5,21,10,1,0,1,239,80,35,7,31,42,2,4,1,0,339,5,39,3,3,9
roberbe01,Bert Roberge,3,2,16,4,1,0,2,125,39,16,3,16,21,1,2,1,0,174,6,18,2,1,4
roberda05,Dave Roberts,4,3,19,7,1,0,1,187,67,29,5,22,29,5,2,1,0,269,5,33,5,3,6
robinde01,Dewey Robinson,2,2,11,3,1,0,1,99,32,15,3,13,17,1,1,1,0,141,4,17,2,1,3
robindo01,Don Robinson,9,7,33,23,5,0,1,492,162,69,14,51,95,5,6,3,2,691,5,76,7,6,13
rodried01,Eduardo Rodriguez,4,3,23,5,1,0,2,223,75,35,7,27,38,3,2,2,0,320,9,37,4,3,5
rogerst01,Steve Rogers,11,10,35,28,10,2,1,615,190,71,13,64,120,5,6,3,1,846,4,81,13,5,17
romoen01,Enrique Romo,7,5,47,4,1,0,5,298,92,38,9,35,67,5,3,3,2,415,20,43,5,3,8
rondogi01,Gil Rondon,2,2,9,3,1,0,1,91,31,13,3,11,16,1,1,1,0,130,2,15,1,1,2
rookeji01,Jim Rooker,6,7,25,18,2,0,1,363,121,55,12,47,57,4,4,1,0,520,3,63,6,4,10
rozemda01,Dave Rozema,7,7,25,18,6,1,1,400,134,51,13,35,52,3,3,4,0,559,4,61,7,5,12
ruhleve01,Vern Ruhle,4,6,22,12,2,1,1,276,91,39,8,26,45,2,3,2,0,386,4,43,4,2,8
ruthvdi01,Dick Ruthven,9,7,27,19,5,2,1,409,134,58,12,42,70,4,3,2,1,572,4,63,7,4,10
ryanno01,Nolan Ryan,11,11,33,26,12,3,1,577,155,77,12,103,182,5,9,4,1,818,4,87,9,9,14
sambijo01,Joe Sambito,5,6,40,4,1,0,9,240,76,27,7,26,61,4,1,2,0,335,26,31,5,2,6
sandesc01,Scott Sanderson,8,7,33,19,4,2,2,432,134,57,13,49,102,4,3,3,1,604,6,63,6,5,7
sarmima01,Manny Sarmiento,3,4,24,4,1,0,1,181,59,28,6,21,33,3,1,1,0,256,8,30,3,3,5
saucike01,Kevin Saucier,3,4,20,5,1,0,1,182,63,28,5,25,29,2,2,2,0,263,6,31,3,2,6
scarbra02,Randy Scarbery,3,5,28,7,1,0,2,240,81,38,7,28,40,3,3,2,0,343,9,42,4,3,6
schatda01,Dan Schatzeder,8,6,33,18,3,0,1,438,128,53,13,57,83,4,5,2,1,611,6,59,7,4,10
schuero01,Ron Schueler,2,3,15,4,1,0,1,141,46,23,5,20,24,2,2,2,0,204,5,26,2,3,4
schulbu01,Buddy Schultz,3,3,25,3,1,0,2,163,51,23,5,20,37,3,2,1,0,228,10,25,3,2,4
schulda01,Dave Schuler,1,1,7,3,1,0,1,78,26,12,3,9,14,1,1,1,0,112,2,13,1,1,2
scottmi03,Mike Scott,3,4,21,9,1,0,1,211,73,34,6,26,35,3,2,1,1,302,4,38,4,2,7
seamaki01,Kim Seaman,1,1,8,3,1,0,1,81,27,12,2,10,15,1,1,1,0,115,2,13,1,1,2
seaveto01,Tom Seaver,13,8,33,26,7,2,1,568,167,67,16,60,129,6,4,1,0,778,4,76,9,6,14
serumga01,Gary Serum,4,4,22,9,2,0,1,260,95,44,9,27,43,2,2,1,1,372,6,46,5,3,9
shirlbo01,Bob Shirley,8,12,42,21,3,1,2,495,162,67,13,57,97,8,2,4,1,697,10,76,8,5,13
skokcr01,Craig Skok,3,3,27,4,1,0,2,173,59,26,6,21,30,3,2,1,0,248,9,30,3,2,5
slaglro01,Roger Slagle,1,1,7,3,1,0,1,79,26,11,2,9,14,1,1,1,0,112,2,13,1,1,2
slatoji01,Jim Slaton,12,9,34,26,8,2,1,565,194,80,17,60,81,3,5,4,1,800,4,90,6,7,16
solomed01,Eddie Solomon,7,11,38,22,3,0,2,487,163,75,16,56,88,6,4,4,1,698,8,85,8,4,10
sorenla01,Lary Sorensen,13,11,36,28,12,2,1,632,216,88,19,48,72,4,3,4,1,874,5,97,9,6,19
sosael01,Elias Sosa,6,4,41,4,1,0,8,252,77,28,5,31,48,6,2,1,1,351,23,31,5,2,7
sotoma01,Mario Soto,3,3,16,4,1,0,1,140,45,22,4,22,29,2,1,1,0,203,4,25,2,1,3
spillda01,Dan Spillner,7,5,43,9,2,0,3,356,118,55,11,47,72,5,4,2,0,511,16,60,7,5,9
splitpa01,Paul Splittorff,13,11,36,28,8,1,1,606,203,87,18,62,76,3,3,3,0,853,4,101,9,8,19
sprowbo01,Bobby Sprowl,2,2,8,3,1,0,1,87,29,13,3,11,16,1,1,1,0,124,2,15,1,1,3
stanfke01,Kevin Stanfield,1,1,8,3,1,0,1,81,27,12,2,10,14,1,1,1,0,115,2,14,1,1,3
stanhdo01,Don Stanhouse,5,4,31,5,1,0,9,206,61,26,5,36,36,4,2,1,0,295,21,30,4,4,8
stanlbo01,Bob Stanley,13,8,45,18,5,2,4,531,192,73,12,46,60,5,2,3,0,746,16,84,8,6,24
steinra02,Randy Stein,3,3,20,4,1,0,1,165,58,28,6,25,34,2,2,2,0,243,7,32,3,2,4
stewasa01,Sammy Stewart,6,5,24,7,2,0,1,270,83,37,8,42,52,3,3,3,1,382,7,41,4,3,9
stiebda01,Dave Stieb,8,8,27,16,5,1,2,387,134,59,11,47,61,4,3,3,1,557,6,67,5,4,12
stoddti01,Tim Stoddard,3,3,20,4,1,0,2,169,54,22,5,20,35,2,2,1,0,237,8,25,2,1,6
stonest01,Steve Stone,10,9,32,25,4,0,1,516,167,78,21,66,93,2,4,2,0,733,4,87,9,4,11
sutclri01,Rick Sutcliffe,12,8,37,21,4,1,1,535,167,72,13,69,89,5,6,3,3,754,7,81,11,6,13
suttebr01,Bruce Sutter,5,5,41,4,1,0,17,260,72,29,6,28,75,4,5,1,0,357,29,34,5,3,5
suttodo01,Don Sutton,11,10,34,26,7,1,1,577,179,79,19,54,119,5,4,3,1,798,4,90,11,6,11
swancr01,Craig Swan,11,10,36,28,6,2,1,617,193,76,16,59,116,7,3,2,1,848,5,85,9,6,16
sykesbo01,Bob Sykes,6,5,24,13,2,1,1,298,108,50,12,39,53,2,3,2,1,433,6,54,4,3,11
tananfr01,Frank Tanana,9,7,24,18,5,2,1,386,126,51,12,37,77,3,4,4,2,542,3,57,4,4,9
taylobr01,Bruce Taylor,2,2,12,3,1,0,1,105,34,16,3,13,18,2,1,1,0,148,5,18,2,1,3
tekulke01,Kent Tekulve,7,5,57,4,1,0,15,313,93,36,6,38,58,10,3,2,0,437,35,41,5,3,11
tellmto01,Tom Tellmann,1,1,7,3,1,0,1,80,28,13,3,9,14,1,1,1,0,115,2,14,1,1,2
thomaro02,Roy Thomas,4,4,24,7,1,0,2,226,71,30,7,27,41,3,3,1,1,315,7,34,5,2,7
thormpa01,Paul Thormodsgard,2,2,8,5,1,0,0,97,35,16,3,11,15,1,1,1,0,139,2,17,1,1,3
throoge01,George Throop,2,2,12,3,1,0,1,109,36,15,4,14,20,1,1,1,0,156,3,18,2,1,3
tiantlu01,Luis Tiant,11,8,32,25,6,2,1,519,168,74,19,51,95,3,1,2,1,726,4,80,6,4,11
tidrodi01,Dick Tidrow,6,5,31,8,1,0,2,281,90,37,7,32,49,5,3,2,0,395,11,41,5,3,7
tobikda01,Dave Tobik,3,4,22,4,1,0,2,184,59,28,7,22,37,3,2,1,0,260,10,30,3,3,4
toddja01,Jackson Todd,2,2,13,5,1,0,1,132,47,21,5,14,23,1,2,1,0,190,4,24,2,2,3
toddji01,Jim Todd,3,4,32,4,1,0,2,226,85,40,7,37,33,5,2,1,0,338,13,45,3,3,8
tomlida01,Dave Tomlin,4,3,34,3,1,0,2,180,64,26,4,22,32,4,2,1,0,261,11,32,4,2,5
torremi01,Mike Torrez,13,11,36,28,10,1,1,624,213,96,17,86,102,7,5,4,1,902,4,108,9,8,20
torrepa01,Pablo Torrealba,2,2,11,3,1,0,1,100,35,14,3,14,16,1,1,1,0,146,3,16,2,1,3
travebi01,Bill Travers,11,9,33,24,6,2,1,506,176,78,22,53,73,3,6,4,0,722,5,85,6,5,14
troutst01,Steve Trout,9,7,31,15,4,1,3,383,131,56,9,48,65,4,2,3,0,552,10,63,6,4,12
tudorjo01,John Tudor,4,4,20,10,2,0,1,226,81,37,7,27,39,3,2,1,0,326,5,41,5,4,7
twitcwa01,Wayne Twitchell,3,4,16,8,1,0,1,180,59,30,7,27,34,2,3,2,0,261,3,33,3,2,4
underpa01,Pat Underwood,6,5,27,13,2,0,1,327,111,52,12,33,66,2,3,2,0,461,7,56,5,3,8
underto01,Tom Underwood,8,13,36,27,7,1,1,584,191,85,20,81,116,4,8,5,0,835,5,100,9,5,18
urreajo01,John Urrea,3,4,18,7,1,0,1,196,67,30,5,25,37,2,3,2,0,281,5,36,3,2,7
vasqura01,Rafael Vasquez,2,2,11,3,1,0,1,103,36,16,4,12,19,1,1,1,0,148,4,17,2,1,3
vuckope01,Pete Vuckovich,12,10,42,23,6,1,2,586,191,74,16,61,127,5,7,3,2,819,12,85,11,6,14
waitsri01,Rick Waits,12,12,38,27,8,2,1,599,194,88,18,77,88,3,6,3,0,846,5,98,8,5,23
welchbo01,Bob Welch,6,5,26,12,2,1,3,289,93,37,8,33,60,3,2,2,1,404,8,42,4,3,8
whitsed01,Ed Whitson,7,8,35,13,2,0,2,355,115,50,8,47,73,6,3,3,1,510,9,56,7,4,8
wihtosa01,Sandy Wihtol,2,2,9,3,1,0,1,93,31,14,3,11,17,1,1,1,0,133,2,15,1,1,3
wilcomi01,Milt Wilcox,10,9,33,23,7,1,1,525,174,78,17,61,102,5,4,7,0,748,5,86,9,5,14
wilkier01,Eric Wilkins,4,5,24,13,2,0,1,280,97,43,7,39,56,3,2,3,0,406,5,49,6,3,8
willimi01,Mike Willis,2,3,19,4,1,0,2,151,52,25,5,20,26,2,2,1,0,218,8,28,3,2,4
williri03,Rick Williams,5,6,31,12,2,1,1,324,111,45,8,33,47,3,2,2,1,460,7,48,6,3,10
wilsoga02,Gary Wilson,2,2,9,3,1,0,1,88,31,14,3,11,16,1,1,1,0,127,3,16,1,1,2
wirthal01,Alan Wirth,3,3,13,6,1,0,1,143,47,21,4,19,24,1,2,1,0,202,3,24,3,2,4
wiseri01,Rick Wise,11,11,36,27,7,1,1,580,199,87,20,58,98,6,3,2,0,823,5,98,7,7,12
worthri01,Rich Wortham,11,10,34,24,4,0,1,507,165,82,15,73,93,4,10,3,2,728,5,93,8,7,14
wrighji02,Jim Wright,3,2,14,6,1,1,1,153,51,22,5,16,27,2,1,2,0,216,4,25,2,2,4
youngki01,Kip Young,4,4,19,10,2,0,1,233,81,35,9,25,40,2,2,2,0,330,5,38,3,2,7
zachrpa01,Pat Zachry,7,5,20,13,3,1,1,287,94,39,8,39,50,3,2,2,1,412,4,44,6,3,7
zahnge01,Geoff Zahn,10,9,30,22,5,1,1,492,173,66,13,51,70,3,4,2,0,693,4,75,8,6,22
