playerID,playerName,G,AB,R,H,2B,3B,HR,RBI,BB,SO,SB,CS,HBP,SH,SF
adamsri02,Ricky Adams,92,242,37,63,9,1,5,23,19,31,5,2,4,4,1
adducji01,Jim Adduci,61,194,23,49,8,1,4,22,18,30,4,2,1,1,2
aguaylu01,Luis Aguayo,81,191,27,50,8,2,5,22,18,28,4,2,2,2,1
aikenwi01,Willie Aikens,125,424,51,120,24,1,18,67,49,67,2,1,3,1,3
allenga01,Gary Allenson,107,316,35,74,15,1,7,42,39,53,2,3,2,4,4
allenja02,Jamie Allen,99,320,34,78,13,1,6,31,35,54,7,5,1,5,1
allenro02,Rod Allen,63,190,25,50,8,1,4,22,17,26,5,2,1,1,2
almonbi01,Bill Almon,139,435,52,118,21,3,6,52,31,67,19,8,2,3,6
anderda02,Dave Anderson,92,243,30,57,10,3,5,21,24,33,8,4,1,4,1
anderji01,Jim Anderson,88,233,24,56,9,1,4,25,20,31,5,4,1,3,1
armasto01,Tony Armas,136,522,64,124,22,2,27,88,31,117,4,2,2,1,6
ashbyal01,Alan Ashby,106,346,39,88,18,2,10,45,36,49,3,1,1,2,4
ashfotu01,Tucker Ashford,76,206,24,52,8,2,4,22,21,26,4,2,1,1,1
ayalabe01,Benny Ayala,97,242,31,65,12,1,8,34,21,33,3,2,1,1,2
backmwa01,Wally Backman,85,226,31,59,10,2,4,22,30,37,6,4,1,2,1
bailobo01,Bob Bailor,128,384,44,102,13,1,3,37,26,31,17,3,2,4,4
baineha01,Harold Baines,151,555,76,153,28,5,19,89,44,82,9,4,1,2,6
bakerdu01,Dusty Baker,135,497,66,141,21,2,15,69,53,57,11,5,2,3,7
balbost01,Steve Balboni,76,237,27,58,9,2,7,29,21,50,3,2,1,1,2
bandoch01,Chris Bando,90,258,28,64,10,1,6,29,28,38,3,2,1,2,3
bannial01,Alan Bannister,119,398,52,106,21,3,6,45,37,46,14,5,2,5,3
barfije01,Jesse Barfield,138,421,58,107,15,3,21,63,34,93,5,5,3,3,3
barnesk01,Skeeter Barnes,63,197,26,51,8,1,5,24,22,26,6,4,2,1,2
barrema02,Marty Barrett,79,207,27,52,8,2,4,22,18,24,4,2,1,1,2
basske01,Kevin Bass,109,288,37,70,11,3,5,31,18,43,5,3,1,4,2
baylodo01,Don Baylor,134,496,70,136,25,2,19,77,45,57,11,5,8,1,7
bellbu01,Buddy Bell,142,529,64,150,27,2,13,66,54,49,5,4,3,1,6
bellge02,George Bell,81,245,26,64,9,4,6,29,16,37,5,3,2,1,1
benchjo01,Johnny Bench,116,366,40,97,16,1,13,48,33,49,2,2,0,1,1
benedbr01,Bruce Benedict,132,428,44,117,15,2,5,48,50,38,4,4,2,5,3
beniqju01,Juan Beniquez,124,348,46,94,16,1,6,39,25,38,6,2,3,10,2
bergmda01,Dave Bergman,130,257,34,70,10,2,8,33,34,34,5,2,1,2,2
bernato01,Tony Bernazard,102,380,54,101,18,4,8,39,47,62,12,4,2,8,3
berrada01,Dale Berra,154,507,55,130,24,3,9,55,46,78,10,5,2,6,4
bevacku01,Kurt Bevacqua,111,259,31,67,13,1,4,39,29,45,4,3,1,3,4
biancbu01,Buddy Biancalana,60,192,25,51,8,2,4,22,18,31,5,2,1,1,2
biittla01,Larry Biittner,113,248,23,69,12,2,3,33,22,30,3,1,1,2,3
bilarda01,Dann Bilardello,114,337,36,85,18,1,9,43,24,52,5,2,1,2,4
bishomi01,Mike Bishop,56,186,25,49,9,1,4,22,20,29,5,2,1,1,2
bjorkge01,George Bjorkman,70,216,27,56,10,1,5,30,27,44,4,2,2,2,1
blackti01,Tim Blackwell,65,188,22,47,10,2,3,20,20,29,3,2,1,1,1
bochybr01,Bruce Bochy,70,206,23,55,10,2,5,25,17,31,4,2,1,1,3
boggswa01,Wade Boggs,144,513,81,174,31,5,7,65,68,40,4,3,1,4,6
bonilju01,Juan Bonilla,132,480,50,124,17,4,4,39,40,41,5,4,3,5,3
bonneba01,Barry Bonnell,129,412,52,119,21,4,9,52,33,53,11,5,2,3,4
boonebo01,Bob Boone,136,446,44,113,17,1,8,52,33,41,4,3,0,12,5
bosleth01,Thad Bosley,87,223,28,57,9,1,4,24,22,33,6,3,1,1,2
bowala01,Larry Bowa,136,466,57,123,18,5,3,39,36,35,10,4,1,6,3
bradlma01,Mark Bradley,107,233,29,58,11,1,6,23,23,47,7,3,1,1,1
bradlph01,Phil Bradley,67,217,28,58,9,1,4,24,22,27,6,3,1,2,2
brantma01,Marshall Brant,57,186,25,49,8,1,4,23,17,27,4,2,1,1,2
braunst01,Steve Braun,124,221,27,59,9,2,5,22,34,28,3,2,1,1,2
breamsi01,Sid Bream,67,190,24,50,8,1,5,24,19,27,5,2,1,1,2
brenlbo01,Bob Brenly,117,336,44,86,13,3,8,38,38,51,10,6,2,2,3
brettge01,George Brett,124,464,78,140,31,5,18,74,53,43,6,3,1,1,4
brockgr01,Greg Brock,135,410,56,97,15,2,15,56,63,69,6,2,1,1,4
brookhu01,Hubie Brooks,141,522,51,137,22,3,5,53,31,85,8,4,4,4,5
brookto01,Tom Brookens,136,385,47,91,16,3,8,46,31,58,9,6,2,4,6
brouhma01,Mark Brouhard,90,286,37,78,13,2,8,33,20,51,3,5,3,3,2
brownbo04,Bobby Brown,96,317,45,82,10,3,6,31,28,48,27,8,1,3,2
brownda01,Darrell Brown,107,338,45,92,10,3,3,32,20,38,6,3,1,3,1
brownmi02,Mike Brown,71,237,30,61,11,2,6,27,21,37,5,2,1,1,1
brummgl01,Glenn Brummer,93,231,25,61,13,1,3,27,20,32,5,3,1,3,2
brunato01,Tom Brunansky,142,504,72,125,26,3,23,66,63,93,4,4,5,1,3
bucknbi01,Bill Buckner,139,550,71,160,33,5,13,75,31,31,11,4,4,2,6
bumbral01,Al Bumbry,119,412,61,111,16,3,4,34,38,50,12,7,1,5,2
burleri01,Rick Burleson,65,238,32,66,11,1,3,22,24,26,3,3,1,4,2
burroje01,Jeff Burroughs,127,400,48,107,17,2,13,56,50,76,2,3,0,1,4
bushra01,Randy Bush,131,385,46,98,22,3,11,52,35,58,3,2,6,1,2
butersa01,Sal Butera,67,189,20,49,7,1,2,20,21,22,2,1,1,2,1
butlebr01,Brett Butler,145,482,70,127,16,8,5,33,50,58,31,15,1,3,3
cabelen01,Enos Cabell,119,422,52,117,20,3,5,43,19,48,9,7,1,4,4
campabe01,Bert Campaneris,93,241,32,69,10,1,4,26,19,27,9,6,1,4,2
carewro01,Rod Carew,122,447,67,141,22,3,4,40,54,49,10,10,1,8,3
cartega01,Gary Carter,137,499,68,137,30,2,19,78,54,56,3,4,5,3,7
cartejo01,Joe Carter,70,212,27,53,9,2,4,22,17,41,5,2,1,2,2
castica01,Carmelo Castillo,77,214,29,54,9,2,5,24,18,31,4,2,2,1,1
castijo01,John Castino,137,505,66,134,22,6,9,51,46,59,5,4,2,7,3
castima01,Manny Castillo,110,339,33,84,16,2,3,37,19,32,3,4,2,2,5
castima02,Marty Castillo,96,242,28,58,10,1,5,26,20,38,5,2,1,5,1
cedence01,Cesar Cedeno,112,392,47,104,23,1,8,46,35,47,13,9,3,2,5
ceronri01,Rick Cerone,102,333,33,79,13,1,5,33,23,38,2,2,1,4,3
ceyro01,Ron Cey,141,512,63,138,25,2,20,75,55,82,3,2,4,2,7
chambal01,Al Chambers,74,218,30,56,10,1,5,26,30,39,4,3,1,1,1
chambch01,Chris Chambliss,130,448,54,122,23,2,16,69,52,57,5,4,1,1,4
chrisst01,Steve Christmas,60,190,23,48,8,1,4,23,18,27,4,2,1,1,2
ciasda01,Darryl Cias,68,190,24,52,9,1,4,23,19,28,5,2,1,1,2
clarkbo04,Bobby Clark,131,298,33,73,11,2,8,35,18,59,3,1,1,3,2
clarkja01,Jack Clark,133,479,75,129,24,2,20,71,67,72,5,5,1,1,6
colesda01,Darnell Coles,70,235,29,64,13,1,5,25,21,32,4,4,1,2,1
collida02,Dave Collins,121,409,57,109,16,4,4,35,41,59,23,8,4,5,3
conceda01,Dave Concepcion,132,493,53,132,23,2,5,53,46,67,11,7,1,2,6
conceon01,Onix Concepcion,108,317,34,79,15,3,3,31,20,30,9,3,2,6,2
connafr02,Fritzie Connally,60,187,24,49,8,1,4,22,17,29,5,2,1,1,2
coopece01,Cecil Cooper,142,568,90,174,34,3,24,98,35,53,4,3,1,3,6
cowenal01,Al Cowens,119,408,49,102,23,4,10,47,33,54,9,4,2,2,3
cromawa01,Warren Cromartie,122,404,47,110,23,2,8,49,49,49,6,2,2,1,4
crowlte01,Terry Crowley,99,198,21,50,7,1,5,28,31,23,3,1,1,1,2
cruzjo01,Jose Cruz,142,521,67,151,24,5,12,71,53,69,19,11,1,2,5
cruzju01,Julio Cruz,114,398,58,100,15,4,5,40,39,51,31,8,2,4,3
cruzto02,Todd Cruz,106,345,33,81,15,2,9,41,19,66,4,6,1,8,3
culmewi01,Wil Culmer,58,191,23,49,8,1,4,23,17,28,4,3,1,1,2
dauerri01,Rich Dauer,134,462,56,120,22,1,7,47,43,34,2,1,2,7,4
daultda01,Darren Daulton,57,188,25,51,9,1,5,23,19,27,5,2,1,1,2
davisbu02,Butch Davis,71,245,30,73,9,6,5,33,18,36,7,4,1,3,3
davisch01,Chili Davis,136,505,63,126,22,3,13,60,46,96,15,10,1,4,6
davisge03,Gerry Davis,57,189,26,52,10,1,4,23,20,28,5,2,1,1,2
davisjo02,Jody Davis,144,476,51,127,24,2,17,67,39,87,2,2,2,3,6
davismi02,Mike Davis,127,421,57,118,22,3,8,56,29,65,23,11,4,4,3
dawsoan01,Andre Dawson,143,556,92,165,31,7,25,87,38,77,27,8,7,2,10
dayetbr01,Brian Dayett,61,196,25,51,8,2,4,25,18,28,4,2,1,2,2
decindo01,Doug DeCinces,112,412,60,117,25,3,18,67,43,56,4,3,1,2,6
dejesiv01,Ivan de Jesus,143,477,55,115,16,5,4,44,50,69,14,5,1,9,3
dempsri01,Rick Dempsey,133,376,40,92,17,2,6,37,45,52,2,2,2,5,4
dentbu01,Bucky Dent,123,395,40,96,17,2,6,39,29,36,4,5,1,7,3
dernibo01,Bob Dernier,131,331,51,83,13,1,4,26,30,48,34,9,1,4,2
diazbo01,Bo Diaz,136,467,57,124,24,1,15,70,37,66,4,5,2,3,4
diazmi01,Mike Diaz,60,188,26,51,9,1,5,23,18,26,5,2,1,1,2
dilonmi01,Miguel Dilone,76,254,35,64,9,3,3,22,21,28,18,5,1,3,1
doranbi02,Bill Doran,134,465,60,126,14,5,8,40,62,60,12,8,1,5,2
downibr01,Brian Downing,119,432,70,114,21,1,17,57,59,52,3,2,4,2,3
doyleje02,Jeff Doyle,61,199,26,54,9,3,4,23,17,26,4,2,1,3,2
driesda01,Dan Driessen,127,414,57,111,20,1,13,54,67,54,8,5,1,1,5
dunbato01,Tom Dunbar,62,195,26,52,8,1,4,24,21,30,7,3,1,1,2
durhale01,Leon Durham,117,412,62,117,22,7,14,61,54,72,19,9,2,1,2
dwyerji01,Jim Dwyer,122,283,45,78,14,3,9,38,40,42,4,2,1,2,3
dybzije01,Jerry Dybzinski,137,325,38,80,12,2,3,38,28,41,11,5,3,10,4
easlemi01,Mike Easler,122,411,49,118,21,3,11,53,31,66,4,3,3,1,3
edlerda01,Dave Edler,77,220,25,54,8,2,4,26,22,32,7,5,1,3,3
edwarma01,Marshall Edwards,99,236,34,63,8,2,4,23,13,24,11,6,1,4,2
eisenji01,Jim Eisenreich,61,197,24,55,10,1,5,22,20,27,4,2,1,1,1
engleda01,Dave Engle,124,392,48,108,20,4,9,45,29,48,3,2,2,1,4
esaskni01,Nick Esasky,98,340,46,91,13,4,11,48,32,85,8,3,3,1,3
espinju01,Juan Espino,60,192,24,52,8,1,5,24,18,28,4,2,1,1,2
espyce01,Cecil Espy,72,193,28,52,9,1,5,24,19,28,5,2,1,1,2
essiaji01,Jim Essian,87,240,28,62,12,1,5,29,25,24,4,2,1,2,2
evansda01,Darrell Evans,135,469,72,125,22,4,20,66,70,65,6,5,2,2,4
evansdw01,Dwight Evans,124,458,81,124,23,4,21,66,75,90,4,2,1,2,2
faedole01,Lenny Faedo,95,302,29,79,12,1,4,32,19,34,3,1,1,3,3
faheybi01,Bill Fahey,73,197,24,49,8,1,4,22,16,24,4,2,1,2,2
fergujo01,Joe Ferguson,66,192,25,46,7,1,5,22,24,34,3,1,1,2,1
fernato01,Tony Fernandez,65,204,27,55,9,2,4,24,19,26,4,3,2,2,2
fimplja01,Jack Fimple,84,259,32,68,13,2,5,35,23,49,5,2,1,6,2
fischmi01,Mike Fischlin,121,316,41,78,12,2,3,32,35,44,11,4,2,9,2
fiskca01,Carlton Fisk,130,455,68,125,20,3,17,68,45,67,11,4,7,3,4
fitzgmi02,Mike Fitzgerald,60,194,24,50,8,1,5,24,20,30,4,2,1,1,2
flannti01,Tim Flannery,118,329,37,84,12,5,4,31,28,35,4,2,3,4,5
fletcsc01,Scott Fletcher,121,318,47,78,17,4,5,36,33,36,7,2,2,5,2
flynndo01,Doug Flynn,132,425,41,103,17,4,2,34,21,41,3,3,0,5,2
foleyto02,Tom Foley,98,233,26,58,10,2,4,27,25,35,5,2,1,3,1
foliti01,Tim Foli,112,385,39,98,13,2,3,39,16,25,5,4,1,14,4
fordda01,Dan Ford,116,425,57,112,23,3,11,52,29,66,7,3,4,3,4
fostege01,George Foster,141,519,66,133,21,2,20,78,45,98,3,1,3,1,5
francju01,Julio Franco,134,472,58,129,21,6,8,65,29,49,22,10,2,3,5
francte01,Terry Francona,126,316,35,86,12,2,5,32,19,33,4,4,1,4,2
frobedo01,Doug Frobel,79,219,31,58,11,2,7,29,19,41,5,3,1,1,1
fuentmi02,Mike Fuentes,59,184,25,50,8,1,5,22,18,27,5,2,1,1,2
gaettga01,Gary Gaetti,149,532,69,130,26,3,21,76,46,105,5,3,3,2,9
gagnegr01,Greg Gagne,61,200,25,50,9,1,4,24,17,30,4,2,1,1,3
gamblos01,Oscar Gamble,103,287,41,76,16,2,12,43,43,40,4,2,3,1,2
gantnji01,Jim Gantner,149,523,65,147,21,4,8,58,37,46,6,5,4,9,4
garcida01,Damaso Garcia,132,514,74,152,24,4,5,40,25,45,33,14,3,5,3
garciki01,Kiko Garcia,106,246,31,66,13,2,4,25,20,37,4,3,1,3,1
gardero01,Ron Gardenhire,86,237,22,57,10,1,3,23,18,34,4,3,0,5,2
garneph01,Phil Garner,141,515,64,132,24,4,12,69,49,76,18,10,3,3,6
garvest01,Steve Garvey,115,434,62,123,24,1,12,61,26,53,5,3,2,2,5
gedmari01,Rich Gedman,107,323,36,88,20,2,6,34,21,48,2,2,2,3,2
geronce01,Cesar Geronimo,88,230,25,58,9,3,5,28,18,32,5,2,2,1,3
gibsoki01,Kirk Gibson,123,416,58,110,17,6,13,54,43,82,15,6,3,3,3
gilesbr01,Brian Giles,137,405,44,100,16,1,5,34,37,73,15,7,2,3,4
gladdda01,Dan Gladden,63,212,26,55,9,1,5,27,20,32,7,4,1,3,2
gonzaju02,Julio Gonzalez,76,199,23,51,9,2,4,23,15,36,4,2,1,2,1
grantto01,Tom Grant,65,191,25,50,9,1,4,23,19,28,4,2,1,1,2
graylo01,Lorenzo Gray,85,225,35,56,10,1,5,22,22,35,5,2,1,2,1
greenda03,David Green,151,421,54,116,16,7,8,61,30,71,26,11,2,2,4
grichbo01,Bobby Grich,122,413,63,116,20,2,17,60,63,75,4,4,6,5,3
griffal01,Alfredo Griffin,151,509,56,124,22,7,4,45,27,49,9,10,2,9,3
griffke01,Ken Griffey,120,450,64,131,22,3,9,47,38,51,9,3,1,2,3
grossgr01,Greg Gross,170,309,36,87,14,3,3,33,39,27,6,5,1,2,3
grosswa01,Wayne Gross,132,377,43,92,16,1,11,46,45,52,4,3,3,5,3
grubbjo01,Johnny Grubb,92,269,35,71,12,2,5,32,35,35,2,3,3,1,2
guerrpe01,Pedro Guerrero,146,532,77,157,25,5,25,86,60,89,18,7,3,2,4
gulligl01,Glenn Gulliver,70,209,29,50,10,1,3,18,33,27,3,2,1,2,2
gutieja01,Jackie Gutierrez,58,189,26,51,8,1,5,22,18,26,5,3,1,1,2
gwosddo01,Doug Gwosdz,85,213,26,49,9,1,5,23,22,42,4,2,1,3,2
gwynnto01,Tony Gwynn,104,361,48,106,17,3,4,42,30,35,10,5,1,5,3
hairsje01,Jerry Hairston,138,247,33,67,14,1,9,38,30,35,3,2,1,1,4
hallme01,Mel Hall,117,404,55,111,21,5,13,51,39,86,7,5,3,1,3
hancoga01,Garry Hancock,112,309,37,82,12,3,8,36,17,28,5,2,1,3,2
hargrmi01,Mike Hargrove,129,456,56,129,22,2,4,56,73,43,3,4,4,5,6
harpebr01,Brian Harper,98,255,33,65,10,2,9,34,16,33,4,2,1,3,4
harpete01,Terry Harper,105,294,33,79,13,1,6,36,30,54,10,6,1,1,3
harrato01,Toby Harrah,133,486,77,137,21,3,13,57,67,50,14,5,6,4,4
hassero01,Ron Hassey,125,375,43,97,19,1,6,45,45,39,4,3,2,3,4
hatchmi01,Mickey Hatcher,115,400,46,112,19,3,7,45,19,34,4,2,1,3,3
hayesvo01,Von Hayes,131,414,54,107,17,4,9,53,39,56,22,10,3,4,3
heathmi02,Mike Heath,113,385,48,100,18,2,7,42,26,54,6,4,1,3,3
hebneri01,Richie Hebner,96,260,31,68,9,2,7,36,27,35,8,3,2,2,3
heepda01,Danny Heep,129,329,36,84,17,1,8,35,35,49,4,3,1,1,4
hendeda01,Dave Henderson,142,459,56,118,22,3,17,57,39,85,8,4,1,2,4
henderi01,Rickey Henderson,137,492,98,141,23,6,9,48,89,79,88,24,3,1,2
hendest01,Steve Henderson,125,416,47,115,23,4,8,50,44,81,9,10,1,2,3
hendrge01,George Hendrick,132,487,68,143,25,4,17,85,44,69,5,3,2,1,9
hernake01,Keith Hernandez,111,389,55,115,19,4,8,53,64,49,11,6,2,1,5
hernale01,Leo Hernandez,89,289,34,75,11,2,8,36,23,34,4,2,1,1,2
herndla01,Larry Herndon,143,544,78,159,23,9,17,76,39,83,12,6,2,2,5
herrto01,Tom Herr,107,388,56,109,16,5,2,38,44,40,15,8,1,5,4
hilldo01,Donnie Hill,84,267,35,72,12,1,5,30,18,37,5,2,1,5,3
hillma01,Marc Hill,99,252,28,64,11,1,5,29,21,39,3,2,1,4,2
hinshge01,George Hinshaw,60,192,24,54,9,1,4,25,18,30,5,2,1,2,2
hodgero01,Ron Hodges,122,316,34,82,15,1,5,34,50,51,4,4,1,4,3
hoffmgl01,Glenn Hoffman,147,474,56,115,23,2,6,47,32,69,3,3,3,8,3
hornebo01,Bob Horner,118,425,71,118,22,1,22,71,52,64,5,4,2,1,3
hosteda01,Dave Hostetler,111,376,45,90,13,3,15,56,42,99,3,3,3,1,3
housepa02,Paul Householder,135,420,47,103,20,4,9,44,41,70,14,10,2,2,2
howarmi01,Mike Howard,70,185,24,47,8,1,4,22,20,28,6,2,1,2,2
howelro02,Roy Howell,99,305,38,80,14,4,6,39,26,44,2,3,1,2,2
hrbekke01,Kent Hrbek,140,506,73,147,30,4,17,80,53,72,5,4,2,1,5
hubbagl01,Glenn Hubbard,140,495,64,126,22,4,10,59,51,67,5,5,3,10,5
hudgeda01,Dave Hudgens,58,184,23,49,8,1,4,22,17,28,4,2,1,1,2
huletti01,Tim Hulett,60,187,24,50,9,1,5,23,18,26,5,2,1,1,2
hurdlcl01,Clint Hurdle,68,200,25,53,9,1,5,24,20,32,3,2,1,1,1
iorgda01,Dane Iorg,100,261,25,75,15,2,3,35,21,26,3,1,1,1,4
iorgga01,Garth Iorg,130,412,45,113,21,4,3,39,19,49,6,2,2,2,4
iviemi01,Mike Ivie,70,225,28,55,12,1,8,31,20,37,2,1,1,1,3
jacksre01,Reggie Jackson,121,415,55,100,16,1,20,63,57,116,3,3,2,1,4
jacksro02,Ron Jackson,113,365,44,96,18,2,8,44,30,40,5,3,3,3,2
jamesdi01,Dion James,63,197,25,50,8,1,5,23,19,27,5,2,1,1,2
jeltzst01,Steve Jeltz,65,187,24,49,8,2,5,23,18,27,5,2,1,2,2
jimenho01,Houston Jimenez,75,225,25,55,11,2,4,27,19,31,4,3,1,1,3
johnsbo04,Bob Johnson,98,279,32,65,11,2,8,32,25,66,5,2,2,2,2
johnscl01,Cliff Johnson,130,394,52,103,19,1,18,67,52,69,4,3,4,1,5
johnsho01,Howard Johnson,78,234,33,64,8,1,7,25,24,37,6,3,2,1,1
johnsja01,Jay Johnstone,114,266,34,68,13,1,9,37,33,41,3,2,2,2,2
johnsra04,Randy Johnson,111,254,35,66,11,1,4,31,29,39,4,4,2,4,2
johnsro03,Ron Johnson,61,194,25,52,9,1,4,21,21,26,4,2,1,1,1
johnswa03,Wallace Johnson,74,191,23,48,7,3,4,22,18,24,6,3,1,1,1
jonesbo02,Bob Jones,77,212,25,55,10,1,6,29,18,36,4,4,2,1,3
jonesje02,Jeff Jones,62,201,27,53,10,1,4,25,25,34,6,2,2,1,3
jonesly01,Lynn Jones,92,224,28,57,7,2,3,25,18,24,3,2,1,4,2
jonesru01,Ruppert Jones,120,384,54,99,20,2,10,50,45,68,12,11,1,3,3
jorgemi01,Mike Jorgensen,130,207,25,52,9,1,5,27,26,35,5,1,1,2,2
juraked01,Ed Jurak,100,263,33,72,12,4,4,34,27,39,4,3,1,3,3
kearnbo01,Bob Kearney,113,338,40,85,14,1,8,37,26,52,4,4,4,3,3
kempst01,Steve Kemp,118,413,60,111,18,3,12,59,57,53,6,3,2,1,4
kenneju01,Junior Kennedy,84,211,24,51,6,1,3,24,18,31,3,3,1,3,3
kennete02,Terry Kennedy,143,519,56,150,31,2,15,82,38,81,3,2,3,3,7
kingmda01,Dave Kingman,107,344,44,75,10,1,19,53,38,86,4,1,2,2,3
kittlro01,Ron Kittle,134,451,63,116,18,3,24,79,37,113,8,3,5,1,3
kluttmi01,Mickey Klutts,74,218,24,54,9,1,6,26,16,32,3,2,1,2,1
kniceal01,Alan Knicely,98,241,28,58,8,1,6,27,27,47,3,3,1,2,1
knighra01,Ray Knight,136,490,53,141,30,4,8,59,41,58,3,4,4,2,9
kommibr01,Brad Komminsk,68,204,25,54,10,1,4,25,21,30,4,2,1,1,2
krencwa01,Wayne Krenchicki,109,265,33,72,12,1,4,31,22,40,5,2,1,2,4
kuipedu01,Duane Kuiper,110,285,30,76,9,2,2,26,32,29,3,2,2,5,2
kuntzru01,Rusty Kuntz,96,231,34,56,9,1,5,23,24,44,4,2,1,1,2
lacyle01,Lee Lacy,122,354,54,104,16,4,6,27,29,50,32,11,1,3,1
lagami01,Mike Laga,66,207,24,54,12,1,5,25,17,39,4,2,1,1,1
lakest01,Steve Lake,77,226,28,60,11,2,5,25,17,27,4,2,2,1,1
landera01,Rafael Landestoy,114,220,26,51,8,2,4,21,18,29,4,3,1,4,1
landrke01,Ken Landreaux,132,465,63,128,23,5,12,56,36,54,25,9,2,4,4
landrti01,Tito Landrum,108,206,29,56,9,2,4,25,17,34,4,3,1,4,2
lansfca01,Carney Lansford,103,382,54,116,21,3,9,51,34,40,8,7,2,1,5
lansfjo01,Joe Lansford,69,190,27,50,8,1,5,25,20,29,4,3,1,1,2
laudnti01,Tim Laudner,96,299,37,71,16,1,8,34,30,68,2,2,1,1,2
lawru01,Rudy Law,144,469,80,136,20,7,5,41,39,47,53,11,1,4,2
lawva01,Vance Law,142,424,52,108,21,4,6,51,42,59,5,3,1,6,5
leachri01,Rick Leach,124,323,35,80,16,2,5,33,31,40,5,2,1,3,2
lefebjo01,Joe Lefebvre,122,333,41,91,18,5,9,41,36,56,6,3,2,3,3
lemasjo01,Johnnie LeMaster,142,493,58,118,16,2,5,37,46,83,22,11,1,6,3
lemonch01,Chet Lemon,135,463,73,124,23,4,19,62,52,68,3,6,15,4,3
leonaje01,Jeffrey Leonard,131,466,63,128,21,5,16,76,35,95,22,7,2,1,5
lezcasi01,Sixto Lezcano,74,236,34,66,11,2,7,37,35,37,2,1,1,1,3
littlbr01,Bryan Little,118,365,50,95,15,3,4,40,45,35,7,5,2,4,4
lopesda01,Davey Lopes,133,458,61,118,15,3,13,53,45,59,24,7,2,4,5
loucksc01,Scott Loucks,80,193,26,51,8,1,4,21,18,35,8,4,1,1,1
lowenjo01,John Lowenstein,132,354,58,101,16,2,17,60,50,60,7,5,1,2,5
lubrast01,Steve Lubratich,84,258,28,63,13,1,4,23,17,33,4,2,1,10,2
luzingr01,Greg Luzinski,135,477,69,129,25,1,22,81,67,98,3,1,6,1,7
lynnfr01,Fred Lynn,124,436,63,119,24,2,17,69,53,72,5,4,3,2,6
lyonsbi01,Bill Lyons,83,214,24,53,9,2,4,23,17,32,7,3,1,1,1
maddoga01,Garry Maddox,112,381,39,104,18,2,7,47,21,40,8,5,1,2,3
madlobi01,Bill Madlock,130,465,68,147,25,2,13,70,46,34,12,5,3,1,7
maldoca01,Candy Maldonado,86,217,26,54,8,2,5,25,20,36,4,2,1,2,1
malerji01,Jim Maler,76,240,25,58,9,2,5,26,19,36,3,3,3,2,1
manniri01,Rick Manning,119,420,51,107,16,3,6,38,38,51,14,4,1,2,2
marshmi02,Mike Marshall,141,433,47,119,18,1,15,56,42,100,8,3,4,1,4
martibu01,Buck Martinez,110,308,36,78,18,1,11,44,32,45,3,2,1,3,4
martica01,Carmelo Martinez,71,231,28,62,10,1,9,32,19,38,4,2,1,1,2
martije01,Jerry Martin,73,250,27,66,10,1,7,33,20,55,3,1,1,1,3
matthga01,Gary Matthews,129,455,67,125,22,2,12,61,59,69,15,5,1,2,6
mattido01,Don Mattingly,106,332,41,91,17,4,6,39,28,41,4,2,1,2,3
matusle01,Len Matuszek,80,222,28,56,12,2,6,31,18,35,4,3,1,2,2
maymi01,Milt May,67,222,19,62,11,0,4,24,20,24,2,2,0,2,1
mazzile01,Lee Mazzilli,108,314,43,78,12,2,8,35,45,48,13,6,2,2,3
mcbriba01,Bake McBride,89,301,33,87,14,3,4,32,18,38,8,3,1,1,3
mcgeewi01,Willie McGee,144,537,64,154,19,7,6,68,26,81,30,9,1,2,3
mcraeha01,Hal McRae,139,520,71,155,35,5,15,81,46,57,4,4,6,1,4
mcreyke01,Kevin McReynolds,74,255,31,64,9,2,7,29,24,43,5,3,1,1,4
meachbo01,Bob Meacham,69,211,26,55,10,1,4,24,20,32,11,2,2,1,2
mercaor01,Orlando Mercado,95,280,27,65,15,2,5,33,24,42,5,3,1,2,3
meyerda01,Dan Meyer,101,306,30,74,14,2,5,36,22,28,3,2,1,2,3
milbola01,Larry Milbourne,78,242,28,66,11,2,3,22,16,25,4,3,2,4,3
milleri01,Rick Miller,116,344,46,94,14,2,4,34,34,40,5,5,1,3,2
millsbr01,Brad Mills,87,199,24,51,9,1,4,20,19,28,4,2,1,2,1
milneed01,Eddie Milner,138,472,70,125,24,5,8,38,55,55,27,11,2,7,1
mitchbo03,Bobby Mitchell,93,300,38,75,9,3,3,26,38,39,5,4,2,1,1
mizerjo01,John Mizerock,74,227,28,54,11,2,5,28,25,34,4,2,2,2,2
molinbo01,Bob Molinaro,87,184,23,48,8,1,5,25,19,23,5,2,1,1,3
molitpa01,Paul Molitor,140,551,95,155,24,5,13,52,55,72,31,8,2,7,4
mondari01,Rick Monday,123,274,40,73,10,3,11,41,41,59,3,2,1,1,3
moneydo01,Don Money,85,255,29,62,12,2,8,34,27,36,2,2,1,3,2
moorech02,Charlie Moore,143,491,59,134,24,5,5,48,43,49,8,7,2,8,3
mooreke01,Kelvin Moore,78,252,29,62,9,2,8,30,22,58,5,4,1,1,3
moralje01,Jerry Morales,98,231,28,61,10,2,4,33,21,31,3,2,1,1,2
moraljo01,Jose Morales,96,204,22,55,9,1,6,29,16,33,3,1,1,1,1
morelke01,Keith Moreland,145,494,61,138,23,2,15,69,53,67,2,5,3,3,7
morenom01,Omar Moreno,84,319,41,82,12,4,3,28,22,57,23,10,1,4,3
morgajo02,Joe Morgan,121,406,63,105,19,2,13,53,75,53,18,4,2,1,4
morriji01,Jim Morrison,95,266,30,72,11,2,9,36,17,36,5,4,2,5,3
mosebll01,Lloyd Moseby,147,513,73,140,25,6,13,66,42,94,18,8,5,4,4
mosesjo01,John Moses,116,252,35,64,12,2,4,23,24,36,14,5,1,1,1
motleda01,Darryl Motley,67,221,29,56,8,2,6,26,17,29,5,3,2,1,2
mullira01,Rance Mulliniks,137,395,52,104,30,2,9,49,50,54,4,3,1,3,2
mumphje01,Jerry Mumphrey,81,298,42,89,15,5,5,38,31,39,9,3,1,2,2
murcebo01,Bobby Murcer,74,199,23,50,10,1,7,31,18,25,3,2,1,1,2
murphda05,Dale Murphy,149,535,98,151,21,3,28,94,75,103,22,7,2,1,4
murphdw01,Dwayne Murphy,128,456,62,110,15,2,18,72,68,97,13,5,2,8,6
murraed02,Eddie Murray,145,530,89,160,28,2,28,99,68,77,6,2,2,1,6
murrari01,Rich Murray,57,186,24,50,8,1,4,23,17,28,4,2,1,1,2
narroje01,Jerry Narron,64,192,20,47,7,1,4,22,17,29,3,1,1,2,1
nelsoja01,Jamie Nelson,78,232,28,59,10,1,5,24,25,31,7,3,1,2,2
nelsori01,Ricky Nelson,107,334,40,87,15,3,7,41,25,53,8,4,1,2,2
nettlgr01,Graig Nettles,126,432,53,110,14,2,17,62,50,59,2,3,2,1,4
newmaje01,Jeff Newman,88,269,26,61,12,1,6,27,19,47,2,2,1,2,2
nichore01,Reid Nichols,128,348,48,98,22,2,8,38,29,45,8,5,2,5,2
nicosst01,Steve Nicosia,69,206,24,55,9,1,4,24,19,23,3,2,1,3,1
nixonot01,Otis Nixon,64,190,25,50,8,1,4,22,18,29,6,2,1,1,2
nolanjo01,Joe Nolan,100,289,35,78,15,2,6,38,26,41,3,2,1,1,3
nordhwa01,Wayne Nordhagen,69,203,21,55,9,1,5,26,13,27,3,1,1,1,3
nymanch01,Chris Nyman,73,200,31,53,7,1,5,22,19,30,7,4,1,2,1
oberkke01,Ken Oberkfell,141,476,58,137,22,5,4,43,50,36,12,7,1,4,3
oberrmi01,Mike O'Berry,78,210,24,49,8,1,4,21,22,35,3,1,1,3,1
obriepe03,Pete O'Brien,135,456,53,112,21,4,10,52,48,57,6,4,1,3,3
oestero01,Ron Oester,147,512,61,136,21,5,10,53,45,84,5,4,1,6,5
oglivbe01,Ben Oglivie,124,439,60,114,18,2,18,71,52,61,4,4,4,1,5
oliveal01,Al Oliver,139,534,69,164,34,2,11,78,43,47,4,2,3,1,3
omallto01,Tom O'Malley,135,425,44,113,18,3,6,46,49,54,4,4,3,3,3
oquenjo01,Jose Oquendo,123,361,38,85,11,1,4,29,27,60,9,8,2,3,2
orsuljo01,Joe Orsulak,61,192,24,51,9,1,5,24,18,27,5,3,1,1,2
ortajo01,Jorge Orta,119,309,40,78,12,3,8,37,25,39,4,3,1,2,4
ortizju01,Junior Ortiz,95,282,27,74,11,1,4,27,17,46,4,2,1,2,1
otisam01,Amos Otis,108,394,51,107,20,3,8,58,32,61,9,4,1,1,5
owenda01,Dave Owen,66,193,24,49,8,2,4,23,19,30,5,2,1,2,2
owenla01,Larry Owen,67,188,23,49,9,1,4,22,17,27,4,3,1,1,2
owensp01,Spike Owen,95,344,43,78,14,3,5,31,30,49,10,6,2,4,3
pacioto01,Tom Paciorek,114,415,57,127,28,3,11,61,30,56,8,4,5,2,5
pagelka01,Karl Pagel,72,188,24,50,7,2,4,23,21,33,4,2,1,1,1
pagemi02,Mitchell Page,91,224,33,55,10,1,6,22,22,48,7,5,3,2,1
pariske01,Kelly Paris,89,245,29,62,11,1,4,24,25,40,9,3,1,2,3
parkeda01,Dave Parker,132,476,63,130,27,4,12,64,31,73,11,7,1,1,5
parrila01,Larry Parrish,139,500,66,132,22,3,19,72,40,87,4,2,3,2,6
parrila02,Lance Parrish,145,535,72,144,29,3,24,90,44,93,4,4,1,1,6
parsoca01,Casey Parsons,72,179,25,48,8,1,5,23,18,26,4,2,2,2,2
pastocl01,Cliff Pastornicky,60,199,26,50,8,1,6,26,17,27,4,2,1,1,2
penabe01,Bert Pena,59,187,24,50,8,1,4,22,19,27,5,2,1,2,2
penato01,Tony Pena,146,512,53,150,24,3,12,63,28,65,5,6,2,4,2
percoja01,Jack Perconte,79,211,26,54,7,3,3,20,22,27,8,3,1,4,2
perezto01,Tony Perez,102,315,32,80,15,3,8,46,31,64,2,1,1,1,3
perkibr01,Broderick Perkins,110,307,34,84,14,2,3,38,22,28,3,4,1,2,3
perryge01,Gerald Perry,73,204,27,58,10,1,5,26,21,28,4,3,1,1,2
peterri01,Rick Peters,80,264,33,72,11,2,3,28,26,35,5,8,2,3,4
pettiga01,Gary Pettis,70,227,38,62,9,3,7,25,21,35,10,4,1,2,1
pettijo01,Joe Pettini,109,225,29,53,7,2,3,24,22,31,6,3,1,3,2
phelpke01,Ken Phelps,91,243,26,61,9,2,8,29,23,44,4,2,1,2,3
phillto02,Tony Phillips,141,398,53,100,14,4,5,39,45,70,13,6,3,10,3
picciro01,Rob Picciolo,77,195,27,52,9,2,4,19,13,27,3,2,1,5,2
pinielo01,Lou Piniella,96,271,34,78,15,1,6,34,22,25,3,2,1,2,1
pocorbi01,Biff Pocoroba,98,248,23,64,12,1,4,32,25,28,3,1,2,2,1
porteda02,Darrell Porter,137,425,54,107,22,4,13,60,66,79,3,3,3,1,4
powelho01,Hosken Powell,91,252,33,63,10,2,4,26,17,28,6,3,1,1,2
pryorgr01,Greg Pryor,109,247,29,63,11,1,4,27,20,29,3,1,1,5,1
puhlte01,Terry Puhl,134,463,61,126,21,7,8,46,42,53,20,8,3,5,4
pujollu01,Luis Pujols,85,242,20,57,9,2,4,28,19,41,3,2,1,4,2
putnapa01,Pat Putnam,133,427,52,113,22,2,14,54,35,55,4,3,2,1,4
quinolu01,Luis Quinones,68,209,27,54,10,2,4,25,18,28,5,3,1,2,2
quirkja01,Jamie Quirk,93,232,23,58,10,1,4,26,18,44,3,2,1,1,1
rabbjo01,John Rabb,79,239,29,62,14,2,5,30,22,36,5,2,1,2,1
raineti01,Tim Raines,146,565,99,162,28,7,8,57,75,68,74,13,2,3,3
rajsiga01,Gary Rajsich,78,212,26,58,11,2,4,22,21,35,3,3,2,2,1
ramirma01,Mario Ramirez,93,236,28,56,11,3,4,27,30,40,4,2,1,2,2
ramirra01,Rafael Ramirez,148,560,70,155,19,4,8,51,37,54,18,10,2,10,3
ramosbo01,Bobby Ramos,75,211,23,53,9,2,5,24,21,32,4,2,1,1,1
ramosdo01,Domingo Ramos,85,250,31,67,11,1,5,26,21,30,6,2,1,2,1
ramsemi01,Mike Ramsey,122,291,34,74,10,3,3,28,24,39,7,4,1,5,2
randowi01,Willie Randolph,115,436,69,118,19,3,4,36,57,35,13,6,2,5,2
ransoje01,Jeff Ransom,61,198,26,50,8,1,5,23,22,31,4,2,1,1,2
rayfofl01,Floyd Rayford,98,239,26,57,9,1,7,30,24,45,4,2,1,2,2
rayjo01,Johnny Ray,144,541,65,151,31,6,6,53,35,35,14,7,1,9,3
readyra01,Randy Ready,62,203,29,59,11,3,5,26,22,27,4,3,1,1,2
redusga01,Gary Redus,116,416,73,104,18,7,13,47,54,90,30,10,2,2,3
remyje01,Jerry Remy,134,529,71,148,17,3,2,44,44,50,12,5,1,12,4
reyesgi01,Gil Reyes,69,204,24,52,10,1,4,22,17,29,5,2,2,1,2
reynocr01,Craig Reynolds,89,238,30,61,8,4,4,23,17,26,4,2,1,6,1
reynoha01,Harold Reynolds,66,215,29,55,11,2,4,22,18,31,4,4,1,2,2
reynorj01,R. J. Reynolds,69,211,26,56,8,1,6,30,19,32,8,2,1,2,3
reynoro02,Ronn Reynolds,68,215,25,54,9,1,4,22,22,32,4,2,1,1,2
rhombke01,Kevin Rhomberg,68,191,25,56,8,1,5,23,19,29,5,4,1,1,2
riceji01,Jim Rice,139,547,76,163,26,3,26,93,48,89,2,2,5,1,5
richage01,Gene Richards,102,344,45,97,12,6,4,30,31,36,17,9,1,2,2
richami01,Mike Richardt,79,268,28,64,9,1,4,29,18,32,6,2,1,2,3
ripkeca01,Cal Ripken,157,590,95,170,35,3,23,87,50,89,3,4,1,1,5
riverge01,German Rivera,64,193,24,53,9,1,4,22,19,27,5,3,1,1,2
rivermi01,Mickey Rivers,97,337,44,94,17,1,4,27,19,31,8,4,1,3,3
roberan01,Andre Robertson,114,359,44,90,17,3,4,31,20,57,4,4,2,6,3
roberle01,Leon Roberts,100,292,33,77,14,1,7,33,26,42,4,3,1,2,3
robinbi02,Bill Robinson,70,183,21,47,9,1,5,27,17,32,4,2,1,1,2
rodriau01,Aurelio Rodriguez,89,213,23,55,11,1,4,26,14,30,2,1,1,4,1
rodried02,Edwin Rodriguez,60,191,25,51,9,1,4,22,19,28,4,2,1,2,2
roeniga01,Gary Roenicke,128,371,52,99,20,1,16,61,45,53,5,4,5,5,3
roeniro01,Ron Roenicke,117,290,36,75,15,1,5,31,39,43,8,3,2,3,2
rohnda01,Dan Rohn,70,196,25,56,10,3,4,26,18,26,5,2,1,2,2
romered01,Ed Romero,98,272,33,74,13,1,4,29,19,29,3,2,1,4,3
roofge01,Gene Roof,65,188,27,51,11,1,4,21,20,32,7,2,1,1,2
rosepe01,Pete Rose,130,467,60,127,17,3,2,43,49,32,7,6,3,3,4
roystje01,Jerry Royster,126,336,46,87,15,3,4,37,32,46,14,8,1,6,3
rungepa01,Paul Runge,59,186,23,50,8,1,4,22,19,28,4,2,1,2,1
russebi01,Bill Russell,133,441,50,114,16,2,3,39,42,35,10,5,3,8,3
sakatle01,Lenn Sakata,108,279,37,72,13,1,6,28,26,35,8,4,2,4,2
salazan01,Angel Salazar,82,205,27,54,9,2,4,22,18,31,4,2,1,2,2
salazlu01,Luis Salazar,134,480,52,126,18,4,10,51,23,77,22,8,2,6,3
samplbi01,Billy Sample,135,491,72,133,24,3,11,50,40,48,25,5,5,6,3
samueju01,Juan Samuel,64,218,33,59,9,3,6,25,19,36,7,3,2,1,2
sanchal01,Alejandro Sanchez,63,189,27,51,9,1,6,26,17,29,4,2,1,1,2
sandbry01,Ryne Sandberg,151,577,87,153,26,4,8,50,43,77,29,10,3,6,5
santara01,Rafael Santana,78,189,24,50,8,1,4,24,19,27,4,3,2,1,2
saxst01,Steve Sax,145,574,82,161,19,5,6,45,49,62,42,21,1,7,2
schmimi01,Mike Schmidt,139,481,93,132,20,3,32,91,98,114,11,6,3,1,5
schofdi02,Dick Schofield,68,214,26,55,10,1,7,24,21,30,4,2,2,2,2
schrobi01,Bill Schroeder,67,220,27,54,9,2,6,26,18,41,4,3,2,3,1
sciosmi01,Mike Scioscia,77,234,24,59,9,1,4,27,27,22,2,1,1,3,2
sconida01,Daryl Sconiers,115,346,49,93,18,3,8,48,24,47,6,3,1,2,2
scottto01,Tony Scott,100,320,35,81,13,2,3,28,19,47,10,4,1,2,3
sextoji01,Jimmy Sexton,73,195,26,50,8,1,4,22,17,31,11,1,1,2,3
shelbjo01,John Shelby,132,354,54,94,17,2,7,34,24,61,13,3,1,5,1
sheripa01,Pat Sheridan,111,351,46,95,14,2,8,40,26,60,11,4,1,4,1
shinera01,Razor Shines,56,181,24,49,8,1,4,22,17,25,5,2,1,1,2
simmote01,Ted Simmons,138,527,68,146,29,2,16,89,36,47,3,2,2,1,6
simpsjo01,Joe Simpson,106,268,34,64,11,3,3,26,21,41,7,6,2,3,2
sinatma01,Matt Sinatro,69,200,25,48,8,1,4,22,19,26,4,2,1,2,1
singlke01,Ken Singleton,137,474,57,127,21,2,14,69,77,76,2,2,1,2,4
skinnjo01,Joel Skinner,60,191,26,52,9,1,5,23,18,27,5,2,1,1,2
skubebo01,Bob Skube,64,194,24,52,9,2,4,29,20,30,4,2,1,1,2
slaugdo01,Don Slaught,105,336,35,98,16,3,4,35,23,39,5,2,1,2,2
smallro02,Roy Smalley,131,444,60,118,19,2,17,60,58,74,3,2,1,5,4
smithch05,Chris Smith,66,214,31,61,12,2,5,29,21,32,4,2,2,1,2
smithke02,Ken Smith,100,192,26,52,8,1,5,23,20,34,5,2,1,1,1
smithlo01,Lonnie Smith,133,481,87,148,29,6,8,50,46,57,43,18,8,3,3
smithoz01,Ozzie Smith,140,499,61,122,23,3,3,43,57,40,25,7,2,6,3
smithra01,Ray Smith,89,260,27,64,10,2,4,23,20,30,4,2,1,3,2
speiech01,Chris Speier,110,358,37,91,16,3,5,37,36,46,3,3,1,3,3
spilmha01,Harry Spilman,95,225,27,56,9,1,5,28,19,32,3,2,1,1,2
squirmi01,Mike Squires,139,273,38,70,10,2,3,27,26,24,6,4,1,6,2
staplda01,Dave Stapleton,142,508,59,133,27,1,12,62,36,43,3,3,2,5,5
staubru01,Rusty Staub,123,248,20,68,12,1,6,37,28,23,2,1,1,1,4
stefejo01,John Stefero,61,188,25,52,9,1,4,26,20,27,5,2,1,1,2
stegmda01,Dave Stegman,72,203,25,51,9,1,4,23,23,30,4,3,1,1,3
steinbi02,Bill Stein,112,307,34,87,16,1,4,40,20,41,4,3,1,2,3
stenhmi01,Mike Stenhouse,70,203,24,50,9,1,4,23,20,32,4,2,1,1,2
stoneje01,Jeff Stone,63,186,26,52,9,3,5,25,18,27,8,2,1,1,2
strawda01,Darryl Strawberry,119,405,58,106,16,5,20,64,43,101,16,5,3,1,2
sulargu01,Guy Sularz,79,199,26,49,8,1,4,20,20,26,5,2,1,1,2
summech01,Champ Summers,84,194,24,49,8,1,5,26,23,33,3,2,2,1,3
sundbji01,Jim Sundberg,127,406,39,99,18,2,6,38,43,58,3,5,2,6,2
sweetri01,Rick Sweet,111,327,34,81,12,1,5,33,24,37,5,2,1,3,3
tablepa01,Pat Tabler,121,409,52,111,20,5,7,53,47,66,4,4,2,2,4
templga01,Garry Templeton,126,474,56,124,21,5,5,49,25,66,17,10,1,5,3
tenacge01,Gene Tenace,92,203,29,50,12,1,6,27,38,39,3,2,5,1,2
teufeti01,Tim Teufel,65,223,30,62,13,2,6,25,17,29,4,2,1,3,1
thomade01,Derrel Thomas,129,280,42,72,9,4,4,23,32,41,9,4,1,5,2
thomago01,Gorman Thomas,117,411,62,100,21,1,22,67,57,96,6,5,2,2,5
thompja01,Jason Thompson,145,481,70,129,23,1,21,77,87,101,3,1,1,1,6
thompsc01,Scot Thompson,103,232,25,58,11,2,3,25,17,28,4,2,1,1,2
thondi01,Dickie Thon,152,551,75,154,28,8,12,58,47,64,31,11,2,4,5
thornan01,Andre Thornton,135,478,69,130,23,1,19,77,75,68,6,4,2,2,6
tollewa01,Wayne Tolleson,132,422,56,105,13,2,5,27,37,63,23,7,2,6,2
tolmati01,Tim Tolman,87,211,25,52,11,1,6,28,21,30,4,2,1,1,2
trammal01,Alan Trammell,142,485,70,137,28,3,10,56,54,54,20,7,1,12,5
trevial01,Alex Trevino,107,301,29,75,11,2,3,29,29,35,4,1,2,3,3
trillma01,Manny Trillo,81,293,32,80,14,1,3,28,22,34,5,4,2,4,2
turneje01,Jerry Turner,84,212,24,53,6,1,6,25,20,35,3,3,1,1,2
ullgesc01,Scott Ullger,74,219,27,54,11,1,4,24,19,38,4,3,2,1,1
upshawi01,Willie Upshaw,157,534,80,149,23,6,21,79,52,85,9,7,3,5,5
vailmi01,Mike Vail,93,227,21,59,10,1,5,29,17,37,3,1,1,1,2
valdeju01,Julio Valdez,79,195,25,49,8,1,4,21,16,30,4,2,2,3,2
valenel01,Ellis Valentine,111,355,39,92,15,2,12,50,19,54,3,3,1,1,5
vanslan01,Andy Van Slyke,108,341,52,91,16,4,9,42,44,61,17,6,1,2,3
velezot01,Otto Velez,63,184,22,43,7,1,6,21,29,37,3,2,1,1,1
venabma01,Max Venable,125,311,39,74,10,4,7,33,28,44,16,4,2,2,2
veryzto01,Tom Veryzer,96,229,22,59,8,1,3,20,15,25,3,1,1,3,2
virgioz02,Ozzie Virgil,95,262,29,64,13,1,8,34,22,51,3,3,2,1,1
vukovge01,George Vukovich,137,372,44,98,17,2,6,49,33,48,5,6,1,2,3
walkech01,Chico Walker,58,185,26,51,8,3,4,23,17,25,4,3,1,1,2
walkedu01,Duane Walker,122,317,32,77,15,1,6,37,31,60,9,4,1,2,4
walkegr01,Greg Walker,122,342,40,94,18,3,11,56,32,57,5,2,2,1,3
wallati01,Tim Wallach,150,540,64,144,28,3,19,70,44,83,4,4,5,2,4
wallide01,Denny Walling,124,256,38,66,10,2,6,32,32,33,5,3,0,1,2
wardga01,Gary Ward,146,546,73,152,28,6,18,76,41,90,10,2,2,1,5
washicl01,Claudell Washington,132,482,71,132,24,6,11,56,37,88,25,8,3,3,5
washiro01,Ron Washington,113,386,41,100,13,4,5,36,23,62,8,4,1,3,2
washiul01,U. L. Washington,135,492,67,125,21,4,7,50,46,64,26,8,1,5,3
wathajo01,John Wathan,125,433,56,112,15,3,4,40,36,50,25,7,2,3,2
watsobo01,Bob Watson,98,256,30,68,11,2,9,41,30,37,3,2,1,1,3
webstmi01,Mitch Webster,63,189,25,50,8,1,4,22,18,26,5,2,1,1,2
wellmbr01,Brad Wellman,104,276,31,67,9,1,4,29,30,48,7,4,1,2,3
whitalo01,Lou Whitaker,154,563,79,166,28,6,12,64,56,64,13,6,1,4,6
whitefr01,Frank White,137,503,57,136,33,5,11,61,23,59,10,5,1,5,5
whiteje01,Jerry White,97,206,25,50,9,1,4,22,24,35,7,3,2,1,1
whitter01,Ernie Whitt,132,376,47,97,17,2,13,52,43,54,5,2,0,3,5
wiggial01,Alan Wiggins,138,467,73,127,16,3,3,30,49,44,50,10,1,11,1
wilforo01,Rob Wilfong,97,276,33,71,11,3,4,27,23,40,4,3,0,3,1
wilkecu01,Curt Wilkerson,66,204,29,52,8,2,4,23,19,29,7,2,1,1,2
willida05,Dallas Williams,66,200,24,48,8,1,4,22,19,29,4,2,1,3,2
wilsogl01,Glenn Wilson,134,475,56,131,23,4,13,58,28,73,4,3,2,2,3
wilsomo01,Mookie Wilson,145,569,80,157,22,7,7,47,28,91,44,14,3,2,2
wilsota01,Tack Wilson,58,182,27,49,9,1,4,23,17,25,5,2,1,1,2
wilsowi02,Willie Wilson,130,531,77,158,19,9,4,40,30,68,40,8,3,2,1
winfida01,Dave Winfield,139,525,80,148,25,6,27,95,50,65,11,4,1,2,7
wockejo01,John Wockenfuss,110,311,41,83,12,1,11,48,40,42,3,2,0,1,3
wohlfji01,Jim Wohlford,115,270,30,70,13,1,4,29,24,36,5,2,0,2,3
woodsga01,Gary Woods,126,296,36,76,15,1,6,36,26,48,6,4,0,3,2
wrighge03,George Wright,151,565,71,153,24,5,14,64,37,76,7,7,2,4,2
wynegbu01,Butch Wynegar,107,344,44,97,17,2,6,41,52,37,3,2,2,4,4
wynnema01,Marvell Wynne,107,370,60,94,17,2,8,34,38,52,11,8,3,5,2
yastrca01,Carl Yastrzemski,116,393,44,104,20,1,11,58,51,39,2,1,2,1,2
yeagest01,Steve Yeager,127,360,35,83,11,3,11,41,28,56,3,2,1,5,2
yostne01,Ned Yost,96,287,35,72,11,3,8,36,19,49,5,2,1,6,2
youngjo02,Joel Youngblood,122,369,54,104,19,3,12,50,34,58,8,5,5,2,4
youngmi01,Mike Young,72,202,27,51,10,2,4,23,18,31,5,2,2,4,2
yountro01,Robin Yount,139,536,93,164,34,8,18,80,52,57,11,4,2,3,8
ziskri01,Richie Zisk,104,368,44,102,17,1,14,45,35,66,2,1,1,1,2
