playerID,playerName,G,AB,R,H,2B,3B,HR,RBI,BB,SO,SB,CS,HBP,SH,SF
adamsri02,Ricky Adams,92,243,32,59,9,2,5,24,18,37,4,2,2,4,1
aguaylu01,Luis Aguayo,125,270,42,74,12,3,9,35,31,44,4,1,4,3,3
aikenwi01,Willie Aikens,71,210,24,55,10,1,9,30,23,40,2,1,1,0,1
allenga01,Gary Allenson,69,200,22,48,8,1,4,24,20,35,2,1,1,2,2
almonbi01,Bill Almon,115,321,38,83,19,1,7,38,24,59,12,7,1,3,5
anderda02,Dave Anderson,113,330,41,77,13,2,5,30,41,52,11,5,2,6,3
armasto01,Tony Armas,114,435,63,111,19,4,25,76,25,97,2,2,2,0,5
ashbyal01,Alan Ashby,93,286,32,74,14,1,9,37,32,39,2,1,1,3,3
ayalabe01,Benny Ayala,94,226,27,55,13,1,7,35,19,40,3,2,1,1,3
backmwa01,Wally Backman,143,486,72,132,22,4,3,38,45,70,27,9,1,9,3
bailema01,Mark Bailey,124,385,50,95,17,1,11,46,61,74,2,2,2,2,2
bailobo01,Bob Bailor,101,250,25,65,8,1,3,23,17,20,7,2,1,5,2
baineha01,Harold Baines,147,562,73,166,27,5,21,93,46,78,4,3,1,1,7
bakerdo01,Doug Baker,72,209,28,50,9,1,4,24,17,37,5,1,1,2,1
bakerdu01,Dusty Baker,116,361,48,97,15,2,11,50,49,46,5,2,1,1,4
balbost01,Steve Balboni,148,523,66,129,25,2,29,80,49,139,3,1,4,1,4
bandoch01,Chris Bando,100,283,35,67,11,1,8,36,35,41,3,2,0,3,3
bannial01,Alan Bannister,86,245,35,66,11,2,4,25,27,33,7,3,1,3,2
barfije01,Jesse Barfield,151,489,78,136,25,5,24,75,51,120,14,6,4,1,4
barnesk01,Skeeter Barnes,78,195,23,46,7,1,5,21,19,27,4,3,1,1,1
barrema02,Marty Barrett,151,498,59,138,24,2,6,52,49,44,7,4,2,7,4
basske01,Kevin Bass,158,495,62,130,24,5,11,56,26,68,13,7,4,4,2
baylodo01,Don Baylor,130,459,70,120,25,2,21,78,42,68,5,4,17,1,6
beanebi01,Billy Beane,63,190,23,49,9,1,5,23,18,30,4,2,1,1,1
bellbu01,Buddy Bell,95,353,48,98,21,3,8,47,38,36,2,2,2,1,4
bellge02,George Bell,151,557,76,156,29,5,23,82,35,81,14,4,7,1,5
bellira01,Rafael Belliard,76,197,25,51,8,1,5,22,17,29,6,2,1,1,1
benedbr01,Bruce Benedict,97,307,29,77,10,1,3,31,36,26,2,2,1,3,3
beniqju01,Juan Beniquez,128,416,59,127,17,2,8,46,30,49,4,3,4,7,2
bentobu01,Butch Benton,72,213,25,52,11,1,4,26,18,31,4,2,1,2,3
bergmda01,Dave Bergman,116,268,33,68,9,3,7,34,31,37,4,2,2,2,4
bernato01,Tony Bernazard,142,470,59,121,22,3,8,51,56,72,19,10,2,6,4
berrada01,Dale Berra,87,276,25,67,12,1,6,30,25,45,3,2,1,3,3
bevacku01,Kurt Bevacqua,109,246,30,61,11,1,5,35,33,40,2,2,1,2,3
biancbu01,Buddy Biancalana,115,268,37,60,11,2,5,23,25,60,4,4,1,6,1
bilarda01,Dann Bilardello,89,253,25,58,10,1,5,26,20,41,2,1,1,3,2
blockte01,Terry Blocker,67,189,24,48,8,1,5,22,18,28,4,2,1,1,1
bochtbr01,Bruce Bochte,134,427,52,118,19,1,10,54,47,58,4,3,0,2,4
bochybr01,Bruce Bochy,90,246,31,63,10,2,9,31,17,48,3,2,1,2,2
boggswa01,Wade Boggs,146,565,93,193,34,4,7,64,80,49,4,2,2,4,4
bonilju01,Juan Bonilla,54,187,20,46,7,1,3,18,17,19,2,1,1,1,2
bonneba01,Barry Bonnell,87,268,32,74,14,2,6,34,21,39,5,3,1,2,2
boonebo01,Bob Boone,139,446,41,107,17,1,6,47,31,43,4,3,1,10,5
bosleth01,Thad Bosley,129,276,40,81,11,4,8,39,31,46,8,2,1,1,3
bostoda01,Daryl Boston,116,317,34,75,16,2,5,27,24,57,11,5,1,2,2
bowala01,Larry Bowa,72,223,27,55,9,2,2,18,18,19,5,2,0,2,1
bradlph01,Phil Bradley,156,535,80,157,25,6,15,64,50,99,21,8,7,7,2
bradlsc01,Scott Bradley,68,210,26,52,10,2,4,22,17,28,4,2,2,1,1
braunst01,Steve Braun,124,211,23,56,9,1,4,25,29,30,3,1,1,1,2
breamsi01,Sid Bream,79,234,29,61,13,1,6,31,25,36,4,3,1,2,3
brenlbo01,Bob Brenly,136,445,54,112,20,1,16,61,50,59,6,6,2,3,4
brettge01,George Brett,137,490,82,151,32,4,22,91,69,49,5,2,2,1,7
brockgr01,Greg Brock,128,417,57,101,15,1,18,58,57,66,7,2,1,1,3
brookhu01,Hubie Brooks,144,540,59,145,24,4,12,73,36,77,6,6,3,2,4
brookto01,Tom Brookens,159,436,56,105,24,5,8,46,33,66,12,6,1,8,3
brouhma01,Mark Brouhard,80,254,30,66,12,2,7,31,19,47,2,3,2,1,2
brownbo04,Bobby Brown,102,237,34,58,9,2,5,29,20,42,17,6,0,2,2
brownch02,Chris Brown,123,412,48,112,21,3,13,56,38,72,5,3,7,1,1
brownmi02,Mike Brown,95,302,40,87,19,3,9,42,29,45,4,3,1,3,2
brummgl01,Glenn Brummer,91,237,24,63,10,1,4,22,23,37,4,5,2,2,1
brunato01,Tom Brunansky,148,531,69,130,24,3,26,80,59,85,5,4,1,1,7
bryanra01,Ralph Bryant,59,186,24,50,8,1,5,24,18,28,4,2,1,1,2
bucknbi01,Bill Buckner,140,551,70,157,33,3,14,78,29,40,11,3,3,2,6
buechst01,Steve Buechele,91,296,34,72,11,3,8,33,24,48,5,3,2,1,2
bulloer01,Eric Bullock,67,195,26,52,10,1,5,24,18,28,4,3,1,1,1
bumbral01,Al Bumbry,95,255,35,67,10,1,3,23,21,28,7,3,0,2,2
burroje01,Jeff Burroughs,105,274,30,71,11,2,8,37,38,52,2,2,0,1,3
bushra01,Randy Bush,116,328,42,80,18,3,11,46,32,50,3,2,5,1,4
butersa01,Sal Butera,93,235,28,57,8,1,6,27,24,30,4,2,1,3,2
butlebr01,Brett Butler,142,530,89,152,23,10,5,45,61,51,38,18,2,7,4
cabelen01,Enos Cabell,94,316,41,94,15,2,5,36,20,37,6,6,1,3,2
caldeiv01,Ivan Calderon,93,295,45,81,18,4,10,37,28,54,7,3,2,2,2
cansejo01,Jose Canseco,71,238,34,66,10,1,8,31,19,48,5,2,1,1,1
caprani01,Nick Capra,60,184,24,48,8,1,5,22,18,26,4,2,1,1,1
carewro01,Rod Carew,119,417,59,123,17,2,4,41,53,48,6,5,1,6,3
cartega01,Gary Carter,139,512,68,144,24,2,23,84,56,51,3,2,5,1,4
cartejo01,Joe Carter,136,461,60,121,21,1,15,59,27,78,15,6,2,3,3
castica01,Carmelo Castillo,107,293,45,76,12,2,13,41,26,50,5,3,3,1,2
castima02,Marty Castillo,106,236,25,52,9,2,6,25,17,44,3,2,1,4,1
cedence01,Cesar Cedeno,75,251,36,70,14,1,8,34,21,36,10,3,1,2,3
ceronri01,Rick Cerone,107,331,27,76,11,1,5,34,30,39,3,2,2,2,3
ceyro01,Ron Cey,133,464,61,116,22,1,20,70,52,87,3,2,4,1,5
chambch01,Chris Chambliss,106,290,35,76,13,1,8,39,37,41,2,2,1,0,3
chapmke01,Kelvin Chapman,97,269,34,67,12,1,4,27,24,37,9,6,2,4,2
chrisjo02,John Christensen,85,239,28,57,11,2,6,30,29,40,4,4,1,2,2
clarkbo04,Bobby Clark,79,243,25,61,10,2,4,26,20,45,3,3,1,2,2
clarkja01,Jack Clark,117,413,65,116,22,2,18,70,68,71,4,3,1,1,5
colemvi01,Vince Coleman,129,510,81,136,18,7,4,40,43,88,69,16,1,4,2
colesda01,Darnell Coles,75,229,28,54,11,1,4,21,25,40,3,3,2,2,2
collida02,Dave Collins,119,405,55,111,18,7,4,38,35,48,34,9,4,4,3
conceda01,Dave Concepcion,140,496,51,123,21,1,5,49,48,67,15,8,1,4,6
conceon01,Onix Concepcion,130,367,42,90,12,2,4,32,23,39,9,5,4,8,3
connafr02,Fritzie Connally,84,235,31,59,10,1,6,30,28,39,4,2,1,2,2
coopece01,Cecil Cooper,137,547,71,158,30,4,15,81,30,61,7,2,2,1,6
corcoti01,Tim Corcoran,125,283,32,77,13,2,5,39,40,37,3,2,1,1,5
cottohe01,Henry Cotto,107,228,30,62,9,1,4,23,19,37,8,3,1,3,1
cowenal01,Al Cowens,127,454,55,118,28,3,13,63,30,62,6,3,2,1,4
cruzjo01,Jose Cruz,132,491,69,149,26,6,10,73,50,65,17,7,1,1,4
cruzju01,Julio Cruz,112,334,40,77,10,3,4,34,36,49,13,5,1,3,3
dauerri01,Rich Dauer,105,319,33,77,15,0,4,27,28,23,2,2,1,4,2
daultda01,Darren Daulton,75,236,32,58,10,2,7,28,28,51,6,2,1,1,1
davisal01,Alvin Davis,144,527,72,149,30,2,19,84,80,70,4,3,4,1,6
davisch01,Chili Davis,136,480,63,132,22,3,15,63,52,79,12,8,1,2,5
daviser01,Eric Davis,92,263,45,65,12,3,12,38,26,60,16,4,1,2,1
davisge03,Gerry Davis,82,209,30,57,11,2,4,22,21,30,4,2,1,2,1
davisgl01,Glenn Davis,107,369,51,98,15,1,16,58,31,66,3,1,5,3,4
davisjo02,Jody Davis,139,475,51,120,26,1,18,70,42,83,3,3,1,1,5
davismi02,Mike Davis,150,498,73,134,27,3,16,68,42,85,22,11,3,3,4
davistr01,Trench Davis,55,186,25,49,8,1,5,23,18,27,5,2,1,1,1
dawsoan01,Andre Dawson,130,492,68,131,24,5,20,81,34,75,14,5,4,1,8
dayetbr01,Brian Dayett,82,206,24,52,9,1,6,30,17,29,3,1,2,1,2
decindo01,Doug DeCinces,121,439,57,115,21,2,18,71,44,67,4,2,1,2,8
deerro01,Rob Deer,102,264,36,60,10,2,11,33,33,74,4,3,1,1,3
dejesiv01,Ivan de Jesus,91,254,29,65,10,2,2,24,25,42,6,3,1,3,2
dempsri01,Rick Dempsey,131,381,48,94,17,1,11,45,46,72,2,2,2,5,4
dernibo01,Bob Dernier,139,465,71,122,21,3,4,31,46,51,35,10,2,8,2
desajo01,Joe DeSa,72,203,26,51,9,1,6,27,19,30,4,2,1,2,1
diazbo01,Bo Diaz,81,266,27,66,12,1,7,32,23,35,2,2,1,2,2
dilonmi01,Miguel Dilone,89,216,34,56,9,2,3,20,22,28,20,4,1,1,1
doranbi02,Bill Doran,141,520,76,142,21,7,9,48,66,66,17,11,1,5,3
downibr01,Brian Downing,138,479,69,127,22,2,19,74,66,62,4,3,8,3,5
driesda01,Dan Driessen,83,274,36,71,13,1,8,39,35,35,3,2,1,1,3
dunbato01,Tom Dunbar,85,244,26,61,9,1,5,25,25,34,5,3,1,1,1
duncama01,Mariano Duncan,127,477,63,119,21,5,7,40,36,89,26,6,2,9,4
dunstsh01,Shawon Dunston,94,316,47,83,15,4,7,30,27,50,11,4,1,2,3
durhale01,Leon Durham,141,488,69,134,28,4,19,77,66,91,12,7,1,1,3
dwyerji01,Jim Dwyer,124,300,45,78,15,3,8,44,41,43,2,3,1,4,4
dykstle01,Lenny Dykstra,100,306,46,80,13,3,5,31,35,38,14,3,1,4,3
easlemi01,Mike Easler,143,516,68,147,26,4,17,71,46,106,3,2,3,1,4
engleda01,Dave Engle,97,307,43,84,16,2,7,36,27,33,3,2,1,1,4
esaskni01,Nick Esasky,131,422,55,104,18,3,17,62,48,109,5,4,3,3,4
espinal01,Alvaro Espinoza,76,214,26,57,9,1,5,28,18,32,4,3,2,4,1
espinju01,Juan Espino,61,184,22,50,8,1,5,22,17,27,4,2,1,1,2
evansda01,Darrell Evans,135,451,71,114,18,1,26,73,73,74,3,4,1,1,3
evansdw01,Dwight Evans,143,540,93,145,27,4,25,74,85,96,5,2,3,1,5
feldemi01,Mike Felder,62,212,29,53,9,1,5,21,21,30,7,3,1,2,1
fernato01,Tony Fernandez,155,500,64,140,23,7,5,48,40,44,11,7,2,5,3
fieldce01,Cecil Fielder,73,224,27,62,11,1,8,33,21,37,4,2,1,1,2
fischmi01,Mike Fischlin,110,217,31,51,9,2,3,23,22,31,5,3,1,7,1
fiskca01,Carlton Fisk,135,474,74,120,23,2,27,78,43,76,11,5,9,2,5
fitzgmi02,Mike Fitzgerald,122,371,32,87,13,2,6,41,37,67,5,2,2,3,5
flannti01,Tim Flannery,145,382,52,103,14,4,5,40,47,45,5,4,7,3,3
fletcsc01,Scott Fletcher,134,375,46,95,14,3,4,38,40,47,8,4,3,9,2
flynndo01,Doug Flynn,83,244,22,60,10,2,2,17,12,27,2,1,0,3,1
foleyto02,Tom Foley,104,289,31,74,12,2,6,31,27,39,4,3,0,2,1
foliti01,Tim Foli,68,215,20,54,9,1,3,22,11,21,2,1,1,5,1
fordcu01,Curt Ford,62,187,25,52,10,1,5,25,21,27,5,2,1,1,1
fordda01,Dan Ford,64,223,28,58,12,1,5,24,19,34,4,2,1,2,2
fostege01,George Foster,125,455,57,118,20,1,19,70,35,88,2,2,3,0,4
francju01,Julio Franco,147,572,77,161,25,5,6,76,42,64,18,9,4,1,7
francte01,Terry Francona,126,352,33,99,20,2,5,37,18,29,4,4,1,2,2
frobedo01,Doug Frobel,88,222,29,52,9,2,8,27,20,52,5,3,1,2,1
fundema01,Mark Funderburk,65,214,27,59,13,2,6,30,20,33,4,2,1,1,3
gaettga01,Gary Gaetti,146,520,63,132,27,2,14,62,41,84,10,4,4,2,4
gagnegr01,Greg Gagne,117,334,43,80,16,3,5,33,26,59,10,4,3,3,4
gainety01,Ty Gainey,61,200,27,50,8,1,5,21,19,32,4,2,2,2,1
galaran01,Andres Galarraga,68,222,29,55,8,1,6,24,19,38,5,3,2,1,1
gallemi01,Mike Gallego,105,220,31,55,11,2,5,27,25,34,5,2,2,3,2
gamblos01,Oscar Gamble,99,255,35,60,10,1,10,38,40,37,3,1,2,1,2
gantnji01,Jim Gantner,134,499,60,135,19,3,6,50,32,45,7,6,3,6,5
garbeba01,Barbaro Garbey,111,333,43,90,15,2,7,46,23,45,6,5,3,1,3
garcida01,Damaso Garcia,137,547,71,156,25,4,7,51,21,43,30,12,4,4,4
gardero01,Ron Gardenhire,81,223,25,54,9,2,3,19,19,41,5,2,1,2,1
garneph01,Phil Garner,129,432,61,113,20,6,8,53,42,67,7,5,3,3,4
garvest01,Steve Garvey,145,556,74,157,27,3,13,74,32,60,3,2,2,1,7
gedmari01,Rich Gedman,147,483,61,136,28,4,18,71,42,77,3,1,2,3,3
gerbecr01,Craig Gerber,96,228,27,60,8,3,4,25,17,26,4,4,1,3,2
gibsoki01,Kirk Gibson,147,519,83,142,26,7,23,81,62,110,24,5,5,4,7
gilbema01,Mark Gilbert,57,189,25,50,9,1,5,24,20,29,4,2,1,1,1
gilesbr01,Brian Giles,77,212,24,52,8,1,3,18,21,39,7,4,1,2,1
gladdda01,Dan Gladden,129,463,69,128,18,5,8,44,41,66,29,14,4,8,2
gonzade01,Denny Gonzalez,77,258,30,62,10,1,6,27,26,48,5,4,1,3,1
gonzajo02,Jose Gonzalez,74,192,29,51,10,1,5,23,19,30,5,3,1,1,2
greenda03,David Green,122,384,46,102,14,4,9,48,26,75,15,8,1,2,3
greenmi01,Mike Greenwell,66,201,29,55,9,1,8,29,20,29,5,2,1,1,1
grichbo01,Bobby Grich,133,435,68,113,18,2,15,58,69,72,4,5,4,6,2
griffal01,Alfredo Griffin,156,531,66,137,17,6,5,51,22,48,15,7,1,8,5
griffke01,Ken Griffey,124,432,58,121,23,3,10,58,37,47,6,4,1,2,5
grossgr01,Greg Gross,132,278,32,79,12,2,2,29,37,24,3,2,1,2,3
grosswa01,Wayne Gross,121,314,42,74,12,1,14,42,49,57,3,3,1,2,2
grubbjo01,Johnny Grubb,107,259,35,67,11,2,9,34,40,42,3,1,2,1,3
grubeke01,Kelly Gruber,65,194,24,49,8,1,5,24,17,31,4,2,1,1,1
guerrpe01,Pedro Guerrero,133,479,80,145,23,3,23,75,60,81,12,5,3,1,5
guilloz01,Ozzie Guillen,135,446,63,121,20,7,4,38,21,43,8,4,1,6,2
gutieja01,Jackie Gutierrez,127,372,46,93,11,3,4,31,20,47,11,4,0,9,3
gwynnto01,Tony Gwynn,147,559,78,179,23,6,6,56,47,36,18,11,2,4,2
hairsje01,Jerry Hairston,134,262,34,69,15,2,6,32,42,35,3,2,2,1,4
hallal02,Albert Hall,110,219,31,55,9,2,4,22,22,34,6,4,1,2,1
hallme01,Mel Hall,72,240,35,66,13,2,7,32,27,49,3,2,1,1,3
hargrmi01,Mike Hargrove,114,339,41,94,15,2,3,39,48,37,2,2,1,3,3
harpebr01,Brian Harper,92,221,24,56,10,1,6,28,15,27,3,1,2,2,3
harpete01,Terry Harper,135,434,48,111,17,2,12,58,38,72,10,7,3,1,2
harrato01,Toby Harrah,120,393,61,102,17,2,7,43,74,50,10,4,4,2,4
hassero01,Ron Hassey,105,310,40,87,17,1,10,43,33,34,3,2,2,1,2
hatchbi01,Billy Hatcher,85,266,37,68,15,2,5,26,21,30,6,4,3,2,3
hatchmi01,Mickey Hatcher,125,459,52,134,26,3,6,54,26,32,2,1,2,2,4
hayesvo01,Von Hayes,149,524,72,143,24,5,13,62,55,84,28,10,1,1,3
hearrje01,Jeff Hearron,57,187,24,49,8,1,5,23,18,28,4,2,1,1,1
heathmi02,Mike Heath,135,450,60,116,20,4,12,56,34,68,7,5,1,5,3
hebneri01,Richie Hebner,110,238,30,63,8,1,6,34,22,36,5,2,1,1,2
heepda01,Danny Heep,128,331,42,86,17,1,8,38,36,42,5,3,1,1,6
hendeda01,Dave Henderson,138,474,60,123,26,2,15,60,37,87,8,3,2,2,3
henderi01,Rickey Henderson,138,498,111,148,25,5,16,59,85,71,69,13,4,1,3
hendest01,Steve Henderson,101,303,38,85,15,3,7,39,31,54,4,5,1,1,1
hendrge01,George Hendrick,68,239,32,67,14,1,7,38,21,37,2,2,1,0,3
hernake01,Keith Hernandez,143,513,74,155,26,3,12,77,76,67,5,4,2,1,7
hernale01,Leo Hernandez,62,195,22,48,7,1,5,23,16,26,3,1,1,1,1
herndla01,Larry Herndon,128,437,55,119,17,6,12,50,35,71,6,2,2,1,3
herrto01,Tom Herr,144,531,75,155,28,3,7,72,61,54,18,6,2,7,7
hilldo01,Donnie Hill,133,404,49,109,15,2,6,46,24,42,7,4,1,11,4
hillma01,Marc Hill,90,235,23,54,11,1,5,24,21,34,2,2,1,7,1
hoffmgl01,Glenn Hoffman,118,331,43,87,18,2,6,35,27,50,3,2,3,7,2
hornebo01,Bob Horner,119,429,62,118,24,2,20,72,47,59,4,2,1,1,4
housepa02,Paul Householder,107,331,41,85,17,2,9,38,33,57,6,5,1,1,1
howelja02,Jack Howell,77,252,34,60,10,1,8,32,27,46,4,2,1,4,2
hrbekke01,Kent Hrbek,147,538,74,156,31,3,20,88,60,80,3,3,3,1,5
hubbagl01,Glenn Hubbard,133,436,55,107,23,2,9,48,53,60,5,4,4,5,5
hudlere01,Rex Hudler,70,208,26,51,8,2,4,21,18,34,4,2,1,5,1
huletti01,Tim Hulett,131,384,50,103,18,3,7,40,32,71,7,4,3,3,3
huntra01,Randy Hunt,64,192,24,49,8,1,5,23,18,30,4,3,1,2,1
huppeda01,Dave Huppert,63,189,24,47,8,1,5,22,19,31,4,2,1,3,1
hurdlcl01,Clint Hurdle,80,219,26,53,11,1,6,24,25,40,3,2,1,2,1
iorgda01,Dane Iorg,98,263,26,67,16,2,5,34,20,29,2,2,1,1,4
iorgga01,Garth Iorg,139,352,40,97,20,3,6,41,21,37,5,4,1,3,2
jacksda03,Darrin Jackson,58,191,24,49,8,1,5,23,18,29,4,2,1,1,2
jacksre01,Reggie Jackson,131,447,58,105,20,1,21,69,59,123,4,3,2,1,2
jacobbr01,Brook Jacoby,148,533,69,144,23,3,14,66,43,96,4,3,2,2,7
jamesdi01,Dion James,81,250,32,68,11,2,3,23,23,31,6,4,1,3,2
jeltzst01,Steve Jeltz,111,285,31,64,9,2,4,27,33,59,5,2,1,5,2
johnscl01,Cliff Johnson,80,238,32,67,12,1,10,38,32,40,1,1,2,1,2
johnsho01,Howard Johnson,134,414,48,103,18,3,13,52,41,76,9,5,1,3,3
johnsja01,Jay Johnstone,87,185,22,48,8,2,5,22,20,31,3,1,1,1,1
jonesbo02,Bob Jones,112,255,29,64,9,1,7,37,22,44,3,2,2,1,3
jonesch04,Chris Jones,76,191,23,50,8,1,5,22,19,31,4,2,1,1,1
jonesly01,Lynn Jones,131,264,30,67,12,1,4,26,19,31,3,3,3,4,2
jonesru01,Ruppert Jones,134,395,57,98,18,2,18,62,47,75,8,6,0,4,2
jorgemi01,Mike Jorgensen,118,236,27,57,11,2,4,28,36,42,4,2,1,2,1
juraked01,Ed Jurak,87,189,24,50,9,2,3,22,22,30,3,3,1,2,1
kearnbo01,Bob Kearney,124,375,37,92,18,1,8,39,21,64,4,3,3,6,2
keedypa01,Pat Keedy,56,182,25,49,9,1,6,23,18,26,4,3,1,1,1
kempst01,Steve Kemp,104,323,38,85,15,2,7,38,36,53,3,1,1,2,4
kennete02,Terry Kennedy,137,495,51,129,22,1,12,68,36,88,2,2,1,1,4
khalisa01,Sam Khalifa,104,350,38,87,16,3,5,38,36,57,7,3,1,7,4
kiefest01,Steve Kiefer,86,220,30,53,8,3,5,27,17,41,5,2,1,4,3
kingmda01,Dave Kingman,148,517,61,128,18,1,27,85,49,102,4,2,3,2,8
kittlro01,Ron Kittle,124,418,58,99,15,1,26,67,38,106,4,4,5,0,3
kniceal01,Alan Knicely,88,256,29,64,12,1,7,35,28,49,3,2,1,2,3
knighra01,Ray Knight,97,318,32,84,17,1,7,40,24,41,2,2,2,1,5
kommibr01,Brad Komminsk,120,368,53,85,15,2,8,37,41,80,14,8,2,2,2
krencwa01,Wayne Krenchicki,122,281,32,78,14,1,7,36,33,40,2,1,1,2,4
kuipedu01,Duane Kuiper,81,185,19,47,5,1,3,20,21,21,2,2,1,3,2
kunkeje01,Jeff Kunkel,65,204,24,50,7,2,5,20,14,38,5,3,1,2,2
lacyle01,Lee Lacy,132,462,64,138,22,4,10,51,36,72,19,8,1,5,3
lagami01,Mike Laga,65,203,25,52,8,1,6,26,17,36,4,2,1,1,1
lakest01,Steve Lake,95,247,24,57,10,1,5,28,15,36,3,1,2,4,2
landrke01,Ken Landreaux,139,462,58,123,21,3,13,53,34,44,16,7,1,3,6
landrti01,Tito Landrum,128,277,36,76,14,2,7,36,25,46,4,5,1,2,2
lansfca01,Carney Lansford,115,440,56,127,22,3,12,55,29,44,6,4,3,2,6
laudnti01,Tim Laudner,103,291,34,67,14,1,10,36,24,71,2,1,1,3,2
lavalmi01,Mike LaValliere,60,198,24,49,9,1,5,26,23,28,4,2,1,1,4
lawleto01,Tom Lawless,88,210,27,52,10,2,4,26,19,29,6,2,1,2,1
lawru01,Rudy Law,125,423,66,111,18,6,5,37,34,41,34,9,3,4,2
lawva01,Vance Law,150,488,66,126,24,4,11,54,61,79,6,3,2,6,5
leachri01,Rick Leach,85,207,23,53,11,2,3,22,19,29,3,2,1,1,1
leema02,Manuel Lee,105,209,31,53,8,1,5,22,19,33,5,5,1,2,1
leepeda01,Dave Leeper,63,199,24,48,8,1,5,25,18,28,4,2,1,1,1
lemasjo01,Johnnie LeMaster,72,250,31,58,8,1,4,20,23,47,11,5,1,4,2
lemonch01,Chet Lemon,137,480,69,129,26,4,18,66,47,78,3,4,10,2,3
leonaje01,Jeffrey Leonard,130,480,61,130,21,3,17,70,34,102,15,6,1,1,3
lezcasi01,Sixto Lezcano,108,258,36,67,8,1,9,33,41,41,3,1,1,1,1
linarru01,Rufino Linares,73,202,26,52,10,1,6,31,19,31,5,1,1,1,3
littlbr01,Bryan Little,97,299,42,76,13,2,3,30,38,29,3,3,2,5,3
lomando01,Doug Loman,68,218,31,56,10,2,5,28,22,32,3,2,1,3,2
lombast01,Steve Lombardozzi,71,208,30,60,11,2,5,25,21,29,6,3,1,4,2
lopesda01,Davey Lopes,101,306,47,84,11,2,10,42,39,42,26,3,1,2,4
loucksc01,Scott Loucks,57,182,24,48,9,1,5,22,19,29,5,3,1,1,1
lowenjo01,John Lowenstein,76,208,28,53,9,1,7,28,26,36,2,1,1,0,3
lynnfr01,Fred Lynn,123,443,62,119,19,2,20,67,56,86,5,3,2,1,4
lyonsst01,Steve Lyons,125,371,51,98,15,3,7,36,34,61,11,7,1,2,3
maddoga01,Garry Maddox,109,309,34,82,13,1,6,32,21,38,6,4,1,2,3
madlobi01,Bill Madlock,75,273,35,79,12,0,5,34,24,23,5,2,2,1,3
maldoca01,Candy Maldonado,144,318,34,79,14,1,7,34,28,49,3,3,1,2,2
manniri01,Rick Manning,104,319,39,77,12,3,5,31,27,34,6,3,1,2,2
manrifr01,Fred Manrique,66,191,27,52,9,2,6,23,18,29,4,2,1,1,1
marshmi02,Mike Marshall,138,496,65,137,24,1,21,75,41,113,5,6,3,2,4
martibu01,Buck Martinez,92,241,29,56,12,1,8,34,27,41,2,2,1,1,5
martica01,Carmelo Martinez,147,492,62,125,26,2,17,68,69,80,2,4,3,1,6
matavi01,Victor Mata,66,195,25,54,10,1,5,22,15,29,4,2,1,3,2
matthga01,Gary Matthews,110,361,60,96,15,1,11,50,63,68,9,4,2,1,5
mattido01,Don Mattingly,154,582,88,185,39,3,24,107,47,45,3,2,2,4,10
matusle01,Len Matuszek,89,232,34,59,13,2,9,36,27,42,4,3,2,2,4
mazzile01,Lee Mazzilli,115,256,37,65,12,1,5,25,41,40,9,3,1,2,2
mcdowod01,Oddibe McDowell,111,393,58,98,15,4,15,44,36,74,19,6,3,4,2
mcgeewi01,Willie McGee,141,553,85,171,22,11,8,65,32,81,40,10,1,1,4
mcraeha01,Hal McRae,112,359,45,103,20,3,9,56,39,49,2,2,3,1,4
mcreyke01,Kevin McReynolds,145,522,62,132,23,4,16,69,40,75,5,3,2,2,6
meachbo01,Bob Meacham,142,461,69,110,17,3,4,44,47,89,19,6,4,16,5
meierda01,Dave Meier,104,250,33,64,13,1,4,26,25,29,3,5,2,4,1
melvibo01,Bob Melvin,80,226,29,57,11,2,4,24,19,40,4,2,1,3,1
milleda01,Darrell Miller,91,209,29,57,9,2,6,25,18,35,4,2,1,1,1
milleri01,Rick Miller,98,207,29,57,9,1,3,23,23,29,3,2,1,1,2
milneed01,Eddie Milner,136,430,67,109,17,5,7,36,57,48,28,11,1,5,3
mizerjo01,John Mizerock,65,200,26,49,11,1,4,26,20,32,3,1,2,1,2
molitpa01,Paul Molitor,120,470,71,132,22,3,10,43,44,64,20,6,1,5,4
moorech02,Charlie Moore,112,366,40,93,16,4,3,36,32,46,6,3,2,7,2
morelke01,Keith Moreland,146,517,66,151,24,3,14,81,54,65,6,3,2,3,7
morenom01,Omar Moreno,80,249,29,64,10,4,4,30,16,37,10,5,1,2,2
morriji01,Jim Morrison,113,327,35,89,15,2,9,41,21,54,4,3,2,3,4
mosebll01,Lloyd Moseby,145,535,87,148,27,8,16,73,64,91,30,10,5,2,5
mosesjo01,John Moses,94,214,26,53,7,2,3,20,18,31,10,4,1,2,1
motleda01,Darryl Motley,130,435,54,111,21,4,15,57,26,63,8,7,2,1,4
mullira01,Rance Mulliniks,136,394,55,115,27,3,9,54,50,54,3,2,1,2,4
mumphje01,Jerry Mumphrey,130,444,55,126,22,3,8,63,44,63,10,6,1,1,5
murphda05,Dale Murphy,147,543,98,159,27,4,30,94,74,112,16,4,2,0,4
murphdw01,Dwayne Murphy,139,491,71,120,19,2,21,67,68,103,6,5,2,5,5
murraed02,Eddie Murray,142,520,92,155,28,2,26,98,78,72,7,2,2,0,7
narroje01,Jerry Narron,105,261,26,64,10,1,8,31,21,33,3,1,1,1,2
nettlgr01,Graig Nettles,127,420,58,107,18,2,16,62,57,58,2,1,2,1,4
newmaal01,Al Newman,72,197,29,50,9,1,5,23,20,29,6,3,1,1,1
nichore01,Reid Nichols,99,251,34,68,14,2,5,28,26,34,7,5,2,3,2
nicosst01,Steve Nicosia,66,199,21,56,11,2,4,26,17,25,3,2,1,2,2
nietoto01,Tom Nieto,111,320,29,80,14,2,5,42,31,50,3,3,2,4,2
nixonot01,Otis Nixon,128,272,45,64,8,1,5,22,22,42,21,11,1,5,2
nokesma01,Matt Nokes,66,214,25,54,10,1,6,25,18,32,4,2,2,1,1
nolanjo01,Joe Nolan,81,200,22,52,9,1,5,26,22,31,2,1,1,1,2
oberkke01,Ken Oberkfell,124,400,43,108,19,4,4,35,46,38,5,4,3,3,3
oberrmi01,Mike O'Berry,71,192,24,47,8,1,4,22,19,28,4,1,1,2,1
obriech01,Charlie O'Brien,66,187,26,50,9,1,5,23,20,29,4,2,1,1,1
obriepe03,Pete O'Brien,148,522,60,139,27,3,16,74,58,56,5,6,1,2,6
oestero01,Ron Oester,142,498,55,134,23,3,5,41,44,78,6,2,1,4,4
oglivbe01,Ben Oglivie,113,385,45,106,17,2,11,58,43,54,2,4,2,2,6
oliveal01,Al Oliver,79,275,32,77,14,1,5,36,20,25,2,2,1,1,1
omallto01,Tom O'Malley,63,188,21,48,8,1,4,22,20,25,2,2,1,2,1
oneilpa01,Paul O'Neill,58,192,25,52,9,1,5,24,18,29,4,2,1,1,2
orsuljo01,Joe Orsulak,127,397,54,113,15,5,3,30,28,39,19,9,2,8,4
ortajo01,Jorge Orta,123,364,44,99,20,4,9,50,29,40,3,2,2,2,4
ortizju01,Junior Ortiz,79,232,21,60,9,1,3,24,15,40,4,1,1,2,2
owenda01,Dave Owen,82,198,26,49,7,2,4,25,19,33,5,3,2,1,2
owenla01,Larry Owen,72,213,26,54,9,1,6,28,21,36,4,2,1,3,2
owensp01,Spike Owen,125,418,52,103,15,6,6,39,38,48,12,6,2,6,3
pacioto01,Tom Paciorek,82,267,33,74,15,2,5,30,19,41,4,1,2,2,2
paglimi01,Mike Pagliarulo,134,397,54,98,20,3,16,61,41,81,3,1,3,2,4
pankoji01,Jim Pankovits,110,273,35,71,11,1,6,32,24,46,5,2,1,2,2
pardoal01,Al Pardo,76,224,24,52,9,1,5,22,19,36,4,2,1,1,1
parkeda01,Dave Parker,145,554,72,161,31,3,20,89,41,79,9,10,2,1,5
parrila01,Larry Parrish,110,411,52,111,21,2,17,63,34,76,2,2,3,0,3
parrila02,Lance Parrish,134,512,65,134,24,2,25,88,39,91,3,4,2,2,6
pasquda01,Dan Pasqua,88,259,32,63,9,2,11,37,27,50,4,2,1,1,2
penabe01,Bert Pena,75,200,27,52,9,1,5,24,19,32,4,2,1,2,2
penato01,Tony Pena,141,510,58,139,24,2,12,64,33,69,10,7,1,5,3
pendlte01,Terry Pendleton,134,496,58,131,20,3,6,62,36,67,19,9,1,2,4
percoja01,Jack Perconte,127,477,65,132,19,5,3,30,47,42,24,4,3,5,2
perezto01,Tony Perez,102,272,29,74,12,1,7,40,28,43,2,2,1,1,3
perryge01,Gerald Perry,126,331,42,83,11,1,7,36,42,41,11,8,1,1,4
petrage01,Geno Petralli,78,231,26,62,9,1,4,28,22,32,4,2,2,3,4
pettiga01,Gary Pettis,135,440,67,111,13,7,4,37,58,110,45,11,1,6,2
phelpke01,Ken Phelps,95,257,38,62,9,1,15,41,41,56,4,2,2,1,3
phillto02,Tony Phillips,99,305,41,80,15,2,5,29,30,55,8,4,1,5,3
picciro01,Rob Picciolo,120,241,36,61,11,1,4,24,13,38,5,3,1,5,2
pittach01,Chris Pittaro,72,215,30,56,10,2,5,26,20,35,5,2,1,2,1
polidgu01,Gus Polidor,56,183,25,49,9,1,5,23,18,27,4,2,1,1,2
ponceca01,Carlos Ponce,65,213,25,52,9,1,5,25,17,31,4,2,1,2,3
porteda02,Darrell Porter,105,331,43,81,15,2,11,49,47,62,5,2,3,1,3
preslji01,Jim Presley,141,507,62,134,27,2,22,72,36,94,4,3,1,1,6
pryorgr01,Greg Pryor,113,260,29,65,10,1,5,25,18,30,2,2,1,3,1
puckeki01,Kirby Puckett,145,598,70,172,22,8,4,56,33,77,16,9,4,4,3
puhlte01,Terry Puhl,94,319,47,92,17,4,6,37,33,36,11,5,1,4,3
pujollu01,Luis Pujols,61,179,20,46,7,1,4,23,16,26,3,1,1,2,2
quirkja01,Jamie Quirk,72,207,22,54,9,2,5,24,17,36,3,1,1,1,1
raineti01,Tim Raines,139,530,99,161,29,8,10,51,74,60,60,9,2,3,3
rajsiga01,Gary Rajsich,84,221,25,53,12,1,4,27,28,37,3,2,1,2,2
ramirma01,Mario Ramirez,94,209,27,50,8,2,5,25,25,37,3,1,1,2,1
ramirra01,Rafael Ramirez,133,528,56,141,20,4,5,51,27,58,9,9,1,4,4
ramosdo01,Domingo Ramos,115,275,32,65,11,1,4,26,24,38,4,3,1,3,2
ramsemi01,Mike Ramsey,80,195,23,49,7,2,3,19,15,30,4,2,1,1,2
randowi01,Willie Randolph,130,479,73,133,21,2,5,39,70,42,12,6,2,5,5
rayfofl01,Floyd Rayford,125,385,49,106,21,1,13,48,22,73,4,3,2,3,2
rayjo01,Johnny Ray,145,536,66,153,32,5,7,61,40,32,13,7,1,5,5
readyra01,Randy Ready,82,285,40,73,14,5,5,34,28,39,3,2,1,3,2
redusga01,Gary Redus,109,337,61,86,17,4,9,33,48,67,37,10,2,2,3
reedje02,Jeff Reed,68,191,26,49,10,1,5,22,18,31,4,2,1,2,1
reynocr01,Craig Reynolds,127,417,49,110,16,7,6,43,21,43,6,3,0,7,3
reynoha01,Harold Reynolds,98,236,33,53,10,2,4,22,26,34,6,4,1,3,2
reynorj01,R. J. Reynolds,80,273,35,74,12,3,6,33,21,42,12,4,1,4,2
reynoro02,Ronn Reynolds,72,201,24,50,9,1,4,20,18,39,3,1,1,2,2
riceji01,Jim Rice,132,516,76,148,22,3,24,94,43,78,3,1,2,0,6
rileser01,Ernie Riles,112,410,51,115,14,5,7,45,36,53,4,3,2,5,3
ripkeca01,Cal Ripken,147,577,98,170,33,4,23,87,59,75,3,3,1,0,5
riverge01,German Rivera,81,223,24,58,11,2,4,21,22,33,3,1,1,2,2
roberan01,Andre Robertson,86,259,30,68,12,2,3,25,14,42,3,3,2,6,2
robidbi01,Billy Jo Robidoux,65,211,27,53,10,1,7,28,27,38,4,2,1,1,1
roeniga01,Gary Roenicke,122,318,43,76,15,1,14,51,46,44,3,2,2,3,3
roeniro01,Ron Roenicke,87,242,34,63,14,1,6,28,39,38,7,3,1,2,2
romered01,Ed Romero,114,341,37,89,14,1,3,34,31,31,4,2,1,5,3
rominke01,Kevin Romine,72,197,26,51,10,1,5,23,18,29,5,2,1,3,1
rosepe01,Pete Rose,111,375,48,100,14,2,3,41,55,34,7,3,3,1,4
rowdowa01,Wade Rowdon,59,187,25,50,8,1,5,24,19,27,4,2,1,1,1
roystje01,Jerry Royster,109,322,39,81,16,3,5,37,33,47,9,6,1,4,3
rungepa01,Paul Runge,85,230,29,59,9,1,4,21,29,39,5,3,1,5,2
runneto01,Tom Runnells,72,194,24,50,9,1,5,21,19,28,4,2,1,4,1
russebi01,Bill Russell,95,282,31,73,11,1,2,24,26,26,7,4,1,6,2
russejo02,John Russell,105,303,35,75,17,1,10,35,29,77,4,2,1,1,2
ryalma01,Mark Ryal,61,199,26,50,10,1,5,24,20,28,4,2,1,2,1
sakatle01,Lenn Sakata,104,242,35,58,8,1,6,23,20,32,7,3,1,3,1
salasma01,Mark Salas,123,372,51,105,19,4,9,43,25,45,3,2,1,1,3
salazlu01,Luis Salazar,125,371,42,94,16,2,10,41,18,62,15,6,1,6,3
samplbi01,Billy Sample,87,298,41,79,13,1,5,28,22,29,13,4,2,3,3
samueju01,Juan Samuel,147,597,90,160,28,13,15,64,32,128,47,14,5,1,3
sanchal01,Alejandro Sanchez,100,257,34,65,11,3,8,28,14,54,6,4,1,1,1
sandbry01,Ryne Sandberg,142,555,94,163,28,8,17,67,49,83,35,8,2,4,4
santara01,Rafael Santana,147,464,43,121,20,2,4,35,31,53,3,3,1,3,2
saxda01,Dave Sax,68,197,24,54,10,1,5,26,19,27,4,3,1,4,2
saxst01,Steve Sax,131,492,65,131,15,4,3,39,47,52,30,15,2,4,3
schmimi01,Mike Schmidt,139,480,81,130,22,4,29,86,83,105,5,5,3,0,5
schofdi02,Dick Schofield,150,450,50,99,17,3,8,39,39,76,9,3,6,11,2
schrobi01,Bill Schroeder,87,301,36,75,12,1,13,37,20,73,2,2,3,3,3
schuri01,Rick Schu,116,401,56,103,20,4,9,34,39,70,8,5,2,2,2
sciosmi01,Mike Scioscia,138,427,46,121,24,2,8,52,65,34,4,3,3,6,4
sconida01,Daryl Sconiers,87,251,33,67,12,2,6,32,23,35,4,2,0,1,2
scottdo01,Donnie Scott,107,302,30,72,16,1,6,34,27,55,3,2,1,4,4
sheetla01,Larry Sheets,115,349,46,94,12,1,15,49,32,54,3,2,2,2,2
shelbjo01,John Shelby,110,324,43,81,12,3,7,33,19,60,10,3,0,6,1
shephro01,Ron Shepherd,82,200,28,49,10,1,5,22,19,35,6,2,1,1,1
sheripa01,Pat Sheridan,106,334,41,89,15,3,6,36,30,60,13,4,1,4,2
shinera01,Razor Shines,90,206,21,50,8,1,4,23,19,32,4,2,1,1,2
simmone01,Nelson Simmons,95,319,41,83,15,1,10,41,32,50,4,1,1,1,4
simmote01,Ted Simmons,132,488,55,130,26,2,9,68,41,41,4,1,2,1,4
skinnjo01,Joel Skinner,81,215,27,57,10,2,4,23,21,39,4,1,1,2,2
slaugdo01,Don Slaught,119,398,43,110,21,4,6,43,24,50,4,3,3,4,3
smallro02,Roy Smalley,119,378,54,96,18,1,12,46,51,62,3,3,1,2,3
smithlo01,Lonnie Smith,124,447,71,121,22,4,7,44,47,68,36,10,6,1,4
smithoz01,Ozzie Smith,142,481,62,126,22,4,5,50,58,32,29,7,2,8,3
speiech01,Chris Speier,107,283,30,72,13,1,5,30,27,43,3,3,1,3,3
spilmha01,Harry Spilman,89,216,26,50,8,1,5,27,21,30,3,1,1,1,3
staplda01,Dave Stapleton,66,215,23,54,12,1,4,23,17,24,2,1,1,2,2
staubru01,Rusty Staub,126,200,18,54,10,1,5,34,22,25,3,1,1,1,3
steinbi02,Bill Stein,83,220,23,61,11,1,4,29,15,34,3,2,1,1,1
stenhmi01,Mike Stenhouse,114,285,33,64,11,1,7,32,38,42,3,1,1,1,2
stoneje01,Jeff Stone,106,338,47,98,9,6,5,28,23,55,24,6,2,2,2
strawda01,Darryl Strawberry,126,441,71,116,19,4,25,79,63,107,22,8,2,1,3
stubbfr01,Franklin Stubbs,75,208,24,49,6,2,6,22,21,45,3,2,1,2,1
sullima02,Marc Sullivan,73,215,29,53,9,1,6,23,21,35,4,2,1,3,1
sundbji01,Jim Sundberg,124,388,42,95,16,3,8,40,38,67,2,3,1,5,2
tablepa01,Pat Tabler,126,427,55,120,20,3,8,61,41,59,3,4,2,1,4
tartada01,Danny Tartabull,68,217,29,61,13,2,6,29,23,36,4,2,1,1,2
templga01,Garry Templeton,143,505,52,136,24,3,5,47,37,77,13,5,1,4,3
tettlmi01,Mickey Tettleton,102,295,36,77,14,1,6,28,35,65,4,3,2,4,2
teufeti01,Tim Teufel,134,454,61,120,25,3,11,51,52,65,4,3,2,4,4
thomaan01,Andres Thomas,66,195,29,52,8,1,5,24,18,28,4,2,1,2,1
thomade01,Derrel Thomas,103,220,34,53,8,3,5,22,25,35,6,2,1,2,1
thomago01,Gorman Thomas,120,415,58,92,16,1,20,64,67,98,5,3,1,2,5
thompja01,Jason Thompson,125,425,50,108,18,1,13,60,73,70,2,1,1,0,4
thompmi02,Milt Thompson,94,284,35,81,11,2,4,22,22,46,15,5,2,2,1
thompsc01,Scot Thompson,100,218,25,60,8,1,3,27,22,30,4,2,0,1,3
thondi01,Dickie Thon,89,308,38,84,12,3,9,38,26,47,12,6,1,2,3
thornan01,Andre Thornton,122,446,61,117,18,1,20,74,59,66,5,3,1,0,6
thornlo01,Lou Thornton,94,224,36,58,9,2,5,27,18,43,5,2,2,1,1
tollewa01,Wayne Tolleson,123,372,48,99,12,3,3,22,30,53,22,8,2,7,2
tolmati01,Tim Tolman,88,202,24,48,9,1,6,27,17,33,3,3,1,2,2
trammal01,Alan Trammell,140,536,77,154,26,5,13,61,53,66,18,8,2,9,5
trevial01,Alex Trevino,95,286,35,69,16,1,6,32,27,37,4,2,1,3,2
trillma01,Manny Trillo,118,437,45,107,20,2,5,37,36,54,3,1,2,7,3
upshawi01,Willie Upshaw,137,485,73,137,26,6,17,71,48,74,9,6,4,2,4
uribejo01,Jose Uribe,131,426,47,105,18,3,5,33,31,54,8,3,2,4,1
valenel01,Ellis Valentine,60,198,25,50,8,1,7,27,16,33,3,2,1,1,2
valleda01,Dave Valle,77,222,24,54,9,1,5,25,17,38,4,2,1,2,1
vangoda01,Dave Van Gorder,99,264,29,66,11,1,5,33,24,38,3,1,1,2,3
vanslan01,Andy Van Slyke,146,427,60,110,22,5,11,56,56,69,28,6,1,1,2
venabma01,Max Venable,106,254,34,65,13,3,5,27,20,35,12,3,2,3,2
virgioz02,Ozzie Virgil,137,437,53,111,19,2,17,60,45,84,2,2,5,1,3
vukovge01,George Vukovich,146,440,45,117,21,2,8,54,34,66,4,4,2,2,4
walkech01,Chico Walker,71,186,27,48,8,2,5,22,17,30,5,2,1,1,1
walkedu01,Duane Walker,102,263,32,65,11,2,8,32,31,47,7,3,1,1,2
walkegr01,Greg Walker,159,530,68,143,32,4,22,83,43,86,7,3,2,1,4
wallati01,Tim Wallach,143,520,57,134,28,3,17,68,43,81,5,6,5,0,4
wallide01,Denny Walling,139,374,52,103,19,4,8,48,30,40,8,3,1,1,4
wardga01,Gary Ward,139,531,73,149,24,5,16,68,42,84,13,4,1,1,3
washicl01,Claudell Washington,121,416,62,115,18,5,13,49,43,74,18,6,1,1,3
washiro01,Ron Washington,101,267,34,72,11,4,4,29,17,39,6,3,1,3,3
washiul01,U. L. Washington,89,289,37,71,12,3,4,25,25,45,13,5,1,3,1
wathajo01,John Wathan,97,265,29,63,12,2,3,22,25,38,10,4,1,3,1
weaveji03,Jim Weaver,63,184,25,48,9,1,5,22,19,30,4,3,1,1,1
webstmi01,Mitch Webster,107,291,45,78,13,3,11,39,28,46,13,7,1,2,2
wellmbr01,Brad Wellman,108,296,30,71,13,1,3,30,22,50,9,4,2,4,3
whitalo01,Lou Whitaker,140,541,85,157,27,5,15,61,62,59,9,5,1,4,5
whitede03,Devon White,72,187,30,49,8,1,5,23,19,29,7,3,2,1,2
whitefr01,Frank White,136,503,57,131,25,3,16,63,28,69,9,4,1,4,4
whitfte01,Terry Whitfield,113,246,26,64,12,1,6,30,22,46,3,3,1,2,1
whitter01,Ernie Whitt,140,405,54,101,19,2,18,60,50,61,3,4,1,2,4
wiggial01,Alan Wiggins,105,383,61,104,14,4,2,26,44,35,39,12,2,8,1
wilforo01,Rob Wilfong,110,317,32,75,11,2,6,31,24,49,5,2,1,6,2
wilkecu01,Curt Wilkerson,139,421,45,105,13,3,3,30,27,67,13,7,3,7,3
willaje01,Jerry Willard,120,360,43,92,15,1,11,47,35,68,3,1,1,3,3
willire01,Reggie Williams,72,187,27,50,8,1,5,22,18,30,5,2,1,1,1
wilsogl01,Glenn Wilson,157,526,59,140,30,5,12,73,32,91,7,3,1,1,5
wilsoji03,Jim Wilson,56,189,25,51,8,1,5,26,19,29,4,2,1,1,1
wilsomo01,Mookie Wilson,110,416,62,114,19,6,7,37,24,64,29,8,1,2,1
wilsowi02,Willie Wilson,131,536,79,151,23,12,4,42,34,72,41,7,3,2,2
winfida01,Dave Winfield,138,541,91,159,28,5,22,95,49,75,12,5,1,0,5
winnihe01,Herm Winningham,127,347,39,88,11,5,6,33,32,69,17,8,1,2,4
wockejo01,John Wockenfuss,84,208,25,55,7,1,6,29,28,31,2,1,0,1,1
wohlfji01,Jim Wohlford,115,262,25,69,13,2,5,32,23,32,3,2,0,2,2
woodami01,Mike Woodard,67,224,31,58,8,1,4,27,20,26,8,2,1,2,1
woodsga01,Gary Woods,125,227,30,57,10,1,5,24,26,38,4,3,0,2,1
wrighge03,George Wright,113,407,41,98,18,3,8,42,27,56,4,5,1,2,3
wynegbu01,Butch Wynegar,115,373,42,97,16,1,7,42,60,42,2,2,1,2,2
wynnema01,Marvell Wynne,114,418,49,103,14,5,4,30,31,57,13,9,1,5,1
yeagest01,Steve Yeager,89,253,23,58,8,2,7,30,21,44,2,2,1,3,2
yostne01,Ned Yost,67,212,21,48,6,1,6,25,12,37,3,2,0,3,1
youngjo02,Joel Youngblood,110,336,41,90,13,1,9,40,35,56,5,4,3,2,1
youngmi01,Mike Young,140,446,67,117,21,2,21,67,52,101,5,4,5,3,2
yountro01,Robin Yount,124,469,77,136,25,5,13,64,51,54,10,4,2,1,7
zuvelpa01,Paul Zuvella,101,279,30,72,12,2,4,21,26,32,5,1,1,4,1
