playerID,playerName,W,L,G,GS,CG,SHO,SV,IPouts,H,ER,HR,BB,SO,IBB,WP,HBP,BK,BFP,GF,R,SH,SF,GIDP
aasedo01,Don Aase,6,5,38,4,1,0,13,221,69,29,6,28,54,3,2,1,0,309,27,32,3,2,7
ackerji01,Jim Acker,5,6,38,10,1,0,4,313,106,44,9,38,56,3,3,3,0,445,12,50,4,3,12
agostju01,Juan Agosto,2,2,22,3,0,0,2,130,45,20,3,18,27,2,1,2,0,189,7,23,2,1,5
aguilri01,Rick Aguilera,9,7,32,18,2,0,1,406,134,56,13,42,92,3,5,4,2,574,6,64,6,4,9
akerfda01,Darrel Akerfelds,2,2,9,3,0,0,1,85,28,13,3,11,19,1,1,1,0,121,3,14,1,1,2
alexado01,Doyle Alexander,8,6,26,19,3,1,1,424,144,57,13,37,84,2,3,2,0,592,4,62,5,3,11
allenne01,Neil Allen,7,4,34,12,1,1,2,334,103,47,9,41,65,3,4,2,0,468,10,51,4,4,8
anderal02,Allan Anderson,4,5,25,10,1,0,1,261,94,44,10,32,56,3,3,2,1,375,6,47,3,3,8
anderla02,Larry Andersen,3,3,32,4,0,0,2,191,63,25,5,23,40,4,2,1,0,270,9,29,4,2,5
anderri02,Rick Anderson,3,3,19,7,1,0,2,183,58,25,5,20,37,2,2,1,1,257,6,27,2,3,5
andujjo01,Joaquin Andujar,11,8,31,22,6,1,1,478,149,64,15,53,82,5,3,5,2,664,4,70,5,4,14
aquinlu01,Luis Aquino,2,2,11,3,0,0,1,95,32,14,3,12,20,1,1,1,0,136,3,16,1,1,2
armstmi01,Mike Armstrong,2,2,14,3,0,0,1,106,34,16,5,14,24,1,1,1,0,150,6,17,1,1,3
arnolto01,Tony Arnold,2,2,12,4,1,0,1,114,37,16,3,15,23,2,1,1,0,161,4,19,2,1,5
arnsbbr01,Brad Arnsberg,3,2,15,5,1,0,1,144,48,21,5,17,31,2,2,1,0,206,5,23,2,1,4
arroyfe01,Fernando Arroyo,1,1,8,3,0,0,1,74,24,11,2,10,16,1,1,1,0,105,2,12,1,1,2
assenpa01,Paul Assenmacher,4,3,30,5,1,0,3,180,57,23,5,23,43,3,2,1,1,254,12,26,4,2,5
atherke01,Keith Atherton,4,5,34,4,1,0,4,230,74,34,9,30,52,4,2,1,0,328,16,37,3,3,5
bailesc01,Scott Bailes,6,6,37,9,1,0,4,266,91,43,9,33,53,3,3,1,1,384,12,48,4,3,8
bairdo01,Doug Bair,2,2,19,3,0,0,2,139,43,19,5,18,32,1,2,1,0,196,7,21,2,2,4
balleja01,Jay Baller,3,3,23,5,1,0,2,173,58,27,7,23,39,3,2,1,1,251,8,30,3,2,3
bankhsc01,Scott Bankhead,7,7,29,14,1,0,2,341,112,54,12,39,81,5,3,3,0,485,7,58,5,4,8
bannifl01,Floyd Bannister,9,11,33,24,4,1,1,483,158,75,19,60,114,3,6,3,0,688,4,84,6,6,14
bargagr01,Greg Bargar,2,2,15,4,1,0,1,117,40,18,4,15,24,1,2,1,0,168,5,20,2,2,4
beattji01,Jim Beattie,4,6,20,11,2,0,1,235,85,40,8,30,49,2,2,3,0,343,4,44,2,3,6
beckwjo01,Joe Beckwith,2,2,18,3,0,0,1,130,44,20,5,15,31,2,2,1,0,185,7,22,2,1,4
bedrost01,Steve Bedrosian,5,6,34,10,1,0,8,272,84,37,9,39,66,5,3,2,1,388,18,42,3,3,6
beller01,Eric Bell,4,4,22,9,1,0,2,223,72,34,8,31,50,2,2,1,0,319,7,37,3,2,7
berenbr01,Bruce Berenyi,4,3,18,9,1,0,1,189,61,30,6,27,43,1,4,1,0,272,4,34,3,2,6
berenju01,Juan Berenguer,4,4,26,8,1,0,2,220,69,32,7,34,57,2,3,2,1,316,8,35,2,2,5
bestka01,Karl Best,3,3,19,4,1,0,2,139,44,19,4,18,32,2,2,1,0,198,8,22,2,2,3
bielemi01,Mike Bielecki,6,9,35,20,1,0,2,406,133,65,12,66,80,4,5,2,3,595,6,73,7,4,8
birkbmi01,Mike Birkbeck,3,3,18,7,1,0,1,171,56,25,5,23,37,2,2,1,0,244,5,28,2,2,5
birtsti01,Tim Birtsas,3,2,11,6,1,0,1,122,38,19,5,20,27,1,2,1,0,176,3,21,2,1,4
bittije01,Jeff Bittiger,4,4,21,8,1,0,2,207,68,31,7,27,45,3,3,2,1,296,6,35,3,2,5
blackbu02,Buddy Black,6,7,30,12,2,0,3,325,102,45,10,35,65,3,3,4,1,456,9,50,4,3,8
bluevi01,Vida Blue,9,9,36,22,1,0,1,442,134,62,17,70,100,3,6,1,1,630,6,69,8,5,10
blylebe01,Bert Blyleven,13,10,36,26,10,2,1,609,190,83,27,54,148,4,5,6,0,842,5,93,5,5,15
bockura01,Randy Bockus,2,2,9,3,0,0,1,87,28,12,3,11,19,1,1,1,0,124,3,14,1,1,2
boddimi01,Mike Boddicker,12,11,35,26,7,1,1,567,187,86,20,69,130,4,6,6,0,807,4,96,5,5,16
boevejo01,Joe Boever,2,2,14,3,0,0,1,114,37,15,4,15,25,1,1,1,0,162,5,17,1,1,3
bookegr01,Greg Booker,2,2,13,3,0,0,1,99,33,15,3,14,20,2,2,1,0,143,5,17,1,1,3
bordiri01,Rich Bordi,5,5,37,6,1,0,3,269,87,39,9,31,61,4,2,2,0,382,13,43,3,3,6
bosioch01,Chris Bosio,3,4,18,7,1,0,1,174,59,29,8,22,40,2,2,1,1,249,5,32,2,1,5
boydoi01,Oil Can Boyd,12,10,35,25,8,1,1,587,198,84,23,52,120,3,3,3,1,820,5,91,5,6,14
browncu03,Curt Brown,2,2,11,3,0,0,1,94,31,13,3,11,20,1,1,1,0,134,4,15,2,1,3
brownke01,Kevin Brown,4,3,20,7,1,0,2,195,64,28,6,24,43,2,2,1,0,276,6,31,3,2,5
brownmi01,Mike Brown,2,3,14,6,1,0,1,135,49,24,5,18,29,1,2,1,1,199,4,27,1,2,3
brownto05,Tom Browning,13,10,40,30,4,2,1,631,198,87,22,64,129,6,4,2,0,880,5,99,11,8,15
brydetr01,T. R. Bryden,2,2,14,4,1,0,1,127,42,21,4,18,29,1,2,1,0,184,5,23,2,2,4
burketi01,Tim Burke,6,5,45,5,1,0,4,268,82,32,8,35,64,8,4,3,0,380,16,35,5,2,7
burrira01,Ray Burris,5,6,23,13,2,0,1,288,98,47,11,35,50,2,3,3,0,413,5,50,4,2,8
burttde01,Dennis Burtt,2,2,9,3,0,0,1,86,28,14,3,11,18,1,1,1,0,122,3,15,1,1,2
butchjo01,John Butcher,5,6,21,13,3,1,1,277,106,47,10,26,45,2,3,3,0,401,4,52,2,4,8
calhoje01,Jeff Calhoun,2,2,20,3,0,0,1,134,42,18,4,17,29,2,2,1,0,189,7,21,2,1,5
camacer01,Ernie Camacho,3,4,27,4,1,0,7,161,52,23,4,22,33,3,2,1,1,232,15,24,3,3,4
campbbi02,Bill Campbell,4,4,28,3,0,0,2,172,52,24,5,21,38,4,2,1,0,243,11,28,3,2,4
candejo01,John Candelaria,9,5,26,16,2,1,1,334,101,41,9,35,83,3,3,3,1,461,5,47,5,4,7
candito01,Tom Candiotti,11,9,37,24,9,2,2,551,174,76,15,74,122,2,8,5,2,785,7,85,4,6,17
carltst01,Steve Carlton,5,5,21,13,1,0,1,290,91,40,8,39,62,3,4,1,2,409,4,46,5,3,10
carmado01,Don Carman,8,5,48,10,1,1,3,334,95,41,10,44,84,6,4,2,1,460,17,46,5,4,8
carych01,Chuck Cary,2,2,18,4,1,0,1,131,42,18,4,17,30,2,1,1,0,187,5,21,2,2,4
caudibi01,Bill Caudill,3,4,29,3,0,0,5,149,46,22,6,20,36,2,1,1,0,213,17,24,2,2,3
cerutjo01,John Cerutti,7,5,33,15,2,1,2,361,122,54,16,42,77,3,6,2,0,514,7,60,4,4,11
chadwra01,Ray Chadwick,4,6,23,10,1,0,2,226,79,37,9,30,46,2,3,2,0,329,6,42,3,2,6
childro01,Rocky Childress,1,2,10,3,0,0,1,91,31,14,3,11,19,1,1,1,0,131,3,16,1,1,3
clancji01,Jim Clancy,11,11,37,27,4,1,1,543,174,82,20,59,105,2,5,3,0,762,5,87,4,6,12
clarkbr01,Bryan Clark,2,2,13,3,0,0,1,105,37,18,4,14,21,1,2,1,0,153,4,20,2,1,4
clarkst02,Stan Clarke,2,2,12,3,0,0,1,96,32,16,4,13,21,1,1,1,1,138,4,17,2,1,3
clearma01,Mark Clear,4,4,36,4,1,0,6,201,58,26,5,36,59,4,5,2,1,290,23,30,2,3,6
clemepa01,Pat Clements,2,4,34,4,1,0,2,181,58,24,4,25,36,3,2,1,0,257,10,26,4,2,5
clemero02,Roger Clemens,16,7,37,26,6,1,2,605,168,71,17,62,169,2,7,4,2,822,5,77,4,5,12
cluttbr01,Bryan Clutterbuck,2,2,17,4,1,0,1,161,56,24,6,19,36,2,2,1,0,231,6,27,2,1,4
cocanja01,Jaime Cocanower,3,4,17,7,1,0,1,189,63,29,5,32,32,1,4,3,0,278,4,35,3,2,8
codirch01,Chris Codiroli,8,8,29,19,2,0,1,385,130,61,15,48,70,3,5,2,1,557,5,71,3,4,9
coneda01,David Cone,2,2,12,4,1,0,1,112,38,17,4,15,26,1,2,1,0,162,4,19,1,1,3
conroti01,Tim Conroy,5,8,35,16,1,0,1,348,115,59,13,53,76,5,7,3,1,506,8,65,2,6,10
cookmi01,Mike Cook,2,2,12,4,1,0,1,113,38,18,4,15,25,1,1,1,0,162,4,20,1,1,3
corbedo01,Doug Corbett,4,3,30,4,1,0,4,203,63,28,7,24,39,3,2,1,0,283,15,33,2,2,8
correed01,Ed Correa,10,11,38,24,3,1,2,510,151,79,15,90,140,3,12,3,1,738,8,86,5,4,11
cowlejo01,Joe Cowley,11,8,34,23,3,0,1,471,138,68,21,73,113,3,5,4,1,671,6,76,4,4,9
coxda01,Danny Cox,12,10,37,27,6,1,1,586,182,70,15,59,106,5,4,3,2,804,5,82,8,5,18
crawfst01,Steve Crawford,3,3,28,4,0,0,4,188,67,27,5,22,38,4,2,1,0,269,12,31,3,2,7
darliro01,Ron Darling,13,7,38,28,3,2,1,617,182,73,18,82,146,3,6,3,2,860,5,83,9,5,16
darwida01,Danny Darwin,5,6,22,12,3,0,1,289,96,39,11,29,60,2,3,2,0,407,5,46,3,3,7
davisjo03,Joel Davis,6,6,30,18,2,0,2,374,127,59,12,52,73,2,4,2,1,541,6,66,4,3,10
davisma01,Mark Davis,4,6,40,6,1,0,3,242,73,35,8,30,70,5,3,2,1,338,14,38,5,3,5
davisro02,Ron Davis,2,3,21,3,0,0,5,123,41,19,5,16,31,2,2,1,0,178,13,21,2,2,3
davisst02,Storm Davis,9,9,33,23,4,1,1,472,157,67,13,56,92,4,4,2,1,668,5,74,4,4,14
davisst03,Steve Davis,2,2,10,4,0,0,1,90,29,14,4,12,21,1,1,1,0,129,3,16,1,1,2
dawlebi01,Bill Dawley,4,5,36,4,1,0,2,246,77,32,8,30,52,4,3,1,0,345,15,35,6,3,6
dayleke01,Ken Dayley,2,3,26,4,1,0,4,154,52,21,4,18,38,3,2,1,0,219,10,24,3,2,5
dedmoje01,Jeff Dedmon,5,4,41,4,1,0,2,253,81,34,7,35,51,6,3,2,1,362,13,41,5,2,10
deleojo01,Jose DeLeon,5,9,26,16,2,0,2,351,98,51,10,55,93,3,5,3,1,495,5,56,5,3,7
dennyjo01,John Denny,9,9,32,23,3,1,1,497,168,71,14,56,103,6,4,3,1,705,4,80,8,5,16
deshaji01,Jim Deshaies,9,6,33,20,1,1,2,402,123,54,14,53,104,3,2,2,4,564,6,60,4,4,7
diazca01,Carlos Diaz,2,2,21,3,0,0,1,137,46,19,4,16,34,2,2,1,0,195,8,22,2,1,4
dipinfr01,Frank DiPino,3,4,26,3,0,0,3,157,52,24,5,22,39,4,2,1,0,226,12,28,3,2,5
dixonke01,Ken Dixon,9,9,40,24,2,0,2,532,168,82,24,70,132,6,6,2,2,759,7,88,6,5,12
dotsori01,Richard Dotson,9,12,34,24,4,1,1,494,170,84,18,61,96,3,6,3,1,709,5,91,5,5,15
downske01,Kelly Downs,5,5,26,14,1,0,2,316,99,41,9,38,72,5,4,3,1,447,6,45,4,4,8
dozieto01,Tom Dozier,2,2,9,3,0,0,1,86,28,13,3,11,19,1,1,1,0,123,3,14,1,1,2
drabedo01,Doug Drabek,7,7,31,16,1,0,2,363,117,54,12,46,75,3,3,3,0,515,7,59,5,3,7
draveda01,Dave Dravecky,9,9,35,22,4,1,2,483,149,58,15,52,89,5,2,2,1,671,6,67,9,4,13
earlebi02,Bill Earley,1,1,9,3,0,0,1,79,25,11,3,10,17,1,1,1,0,112,3,13,1,1,2
easteja01,Jamie Easterly,2,2,17,4,0,0,1,129,44,20,4,19,27,1,2,1,0,188,6,23,2,2,4
eckerde01,Dennis Eckersley,8,9,35,25,3,1,1,523,175,75,17,41,115,4,2,3,3,729,5,82,9,6,9
eichhma01,Mark Eichhorn,8,5,40,6,1,0,5,314,85,32,8,34,91,7,2,4,1,426,18,35,5,2,8
fanslst01,Stan Fansler,4,5,22,9,1,0,2,225,71,32,7,31,48,2,2,1,0,318,6,37,3,2,7
farrst01,Steve Farr,5,4,32,6,1,0,3,249,75,34,8,32,60,4,3,3,1,347,14,36,3,2,8
fernasi01,Sid Fernandez,12,8,37,26,2,1,2,547,147,70,15,78,162,3,5,2,1,760,5,75,7,6,11
filsope01,Pete Filson,3,3,19,5,1,0,1,156,51,23,6,20,29,2,1,1,0,223,6,25,2,1,3
finlech01,Chuck Finley,3,2,18,4,1,0,1,148,47,21,4,20,34,2,2,1,0,210,5,23,3,1,3
fireost01,Steve Fireovid,2,2,14,4,1,0,1,119,42,17,4,14,25,1,1,1,0,169,4,19,1,1,4
fischto01,Todd Fischer,2,2,11,3,0,0,1,102,33,15,4,13,21,1,1,1,0,145,4,16,1,1,3
fishebr01,Brian Fisher,6,4,40,4,1,0,5,255,82,37,9,31,61,2,3,1,0,361,15,42,4,2,9
flanami01,Mike Flanagan,7,9,32,22,3,0,1,451,153,69,16,55,86,4,6,2,1,645,5,78,8,5,16
fontera01,Ray Fontenot,2,3,15,6,0,0,1,145,53,23,5,16,27,1,2,1,0,209,4,26,2,1,6
forscbo01,Bob Forsch,11,9,40,25,3,0,2,552,176,75,16,61,91,7,6,2,0,767,6,82,5,6,19
forscke01,Ken Forsch,2,2,11,3,1,0,1,97,33,16,4,13,22,1,1,1,0,140,3,18,1,1,3
forstte01,Terry Forster,3,2,27,3,0,0,2,152,50,20,5,20,33,2,1,1,0,217,10,23,2,2,5
francjo01,John Franco,6,4,47,4,1,0,11,259,79,31,7,35,61,6,3,2,1,365,25,35,6,2,7
frasewi01,Willie Fraser,4,3,20,7,1,0,2,193,63,29,6,24,42,2,2,1,0,275,6,32,3,2,5
frazige01,George Frazier,3,3,20,3,0,0,2,136,45,23,5,21,32,3,2,1,0,199,8,25,2,2,4
freemma02,Marvin Freeman,4,3,21,8,1,0,2,210,64,29,6,28,45,2,3,1,0,295,6,32,3,2,6
funkto01,Tom Funk,2,2,10,3,0,0,1,90,29,13,3,12,19,1,1,1,0,128,3,15,1,1,2
galveba01,Balvino Galvez,2,2,12,4,0,0,1,110,35,16,4,15,24,2,1,1,1,157,4,18,1,1,3
garbege01,Gene Garber,4,4,37,4,0,0,7,214,70,27,6,22,47,4,2,1,0,299,21,30,4,2,7
gardnwe01,Wes Gardner,1,2,10,3,0,0,1,82,28,13,3,10,18,1,1,1,0,117,4,15,1,1,2
garresc01,Scott Garrelts,9,7,52,12,1,0,8,410,119,51,12,61,102,8,7,3,1,578,24,58,7,5,12
gibsobo02,Bob Gibson,3,3,18,4,1,0,2,152,48,23,5,25,32,2,2,1,0,218,7,26,2,2,5
goodedw01,Dwight Gooden,16,7,37,28,9,3,1,661,177,66,14,69,192,4,5,3,3,892,5,74,7,5,14
gordodo01,Don Gordon,2,2,13,3,0,0,1,108,37,17,3,13,23,1,1,1,0,156,4,20,1,1,3
gormato03,Tom Gorman,2,2,15,3,0,0,1,108,37,17,4,13,24,1,2,1,0,155,5,19,2,1,3
gossari01,Rich Gossage,4,4,31,3,0,0,11,192,60,25,5,21,48,1,2,1,0,267,21,28,2,3,5
gottji01,Jim Gott,3,3,15,7,1,0,1,163,53,25,4,22,34,2,2,1,1,233,4,28,2,2,4
grantma01,Mark Grant,2,2,12,5,1,0,1,120,38,18,4,15,26,1,1,1,0,169,4,20,1,1,3
grosske01,Kevin Gross,12,11,44,28,5,1,2,612,201,87,19,78,136,4,3,6,1,874,6,95,8,5,13
guantce01,Cecilio Guante,4,4,36,4,1,0,3,227,67,29,7,28,56,4,3,2,1,317,16,32,3,2,5
gubicma01,Mark Gubicza,10,8,34,22,2,1,1,483,146,69,11,68,100,2,9,4,0,684,5,75,4,6,12
guettle01,Lee Guetterman,2,4,26,6,1,0,1,199,75,38,6,25,40,2,2,2,0,292,7,41,3,3,8
guidrro01,Ron Guidry,11,9,33,24,5,1,1,533,179,75,21,42,115,3,3,1,1,740,4,83,5,5,14
gullibi01,Bill Gullickson,13,11,38,29,4,1,1,605,202,80,18,54,101,8,4,2,1,841,5,89,10,8,15
gumpeda01,Dave Gumpert,3,2,24,4,1,0,2,168,55,25,5,23,38,3,2,1,0,241,7,28,3,2,4
guzmajo01,Jose Guzman,9,11,35,22,2,0,2,462,163,71,18,56,90,3,4,4,0,666,6,82,6,4,15
haasmo01,Moose Haas,7,5,24,16,2,0,1,335,109,46,11,30,62,3,2,1,0,465,4,52,3,3,9
habyajo01,John Habyan,4,4,21,9,1,0,2,210,68,31,7,29,45,3,2,1,0,301,6,36,3,2,6
halldr01,Drew Hall,4,4,20,8,1,0,2,200,65,30,7,26,46,2,2,1,0,285,6,33,3,2,6
hargeal01,Alan Hargesheimer,2,2,12,4,1,0,1,114,38,17,4,15,24,2,1,1,0,163,4,19,1,1,4
harrigr01,Greg Harris,6,5,43,4,1,0,8,273,80,32,9,35,73,3,2,2,1,380,28,37,3,3,9
havenbr01,Brad Havens,3,3,27,5,1,0,1,187,60,30,7,25,46,2,3,1,0,265,10,32,3,2,5
hawkian01,Andy Hawkins,11,8,39,27,3,1,1,564,189,82,19,67,96,6,5,4,2,803,6,91,8,7,15
haywara01,Ray Hayward,3,4,20,8,1,0,2,199,67,31,7,25,43,2,4,1,1,286,6,35,2,2,6
heatone01,Neal Heaton,6,10,30,19,3,0,1,414,148,68,15,52,70,3,3,3,1,597,5,73,5,5,13
henketo01,Tom Henke,5,4,37,4,1,0,11,223,64,30,6,27,69,3,2,1,1,311,23,34,3,4,5
henrydw01,Dwayne Henry,2,2,16,3,0,0,1,113,35,16,3,18,27,1,3,1,0,163,5,18,2,2,3
henslch01,Chuck Hensley,2,2,11,3,0,0,1,87,28,12,3,11,19,1,1,1,0,123,3,14,1,1,2
hernama01,Manny Hernandez,3,4,17,6,1,0,1,166,56,24,5,21,33,3,2,1,0,238,5,27,3,2,4
hernawi01,Willie Hernandez,6,5,42,4,1,0,13,237,71,29,9,22,59,2,2,2,0,327,30,32,3,3,5
hershor01,Orel Hershiser,13,9,39,27,6,2,2,599,175,72,12,67,134,7,8,4,1,832,6,84,8,5,17
heskejo01,Joe Hesketh,7,6,27,17,1,1,1,353,112,48,11,41,85,4,4,2,2,493,5,53,5,3,9
higuete01,Teddy Higuera,15,9,38,27,8,2,1,614,188,77,21,65,148,4,4,3,1,854,6,86,6,9,13
hoffmgu01,Guy Hoffman,5,3,25,8,1,0,1,226,77,33,7,27,47,4,3,2,1,321,7,35,3,2,7
hollaal01,Al Holland,2,2,21,4,0,0,3,145,46,21,6,16,33,2,1,1,0,205,10,24,2,2,3
holtobr01,Brian Holton,3,3,16,5,1,0,1,140,47,21,4,17,33,2,2,1,0,200,5,24,2,1,4
honeyri01,Rick Honeycutt,9,9,35,23,2,0,1,460,149,59,11,48,86,6,3,2,1,645,6,69,6,3,12
hortori01,Ricky Horton,5,4,35,9,1,0,2,277,85,33,8,31,56,6,3,2,1,382,9,35,4,3,8
houghch01,Charlie Hough,12,10,34,26,7,1,1,583,168,80,22,71,120,3,10,6,1,810,4,91,5,4,15
howelja01,Jay Howell,4,4,30,3,0,0,9,183,59,23,5,22,45,2,3,1,0,259,19,26,2,2,5
howelke01,Ken Howell,5,7,41,4,1,0,7,250,76,36,7,38,72,5,3,2,1,358,20,40,5,2,5
hoytla01,LaMarr Hoyt,9,9,32,21,4,1,1,448,152,71,19,43,79,4,2,3,2,628,4,77,7,3,10
hudsoch02,Charles Hudson,7,9,34,20,1,0,1,425,146,66,16,53,86,4,3,1,2,613,6,75,7,4,10
huismma01,Mark Huismann,3,3,26,4,1,0,2,204,67,29,9,21,46,2,3,1,0,286,10,32,2,2,7
humeto01,Tom Hume,4,4,36,5,1,0,3,239,77,33,7,30,48,4,3,2,0,341,10,38,4,3,7
hurstbr01,Bruce Hurst,10,9,32,23,6,2,1,510,172,72,19,56,136,3,4,3,1,720,4,78,5,4,13
jacksda02,Danny Jackson,10,10,36,24,3,1,2,517,169,67,12,68,104,2,5,4,1,736,6,80,7,4,20
jacksmi02,Michael Jackson,2,2,11,3,0,0,1,98,32,14,3,12,20,1,1,1,0,139,4,16,1,1,3
jacksro03,Roy Lee Jackson,3,3,24,4,0,0,2,172,54,24,6,20,37,2,2,2,1,243,8,27,3,3,4
jamesbo01,Bob James,4,4,34,3,0,0,9,196,62,27,6,23,46,3,3,2,1,278,22,30,3,3,5
johnsjo04,John Henry Johnson,2,2,16,4,0,0,1,140,46,19,4,16,35,1,3,1,0,199,5,21,2,1,3
johnsjo05,Joe Johnson,7,5,27,16,1,0,2,337,116,49,9,36,61,4,3,3,0,477,5,54,5,4,11
johnto01,Tommy John,5,6,22,12,1,0,1,264,95,40,9,28,41,2,3,2,0,377,5,44,5,3,9
jonesba01,Barry Jones,3,3,18,4,1,0,2,135,42,19,4,19,31,2,2,1,0,192,6,21,2,1,4
jonesdo01,Doug Jones,2,2,12,3,0,0,1,102,33,14,3,13,22,1,1,1,0,145,4,16,1,1,3
jonesji02,Jimmy Jones,4,3,21,8,1,1,2,214,66,30,7,25,49,2,2,1,0,299,6,33,3,2,5
jonesod01,Odell Jones,2,3,18,4,1,0,1,147,50,21,5,19,31,3,2,1,0,211,8,23,2,2,5
kellybr01,Bryan Kelly,3,4,18,7,1,0,1,176,58,26,7,23,40,2,2,1,0,251,5,29,2,2,5
keougma02,Matt Keough,4,3,19,7,1,0,1,181,55,25,6,24,41,2,2,2,0,256,5,28,3,2,5
kepshku01,Kurt Kepshire,4,4,16,9,1,0,1,187,61,29,6,26,36,2,2,1,1,267,3,32,2,2,6
kerfech01,Charlie Kerfeld,6,3,33,6,1,0,3,236,71,30,6,33,56,3,4,1,1,333,13,34,4,4,8
kernji01,Jim Kern,2,2,14,3,0,0,1,116,40,20,3,18,23,1,2,1,0,171,4,22,2,1,3
keyji01,Jimmy Key,12,9,46,27,3,1,3,599,190,79,21,64,114,3,5,3,1,831,8,86,8,5,18
kinger01,Eric King,8,5,32,13,2,1,3,345,101,48,10,48,71,3,4,5,2,486,9,50,5,2,9
kinnumi01,Mike Kinnunen,2,1,10,3,0,0,1,86,28,13,3,11,18,1,1,1,0,122,3,14,1,1,3
kippebo01,Bob Kipper,7,8,30,17,1,0,2,366,123,55,15,41,82,3,4,2,2,524,7,63,4,4,7
kneppbo01,Bob Knepper,13,10,39,29,5,2,1,626,200,79,18,55,121,7,4,3,0,868,5,91,13,5,19
knudsma01,Mark Knudson,2,3,13,5,1,0,1,133,46,22,6,16,28,2,2,1,0,191,4,24,2,1,3
krawcra01,Ray Krawczyk,2,2,12,3,0,0,1,97,34,16,4,14,21,1,1,1,0,142,4,18,1,1,2
kruegbi01,Bill Krueger,4,4,17,9,1,0,1,201,70,33,6,29,33,1,3,1,1,292,4,39,2,3,7
krukomi01,Mike Krukow,13,10,37,27,6,1,1,595,183,77,20,57,142,6,6,4,1,826,5,85,8,5,13
lacosmi01,Mike LaCoss,8,9,41,20,3,1,2,479,151,68,12,62,86,7,5,3,2,674,8,79,9,3,14
laddpe01,Pete Ladd,4,4,31,4,1,0,3,194,65,29,8,21,44,2,2,2,0,275,16,33,1,4,5
lahtije01,Jeff Lahti,2,1,16,2,0,0,3,98,31,12,3,12,21,2,1,1,0,138,6,14,1,1,4
lampde01,Dennis Lamp,5,4,32,5,1,0,2,217,76,33,6,25,42,3,3,1,0,311,10,38,4,2,9
landrbi01,Bill Landrum,2,2,11,3,0,0,1,95,33,15,3,12,22,1,1,1,0,136,4,16,1,1,3
langfri01,Rick Langford,4,7,26,10,1,0,1,243,85,42,11,28,47,2,3,1,0,350,7,46,2,2,6
langsma01,Mark Langston,11,12,39,28,5,0,1,581,185,97,23,99,163,3,7,4,2,848,5,108,6,6,17
lapoida01,Dave LaPoint,4,5,20,11,1,0,1,248,85,35,8,31,53,3,4,1,1,356,4,41,4,2,8
laskebi01,Bill Laskey,2,3,13,5,0,0,1,126,44,21,5,15,22,1,1,1,0,181,4,23,2,1,4
lathabi01,Bill Latham,2,3,15,5,1,0,1,137,47,22,4,17,29,1,1,1,0,197,4,24,2,2,4
lazorja01,Jack Lazorko,1,1,11,3,0,0,1,91,30,13,3,12,19,1,1,1,0,130,3,15,1,1,3
leachte01,Terry Leach,2,2,12,3,1,0,1,100,32,14,3,12,21,1,1,1,0,142,3,15,2,1,2
learyti01,Tim Leary,9,10,36,21,2,1,2,463,167,70,16,49,97,4,6,5,1,666,7,78,5,5,13
leffecr01,Craig Lefferts,6,5,48,4,1,0,3,261,81,33,7,32,55,5,2,1,1,363,19,36,5,3,7
leibrch01,Charlie Leibrandt,13,9,37,27,5,1,1,592,196,79,16,59,99,3,4,3,2,831,5,88,9,5,19
leipeda01,Dave Leiper,2,2,19,4,1,0,1,125,40,19,4,17,26,2,2,1,0,179,6,21,2,2,3
leonade01,Dennis Leonard,7,9,35,21,3,1,2,450,155,70,16,47,93,5,5,3,1,639,6,78,4,6,11
lerchra01,Randy Lerch,2,2,10,3,0,0,1,86,29,13,3,12,19,1,1,1,0,124,3,15,1,1,2
lollati01,Tim Lollar,3,3,18,6,1,0,1,162,52,27,6,27,36,2,3,1,0,236,4,29,2,2,4
lopezau01,Aurelio Lopez,4,3,32,3,0,0,4,211,64,30,8,27,45,3,2,1,0,297,14,33,3,3,4
loyndmi01,Mike Loynd,4,4,23,10,1,0,2,240,81,38,8,31,55,3,3,2,0,347,6,43,3,3,6
lucasga01,Gary Lucas,3,2,26,3,0,0,2,162,52,21,4,18,34,3,3,1,0,227,9,25,2,2,5
lugour01,Urbano Lugo,3,3,18,7,1,0,1,189,62,27,7,23,38,2,2,2,0,266,5,29,2,2,6
lynched01,Ed Lynch,7,6,28,14,2,1,1,339,117,48,11,28,59,3,1,2,0,473,6,53,5,3,8
maddemi01,Mike Madden,3,3,22,7,1,0,1,188,66,28,5,28,43,3,3,1,0,276,5,33,3,2,6
maddugr01,Greg Maddux,4,5,21,9,1,0,2,219,77,34,7,27,48,3,3,2,0,316,6,38,3,2,6
maddumi01,Mike Maddux,5,7,27,15,1,0,2,302,104,50,9,40,63,4,4,3,1,438,6,57,4,3,8
mahlemi01,Mickey Mahler,1,2,8,3,0,0,1,81,26,11,3,10,18,1,1,1,0,115,2,13,1,1,2
mahleri01,Rick Mahler,12,13,39,29,5,1,1,607,215,91,19,71,108,7,4,3,1,868,4,101,9,6,22
martide01,Dennis Martinez,6,7,28,17,2,1,1,355,123,60,15,39,66,3,3,4,1,507,5,64,4,4,8
martiti01,Tippy Martinez,2,2,18,3,0,0,2,117,39,19,4,18,27,3,2,1,0,170,8,21,2,2,4
masonmi01,Mike Mason,7,8,33,20,2,1,1,417,142,65,14,53,84,4,4,2,1,599,6,73,4,5,11
masonro01,Roger Mason,5,6,24,13,2,0,2,278,89,41,8,38,64,3,3,2,0,398,6,47,4,3,7
mathegr01,Greg Mathews,9,7,31,18,2,0,2,403,130,56,14,45,75,4,5,2,3,559,7,61,6,3,13
mccaski01,Kirk McCaskill,13,10,39,27,6,1,2,614,187,87,19,75,145,3,7,4,1,857,6,94,5,5,18
mcclubo01,Bob McClure,3,3,28,5,1,0,3,191,63,27,5,23,41,2,2,1,1,272,8,30,3,2,6
mcculla01,Lance McCullers,6,7,44,8,1,0,4,311,88,38,10,42,70,5,3,3,2,430,17,43,6,3,7
mcdowro01,Roger McDowell,8,6,47,5,1,0,11,309,92,38,7,35,60,4,3,2,2,427,26,42,5,3,10
mcgafan01,Andy McGaffigan,6,5,34,13,1,0,2,346,103,44,9,42,84,5,4,2,2,481,7,48,6,3,8
mcgresc01,Scott McGregor,11,12,36,27,5,1,1,536,189,87,25,56,88,2,4,3,1,766,5,94,5,6,15
mckeojo01,Joel McKeon,3,2,18,4,1,0,1,128,38,17,4,17,27,2,1,1,0,179,5,19,2,2,3
mcmurcr01,Craig McMurtry,3,5,25,8,1,0,1,224,76,37,7,35,47,3,2,1,0,328,5,41,3,3,7
mcwilla01,Larry McWilliams,5,7,32,14,1,0,1,325,111,51,11,43,66,5,3,4,1,471,7,56,5,2,9
meridro01,Ron Meridith,2,2,12,3,0,0,1,93,31,14,3,12,20,2,1,1,0,133,3,15,2,1,3
mintogr01,Greg Minton,4,4,35,3,0,0,4,203,66,29,5,30,36,8,2,1,0,292,17,32,4,3,7
mirabpa01,Paul Mirabella,1,2,12,3,0,0,1,88,29,13,3,11,19,1,1,1,0,126,4,15,1,1,3
mitchjo02,John Mitchell,2,2,13,4,1,0,1,121,39,18,4,15,25,1,2,1,0,171,4,19,2,1,4
mohorda01,Dale Mohorcic,3,3,30,5,1,0,3,192,65,24,6,20,36,3,2,1,0,270,10,27,2,1,6
montara01,Rafael Montalvo,1,1,8,3,0,0,1,79,26,12,3,10,17,1,1,1,0,113,3,13,1,1,2
montejo01,John Montefusco,2,2,9,4,0,0,1,93,30,14,3,11,19,1,1,1,0,132,3,15,1,1,2
moonebi01,Bill Mooneyham,4,4,30,7,1,0,2,241,80,37,6,40,56,3,2,2,0,353,11,41,3,2,8
mooredo01,Donnie Moore,4,5,35,4,1,0,12,212,65,25,7,22,49,3,2,1,0,295,24,29,5,2,5
mooremi01,Mike Moore,11,11,39,29,8,1,2,654,220,99,20,75,134,5,6,7,2,929,5,108,6,6,19
morgami01,Mike Morgan,9,12,38,23,5,1,2,498,178,81,18,65,97,4,6,3,1,723,7,90,6,3,18
morrija02,Jack Morris,15,9,37,28,10,3,1,652,191,84,25,78,162,6,10,2,1,906,4,91,7,4,17
moyerja01,Jamie Moyer,7,5,28,15,1,1,2,318,114,51,11,44,64,3,4,3,2,463,6,56,4,3,11
mulhote01,Terry Mulholland,4,6,23,10,1,0,2,234,75,36,7,35,48,3,4,2,0,337,6,40,4,2,7
murphro01,Rob Murphy,4,2,21,4,1,0,1,153,43,18,4,20,34,2,3,1,0,212,7,19,2,2,4
musseje01,Jeff Musselman,2,2,10,3,0,0,1,85,28,13,3,11,19,1,1,1,0,123,3,15,1,1,2
myersra01,Randy Myers,2,2,11,3,0,0,1,94,30,14,3,13,22,1,1,1,0,135,4,15,1,1,3
nelsoge01,Gene Nelson,6,6,35,8,1,0,3,296,98,44,10,38,63,3,4,3,1,423,13,48,5,2,8
niedeto01,Tom Niedenfuer,5,5,39,4,1,0,8,228,73,30,7,26,57,6,2,1,0,319,19,32,3,2,4
niekrjo01,Joe Niekro,8,7,28,18,1,0,1,357,120,54,12,50,65,3,6,2,1,516,4,64,2,2,9
niekrph01,Phil Niekro,11,9,34,25,4,0,1,524,180,78,19,78,98,2,5,3,1,764,5,91,5,4,18
nielssc01,Scott Nielsen,5,5,23,11,2,1,2,254,87,37,11,28,48,2,2,2,0,358,6,42,2,2,9
niemara01,Randy Niemann,2,3,19,4,1,0,1,132,45,19,4,16,28,2,2,1,0,189,6,21,2,1,4
nieveju01,Juan Nieves,9,10,38,23,3,2,2,470,174,78,15,62,101,2,4,2,1,690,6,93,4,5,15
nippeal01,Al Nipper,9,10,32,22,4,0,1,470,163,77,18,57,86,3,3,5,1,681,5,87,4,4,13
nolesdi01,Dickie Noles,3,4,22,6,0,0,1,189,65,32,7,25,39,2,2,3,1,276,6,35,2,2,6
nunezed01,Ed Nunez,3,2,23,3,0,0,3,146,46,21,6,17,33,2,1,1,0,207,12,23,2,1,3
oelkebr01,Bryan Oelkers,3,3,24,6,1,0,1,194,64,30,8,29,39,2,3,3,0,283,7,33,3,2,6
ojedabo01,Bob Ojeda,12,8,38,24,5,1,2,545,171,69,14,57,120,5,3,2,1,756,7,76,8,4,16
olwined01,Ed Olwine,2,2,21,4,1,0,1,146,45,21,5,18,34,3,3,1,1,204,7,23,2,1,5
onealra01,Randy O'Neal,5,6,32,12,1,0,2,322,103,47,10,40,64,5,5,2,0,454,9,54,3,5,10
ontivst02,Steve Ontiveros,3,3,31,4,1,0,5,210,64,29,7,24,45,2,3,1,0,291,14,32,2,3,7
oroscje01,Jesse Orosco,6,5,38,4,1,0,11,220,64,26,6,29,55,3,2,2,0,308,23,29,2,2,6
owchibo01,Bob Owchinko,4,3,22,7,1,0,2,201,66,29,7,25,43,2,2,1,0,285,6,32,3,2,5
ownberi01,Rick Ownbey,2,3,17,6,1,0,1,157,53,23,5,21,34,1,2,1,0,225,5,26,2,2,4
paceljo01,John Pacella,2,2,10,3,0,0,1,91,29,14,3,13,19,1,1,1,0,130,3,15,2,1,2
palmeda01,David Palmer,10,9,38,27,2,0,1,534,163,74,13,80,133,7,7,4,1,758,5,83,5,4,14
parreje01,Jeff Parrett,2,2,12,4,0,0,1,107,35,16,4,15,25,1,2,1,0,154,4,18,1,1,3
pastofr01,Frank Pastore,3,3,21,6,1,0,1,168,58,26,5,22,32,3,2,1,0,243,7,29,3,3,6
pattebo01,Bob Patterson,3,4,19,7,1,0,1,179,65,30,5,20,38,2,2,1,1,258,6,32,2,2,5
penaal01,Alejandro Pena,3,3,21,10,1,1,1,226,75,32,6,27,50,3,2,1,1,322,5,36,3,2,5
penahi01,Hipolito Pena,2,2,12,4,0,0,1,102,33,16,4,13,22,1,1,1,0,145,4,18,1,1,3
perrypa02,Pat Perry,3,3,26,4,1,0,2,183,55,25,5,25,35,4,3,1,0,256,10,28,2,3,5
petryda01,Dan Petry,8,8,28,20,3,0,1,426,133,60,15,52,77,4,5,3,0,599,4,70,3,3,13
plesada01,Dan Plesac,6,5,29,5,1,0,6,217,68,28,6,25,52,2,3,1,0,304,14,32,4,3,5
plunker01,Eric Plunk,5,6,29,13,1,0,2,326,95,55,12,64,79,3,6,3,3,472,6,60,3,3,10
portuma01,Mark Portugal,6,8,29,13,2,0,2,317,104,49,10,44,66,2,4,2,1,451,8,53,4,3,11
powelde01,Dennis Powell,3,5,25,7,1,0,1,211,69,32,7,27,43,4,4,1,1,300,7,35,4,2,7
powerte01,Ted Power,8,6,48,7,1,0,8,308,93,41,9,43,69,7,3,1,1,434,26,45,6,4,9
pricejo02,Joe Price,2,3,19,6,1,0,1,164,55,26,6,21,39,3,2,1,0,237,4,29,2,3,3
puleoch01,Charlie Puleo,3,3,17,7,1,0,1,173,53,25,6,23,38,2,2,1,0,245,5,28,3,2,4
pulidal01,Alfonso Pulido,3,3,16,6,1,0,1,152,52,23,7,18,31,1,2,1,0,217,5,25,2,2,5
quiseda01,Dan Quisenberry,4,5,41,3,0,0,12,232,80,27,5,20,39,5,1,1,0,325,31,31,3,3,8
rasmude01,Dennis Rasmussen,12,7,36,25,3,1,1,517,151,76,20,65,113,2,5,3,1,715,5,84,3,6,14
rawlesh01,Shane Rawley,10,7,32,22,5,1,1,472,156,63,14,55,85,4,4,2,1,669,5,70,5,3,14
reardje01,Jeff Reardon,5,6,42,4,1,0,18,233,71,32,8,27,56,3,2,1,0,324,28,35,4,2,6
reedje01,Jerry Reed,4,3,21,6,1,0,3,185,61,26,7,22,37,2,2,1,0,263,8,30,2,2,5
reuscri01,Rick Reuschel,10,11,37,25,4,1,2,544,180,73,14,53,114,5,5,5,1,765,6,81,7,7,14
reussje01,Jerry Reuss,6,6,25,15,2,1,1,313,109,45,10,32,52,4,3,2,0,445,5,52,5,3,9
rhoderi01,Rick Rhoden,11,11,37,28,6,1,1,615,196,79,16,65,127,5,7,3,3,853,4,85,7,4,14
righeda01,Dave Righetti,6,6,48,4,1,0,20,267,80,31,6,33,68,4,3,1,0,373,35,34,4,3,9
rijojo01,Jose Rijo,9,10,39,20,2,0,2,474,148,75,17,76,130,5,5,3,2,688,10,85,8,5,7
rileyge01,George Riley,2,1,10,3,0,0,1,87,29,13,3,12,19,1,1,1,0,126,3,14,1,1,2
rittere01,Reggie Ritter,2,2,10,3,0,0,1,91,30,14,3,11,20,1,1,1,0,130,3,16,1,1,3
roberbe01,Bert Roberge,2,3,20,3,0,0,1,137,44,21,4,16,29,2,1,1,1,194,7,23,3,1,3
robindo01,Don Robinson,4,5,31,4,0,0,5,207,65,28,6,27,50,4,3,1,0,294,17,31,3,2,5
robinje01,Jeff Robinson,4,4,32,7,1,0,3,240,78,34,7,28,57,4,5,2,0,340,9,40,2,3,7
robinro01,Ron Robinson,6,5,39,7,1,0,5,289,93,39,9,34,76,4,3,2,0,406,15,43,3,3,7
rodriri01,Rick Rodriguez,4,4,20,8,1,0,2,207,68,32,8,26,42,2,3,1,1,295,6,35,2,2,6
romanjo02,Jose Roman,4,5,21,9,1,0,2,206,67,35,8,32,43,2,2,2,1,302,6,41,3,4,6
romanro01,Ron Romanick,8,8,28,19,3,1,1,403,142,64,16,47,60,2,3,2,1,577,4,71,4,6,12
rozemda01,Dave Rozema,2,2,13,4,0,0,1,117,41,18,4,12,22,1,1,1,0,166,4,20,1,1,4
ruckeda01,Dave Rucker,2,2,20,3,0,0,1,136,46,20,4,20,27,2,2,1,0,196,6,23,2,2,5
ruffibr01,Bruce Ruffin,8,6,31,18,4,0,2,411,131,48,10,46,78,5,2,2,1,573,6,58,4,4,14
ruhleve01,Vern Ruhle,2,4,22,7,1,0,2,199,69,31,7,20,38,2,2,1,0,283,6,34,3,2,6
russeje01,Jeff Russell,4,4,23,8,1,0,1,220,75,35,8,28,48,2,3,2,0,316,5,40,2,2,6
ruthvdi01,Dick Ruthven,2,2,11,5,0,0,1,115,41,18,4,15,20,1,1,1,0,166,3,21,2,1,4
ryanno01,Nolan Ryan,10,9,33,25,2,0,1,500,137,66,12,69,153,5,10,4,1,697,4,74,6,6,11
saberbr01,Bret Saberhagen,10,9,34,22,4,1,1,484,156,65,15,38,107,2,3,2,1,664,7,71,6,4,11
sambijo01,Joe Sambito,2,2,26,4,1,0,4,143,50,23,5,18,30,2,2,1,0,206,11,25,2,1,5
sandesc01,Scott Sanderson,8,8,34,22,2,1,2,443,140,62,15,39,100,4,3,2,1,609,5,69,6,6,9
sauveri01,Rich Sauveur,4,3,21,8,1,0,2,204,68,31,8,26,44,2,2,2,1,292,6,34,3,2,6
schatda01,Dan Schatzeder,3,3,17,5,1,0,1,148,47,20,5,18,31,2,1,1,0,208,5,23,3,2,4
scherbi01,Bill Scherrer,2,2,19,3,0,0,1,126,40,20,5,21,29,4,2,1,0,184,6,22,2,1,3
schirca01,Calvin Schiraldi,3,3,19,5,1,0,3,163,53,23,6,20,42,2,2,2,0,231,9,25,2,1,5
schmida01,Dave Schmidt,5,5,36,5,1,0,5,241,79,31,7,26,53,5,3,2,0,340,18,36,3,2,8
schroke01,Ken Schrom,10,9,37,26,4,1,1,528,181,87,25,55,86,3,3,5,1,751,5,97,7,8,13
schuldo01,Don Schulze,5,7,27,15,1,0,1,309,112,54,11,35,53,2,5,3,1,450,5,60,3,3,8
scottmi03,Mike Scott,14,9,41,30,4,2,1,654,180,74,17,68,183,5,5,3,1,887,5,83,7,6,13
scurrro01,Rod Scurry,3,3,21,4,0,0,2,137,42,19,4,20,35,2,3,1,0,195,7,21,2,1,4
searara01,Ray Searage,2,2,21,3,0,0,1,129,40,17,3,19,31,2,1,1,0,184,8,19,2,1,3
seaveto01,Tom Seaver,8,7,25,17,3,1,1,391,127,53,12,40,80,3,4,3,0,550,4,59,5,4,10
sebrabo01,Bob Sebra,5,6,27,13,2,1,2,304,97,45,11,36,69,3,3,3,2,431,7,49,4,4,7
selleje01,Jeff Sellers,5,6,26,14,2,0,2,313,107,49,12,43,65,3,4,3,1,452,6,58,4,3,12
shielst01,Steve Shields,2,2,11,4,0,0,1,108,37,17,4,14,21,2,2,1,0,156,3,19,2,2,4
shirlbo01,Bob Shirley,3,4,33,8,1,0,2,278,92,41,9,32,55,2,2,2,0,393,8,43,4,4,7
shower01,Eric Show,9,7,30,21,3,1,1,443,131,55,14,62,93,4,4,3,1,621,4,61,8,3,10
siskdo01,Doug Sisk,4,3,30,4,1,0,3,202,68,28,4,30,36,3,2,2,1,294,13,33,3,1,7
slatoji01,Jim Slaton,2,3,17,7,1,0,1,175,62,28,7,22,29,2,2,1,0,253,5,30,2,2,5
smilejo01,John Smiley,2,2,12,3,0,0,1,96,30,14,3,12,21,1,1,1,0,135,3,16,1,1,2
smithbr01,Bryn Smith,11,8,34,25,2,1,1,523,165,69,14,52,103,5,3,3,1,732,4,81,9,3,13
smithda02,Dave Smith,4,4,35,3,0,0,12,181,53,21,5,20,40,3,2,1,0,249,23,24,3,1,5
smithle02,Lee Smith,6,5,42,4,1,0,16,239,72,31,7,31,70,5,3,1,0,333,31,33,4,2,7
smithmi03,Mike Smithson,11,11,35,26,6,1,1,546,193,87,21,55,104,4,8,9,1,783,4,98,6,6,17
smithmi04,Mike Smith,3,2,15,5,1,0,1,136,45,21,5,17,30,1,2,1,0,194,5,23,2,1,4
smithro01,Roy Smith,2,2,11,5,0,0,1,111,40,18,4,14,23,1,1,1,0,162,3,20,1,1,3
smithza01,Zane Smith,9,12,43,23,3,1,2,521,170,76,10,83,113,6,5,4,0,747,7,87,11,4,24
snellna01,Nate Snell,3,3,27,4,1,0,2,210,68,28,6,24,38,3,2,1,0,294,11,33,3,2,8
soffra01,Ray Soff,3,2,18,4,1,0,1,132,43,19,4,16,28,1,2,1,1,188,6,21,2,2,3
solanju01,Julio Solano,3,2,18,4,0,0,1,141,46,22,5,20,30,2,2,1,1,204,6,24,2,1,3
sotoma01,Mario Soto,7,8,27,19,4,1,1,412,122,60,16,55,101,4,4,2,1,578,4,65,6,5,7
speckcl01,Cliff Speck,2,2,14,4,1,0,1,125,40,18,4,17,28,1,2,1,1,178,4,20,2,1,3
stanlbo01,Bob Stanley,5,5,38,4,1,0,8,224,79,32,7,24,46,5,2,1,0,319,25,37,3,3,8
stclara01,Randy St. Claire,3,2,17,3,0,0,1,126,40,18,4,15,27,2,1,1,0,178,5,19,2,1,4
stewada01,Dave Stewart,6,6,29,14,2,1,1,361,115,54,13,50,79,2,6,2,0,519,6,58,4,3,8
stewasa01,Sammy Stewart,4,3,27,4,0,0,3,207,66,30,7,34,45,3,3,1,1,299,12,33,3,3,7
stiebda01,Dave Stieb,9,9,35,26,4,1,1,557,178,75,19,71,121,2,5,8,1,791,5,86,7,4,16
stoddbo01,Bob Stoddard,2,2,14,3,0,0,1,114,37,17,4,15,25,1,2,1,0,163,4,19,1,1,3
stoddti01,Tim Stoddard,3,3,24,3,0,0,1,164,52,24,5,25,39,3,3,1,0,237,9,27,4,2,4
sutclri01,Rick Sutcliffe,8,10,32,22,4,2,1,477,148,69,15,67,117,5,8,2,1,676,5,74,5,3,9
suttebr01,Bruce Sutter,3,2,20,3,0,0,6,128,41,17,5,15,28,2,1,1,0,179,13,19,2,1,4
suttodo01,Don Sutton,11,9,33,23,2,1,1,480,154,68,21,45,97,3,4,3,1,670,5,74,4,4,10
swaggbi01,Bill Swaggerty,1,1,8,3,0,0,1,77,26,12,3,10,16,1,1,0,0,110,2,13,1,1,2
swiftbi02,Bill Swift,5,8,31,16,1,0,1,352,130,61,9,49,64,4,4,5,1,519,6,70,5,3,13
swindgr01,Greg Swindell,6,5,25,12,1,0,2,284,91,42,11,32,65,2,4,2,1,400,6,48,4,3,6
tananfr01,Frank Tanana,10,9,33,23,4,1,1,493,163,69,18,55,108,6,6,3,1,700,5,79,6,4,14
tekulke01,Kent Tekulve,6,6,46,4,1,0,6,253,79,30,5,27,48,6,2,1,1,353,24,34,4,3,7
terrewa01,Walt Terrell,12,10,36,27,5,2,1,572,183,87,18,79,102,4,5,3,0,812,5,94,6,5,21
terrysc01,Scott Terry,3,3,21,5,1,0,1,171,59,29,6,25,36,2,2,1,0,249,6,31,3,2,5
tewksbo01,Bob Tewksbury,8,6,30,16,2,0,2,366,126,49,10,38,64,2,4,4,1,521,6,57,4,5,11
thigpbo01,Bobby Thigpen,2,2,16,4,1,0,3,132,41,17,4,16,28,1,1,1,0,185,7,19,2,1,4
thurmma01,Mark Thurmond,4,4,21,9,1,0,2,210,69,27,6,24,34,2,1,1,0,295,4,31,4,2,7
tibbsja01,Jay Tibbs,8,10,37,26,3,1,1,531,170,76,13,66,100,5,7,2,1,747,5,87,10,5,18
tolivfr01,Freddie Toliver,3,5,23,9,1,0,2,230,76,33,6,32,53,2,3,1,0,331,7,38,4,2,6
tomlida01,Dave Tomlin,2,2,10,3,0,0,1,88,29,13,3,12,19,1,1,1,0,127,4,15,1,1,3
troutst01,Steve Trout,7,7,33,21,2,1,1,428,151,64,9,60,68,8,5,2,1,615,5,69,7,5,17
trujimi01,Mike Trujillo,4,4,21,7,1,0,2,203,69,29,7,24,35,2,2,1,0,289,6,33,2,2,7
tudorjo01,John Tudor,12,8,34,26,5,2,1,584,171,63,16,50,111,4,3,2,1,787,4,70,7,5,14
valdese01,Sergio Valdez,4,5,22,9,1,0,2,225,80,36,7,29,51,2,3,2,0,326,6,40,3,2,7
valenfe01,Fernando Valenzuela,15,10,37,28,12,2,1,674,191,77,15,80,183,5,9,2,1,927,4,89,11,5,16
vandeed01,Ed Vande Berg,3,4,38,5,1,0,2,202,72,29,7,28,41,4,2,1,0,296,14,33,3,2,6
violafr01,Frank Viola,14,11,38,29,6,1,1,631,212,96,26,68,139,2,8,3,1,891,4,108,4,5,15
vonohda01,Dave Von Ohlen,2,2,18,3,0,0,1,111,38,15,3,14,21,2,1,1,0,159,5,18,3,1,3
vosbeed01,Ed Vosberg,3,3,17,7,1,0,1,161,54,25,5,22,35,2,2,1,1,232,5,28,2,2,4
vuckope01,Pete Vuckovich,5,6,22,13,1,0,1,258,90,41,10,33,49,2,3,3,1,373,5,47,4,3,7
walkbo01,Bob Walk,6,6,33,13,1,1,2,339,107,48,11,45,70,5,6,2,1,477,7,54,5,3,12
waltege01,Gene Walter,3,3,34,5,1,0,2,231,71,32,6,33,57,4,3,2,0,328,11,36,3,2,7
warddu01,Duane Ward,3,3,14,5,1,0,1,135,44,20,4,18,30,2,2,1,0,194,5,23,2,1,4
wegmabi01,Bill Wegman,7,9,37,23,2,0,2,485,168,83,22,45,82,3,5,5,2,684,7,89,4,5,16
welchbo01,Bob Welch,10,10,36,26,5,2,1,580,184,71,15,53,135,5,5,5,2,808,5,79,7,5,12
welshch01,Chris Welsh,6,8,35,18,1,0,2,408,151,65,13,45,63,4,5,4,0,589,7,72,7,4,17
whitsed01,Ed Whitson,5,6,24,15,1,0,1,307,111,50,11,35,62,1,2,1,0,443,4,55,3,4,9
wilcomi01,Milt Wilcox,4,6,21,12,1,0,1,245,87,39,10,32,49,2,2,2,1,355,4,44,3,3,8
willica01,Carl Willis,2,3,21,4,1,0,1,159,54,25,5,23,32,4,2,1,1,231,6,29,3,2,5
willifr01,Frank Williams,3,3,28,3,1,0,1,175,52,22,4,24,41,3,2,3,1,244,9,25,3,2,6
willimi02,Mitch Williams,5,4,40,5,1,0,4,230,66,32,7,42,59,4,3,5,2,332,17,34,2,2,8
willsfr01,Frank Wills,3,4,19,6,1,0,2,172,57,30,7,25,37,2,3,1,0,250,7,32,3,3,4
winnji01,Jim Winn,4,5,32,6,1,0,2,237,78,36,7,32,50,4,5,2,1,339,11,40,3,2,9
wittbo01,Bobby Witt,9,8,36,23,1,0,2,431,129,76,15,94,129,3,13,3,2,646,7,83,4,6,9
wittmi01,Mike Witt,14,9,38,28,8,2,1,666,196,82,19,74,164,4,7,3,1,915,5,93,5,5,22
wojnaed01,Ed Wojna,5,5,25,11,1,0,2,254,87,38,8,33,51,3,2,2,1,370,6,45,4,3,9
woodwro01,Rob Woodward,4,4,20,8,1,0,1,211,70,31,7,25,43,2,4,2,1,303,6,36,2,2,5
worreto01,Todd Worrell,6,5,40,5,1,0,13,238,72,28,7,30,54,7,2,1,0,334,25,31,4,4,6
wrighri01,Ricky Wright,2,2,17,4,1,0,1,141,47,22,4,20,30,1,2,1,0,203,4,24,2,1,5
yettri01,Rich Yett,4,3,26,6,1,0,2,206,69,33,8,28,45,3,4,1,0,298,10,37,2,3,5
youmafl01,Floyd Youmans,10,10,38,25,4,1,2,547,142,72,13,90,147,4,8,3,1,766,7,80,6,6,11
youngcu01,Curt Young,10,8,37,21,3,1,2,489,157,72,19,54,95,2,5,5,1,694,7,80,6,6,10
youngma01,Matt Young,6,7,33,12,2,0,4,304,107,49,10,40,69,2,4,4,1,442,11,56,3,3,10
