playerID,playerName,G,AB,R,H,2B,3B,HR,RBI,BB,SO,SB,CS,HBP,SH,SF
abbotku01,Kurt Abbott,107,364,49,94,18,3,11,42,25,90,6,1,4,4,2
aldremi01,Mike Aldrete,102,286,42,75,13,1,9,36,34,51,4,1,1,2,2
alicelu01,Luis Alicea,105,313,43,85,16,6,6,42,38,51,7,4,4,2,5
alomaro01,Roberto Alomar,116,433,79,134,25,5,10,57,58,49,30,8,3,5,3
alomasa02,Sandy Alomar,100,349,44,96,17,1,11,47,26,44,7,4,5,2,3
aloumo01,Moises Alou,124,439,72,133,30,4,17,75,39,60,13,5,3,2,6
amarari01,Rich Amaral,100,326,48,90,17,2,5,36,31,48,11,5,2,7,3
amaroru02,Ruben Amaro,70,191,26,48,9,3,5,23,20,29,5,2,3,2,2
anderbr01,Brady Anderson,115,448,72,120,25,6,13,54,61,75,26,7,8,5,4
anderga01,Garret Anderson,55,191,27,54,10,1,6,26,19,32,4,2,1,1,2
anthoer01,Eric Anthony,108,361,47,90,16,2,13,52,34,74,5,3,1,1,2
ariasal01,Alex Arias,96,259,29,70,11,1,4,29,26,34,2,2,3,2,2
ashlebi01,Billy Ashley,57,192,22,51,10,1,5,21,17,42,3,1,1,1,1
ausmubr01,Brad Ausmus,110,367,50,96,16,2,10,35,32,67,6,2,2,4,2
baergca01,Carlos Baerga,116,468,76,145,26,3,17,80,24,55,9,3,6,2,8
bagweje01,Jeff Bagwell,119,434,78,137,29,3,23,85,58,68,11,4,5,1,8
baineha01,Harold Baines,106,370,52,106,17,1,15,61,43,52,2,1,1,1,3
barbebr01,Bret Barberie,118,397,46,111,19,2,6,38,38,69,5,3,8,3,2
barnesk01,Skeeter Barnes,90,199,31,56,10,1,5,31,16,28,5,3,1,3,3
basske01,Kevin Bass,113,298,45,86,21,2,7,44,33,41,7,3,2,2,2
batiski01,Kim Batiste,104,306,32,78,12,1,6,35,14,50,3,2,2,2,3
bautida01,Danny Bautista,71,245,33,66,12,2,8,36,18,42,6,3,1,1,2
beanbi01,Bill Bean,116,263,29,67,13,1,6,38,18,45,3,3,2,2,5
beckeri01,Rich Becker,67,233,34,64,12,1,6,28,29,47,9,3,1,2,1
bellde01,Derek Bell,126,456,61,128,19,2,15,58,31,94,21,6,6,1,4
belleal01,Albert Belle,118,444,75,133,27,2,29,92,53,80,11,6,5,1,7
bellira01,Rafael Belliard,114,242,25,59,11,1,3,22,15,43,2,2,3,6,1
bellja01,Jay Bell,116,448,70,127,28,5,9,44,50,83,7,4,4,9,2
bellju01,Juan Bell,81,256,35,65,9,1,6,28,32,51,7,3,1,2,2
beltres01,Esteban Beltre,83,246,34,65,11,1,4,29,24,43,4,4,1,5,2
benavfr01,Freddie Benavides,91,246,28,64,13,2,4,29,16,40,3,2,1,2,2
benjami01,Mike Benjamin,88,223,31,54,12,2,6,27,19,40,5,1,4,7,1
benzito01,Todd Benzinger,129,359,41,96,17,3,10,42,25,76,3,2,2,2,4
berroge01,Geronimo Berroa,104,349,54,100,18,2,12,56,39,62,7,3,3,1,5
berryda01,Damon Berryhill,109,340,35,86,19,2,9,46,25,69,2,2,1,1,3
berryse01,Sean Berry,125,365,53,101,20,2,13,51,40,67,13,2,3,3,4
bicheda01,Dante Bichette,124,473,70,141,33,3,19,77,26,80,17,7,5,1,4
biggicr01,Craig Biggio,119,452,77,132,32,4,10,48,61,68,24,9,7,3,3
blausje01,Jeff Blauser,118,418,70,117,22,3,11,53,51,77,7,4,7,5,5
blossgr01,Greg Blosser,61,191,27,48,10,1,5,25,22,35,4,2,1,1,2
blowemi01,Mike Blowers,112,349,49,97,19,2,12,53,36,78,3,3,2,2,2
bogarti01,Tim Bogar,91,226,27,56,12,1,6,29,20,37,3,2,2,2,2
boggswa01,Wade Boggs,109,405,60,121,20,2,7,49,57,37,2,2,2,1,5
bondsba01,Barry Bonds,119,408,90,128,25,3,31,84,85,57,25,8,4,0,5
bonilbo01,Bobby Bonilla,117,421,64,115,22,2,22,69,58,85,3,3,1,0,4
boonebr01,Bret Boone,114,405,57,114,22,2,14,63,29,78,5,4,6,5,5
bordepa01,Pat Borders,107,374,36,95,20,1,8,42,23,58,3,2,1,3,2
bordimi01,Mike Bordick,124,423,49,113,18,3,4,42,42,51,9,5,6,7,5
bostoda01,Daryl Boston,101,242,35,62,12,1,10,34,25,48,4,4,2,0,2
bournra01,Rafael Bournigal,76,238,23,63,11,2,5,29,22,29,3,1,3,4,1
bowieji01,Jim Bowie,54,184,26,50,9,1,6,24,18,31,4,2,1,2,2
braggda01,Darren Bragg,56,190,29,51,10,1,6,26,20,33,4,2,1,1,2
bransje01,Jeff Branson,104,276,35,73,13,2,6,29,18,47,3,1,1,4,2
breamsi01,Sid Bream,88,230,27,63,14,1,6,33,27,35,4,2,1,1,2
brognri01,Rico Brogna,73,250,35,75,16,2,10,36,21,47,4,1,1,2,1
brookhu01,Hubie Brooks,77,224,25,57,12,1,5,32,15,36,3,2,1,1,3
brosisc01,Scott Brosius,113,363,44,91,17,2,13,51,28,62,6,4,3,4,5
brownja03,Jarvis Brown,78,197,32,50,11,2,5,22,20,35,5,3,4,2,2
brownje01,Jerry Browne,112,366,47,102,18,3,5,38,45,37,5,2,2,6,4
brumfja01,Jacob Brumfield,105,267,48,74,16,3,7,28,26,44,14,5,1,3,3
brumlmi02,Mike Brumley,60,189,25,52,9,1,5,26,19,36,4,2,1,1,2
brunato01,Tom Brunansky,85,281,33,69,15,2,10,44,35,63,3,3,1,1,3
buechst01,Steve Buechele,113,388,45,103,18,2,12,54,40,77,3,1,5,3,3
buforda01,Damon Buford,73,190,33,51,11,1,6,26,20,36,4,3,2,2,1
buhneja01,Jay Buhner,115,408,66,109,20,3,20,68,64,91,2,3,4,2,6
burksel01,Ellis Burks,86,298,48,84,14,3,13,43,34,60,5,4,2,1,3
burnije01,Jeromy Burnitz,85,278,48,71,12,3,10,37,37,66,4,4,2,2,2
butlebr01,Brett Butler,115,427,67,129,15,7,5,35,64,54,26,11,3,10,2
butlero01,Rob Butler,79,223,35,57,10,2,5,25,24,37,4,3,2,4,3
caminke01,Ken Caminiti,118,435,63,121,27,1,14,65,42,70,7,4,1,1,3
cangejo01,John Cangelosi,100,226,32,59,10,1,5,23,32,40,8,4,2,4,1
cansejo01,Jose Canseco,110,412,70,113,21,2,23,79,54,101,12,7,5,1,3
carrch02,Chuck Carr,117,450,63,120,19,2,5,38,36,68,36,12,3,6,3
carrema01,Mark Carreon,90,243,30,66,11,1,8,39,20,39,3,1,2,1,4
carrima01,Matias Carrillo,102,251,31,67,15,1,4,27,21,46,5,3,2,1,2
cartejo01,Joe Carter,117,450,70,119,24,3,24,90,34,76,9,2,5,1,9
castivi02,Vinny Castilla,92,283,35,79,14,4,8,33,18,44,4,3,2,1,4
cedenan01,Andujar Cedeno,120,408,50,107,24,2,10,49,37,88,5,3,5,2,3
cedendo01,Domingo Cedeno,80,233,34,57,9,3,5,31,22,50,4,3,1,4,5
chambwe01,Wes Chamberlain,89,294,33,79,18,2,10,42,21,56,3,2,1,1,2
cianfar01,Archi Cianfrocco,93,282,30,70,12,2,9,39,18,65,4,1,3,2,4
cirilje01,Jeff Cirillo,72,245,35,65,15,1,7,30,24,37,3,2,3,1,1
clarkda05,Dave Clark,114,310,48,87,14,2,12,54,36,62,3,2,1,1,3
clarkph02,Phil Clark,105,282,36,79,16,1,9,38,18,40,4,2,4,1,3
clarkwi02,Will Clark,116,417,68,125,26,2,13,68,60,64,6,3,4,1,6
claytro01,Royce Clayton,124,437,47,113,17,5,6,46,35,78,15,6,3,4,4
colbrgr01,Greg Colbrunn,92,279,32,78,16,1,8,43,19,52,5,3,3,1,4
coleal01,Alex Cole,122,384,64,107,14,6,4,31,45,68,25,9,2,4,2
colemvi01,Vince Coleman,111,429,66,113,17,8,5,38,33,71,39,10,2,4,4
colesda01,Darnell Coles,87,267,35,70,14,2,7,34,21,42,3,1,3,2,3
coninje01,Jeff Conine,125,464,61,138,24,4,13,70,42,97,3,2,3,1,4
coolbsc01,Scott Coolbaugh,61,188,29,51,9,1,7,29,19,32,4,2,1,1,2
coopesc01,Scott Cooper,125,415,53,116,22,3,10,53,42,64,3,3,2,2,4
corajo01,Joey Cora,114,385,65,104,15,6,4,39,46,46,13,5,5,10,4
cordewi01,Wil Cordero,128,449,63,124,29,3,13,60,40,68,13,3,6,3,2
correro01,Rod Correia,71,200,27,55,10,1,4,22,16,31,4,3,4,3,1
cruzfa01,Fausto Cruz,64,198,28,51,9,1,6,25,22,34,4,2,1,1,2
cummimi01,Midre Cummings,67,231,33,59,11,1,6,31,21,43,3,1,2,1,3
curtich01,Chad Curtis,126,463,69,125,21,3,10,51,48,72,31,14,4,6,5
cuylemi01,Milt Cuyler,87,267,43,65,11,3,4,28,22,52,10,4,3,4,2
dalesma01,Mark Dalesandro,64,192,30,52,10,1,6,26,20,32,4,2,1,1,2
daultda01,Darren Daulton,97,340,57,93,22,3,17,68,59,67,6,1,2,0,4
davisbu02,Butch Davis,64,200,30,53,13,3,5,26,15,34,5,2,1,3,1
davisch01,Chili Davis,119,422,64,117,23,1,20,77,61,87,4,3,2,0,4
daviser01,Eric Davis,70,239,32,58,9,1,8,32,32,60,10,2,2,1,1
davisru01,Russ Davis,53,188,26,51,10,1,6,26,19,33,4,2,1,1,2
dawsoan01,Andre Dawson,95,360,41,96,21,1,14,56,19,51,4,2,6,0,4
delgaca01,Carlos Delgado,75,248,35,63,10,1,12,39,34,59,4,2,3,1,2
deshide01,Delino DeShields,104,392,61,110,15,5,5,38,53,65,30,8,2,3,2
destror01,Orestes Destrade,83,297,34,75,12,1,10,43,33,64,2,1,2,1,3
devermi01,Mike Devereaux,99,381,49,96,18,4,12,54,30,70,4,3,2,1,4
diazal01,Alex Diaz,110,284,36,77,11,5,5,30,20,40,10,7,1,4,3
diazma01,Mario Diaz,80,235,31,66,12,2,4,30,18,27,3,1,2,4,3
disarga01,Gary Disarcina,125,422,51,107,18,1,5,42,22,42,6,6,4,6,3
donnech01,Chris Donnels,98,238,29,61,14,1,5,27,28,44,4,1,1,1,1
dorsebr01,Brian Dorsett,94,289,35,75,14,1,8,40,28,48,3,1,2,1,2
duceyro01,Rob Ducey,64,199,27,53,11,2,5,23,20,33,4,4,1,2,2
duncama01,Mariano Duncan,104,406,56,111,24,2,9,52,19,76,10,3,4,3,3
dunnst02,Steve Dunn,60,200,27,54,13,1,6,28,19,39,4,2,1,1,2
dunstsh01,Shawon Dunston,95,344,45,97,20,1,10,39,23,53,5,7,2,4,2
dykstle01,Lenny Dykstra,102,392,78,114,26,4,10,41,69,47,21,6,2,0,3
easleda01,Damion Easley,107,365,49,95,19,2,7,39,36,58,9,7,5,3,3
edmonji01,Jim Edmonds,104,338,44,92,17,2,7,43,33,74,5,4,2,1,2
eenhoro01,Robert Eenhoorn,53,181,28,51,10,1,6,25,19,30,4,2,1,1,2
eisenji01,Jim Eisenreich,126,357,47,105,17,4,6,47,32,42,8,3,1,2,3
espinal01,Alvaro Espinoza,124,319,42,84,18,1,5,34,17,48,4,3,2,6,3
eusebto01,Tony Eusebio,80,259,35,74,14,2,8,42,21,48,3,2,1,2,5
evereca01,Carl Everett,65,212,30,55,9,1,7,27,20,44,7,2,1,1,2
fabrejo01,Jorge Fabregas,76,248,32,70,11,1,5,34,22,39,5,2,1,2,1
faneyri01,Rikkert Faneyte,66,195,27,50,11,1,5,27,21,39,4,2,1,1,2
feldemi01,Mike Felder,99,269,31,67,9,3,3,25,19,31,10,4,2,4,2
felixju01,Junior Felix,99,357,52,96,21,2,11,50,28,82,4,5,4,2,4
fermife01,Felix Fermin,120,414,52,118,19,2,4,41,24,28,4,4,4,9,3
fernato01,Tony Fernandez,106,395,54,112,20,5,7,46,40,43,13,9,3,5,2
fieldce01,Cecil Fielder,117,439,64,114,18,1,24,87,57,102,1,1,2,0,4
finlest01,Steve Finley,111,420,61,116,17,7,8,40,33,54,18,6,2,9,2
flahejo01,John Flaherty,81,202,25,49,10,1,4,24,17,36,3,2,2,3,2
fletcda01,Darrin Fletcher,118,361,36,94,20,2,10,57,32,41,2,1,4,3,7
fletcsc01,Scott Fletcher,90,311,49,84,17,3,5,33,26,30,11,4,4,4,2
floydcl01,Cliff Floyd,107,362,49,101,19,3,7,46,29,67,9,3,3,2,3
foleyto02,Tom Foley,105,255,29,63,13,1,6,30,22,40,3,1,1,2,3
foxer01,Eric Fox,74,203,30,50,9,1,5,23,18,35,5,3,1,4,1
francju01,Julio Franco,119,436,70,129,23,2,15,77,55,76,8,2,3,2,5
frazilo01,Lou Frazier,119,266,41,74,11,2,4,30,28,41,20,4,1,3,1
fryeje01,Jeff Frye,82,278,43,81,19,3,4,29,32,39,6,3,2,7,3
frymatr01,Travis Fryman,121,482,71,134,29,4,17,77,48,109,6,3,4,2,7
gaettga01,Gary Gaetti,103,364,49,96,17,2,13,54,23,72,2,2,5,1,4
gagnegr01,Greg Gagne,125,418,51,111,24,2,9,49,28,78,9,11,2,5,2
galaran01,Andres Galarraga,114,431,68,136,25,2,22,78,24,82,6,4,7,1,5
gallada01,Dave Gallagher,122,266,41,69,14,2,6,33,30,32,3,3,1,5,3
gallemi01,Mike Gallego,106,362,52,96,19,1,9,47,43,56,3,2,4,4,4
garcica01,Carlos Garcia,116,442,59,120,19,3,9,40,26,66,15,8,5,3,3
gardnje01,Jeff Gardner,80,233,32,61,11,3,3,20,25,41,3,3,1,1,1
gatesbr01,Brent Gates,96,355,45,101,19,2,6,44,36,52,5,2,2,4,6
gibsoki01,Kirk Gibson,108,374,65,100,18,3,17,64,42,76,9,5,3,2,4
gilkebe01,Bernard Gilkey,118,425,66,121,26,3,10,53,43,62,14,8,5,1,3
girarjo01,Joe Girardi,108,373,46,104,13,4,5,38,29,55,5,4,3,7,2
goffje01,Jerry Goff,57,191,26,50,9,1,6,26,21,39,3,2,1,2,1
gomezch02,Chris Gomez,104,349,42,92,21,1,9,53,36,65,7,4,3,4,2
gomezle02,Leo Gomez,99,340,49,87,18,0,14,50,44,65,2,2,4,2,4
gonzaal01,Alex Gonzalez,60,212,31,54,12,2,6,25,21,42,6,2,2,2,2
gonzaju03,Juan Gonzalez,120,455,70,128,23,2,28,88,33,86,4,2,7,0,4
gonzalu01,Luis Gonzalez,126,434,61,121,27,3,11,64,42,65,14,9,5,2,6
gonzare01,Rene Gonzales,74,216,29,58,11,1,4,25,28,32,5,3,2,2,2
gracema01,Mark Grace,115,433,59,133,26,3,9,60,51,37,4,2,1,1,5
grebecr01,Craig Grebeck,78,240,32,64,13,1,4,25,28,31,2,2,2,6,1
greenmi01,Mike Greenwell,110,393,59,112,25,3,11,52,42,40,4,3,4,1,4
greensh01,Shawn Green,61,201,27,51,10,1,6,26,19,36,5,2,1,1,2
greenwi01,Willie Greene,64,208,29,53,10,2,6,27,22,47,3,2,1,1,3
greerru01,Rusty Greer,91,319,44,95,18,2,11,50,45,53,3,1,2,2,4
griffke02,Ken Griffey,121,460,84,142,28,3,31,85,58,70,11,5,4,0,4
grissma02,Marquis Grissom,120,485,83,139,25,3,13,58,40,65,40,7,2,1,5
guilloz01,Ozzie Guillen,116,408,49,115,17,4,5,48,19,45,6,4,1,8,5
gutieri01,Ricky Gutierrez,113,367,52,93,13,3,5,35,41,73,4,5,3,2,3
gwynnch01,Chris Gwynn,95,243,33,69,11,3,5,29,22,33,2,2,1,2,2
gwynnto01,Tony Gwynn,112,434,69,151,31,2,9,54,41,26,7,2,1,1,5
halech01,Chip Hale,96,252,34,74,13,1,5,33,28,33,3,3,4,2,3
halljo02,Joe Hall,62,191,30,56,12,1,6,28,19,32,4,2,2,1,2
hamelbo01,Bob Hamelin,105,338,58,94,23,1,19,59,50,66,5,3,2,1,4
hamilda02,Darryl Hamilton,80,300,44,88,14,2,5,34,29,36,14,6,1,3,2
hammoje01,Jeffrey Hammonds,92,325,51,95,21,2,10,45,24,52,8,1,2,1,5
haneyto01,Todd Haney,62,195,29,51,9,1,6,25,19,30,5,2,2,2,2
hanseda01,Dave Hansen,96,212,25,58,9,1,5,28,25,31,2,2,1,1,2
haresh01,Shawn Hare,68,199,29,52,10,2,5,26,21,36,4,2,1,1,2
harpebr01,Brian Harper,96,352,39,105,18,1,8,49,21,27,2,2,5,1,5
harrile01,Lenny Harris,110,244,29,67,10,1,3,27,20,28,10,3,1,2,2
haselbi01,Bill Haselman,84,233,34,60,14,1,7,29,20,37,4,2,2,2,2
hatchbi01,Billy Hatcher,80,293,39,79,14,2,5,32,19,35,7,4,4,5,3
hayesch01,Charlie Hayes,123,449,58,128,26,3,15,64,35,75,6,5,3,1,4
helfaer01,Eric Helfand,60,186,27,51,9,1,6,26,18,30,4,2,1,1,2
hemonsc01,Scott Hemond,114,293,40,74,18,1,7,36,32,67,11,6,1,4,2
hendeda01,Dave Henderson,88,310,37,74,17,1,11,43,27,67,3,2,1,1,4
henderi01,Rickey Henderson,93,324,64,86,14,1,9,32,66,48,27,6,4,1,3
hernaca01,Carlos Hernandez,85,224,24,59,10,1,6,25,15,35,2,1,2,1,2
hernajo01,Jose Hernandez,84,248,36,66,10,3,6,28,22,47,5,3,2,5,1
hillgl01,Glenallen Hill,99,325,48,91,16,1,15,48,29,65,13,5,2,1,2
hockide01,Denny Hocking,62,201,30,54,11,1,5,24,20,34,6,2,1,1,1
hoilech01,Chris Hoiles,113,379,61,105,18,1,22,61,62,78,3,1,5,2,4
holbera01,Ray Holbert,55,184,28,51,10,1,6,25,19,34,4,2,1,1,2
hollida01,Dave Hollins,83,308,55,82,16,2,11,49,42,59,3,2,6,0,3
howarch01,Chris Howard,55,189,27,51,10,1,5,26,19,33,4,2,2,2,2
howarda02,David Howard,81,223,28,57,10,2,4,28,22,44,5,3,1,5,3
howarth01,Thomas Howard,96,282,37,77,15,2,6,33,21,47,9,5,1,4,2
howitda01,Dann Howitt,64,192,28,52,12,2,6,26,18,37,3,2,1,1,2
hrbekke01,Kent Hrbek,101,340,48,87,14,1,15,60,52,47,4,2,1,2,4
hubbatr01,Trent Hubbard,62,188,28,53,10,2,6,26,20,32,4,2,1,1,2
hudlere01,Rex Hudler,92,238,36,67,13,1,10,32,18,47,5,5,1,4,3
huffmi01,Mike Huff,113,280,40,77,17,2,6,35,34,48,4,2,3,2,3
huletti01,Tim Hulett,82,247,34,69,12,1,5,31,24,51,2,2,2,1,2
hulseda01,David Hulse,105,382,66,106,12,6,4,31,28,61,20,5,2,6,2
hundlto01,Todd Hundley,118,377,46,89,16,1,13,48,28,73,3,1,3,4,3
huntebr01,Brian Hunter,73,200,28,49,10,2,9,32,18,36,2,1,1,1,5
huntebr02,Brian Hunter,55,195,28,54,10,1,6,25,19,34,6,3,1,2,2
hyersti01,Tim Hyers,83,244,33,66,11,1,5,27,23,37,6,2,1,3,1
incavpe01,Pete Incaviglia,106,337,44,88,17,2,16,56,25,81,3,1,3,0,4
ingraga01,Garey Ingram,66,222,32,62,10,1,8,29,23,44,4,2,1,2,2
ingrari01,Riccardo Ingram,58,189,28,52,9,1,6,26,19,30,4,2,1,1,2
jacksbo01,Bo Jackson,97,305,38,80,12,1,16,52,29,92,3,2,1,1,2
jacksda03,Darrin Jackson,105,374,45,103,16,3,10,48,25,64,8,2,3,3,3
jahajo01,John Jaha,111,375,56,96,17,1,13,49,39,81,9,5,7,2,4
jamesch02,Chris James,88,247,38,66,13,4,9,35,25,50,3,2,3,1,3
javiest01,Stan Javier,119,408,64,112,21,2,8,46,46,68,20,5,2,4,4
jeffegr01,Gregg Jefferies,114,437,60,137,25,2,12,61,44,33,20,6,2,0,5
jeffere01,Reggie Jefferson,96,302,37,85,15,2,10,39,26,59,2,2,3,2,2
johnsbr01,Brian Johnson,72,227,29,61,12,2,7,34,20,42,4,2,1,3,2
johnsch04,Charles Johnson,54,188,31,54,10,1,7,29,20,33,4,2,1,1,3
johnser03,Erik Johnson,55,184,26,50,11,1,6,24,18,33,4,2,1,1,2
johnsho01,Howard Johnson,99,304,42,72,14,2,10,42,47,69,12,4,1,1,3
johnsla03,Lance Johnson,119,439,59,126,14,11,4,47,31,33,26,7,1,2,3
jonesch05,Chris Jones,88,220,31,60,11,3,6,28,18,48,7,3,1,3,1
jordabr01,Brian Jordan,86,295,36,80,14,5,10,40,23,57,8,5,3,1,3
jordari02,Ricky Jordan,111,309,42,89,17,2,9,43,16,51,3,1,2,1,3
josefe01,Felix Jose,115,415,57,117,23,2,10,53,36,80,18,10,1,1,2
joynewa01,Wally Joyner,111,405,58,117,25,2,10,55,48,50,6,4,2,2,4
justida01,David Justice,117,411,66,115,16,3,22,71,63,63,3,4,2,0,3
karkoro01,Ron Karkovice,106,321,46,76,14,1,14,45,34,88,4,3,3,5,3
karroer01,Eric Karros,122,453,57,117,23,1,16,61,32,68,3,2,2,0,6
kellymi02,Mike Kelly,69,222,35,62,16,2,7,30,19,41,4,2,2,1,2
kellypa03,Pat Kelly,114,364,46,97,23,2,7,46,27,66,10,7,6,10,5
kellyro01,Roberto Kelly,88,340,51,98,19,3,8,39,27,52,15,4,2,1,3
kentje01,Jeff Kent,122,442,59,123,24,3,16,69,30,84,4,4,8,3,3
kingemi01,Mike Kingery,105,323,55,101,23,6,7,44,32,39,6,6,2,4,6
kingje01,Jeff King,110,409,51,110,23,2,8,58,36,46,5,4,2,3,6
kirbywa01,Wayne Kirby,104,317,52,87,14,2,7,41,27,46,12,5,2,4,3
kleskry01,Ryan Klesko,112,310,50,87,17,3,17,53,34,57,4,1,2,1,4
knoblch01,Chuck Knoblauch,118,459,75,134,27,3,4,45,52,50,26,8,7,2,5
knorrra01,Randy Knorr,81,254,36,66,9,2,10,39,24,57,3,1,2,2,2
kosloke01,Kevin Koslofski,61,181,28,49,7,1,5,23,20,31,3,2,2,2,1
kreutch01,Chad Kreuter,97,297,41,79,16,1,8,37,38,63,2,2,2,3,4
krukjo01,John Kruk,98,344,57,106,21,2,8,51,60,60,4,2,1,0,4
lankfra01,Ray Lankford,117,424,72,114,24,4,14,56,61,105,17,12,4,1,4
lansimi01,Mike Lansing,119,427,54,119,24,2,6,43,38,50,15,6,5,5,3
larkiba01,Barry Larkin,113,427,68,125,23,4,10,57,56,52,17,2,2,3,5
lavalmi01,Mike LaValliere,85,250,23,67,10,1,4,32,30,31,2,3,1,7,4
leema02,Manuel Lee,110,359,48,95,14,2,4,38,34,67,5,3,1,7,2
leiussc01,Scott Leius,105,355,53,90,17,2,10,44,35,58,4,4,1,2,2
lemkema01,Mark Lemke,124,397,45,105,15,2,6,38,47,45,2,3,1,6,3
leonama01,Mark Leonard,67,180,25,47,10,1,5,25,22,36,3,2,2,1,3
levisje01,Jesse Levis,67,190,25,50,10,1,5,23,16,31,3,1,1,1,2
lewisda01,Darren Lewis,124,461,69,118,16,6,5,39,42,53,32,12,4,8,2
lewisma01,Mark Lewis,65,227,27,59,12,1,5,24,16,38,4,2,1,2,2
leyriji01,Jim Leyritz,106,322,53,90,16,1,17,62,41,67,2,1,8,1,3
liebemi01,Mike Lieberthal,65,225,29,62,11,2,6,27,20,32,4,2,2,2,2
lindeji01,Jim Lindeman,87,248,35,69,14,2,9,34,19,53,3,1,2,1,2
lindjo01,Jose Lind,109,368,38,94,15,2,3,37,21,38,6,3,1,8,3
liriane01,Nelson Liriano,100,316,50,86,18,5,6,39,42,52,5,4,1,5,3
listapa01,Pat Listach,65,241,36,66,10,2,3,23,24,47,14,6,1,3,1
littogr01,Greg Litton,76,204,26,55,13,1,5,27,19,38,2,2,1,3,2
livinsc01,Scott Livingstone,94,300,35,85,16,1,5,35,20,37,3,3,1,1,4
lockhke01,Keith Lockhart,67,197,28,53,9,1,7,28,20,35,4,2,2,2,2
loftoke01,Kenny Lofton,120,465,91,147,24,7,7,46,57,60,51,10,2,3,4
longmto01,Tony Longmire,96,252,30,66,16,1,5,33,23,44,5,2,2,2,3
lopezja01,Javy Lopez,97,327,39,87,14,1,13,43,25,63,3,3,5,2,3
lopezlu02,Luis Lopez,97,309,40,82,18,2,6,33,24,52,5,3,3,2,3
lovulto01,Torey Lovullo,82,250,32,64,14,1,6,26,26,38,5,3,1,2,2
mabryjo01,John Mabry,55,193,28,54,12,1,6,27,20,33,4,2,1,1,2
macfami01,Mike Macfarlane,111,371,55,97,23,2,16,55,37,78,3,3,14,1,4
mackqu01,Quinn Mack,53,187,26,52,12,1,6,26,19,31,5,2,1,1,2
macksh01,Shane Mack,99,376,59,113,22,3,12,54,37,62,11,5,6,3,3
magadda01,Dave Magadan,94,298,39,82,12,1,4,30,46,42,3,1,1,2,3
maksumi01,Mike Maksudian,69,188,30,51,11,1,5,27,27,31,4,2,1,1,2
maldoca01,Candy Maldonado,71,226,32,59,11,2,10,33,29,51,2,2,2,1,2
manwaki01,Kirt Manwaring,114,378,40,99,16,2,5,40,34,60,3,2,4,5,2
marshto01,Tom Marsh,58,188,24,49,9,2,5,26,15,31,3,2,1,2,2
martial03,Al Martin,111,368,62,104,19,5,13,48,38,81,14,6,2,1,3
martida01,Dave Martinez,112,317,38,81,15,3,6,35,33,44,7,5,1,3,2
martied01,Edgar Martinez,96,351,56,104,25,2,12,49,48,47,7,2,3,2,3
martino01,Norberto Martin,77,245,37,68,13,2,5,33,22,36,6,3,1,3,3
martiti02,Tino Martinez,110,385,49,102,21,1,17,60,38,60,2,2,3,3,4
mathemi01,Mike Matheny,69,209,27,56,11,1,6,25,20,38,4,2,3,2,2
matosfr01,Francisco Matos,60,195,27,54,10,1,6,26,19,31,5,2,1,1,2
mattido01,Don Mattingly,108,419,63,122,23,1,10,61,47,36,2,1,1,0,4
mayde01,Derrick May,121,408,52,116,20,2,10,61,31,45,7,3,2,1,3
maynebr01,Brent Mayne,90,276,33,71,13,1,4,33,24,44,3,3,1,2,2
mccarda01,Dave McCarty,84,288,38,71,15,2,4,27,21,61,4,4,3,1,1
mcclell01,Lloyd McClendon,96,233,30,59,12,1,6,29,26,31,2,3,2,1,2
mcdavra01,Ray McDavid,57,197,28,54,10,1,6,26,19,36,5,2,1,1,2
mcdowod01,Oddibe McDowell,80,263,44,71,11,2,5,30,34,50,13,3,1,5,3
mcgeewi01,Willie McGee,85,301,37,88,14,1,5,33,25,48,7,3,1,2,2
mcgrifr01,Fred McGriff,111,404,72,122,24,2,27,80,55,76,6,3,1,0,3
mcgrite01,Terry McGriff,73,231,30,60,12,1,5,31,25,33,3,1,3,2,2
mcgwima01,Mark McGwire,74,243,43,67,11,0,17,48,46,54,2,1,2,0,3
mcknije01,Jeff McKnight,96,208,27,55,8,1,5,25,19,38,2,1,1,2,2
mclemma01,Mark McLemore,120,405,58,110,17,3,5,47,48,61,17,8,1,6,3
mcraebr01,Brian McRae,123,467,65,124,22,6,7,50,42,76,20,8,5,7,3
mcreyke01,Kevin McReynolds,86,292,38,75,18,2,9,37,37,47,4,1,1,1,3
mearepa01,Pat Meares,108,337,41,89,16,2,4,38,20,60,6,3,2,5,3
mejiaro02,Roberto Mejia,79,270,36,68,16,3,8,32,25,63,6,2,1,2,2
melvibo01,Bob Melvin,75,204,24,52,10,1,5,26,16,41,2,1,1,2,3
merceor01,Orlando Merced,122,409,56,115,24,4,9,59,54,62,5,3,2,1,3
merulma01,Matt Merullo,59,185,24,46,8,1,5,22,17,29,3,1,2,2,2
mieskma01,Matt Mieske,100,318,48,84,15,1,12,45,29,67,5,5,3,3,2
milleke01,Keith Miller,55,195,26,51,10,1,3,19,16,28,6,2,4,1,1
milleor01,Orlando Miller,61,201,28,57,9,2,7,31,19,38,5,2,3,1,2
millira01,Randy Milligan,70,209,31,55,11,1,5,27,38,37,2,1,1,0,2
mitchke01,Kevin Mitchell,106,366,60,114,22,2,21,73,45,60,3,1,3,1,6
mitchke02,Keith Mitchell,76,245,38,63,10,1,9,32,29,42,3,2,2,2,2
molitpa01,Paul Molitor,117,451,79,146,27,4,13,72,54,53,18,3,2,1,6
mondera01,Raul Mondesi,121,419,62,124,24,6,15,55,24,74,11,6,2,1,2
moranmi01,Mickey Morandini,107,363,49,98,16,6,4,34,33,56,10,4,3,4,2
mordemi01,Mike Mordecai,54,180,27,50,10,1,7,28,20,30,4,2,1,1,2
mormaru01,Russ Morman,57,191,26,52,9,2,6,25,19,35,4,2,2,1,2
morriha02,Hal Morris,117,432,56,133,25,3,9,65,40,62,6,3,3,2,5
moutoja01,James Mouton,103,337,48,87,14,1,6,30,32,68,19,5,4,2,2
munozpe01,Pedro Munoz,104,343,43,92,16,2,13,49,25,83,3,2,2,1,2
murraed02,Eddie Murray,116,441,57,119,23,1,17,73,38,55,5,3,1,0,5
myersgr01,Greg Myers,92,272,30,71,12,1,7,33,22,49,3,3,2,4,3
naehrti01,Tim Naehring,101,340,43,94,20,1,8,44,34,62,3,2,4,7,2
natalro01,Rob Natal,63,203,22,53,10,1,5,22,20,35,4,1,3,2,2
neeltr01,Troy Neel,106,358,53,100,18,1,16,56,43,77,4,4,3,1,2
newfima01,Marc Newfield,63,212,27,55,10,1,6,28,18,32,3,2,2,1,2
newsowa01,Warren Newson,95,224,35,59,10,1,6,25,35,48,4,1,1,2,1
nieveme01,Melvin Nieves,65,198,26,52,9,1,7,26,21,47,3,1,2,1,1
nilssda01,Dave Nilsson,122,411,52,110,23,3,12,64,42,59,4,4,1,3,5
nixonot01,Otis Nixon,114,415,67,115,15,2,3,29,50,61,36,11,1,5,3
noboaju01,Junior Noboa,74,197,27,54,9,2,5,27,18,32,4,1,2,1,2
nokesma01,Matt Nokes,76,237,30,60,9,1,12,38,21,39,2,1,2,0,3
obriech01,Charlie O'Brien,91,268,34,68,17,1,8,37,26,36,2,2,3,3,2
offerjo01,Jose Offerman,101,362,47,93,14,4,3,36,44,56,13,7,1,9,3
ohallgr01,Greg O'Halloran,60,185,27,51,9,1,6,26,19,30,4,2,1,1,2
oleartr01,Troy O'Leary,72,217,30,61,10,2,6,28,22,38,4,2,2,3,2
olerujo01,John Olerud,121,421,66,132,32,2,15,71,70,57,2,2,4,1,5
olivajo01,Jose Oliva,62,213,32,60,13,1,10,32,23,36,4,2,1,1,2
olivejo01,Joe Oliver,69,238,24,61,13,1,7,34,18,41,2,1,1,2,4
oneilpa01,Paul O'Neill,117,409,62,125,24,1,17,68,56,64,5,4,1,1,4
oquenjo01,Jose Oquendo,93,244,30,64,9,2,4,26,33,35,3,2,1,3,2
orsuljo01,Joe Orsulak,114,364,49,101,13,2,8,42,27,33,5,3,3,1,4
ortizju01,Junior Ortiz,82,240,23,61,11,1,3,26,16,31,2,2,3,4,1
ortizlu01,Luis Ortiz,60,192,28,52,11,1,5,29,19,34,4,2,1,2,4
owensja02,Jayhawk Owens,62,196,30,51,10,2,6,24,20,42,4,1,2,1,1
owensp01,Spike Owen,104,341,44,93,18,2,5,37,43,33,5,5,1,3,2
pagnoto01,Tom Pagnozzi,95,333,32,88,17,2,8,43,25,45,2,2,1,2,3
palmede01,Dean Palmer,113,402,61,99,20,2,21,65,40,106,7,5,4,1,3
palmera01,Rafael Palmeiro,119,449,79,132,28,2,22,73,54,65,9,3,4,2,6
pappaer01,Erik Pappas,71,220,30,57,11,1,4,29,30,38,3,2,1,1,4
paquecr01,Craig Paquette,69,253,26,59,13,2,7,29,15,60,4,2,1,1,1
parenma01,Mark Parent,80,227,29,61,11,1,9,35,24,46,3,2,2,4,3
parkeri01,Rick Parker,74,189,30,52,10,1,5,24,18,32,4,3,1,3,1
parksde01,Derek Parks,72,227,29,57,12,1,6,28,20,41,3,2,3,2,1
parrila02,Lance Parrish,75,235,27,62,12,1,8,30,28,48,4,2,2,1,2
pasquda01,Dan Pasqua,71,200,25,47,12,1,6,26,24,45,2,2,1,1,2
pattejo01,John Patterson,102,303,43,75,13,2,6,38,24,56,12,4,8,5,1
pecotbi01,Bill Pecota,111,237,32,60,11,1,4,29,24,35,5,2,1,3,2
peguest01,Steve Pegues,55,193,27,56,11,1,6,26,19,31,5,2,1,1,2
penage01,Geronimo Pena,99,309,46,83,19,2,11,44,33,70,13,5,6,4,3
penato01,Tony Pena,89,258,28,62,13,1,4,25,21,38,2,2,1,7,2
pendlte01,Terry Pendleton,100,392,50,109,22,2,11,53,24,58,4,1,1,3,3
perezed01,Eduardo Perez,77,268,30,67,13,2,8,39,23,53,7,3,2,1,2
perezro01,Robert Perez,54,185,27,50,10,1,6,25,19,31,4,2,1,1,2
perryge01,Gerald Perry,121,220,33,64,13,1,7,35,30,39,4,4,1,1,2
perryhe01,Herbert Perry,53,184,27,50,10,1,6,26,21,31,4,2,2,1,2
philljr01,J. R. Phillips,65,204,26,53,10,2,7,28,18,41,4,2,1,1,2
phillto02,Tony Phillips,116,435,83,126,21,2,11,52,86,82,11,6,2,2,4
piazzmi01,Mike Piazza,121,442,66,136,20,1,24,87,38,71,3,3,2,1,4
pirklgr01,Greg Pirkl,64,213,30,57,11,1,10,33,18,38,4,2,2,1,2
plantph01,Phil Plantier,116,398,55,96,21,1,20,59,47,97,4,3,5,2,3
polonlu01,Luis Polonia,110,410,61,117,17,4,3,34,37,46,30,14,2,4,2
prattto02,Todd Pratt,73,240,30,62,13,1,8,32,24,51,3,2,1,1,2
princto01,Tom Prince,67,196,23,46,12,1,4,27,19,38,3,2,4,2,3
puckeki01,Kirby Puckett,115,455,73,140,29,3,17,83,34,64,8,4,5,1,5
pyeed01,Eddie Pye,55,183,28,50,9,1,6,25,19,33,4,2,1,2,2
quinlto01,Tom Quinlan,71,197,30,51,11,1,6,26,21,42,4,2,1,2,2
raineti01,Tim Raines,108,399,74,114,17,5,11,50,58,43,20,4,2,3,4
ramirma02,Manny Ramirez,105,340,54,90,21,1,16,59,41,71,5,3,1,1,4
readyra01,Randy Ready,68,203,30,55,9,1,5,24,30,29,3,2,1,2,1
rebouje01,Jeff Reboulet,113,288,41,74,14,1,5,32,35,44,5,3,2,5,1
redusga01,Gary Redus,74,211,29,58,10,3,5,26,22,34,6,3,1,1,2
reedje02,Jeff Reed,96,238,29,58,9,1,7,27,26,43,3,2,1,1,2
reedjo01,Jody Reed,116,417,50,112,21,1,4,37,47,41,5,4,1,8,3
renteri01,Rich Renteria,82,226,28,59,9,1,5,28,19,31,2,2,3,2,1
reynoha01,Harold Reynolds,99,320,44,81,15,2,4,29,37,34,10,7,2,6,3
rhodeka01,Tuffy Rhodes,102,319,49,82,18,1,11,33,39,65,8,4,2,3,2
ripkebi01,Billy Ripken,77,230,28,58,11,1,4,26,17,30,3,2,3,5,2
ripkeca01,Cal Ripken,117,453,63,125,20,2,14,64,42,45,3,2,4,0,4
riverlu01,Luis Rivera,81,211,25,52,11,2,4,23,20,45,3,3,3,2,1
roberbi01,Bip Roberts,110,402,61,120,20,3,4,35,44,56,25,8,3,1,3
roberke01,Kevin Roberson,85,228,32,55,10,1,10,34,19,49,3,2,3,1,1
rodrial01,Alex Rodriguez,63,216,29,57,9,1,6,26,21,45,6,2,1,2,2
rodrica01,Carlos Rodriguez,81,266,32,75,18,2,5,30,23,34,4,1,1,6,1
rodrihe02,Henry Rodriguez,122,354,41,91,18,2,11,50,25,68,3,1,2,1,4
rodriiv01,Ivan Rodriguez,120,423,55,118,22,2,13,57,32,62,6,4,4,3,5
rowlari01,Rich Rowland,81,239,31,61,11,1,10,34,25,54,3,1,1,1,1
royerst01,Stan Royer,63,190,27,53,10,1,6,29,17,36,3,2,1,1,2
saboch01,Chris Sabo,98,359,54,93,21,3,13,53,30,61,4,3,4,2,4
saenzol01,Olmedo Saenz,55,189,28,51,10,2,6,25,19,34,4,2,1,2,2
salmoti01,Tim Salmon,114,415,71,116,23,2,22,71,59,103,4,4,5,1,5
samueju01,Juan Samuel,95,269,42,72,14,5,7,33,24,52,9,4,3,1,2
sanchre01,Rey Sanchez,111,364,39,101,16,2,3,34,24,36,3,3,5,6,2
sandbry01,Ryne Sandberg,86,328,51,95,16,3,10,40,33,48,7,3,1,1,3
sandede02,Deion Sanders,92,303,47,86,14,7,6,29,24,52,21,8,3,1,2
sandere02,Reggie Sanders,120,428,71,116,21,6,16,62,46,104,20,8,3,2,4
santibe01,Benito Santiago,115,396,44,101,18,3,12,47,31,67,5,4,2,1,4
saxst01,Steve Sax,59,199,28,50,9,1,3,19,16,20,8,3,1,3,2
scarsst01,Steve Scarsone,91,240,39,65,16,1,6,32,21,50,3,3,1,5,3
schaeje01,Jeff Schaefer,72,178,24,44,9,1,5,22,16,29,3,2,1,3,1
schofdi02,Dick Schofield,105,341,43,82,14,2,5,34,41,65,8,4,3,7,2
seguida01,David Segui,128,388,51,101,21,1,10,50,43,51,3,1,1,2,4
seitzke01,Kevin Seitzer,94,343,48,99,22,1,7,51,35,39,6,3,2,4,4
servasc01,Scott Servais,105,331,36,78,17,1,10,44,24,55,2,1,5,6,3
sheafda01,Danny Sheaffer,87,253,33,67,12,1,6,35,20,30,3,3,1,2,3
sheffga01,Gary Sheffield,102,370,60,110,19,2,22,69,44,48,10,5,6,0,5
shiplcr01,Craig Shipley,118,323,41,91,17,2,6,38,19,47,10,5,3,3,2
shumpte01,Terry Shumpert,90,272,38,66,12,2,9,36,23,51,15,4,1,5,2
sierrru01,Ruben Sierra,118,452,66,116,20,3,19,80,36,69,13,4,1,1,8
silveda01,Dave Silvestri,61,188,29,51,9,3,6,27,23,36,4,2,1,1,2
simmsmi01,Mike Simms,58,185,26,49,10,1,6,25,18,36,4,2,2,1,2
slaugdo01,Don Slaught,102,329,35,99,16,2,7,43,33,46,3,1,4,3,3
smithdw01,Dwight Smith,90,246,38,71,12,3,8,31,20,44,6,5,2,1,2
smithlo01,Lonnie Smith,79,200,34,51,10,1,6,28,26,43,4,1,2,1,3
smithma03,Mark Smith,53,185,27,51,10,1,6,27,19,32,4,2,1,1,2
smithoz01,Ozzie Smith,107,408,57,115,18,3,3,37,40,29,16,5,1,7,4
snowjt01,J. T. Snow,97,330,43,81,13,1,12,45,37,67,3,1,3,4,3
snydeco02,Cory Snyder,97,306,39,81,17,1,9,38,27,78,3,2,2,2,2
sojolu01,Luis Sojo,86,292,38,79,12,2,7,35,18,33,5,4,2,4,2
sorrepa01,Paul Sorrento,116,383,54,103,20,1,15,58,43,82,2,2,1,1,3
sosasa01,Sammy Sosa,120,459,68,127,19,5,23,68,32,99,23,10,3,2,3
spehrti01,Tim Spehr,99,203,33,54,12,2,5,28,20,40,5,1,2,3,2
spierbi01,Bill Spiers,104,317,42,81,13,3,4,35,29,54,9,5,3,5,2
spraged02,Ed Sprague,123,440,46,112,23,1,11,56,30,83,3,1,8,2,4
stankan01,Andy Stankiewicz,67,204,29,55,11,1,4,20,23,29,5,2,2,3,1
stanlmi02,Mike Stanley,109,357,59,104,19,1,19,64,48,71,2,1,3,1,3
statoda01,Dave Staton,72,217,30,56,11,1,10,30,24,44,3,1,2,1,1
steinte01,Terry Steinbach,112,398,51,113,21,2,11,53,33,64,4,3,2,1,4
stinnke01,Kelly Stinnett,77,258,37,69,12,2,6,31,24,45,5,2,5,1,2
stockke01,Kevin Stocker,99,344,53,100,16,3,5,41,45,55,5,2,8,4,3
strando01,Doug Strange,107,337,41,82,18,1,7,41,30,53,4,3,3,5,3
strawda01,Darryl Strawberry,67,228,32,55,10,1,9,34,31,45,4,3,2,1,3
surhobj01,B. J. Surhoff,84,301,40,80,18,2,6,43,27,31,6,4,1,3,4
sveumda01,Dale Sveum,62,194,28,47,10,1,6,23,23,42,3,1,1,2,2
tackeje01,Jeff Tackett,74,209,26,52,10,1,6,29,23,42,2,1,2,3,2
tarasto01,Tony Tarasco,114,254,36,69,13,1,8,35,21,39,7,2,2,1,4
tartada01,Danny Tartabull,113,412,69,107,24,1,21,74,72,110,2,1,1,0,3
taubeed01,Ed Taubensee,98,301,36,79,14,2,9,38,27,55,3,1,1,1,2
tavarje01,Jesus Tavarez,63,203,29,54,9,1,6,28,19,33,5,3,1,2,2
tettlmi01,Mickey Tettleton,115,386,61,96,19,2,21,66,84,98,2,4,2,0,4
thomafr04,Frank Thomas,121,431,89,139,31,1,28,93,91,60,4,3,3,0,8
thomeji01,Jim Thome,108,357,58,95,21,1,17,53,48,83,5,3,3,1,4
thompmi02,Milt Thompson,82,218,31,60,10,1,5,27,23,37,9,3,2,1,1
thompro01,Robby Thompson,79,287,42,80,17,2,9,34,28,55,5,3,3,5,2
thompry01,Ryan Thompson,108,378,48,93,20,2,16,52,32,94,4,4,6,4,3
tinglro01,Ron Tingley,84,206,25,49,11,2,5,23,21,46,3,2,2,3,1
tinslle01,Lee Tinsley,101,255,41,64,11,1,7,31,30,54,12,1,2,3,2
tombean01,Andy Tomberlin,71,200,26,54,8,2,6,25,21,42,4,1,2,1,1
trammal01,Alan Trammell,97,353,53,103,21,2,10,45,31,41,7,4,2,3,2
treadje01,Jeff Treadway,100,234,30,66,13,1,4,26,19,31,3,2,2,3,2
turanbr01,Brian Turang,74,248,33,62,14,2,4,25,25,44,7,3,2,3,1
turnech01,Chris Turner,87,264,39,70,14,2,5,33,25,49,5,2,2,2,3
valenjo02,John Valentin,111,376,52,109,29,2,10,55,44,55,4,2,3,8,4
valenjo03,Jose Valentin,105,329,53,84,19,2,11,50,40,75,11,3,3,4,2
valleda01,Dave Valle,74,232,29,61,12,1,7,30,25,34,2,1,6,3,2
vandejo02,John Vander Wal,122,254,34,64,10,3,7,33,30,46,5,2,1,1,2
vanslan01,Andy Van Slyke,105,393,55,114,22,5,9,50,42,65,9,2,3,0,4
varshga01,Gary Varsho,121,226,32,58,13,3,5,28,19,43,4,2,2,3,2
vaughgr01,Greg Vaughn,112,414,66,106,21,2,20,65,56,92,10,7,3,1,3
vaughmo01,Mo Vaughn,124,428,65,123,25,2,22,78,58,100,5,4,7,0,4
velarra01,Randy Velarde,102,336,49,95,19,2,9,40,30,64,5,3,4,3,3
venturo01,Robin Ventura,118,430,63,118,22,1,16,73,68,65,3,3,2,1,6
vinafe01,Fernando Vina,105,246,37,65,13,1,5,25,25,32,8,2,11,3,1
vizcajo01,Jose Vizcaino,121,446,55,119,16,4,5,42,36,63,6,7,2,6,6
vizquom01,Omar Vizquel,104,381,48,104,14,2,3,31,32,43,11,8,2,9,2
voigtja01,Jack Voigt,94,261,40,71,14,1,8,38,33,48,3,1,1,1,2
walbema01,Matt Walbeck,104,359,40,83,16,1,8,44,25,48,4,2,2,2,2
walkela01,Larry Walker,116,423,73,124,30,3,18,77,51,73,17,5,5,0,6
wallati01,Tim Wallach,118,423,53,106,21,1,14,61,39,72,2,2,4,1,5
waltoje01,Jerome Walton,83,209,31,56,10,1,5,26,21,37,4,4,2,3,1
wardtu01,Turner Ward,118,373,55,90,16,3,10,51,49,65,7,4,3,2,5
webstle01,Lenny Webster,96,260,32,69,15,1,7,34,27,37,3,2,4,2,1
webstmi01,Mitch Webster,114,230,34,61,11,2,6,29,22,38,6,5,2,4,3
wehnejo01,John Wehner,68,183,24,45,9,1,4,20,20,33,4,1,1,2,1
weisswa01,Walt Weiss,125,428,53,109,13,3,3,37,59,61,9,5,2,6,4
whitalo01,Lou Whitaker,104,356,65,103,24,1,12,54,56,47,4,2,2,4,4
whitede03,Devon White,109,435,74,116,25,5,12,46,34,87,19,3,5,2,2
whitema01,Mark Whiten,111,398,60,107,16,3,14,58,46,80,11,6,2,1,3
whitero02,Rondell White,78,241,36,66,16,2,7,36,24,44,4,3,3,2,2
whitmda02,Darrell Whitmore,66,220,26,53,10,2,5,23,17,50,4,2,3,2,1
wilkiri01,Rick Wilkins,118,382,56,103,22,2,16,52,44,86,4,3,2,1,2
willaje01,Jerry Willard,60,177,25,47,9,1,6,26,18,31,4,2,1,1,2
willibe02,Bernie Williams,115,447,69,125,27,2,11,57,52,71,12,8,3,2,2
willied01,Eddie Williams,74,263,43,80,15,2,12,49,25,42,3,2,3,2,2
willige02,Gerald Williams,100,230,40,61,14,2,8,32,17,41,5,3,2,1,2
willima04,Matt Williams,121,462,72,124,20,3,30,81,32,81,3,3,3,0,4
wilsoda01,Dan Wilson,109,332,36,81,17,2,6,38,24,64,3,2,2,6,3
wilsowi02,Willie Wilson,77,206,26,55,9,3,2,19,17,36,9,3,2,1,1
winfida01,Dave Winfield,97,362,50,99,19,2,14,56,39,63,3,2,1,1,2
womacto01,Tony Womack,60,188,31,50,9,1,5,24,21,32,5,2,1,2,2
wronari01,Rick Wrona,57,183,26,51,12,1,6,26,18,31,4,2,1,2,1
younger01,Eric Young,111,343,53,93,14,3,6,38,44,34,23,9,3,5,3
younger02,Ernie Young,58,196,27,50,10,1,6,27,19,35,4,2,1,1,2
youngge02,Gerald Young,85,197,31,51,9,3,4,23,22,32,6,3,1,2,1
youngke01,Kevin Young,98,287,32,71,16,2,5,33,25,56,3,2,4,3,4
zambred01,Eddie Zambrano,93,237,34,65,13,1,9,34,27,47,5,2,2,1,1
zeileto01,Todd Zeile,122,438,62,118,25,2,14,70,56,63,5,5,2,0,6
zupcibo01,Bob Zupcic,92,251,33,65,15,2,4,28,21,43,3,2,2,5,3
