playerID,playerName,G,AB,R,H,2B,3B,HR,RBI,BB,SO,SB,CS,HBP,SH,SF
abbotje01,Jeff Abbott,99,293,42,79,17,1,9,43,26,48,4,3,2,2,3
abbotku01,Kurt Abbott,108,286,42,74,16,2,10,38,23,69,3,2,2,1,2
abreubo01,Bobby Abreu,146,518,92,163,34,8,20,78,89,110,22,8,2,1,4
agbaybe01,Benny Agbayani,128,378,60,107,22,2,16,60,50,75,7,5,5,1,4
alcanis01,Israel Alcantara,65,200,33,56,10,1,9,30,21,34,3,1,2,1,2
alexama02,Manny Alexander,125,294,40,73,13,3,6,32,23,62,5,1,1,3,1
alfoned01,Edgardo Alfonzo,138,517,96,156,33,2,21,84,74,72,6,2,4,1,6
alicelu01,Luis Alicea,136,447,75,124,23,5,9,55,55,70,4,3,4,6,5
allench01,Chad Allen,74,258,36,72,13,1,6,30,23,49,6,4,2,1,2
allendu01,Dusty Allen,64,184,31,54,11,1,8,27,21,36,3,1,2,1,2
alomaro01,Roberto Alomar,140,525,99,160,34,2,18,81,66,77,27,4,5,8,7
alomasa02,Sandy Alomar,103,367,47,101,21,2,9,48,22,49,2,3,3,4,4
aloumo01,Moises Alou,109,392,69,127,23,2,23,85,49,52,5,3,3,0,6
alvarcl01,Clemente Alvarez,52,176,28,49,10,1,6,26,20,31,3,1,2,1,2
alvarga01,Gabe Alvarez,62,192,24,49,11,1,6,26,19,42,2,2,2,1,2
amarari01,Rich Amaral,96,214,35,58,11,1,4,23,24,35,11,4,2,1,2
anderbr01,Brady Anderson,129,468,83,123,25,2,18,57,76,87,20,7,12,3,5
anderga01,Garret Anderson,145,568,76,166,35,3,23,86,30,78,6,4,1,1,6
anderma02,Marlon Anderson,88,311,34,80,17,2,5,38,23,46,7,2,2,2,2
andresh01,Shane Andrews,86,278,36,69,14,1,15,46,34,72,2,3,2,1,3
ardoida01,Danny Ardoin,61,193,29,50,10,1,7,29,26,37,3,1,2,1,2
ariasal01,Alex Arias,102,285,37,77,16,1,5,37,30,40,3,1,4,2,3
aurilri01,Rich Aurilia,138,490,65,135,24,2,18,71,45,77,3,3,3,4,4
ausmubr01,Brad Ausmus,138,478,69,130,22,4,9,54,59,74,11,6,7,3,2
avenbr01,Bruce Aven,75,222,33,63,11,1,8,38,26,46,3,1,4,1,3
bagweje01,Jeff Bagwell,141,507,120,154,31,1,35,107,102,99,16,7,10,0,6
baineha01,Harold Baines,69,207,25,58,12,1,6,37,24,32,2,1,1,0,1
bakopa01,Paul Bako,74,228,25,60,13,1,5,25,23,54,2,1,1,2,2
barajro01,Rod Barajas,56,187,29,52,10,1,8,29,20,33,3,1,2,2,2
barkegl01,Glen Barker,133,213,44,58,10,1,7,30,25,48,17,8,2,4,2
barkeke01,Kevin Barker,79,243,34,65,12,1,7,36,31,44,3,1,2,1,2
barnejo01,John Barnes,58,199,30,58,13,1,6,27,21,35,3,2,3,1,2
barremi01,Michael Barrett,112,367,46,97,23,2,7,42,32,47,2,2,3,1,2
batisto01,Tony Batista,145,529,83,144,30,2,33,95,35,102,5,3,5,1,5
baughju01,Justin Baughman,63,192,28,52,11,1,5,24,16,33,7,2,1,2,2
bautida01,Danny Bautista,117,334,53,97,20,4,10,50,24,48,6,2,3,3,4
beckeri01,Rich Becker,114,302,54,77,13,1,9,39,55,79,4,3,2,2,3
bellda01,David Bell,130,465,67,123,26,2,14,57,45,70,5,3,4,4,5
bellde01,Derek Bell,130,499,76,136,28,1,16,71,52,110,11,4,4,1,5
belleal01,Albert Belle,132,499,79,148,33,1,28,98,63,68,7,4,4,0,7
bellhma01,Mark Bellhorn,61,183,28,49,10,1,6,26,22,36,4,1,2,1,2
bellicl01,Clay Bellinger,116,271,47,66,13,2,9,34,26,58,6,1,4,1,3
belliro01,Ronnie Belliard,142,515,74,142,29,6,10,59,70,75,6,5,2,4,5
bellja01,Jay Bell,135,501,87,136,27,5,22,73,66,98,6,3,4,4,5
bellmi02,Mike Bell,65,191,31,52,9,1,8,29,23,35,3,1,2,1,2
beltrad01,Adrian Beltre,146,506,73,140,27,3,18,73,55,89,13,5,4,3,4
beltrca01,Carlos Beltran,114,446,69,123,20,5,13,65,38,82,16,3,2,1,6
benarma01,Marvin Benard,148,512,88,144,29,4,13,59,56,86,20,8,5,2,2
benjami01,Mike Benjamin,109,325,42,86,22,3,4,36,21,68,6,2,4,8,2
bennega01,Gary Bennett,75,222,29,61,12,1,6,33,26,38,2,1,2,1,3
bergda01,Dave Berg,112,310,40,87,19,1,5,34,35,63,4,1,3,3,3
bergepe01,Peter Bergeron,131,451,72,115,23,5,8,37,53,83,9,9,1,9,2
berkmla01,Lance Berkman,117,369,68,105,24,1,19,64,52,73,8,3,2,1,6
berroge01,Geronimo Berroa,70,192,28,50,9,2,5,25,24,38,2,1,3,1,1
berryse01,Sean Berry,83,222,29,59,11,1,6,29,21,41,2,1,3,1,2
bicheda01,Dante Bichette,75,291,46,89,19,1,13,55,22,42,4,2,1,0,3
biggicr01,Craig Biggio,110,423,77,124,29,2,12,51,55,75,19,6,12,4,4
blakeca01,Casey Blake,59,189,28,52,11,1,6,25,21,36,3,1,2,1,2
blanche01,Henry Blanco,109,342,42,85,22,2,10,41,42,62,2,3,1,2,4
blumge01,Geoff Blum,122,363,49,100,21,3,14,50,35,64,3,3,3,4,3
bocachi01,Hiram Bocachica,58,185,29,52,10,1,7,27,20,33,3,1,2,1,2
bogarti01,Tim Bogar,126,354,44,81,15,2,8,39,39,65,4,3,4,3,4
bondsba01,Barry Bonds,126,432,102,126,27,4,35,92,92,72,14,4,4,1,5
bonilbo01,Bobby Bonilla,116,297,36,73,14,2,9,40,41,53,2,1,2,1,3
booneaa01,Aaron Boone,110,374,51,105,22,2,12,56,31,66,10,3,8,3,4
boonebr01,Bret Boone,126,469,69,121,26,1,18,66,44,89,8,5,4,4,4
bordimi01,Mike Bordick,93,327,44,89,18,2,8,40,29,51,6,3,4,5,3
bradlmi01,Milton Bradley,74,262,38,67,14,2,7,34,27,50,4,2,2,2,2
braggda01,Darren Bragg,94,273,36,72,15,2,7,36,34,63,4,1,3,3,2
bransje01,Jeff Branson,75,184,25,48,10,1,5,24,17,36,3,1,1,1,2
branyru01,Russell Branyan,89,281,44,72,13,2,16,48,31,83,3,1,4,1,2
brockta01,Tarrik Brock,61,182,28,50,10,1,6,26,23,33,4,2,2,1,2
brognri01,Rico Brogna,78,268,39,72,14,2,10,45,24,56,4,2,1,1,3
brosisc01,Scott Brosius,128,449,63,116,24,1,16,69,43,74,6,4,5,2,4
brownad01,Adrian Brown,127,356,61,104,16,3,7,34,38,51,11,2,1,5,2
brownbr01,Brant Brown,97,259,37,65,13,3,11,39,23,71,4,3,2,1,2
brownde02,Dee Brown,67,198,29,50,10,1,6,28,22,40,3,1,2,1,2
brownem01,Emil Brown,82,241,31,61,12,1,7,33,24,53,5,2,4,1,2
brownke04,Kevin Brown,61,186,29,52,13,1,6,26,19,39,2,1,2,2,3
brownro01,Roosevelt Brown,88,233,32,68,16,1,8,36,20,46,3,2,2,2,3
buchabr01,Brian Buchanan,68,218,32,58,11,1,7,30,24,44,3,3,2,1,3
buforda01,Damon Buford,142,454,64,117,21,3,14,57,43,101,8,5,5,3,3
buhneja01,Jay Buhner,112,367,52,92,18,1,21,67,63,101,2,1,4,1,3
burkhmo01,Morgan Burkhart,64,210,36,59,11,1,9,37,30,46,3,1,4,1,2
burksel01,Ellis Burks,120,395,70,122,20,3,23,86,58,68,8,3,4,1,6
burnije01,Jeromy Burnitz,140,500,82,128,28,2,29,95,79,116,7,3,10,1,7
burrepa01,Pat Burrell,108,388,56,103,24,1,16,69,55,110,2,1,2,1,3
bushho01,Homer Bush,107,378,55,106,17,2,5,39,25,70,17,6,5,5,2
byrneer01,Eric Byrnes,60,185,32,52,10,1,7,27,20,32,5,2,3,1,2
cabreal02,Alex Cabrera,69,216,32,59,10,2,10,34,21,43,3,1,2,1,3
cabrejo02,Jolbert Cabrera,120,269,42,71,10,1,6,30,21,38,8,4,3,1,2
cabreor01,Orlando Cabrera,126,435,58,112,26,4,12,52,30,44,5,3,2,4,2
cairomi01,Miguel Cairo,122,421,53,116,19,3,5,41,29,45,20,6,4,6,4
camermi01,Mike Cameron,148,506,83,130,27,5,17,67,67,123,26,9,7,5,4
caminke01,Ken Caminiti,85,295,53,82,17,1,16,55,47,60,5,1,3,0,5
canizja01,Jay Canizaro,108,355,50,99,21,1,10,49,30,59,5,2,2,1,1
cansejo01,Jose Canseco,74,269,44,70,12,1,18,51,35,74,6,3,3,0,3
cardoja01,Javier Cardona,70,200,27,53,10,1,7,27,19,37,3,1,2,1,2
carpebu01,Bubba Carpenter,60,187,29,51,9,1,8,29,22,39,3,1,2,1,2
casanra01,Raul Casanova,98,291,34,75,16,3,9,43,33,57,3,2,4,2,2
caseyse01,Sean Casey,133,480,75,149,32,2,19,81,54,76,2,1,6,0,5
casimca01,Carlos Casimiro,53,184,28,51,11,1,7,29,20,33,3,1,2,1,2
castial01,Alberto Castillo,101,291,32,73,12,1,6,34,31,54,2,1,2,5,4
castilu01,Luis Castillo,133,501,84,153,20,4,4,31,69,86,44,15,1,6,2
castivi02,Vinny Castilla,104,401,53,110,16,2,19,68,29,54,3,3,3,0,4
castrju01,Juan Castro,100,289,35,71,14,2,7,32,24,47,2,2,1,5,3
castrra01,Ramon Castro,83,257,29,65,12,1,7,31,31,54,3,1,2,1,3
catalfr01,Frank Catalanotto,124,354,56,100,20,2,13,49,32,56,6,3,7,2,5
cedenro01,Roger Cedeno,117,355,65,102,14,4,7,35,48,72,31,10,2,4,2
charlfr01,Frank Charles,53,178,28,51,10,1,6,28,20,32,3,1,2,1,2
chaveer01,Eric Chavez,147,477,76,129,25,3,21,75,58,83,3,2,1,1,3
chavera01,Raul Chavez,59,199,28,55,11,1,7,29,21,34,3,1,2,1,2
chrismc01,McKay Christensen,83,194,32,50,9,1,6,27,21,35,5,3,2,1,3
chrisry01,Ryan Christenson,117,269,45,67,13,2,6,32,33,62,5,4,2,6,3
cirilje01,Jeff Cirillo,140,529,90,169,36,1,13,82,63,73,6,4,5,2,7
clapich01,Chris Clapinski,83,204,33,57,11,3,6,27,24,36,3,1,2,2,1
clarkbr02,Brady Clark,60,183,28,51,11,1,6,28,20,32,3,1,2,1,2
clarkto02,Tony Clark,91,334,48,94,20,0,18,58,38,75,2,1,2,0,2
clarkwi02,Will Clark,80,278,46,85,19,1,13,48,36,46,2,1,3,0,3
claytro01,Royce Clayton,137,478,70,127,22,4,14,56,42,90,10,7,4,9,4
clemeed02,Edgard Clemente,89,239,32,63,12,2,8,32,17,59,2,2,2,2,2
coffiiv01,Ivanon Coffie,66,212,30,56,12,2,6,30,23,38,4,1,2,1,2
colbrgr01,Greg Colbrunn,129,351,52,107,21,2,14,59,41,56,3,2,9,1,3
collilo01,Lou Collier,75,207,28,54,10,2,4,27,23,41,3,2,2,1,3
coninje01,Jeff Conine,126,420,53,118,26,1,13,59,36,59,4,3,3,1,6
contija01,Jason Conti,81,226,33,60,12,3,7,35,23,50,5,1,2,1,2
coomero01,Ron Coomer,132,495,59,134,25,1,16,72,32,63,3,1,2,0,5
coquitr01,Trace Coquillette,75,213,28,56,13,1,6,30,24,42,3,1,2,1,2
coraal01,Alex Cora,118,363,44,89,18,5,7,40,31,59,5,2,6,5,2
cordewi01,Wil Cordero,76,271,43,75,17,2,8,39,21,47,3,1,4,1,2
cordoma01,Marty Cordova,91,314,42,84,16,2,9,46,34,65,6,3,5,0,3
counscr01,Craig Counsell,92,258,39,71,14,2,5,29,32,37,4,2,3,4,2
coxst01,Steve Cox,114,341,48,95,20,1,12,42,43,54,3,2,4,1,2
credejo01,Joe Crede,58,189,29,54,11,1,7,29,20,34,3,1,2,1,3
crespfe01,Felipe Crespo,109,241,32,67,13,2,7,40,25,44,5,3,4,3,4
cromedt01,D. T. Cromer,75,199,31,58,12,1,8,31,19,39,3,1,2,2,2
crometr01,Tripp Cromer,70,183,27,48,8,1,7,27,20,33,3,1,1,2,1
cruzde01,Deivi Cruz,150,526,65,151,35,3,11,67,19,56,3,4,4,8,5
cruziv01,Ivan Cruz,58,181,28,50,9,1,7,26,19,37,3,1,2,1,2
cruzja01,Jacob Cruz,64,201,31,58,12,1,7,33,21,33,3,2,3,1,2
cruzjo02,Jose Cruz,146,512,81,128,26,4,22,66,71,117,14,5,2,2,3
cummimi01,Midre Cummings,76,191,26,53,9,1,7,28,24,32,4,2,2,1,2
curtich01,Chad Curtis,121,350,57,92,19,1,9,48,50,66,9,4,3,3,4
damonjo01,Johnny Damon,143,568,103,173,34,8,15,73,59,62,31,8,3,4,6
darrmi02,Mike Darr,89,291,38,80,17,3,7,41,33,62,9,2,1,1,1
daubabr01,Brian Daubach,135,464,62,124,32,3,21,76,44,111,2,2,5,1,3
davisbe01,Ben Davis,83,278,34,70,15,1,7,35,29,64,3,2,1,2,2
daviser01,Eric Davis,98,313,50,93,18,1,12,53,39,71,5,3,2,0,3
davisru01,Russ Davis,97,309,43,80,14,1,14,45,24,70,3,3,3,2,3
dawkitr01,Travis Dawkins,65,206,31,55,11,1,6,28,21,38,3,1,2,2,2
dehaako01,Kory DeHaan,113,234,39,60,14,1,7,33,22,57,6,3,2,2,2
delarto01,Tomas de la Rosa,73,216,31,61,12,2,8,32,24,37,5,2,2,3,2
delgaca01,Carlos Delgado,144,519,98,158,42,1,36,115,87,113,2,1,12,0,5
delgawi01,Wilson Delgado,81,226,34,61,9,1,5,26,22,40,4,2,2,1,2
delluda01,David Dellucci,80,217,30,63,12,3,4,28,21,46,3,2,2,0,1
derosma01,Mark DeRosa,71,185,35,52,11,1,6,29,21,32,3,1,2,1,2
deshide01,Delino DeShields,135,484,75,138,29,5,10,64,59,74,25,9,1,4,5
diazei01,Einar Diaz,103,343,43,95,18,2,7,37,24,43,7,3,7,5,2
difelmi01,Mike Difelice,90,298,35,79,17,2,9,36,22,54,2,1,2,3,3
disarga01,Gary Disarcina,65,224,31,62,12,1,3,28,14,27,3,2,3,5,1
donnech01,Chris Donnels,68,188,32,53,11,1,9,31,23,34,3,1,2,1,2
dranske01,Kelly Dransfeldt,64,199,27,50,10,1,6,27,20,43,3,1,1,1,1
drewjd01,J. D. Drew,130,422,76,117,20,4,18,58,60,92,16,6,6,4,3
duceyro01,Rob Ducey,96,210,32,55,12,2,7,30,30,51,3,2,3,0,2
dunstsh01,Shawon Dunston,117,289,42,78,16,2,12,50,16,56,6,3,5,4,3
dunwoto01,Todd Dunwoody,90,296,34,72,15,3,5,32,20,67,5,2,2,2,3
durazer01,Erubiel Durazo,93,290,51,83,14,2,13,48,43,62,3,1,2,1,4
durhara01,Ray Durham,138,544,102,156,29,7,15,63,65,93,25,9,5,4,4
dyeje01,Jermaine Dye,147,549,89,164,35,4,25,100,56,100,3,2,2,0,6
easleda01,Damion Easley,126,463,71,124,27,2,17,64,45,89,11,4,12,2,3
echevan01,Angel Echevarria,95,217,32,61,11,1,9,35,24,38,2,2,3,1,1
edmonji01,Jim Edmonds,129,465,95,135,28,1,25,79,68,114,8,4,3,1,4
elsteke01,Kevin Elster,88,279,38,69,12,1,12,39,38,59,2,1,2,2,1
encarju01,Juan Encarnacion,137,520,72,145,27,6,17,72,28,97,21,7,7,3,4
ensbemo01,Morgan Ensberg,55,182,28,51,10,1,7,27,20,32,3,1,2,1,2
erstada01,Darin Erstad,143,584,95,179,32,5,19,78,53,86,19,7,3,2,4
estalbo02,Bobby Estalella,108,332,47,80,20,3,14,52,49,87,4,1,2,1,4
eusebto01,Tony Eusebio,102,314,35,86,18,1,7,44,36,61,2,1,3,0,2
evansto01,Tom Evans,65,204,33,57,12,1,6,28,26,38,3,4,2,2,2
evereca01,Carl Everett,130,469,78,142,31,3,24,94,49,99,16,6,7,2,5
fabrejo01,Jorge Fabregas,88,266,31,68,12,1,7,33,26,35,2,1,2,3,3
fasansa01,Sal Fasano,83,242,35,60,12,1,11,39,23,62,2,1,10,1,2
febleca01,Carlos Febles,115,399,65,105,18,5,8,45,43,70,16,5,8,10,2
felizpe01,Pedro Feliz,58,182,28,51,10,1,7,27,20,32,3,1,2,1,2
fickro01,Robert Fick,90,264,37,70,12,2,9,41,33,53,5,2,2,1,3
finlest01,Steve Finley,136,501,84,134,28,6,25,79,52,82,9,4,4,2,5
flahejo01,John Flaherty,115,414,45,108,18,0,11,51,26,63,1,2,3,2,5
fletcda01,Darrin Fletcher,122,420,48,125,23,1,17,65,28,50,2,1,5,1,5
floydcl01,Cliff Floyd,116,417,66,122,30,1,18,76,44,79,17,6,5,0,5
fordybr01,Brook Fordyce,94,300,36,88,20,1,10,43,24,48,2,1,3,2,3
foxan01,Andy Fox,93,284,38,76,12,3,7,30,30,57,7,3,7,1,2
francma01,Matt Franco,147,250,31,65,11,1,6,32,37,42,2,1,1,1,2
friasha01,Hanley Frias,108,246,40,63,10,2,6,28,35,39,5,3,1,1,1
fryeje01,Jeff Frye,76,226,34,67,12,1,5,26,25,36,6,2,2,2,2
frymatr01,Travis Fryman,135,499,75,147,30,3,20,85,52,97,5,3,2,0,6
fullmbr01,Brad Fullmer,131,465,64,132,34,2,20,79,35,64,4,3,4,0,4
furcara01,Rafael Furcal,119,413,74,120,20,3,7,43,60,73,27,10,3,6,2
galaran01,Andres Galarraga,115,404,63,121,21,1,24,80,38,98,4,4,13,0,2
gantro01,Ron Gant,78,262,48,67,13,2,12,42,40,56,6,2,1,0,2
garcije01,Jesse Garcia,67,188,30,49,9,1,7,25,21,31,3,1,2,3,2
garcika01,Karim Garcia,73,224,30,55,9,3,8,28,17,48,3,2,1,0,2
garcino01,Nomar Garciaparra,130,503,94,173,39,4,24,94,48,51,9,3,5,0,5
giambja01,Jason Giambi,140,491,93,153,28,1,30,108,95,90,3,1,6,0,7
giambje01,Jeremy Giambi,113,336,48,91,16,2,10,52,43,72,2,1,3,2,4
gilbe01,Benji Gil,109,326,39,84,16,1,9,35,34,61,9,5,5,4,3
gilbesh01,Shawn Gilbert,62,182,30,49,10,1,7,27,20,35,4,1,2,2,2
gilesbr02,Brian Giles,142,501,95,152,31,4,30,103,92,77,7,2,5,1,7
gilkebe01,Bernard Gilkey,85,235,32,64,13,1,7,34,29,41,4,2,3,1,3
ginteke01,Keith Ginter,56,184,30,51,10,1,7,29,21,34,3,1,2,1,3
gipsoch01,Charles Gipson,114,199,35,53,10,2,5,26,21,37,6,5,2,2,1
girarjo01,Joe Girardi,111,373,49,101,19,2,7,47,30,59,4,2,3,8,3
glanvdo01,Doug Glanville,136,557,84,162,27,5,9,54,38,74,24,5,4,6,5
glaustr01,Troy Glaus,150,529,94,139,31,1,32,85,81,139,9,5,4,0,3
gloadro01,Ross Gload,64,196,30,53,10,2,7,28,22,38,3,1,2,1,2
gomezch02,Chris Gomez,76,225,27,59,12,1,3,22,26,42,2,2,2,3,2
gonzaal01,Alex Gonzalez,126,463,62,119,27,1,12,54,37,93,9,4,5,10,2
gonzaal02,Alex Gonzalez,119,443,56,108,21,5,11,51,22,90,5,3,6,3,3
gonzaju03,Juan Gonzalez,119,458,80,140,31,2,27,91,38,87,3,2,3,0,6
gonzalu01,Luis Gonzalez,144,542,92,166,38,3,24,91,62,69,7,5,8,1,7
gonzawi01,Wiki Gonzalez,107,333,38,84,17,2,9,42,33,44,3,2,3,1,2
goodwto01,Tom Goodwin,88,314,52,85,10,3,4,26,35,54,22,8,1,4,2
gracema01,Mark Grace,132,479,77,142,34,2,13,74,75,41,3,3,4,1,7
graffto01,Tony Graffanino,89,267,39,71,14,3,6,32,28,50,6,4,2,2,2
grebecr01,Craig Grebeck,89,298,43,86,19,1,5,33,32,44,2,1,3,4,2
greench02,Charlie Greene,68,184,25,48,9,1,5,23,19,38,3,1,1,2,2
greensc01,Scarborough Green,109,242,40,64,9,2,5,29,25,45,10,6,1,4,1
greensh01,Shawn Green,144,550,98,156,36,2,28,94,64,110,21,6,7,1,4
greento02,Todd Greene,82,257,32,66,14,1,11,34,17,51,2,2,2,1,2
greenwi01,Willie Greene,119,347,43,77,16,2,14,51,41,76,4,1,2,1,3
greerru01,Rusty Greer,112,420,74,125,29,3,12,72,60,62,3,2,3,0,5
grievbe01,Ben Grieve,148,530,84,147,32,1,23,89,68,112,4,1,6,0,3
griffke02,Ken Griffey,134,496,94,139,23,3,37,107,74,97,13,4,6,0,4
grissma02,Marquis Grissom,137,532,68,139,22,2,14,65,38,89,17,7,1,3,4
grudzma01,Mark Grudzielanek,136,535,79,156,28,5,9,52,39,74,10,4,8,3,4
guerrvl01,Vladimir Guerrero,144,539,92,174,30,7,35,106,50,71,10,7,7,0,3
guerrwi01,Wilton Guerrero,133,361,47,101,15,5,5,37,24,52,8,3,2,7,1
guillca01,Carlos Guillen,99,328,52,88,17,2,10,48,33,61,4,3,2,6,3
guilljo01,Jose Guillen,108,367,47,96,21,3,10,49,23,70,3,2,9,1,2
guilloz01,Ozzie Guillen,93,248,35,65,14,1,4,27,21,27,3,2,1,3,2
gutieri01,Ricky Gutierrez,124,427,60,115,19,3,8,49,56,66,8,4,5,8,4
guzmacr01,Cristian Guzman,152,556,75,138,22,11,8,50,41,99,19,8,3,7,4
gwynnto01,Tony Gwynn,77,275,40,88,19,0,8,41,23,18,3,1,2,0,4
hairsje02,Jerry Hairston,83,291,44,78,14,1,9,35,30,43,11,5,6,5,1
hallto02,Toby Hall,54,185,28,51,10,1,7,27,21,31,3,1,2,1,2
haltesh01,Shane Halter,112,294,36,76,16,2,6,34,23,56,5,3,2,8,3
hamilda02,Darryl Hamilton,75,239,36,73,12,2,7,29,28,35,4,2,1,2,2
hammoje01,Jeffrey Hammonds,137,427,78,132,22,2,19,82,45,84,10,7,4,3,4
hanseda01,Dave Hansen,139,239,36,66,14,2,10,41,41,49,2,2,2,1,2
harrile01,Lenny Harris,102,244,35,69,12,2,8,31,24,32,8,2,1,3,2
haselbi01,Bill Haselman,92,286,36,80,20,1,10,39,24,51,3,1,2,1,2
hattesc01,Scott Hatteberg,100,295,37,81,18,1,10,42,42,50,2,1,2,1,3
hayesch01,Charlie Hayes,125,382,50,97,16,1,11,59,49,73,3,2,1,1,4
helmswe01,Wes Helms,59,183,28,51,10,1,7,27,20,34,3,1,2,1,2
heltoto01,Todd Helton,149,534,105,178,42,3,32,111,72,65,6,4,5,1,6
henderi01,Rickey Henderson,101,358,66,96,17,1,9,38,66,67,31,9,3,2,3
hermach01,Chad Hermansen,73,243,32,60,12,2,7,27,24,59,4,2,2,3,2
hernaal01,Alex Hernandez,64,214,29,56,12,1,7,29,19,39,4,2,2,1,2
hernaca01,Carlos Hernandez,64,204,25,55,10,1,6,30,16,32,3,1,3,1,2
hernajo01,Jose Hernandez,121,417,57,106,21,2,14,58,38,108,5,5,3,1,3
hernara02,Ramon Hernandez,130,407,53,105,20,1,13,61,42,61,3,1,5,7,5
hidalri01,Richard Hidalgo,144,501,87,143,35,2,28,92,56,95,10,6,11,1,7
higgibo02,Bobby Higginson,136,508,80,143,32,3,21,76,64,86,8,4,3,1,3
hillgl01,Glenallen Hill,89,264,44,81,11,1,19,50,25,59,3,1,1,1,2
hinchaj01,A. J. Hinch,69,202,26,49,7,1,6,25,18,43,4,1,2,6,2
hockide01,Denny Hocking,148,404,57,110,21,3,8,48,40,73,8,5,2,5,5
holbera01,Ray Holbert,59,186,28,51,9,1,5,22,19,35,6,3,1,4,2
hollato01,Todd Hollandsworth,94,291,49,84,14,2,12,39,25,63,7,3,1,1,1
houstty01,Tyler Houston,111,324,39,84,15,1,16,47,25,73,3,2,1,3,1
howarth01,Thomas Howard,121,259,30,67,12,1,9,40,22,48,3,1,2,1,1
hubbatr01,Trent Hubbard,94,195,31,56,9,1,6,23,20,38,6,4,2,2,2
huffau01,Aubrey Huff,74,244,33,69,14,1,9,34,21,40,3,1,2,1,2
hundlto01,Todd Hundley,112,360,51,89,17,1,22,62,46,93,3,1,3,1,4
huntebr01,Brian Hunter,126,257,34,63,15,1,10,39,33,56,2,2,3,3,2
huntebr02,Brian Hunter,70,251,36,63,10,2,3,21,20,42,18,3,1,1,2
hunteto01,Torii Hunter,123,391,54,106,18,4,9,48,29,75,7,5,4,1,4
huskebu01,Butch Huskey,81,239,35,67,14,0,10,41,24,41,4,2,1,1,3
husonje01,Jeff Huson,108,260,35,66,12,1,4,28,25,34,7,2,1,1,2
hyzduad01,Adam Hyzdu,59,185,28,53,11,1,7,29,19,33,3,1,2,1,2
ibanera01,Raul Ibanez,115,271,37,70,14,1,9,36,26,47,5,1,1,1,2
jacksda04,Damian Jackson,139,451,66,114,26,4,9,46,59,103,27,7,3,2,3
jahajo01,John Jaha,81,257,44,65,11,1,13,47,54,70,2,1,5,0,2
javiest01,Stan Javier,105,341,56,97,16,4,6,42,45,58,9,3,1,3,3
jeffegr01,Gregg Jefferies,81,268,35,70,14,1,7,32,24,28,3,3,3,1,3
jenkige01,Geoff Jenkins,139,486,82,142,35,3,25,82,38,109,8,2,9,1,3
jensema01,Marcus Jensen,83,246,35,62,15,1,8,30,35,54,3,2,1,3,1
jeterde01,Derek Jeter,137,542,108,180,28,6,17,76,64,97,19,5,9,3,4
johnsbr01,Brian Johnson,78,248,29,61,11,1,10,34,21,53,2,1,2,2,2
johnsch04,Charles Johnson,88,288,39,75,14,1,12,42,34,70,1,1,2,1,2
johnske04,Keith Johnson,55,176,29,50,10,1,6,26,21,30,3,1,2,2,2
johnsla03,Lance Johnson,66,220,34,60,8,3,3,20,22,23,7,2,1,2,1
johnsma01,Mark Johnson,68,184,27,49,9,1,7,29,22,38,3,1,2,1,2
johnsma02,Mark Johnson,101,306,43,74,16,1,7,35,41,65,5,2,2,6,2
johnsru01,Russ Johnson,111,284,44,77,15,1,7,36,35,51,5,3,2,4,3
jonesan01,Andruw Jones,154,582,99,166,33,6,29,89,58,102,21,7,7,1,4
jonesch05,Chris Jones,64,181,29,47,10,1,6,25,19,37,3,1,1,1,2
jonesch06,Chipper Jones,141,515,102,159,32,2,32,95,89,74,15,5,2,1,7
jonesja04,Jacque Jones,142,482,69,137,28,4,17,69,31,96,6,5,3,1,2
joneste02,Terry Jones,104,265,40,68,12,3,4,27,23,51,10,4,1,6,1
jordabr01,Brian Jordan,128,473,77,134,25,3,18,81,40,70,11,4,6,0,5
jordake01,Kevin Jordan,130,381,41,99,19,2,7,49,25,48,2,1,4,0,3
josefe01,Felix Jose,63,186,29,51,9,1,7,29,20,36,3,2,2,1,2
joynewa01,Wally Joyner,112,309,38,86,17,1,8,47,43,44,1,1,2,0,3
justida01,David Justice,99,344,57,99,20,1,17,64,55,63,3,2,1,0,4
kaplega01,Gabe Kapler,128,448,63,124,27,3,16,61,45,70,10,4,2,3,4
karroer01,Eric Karros,141,522,71,146,28,1,27,94,53,104,6,3,3,0,8
kellyro01,Roberto Kelly,65,218,35,64,11,1,9,32,16,41,3,1,3,1,1
kendaja01,Jason Kendall,136,495,93,157,31,4,13,62,61,64,22,7,17,1,5
kennead01,Adam Kennedy,137,500,70,134,30,7,10,65,31,65,15,6,4,6,4
kentje01,Jeff Kent,141,518,93,159,36,4,26,107,65,102,11,6,7,1,8
kingsge01,Gene Kingsale,71,235,34,62,10,1,5,30,19,39,4,4,2,2,2
kinkami01,Mike Kinkade,63,185,26,50,10,2,7,27,19,32,3,1,3,1,1
klassda01,Danny Klassen,68,219,33,56,10,1,7,28,23,50,3,2,2,2,1
kleskry01,Ryan Klesko,141,463,74,132,31,2,22,83,69,77,12,4,2,0,5
knoblch01,Chuck Knoblauch,109,425,80,119,23,3,11,44,53,49,17,7,11,2,4
knorrra01,Randy Knorr,63,196,28,52,11,1,7,27,17,34,3,1,1,3,2
konerpa01,Paul Konerko,142,504,76,147,29,2,21,85,47,72,2,1,6,1,4
koskico01,Corey Koskie,142,450,68,133,28,2,12,67,62,94,6,4,5,2,3
kotsama01,Mark Kotsay,145,506,71,144,26,6,11,58,37,54,12,6,1,3,5
kreutch01,Chad Kreuter,103,308,41,78,17,1,8,39,47,62,2,1,4,2,2
lambda01,David Lamb,70,196,30,51,10,1,5,26,21,33,2,2,1,1,1
lambmi01,Mike Lamb,122,432,60,120,23,2,8,48,36,59,2,2,4,4,2
lampkto01,Tom Lampkin,85,243,34,65,13,2,10,39,23,39,3,2,5,1,2
lankfra01,Ray Lankford,123,409,73,115,25,2,21,68,60,118,12,5,3,0,4
lansimi01,Mike Lansing,74,261,34,70,15,1,6,31,19,43,4,1,2,2,2
larkiba01,Barry Larkin,113,416,73,125,24,5,12,52,58,46,17,5,2,3,2
larocgr01,Greg LaRocca,59,189,27,52,11,1,6,27,20,33,3,1,2,3,2
larueja01,Jason LaRue,75,237,34,60,13,1,9,32,24,51,4,2,5,1,1
lawtoma02,Matt Lawton,138,491,75,140,32,2,13,72,73,59,20,6,8,0,5
lecroma01,Matt LeCroy,82,264,36,62,15,1,9,34,29,52,3,1,3,2,4
ledeeri01,Ricky Ledee,100,311,46,81,14,4,9,50,35,75,7,4,1,1,2
ledesaa01,Aaron Ledesma,79,232,28,66,12,1,3,27,15,36,4,2,2,2,1
leeca01,Carlos Lee,142,531,87,156,30,2,20,86,33,85,9,3,4,1,6
leede02,Derrek Lee,142,447,62,115,21,2,20,64,51,113,3,3,5,0,2
leetr01,Travis Lee,91,312,43,80,14,2,9,39,46,56,8,1,1,0,2
leshebr01,Brian Lesher,57,178,27,52,11,2,6,29,20,31,4,1,2,1,2
lewisda01,Darren Lewis,104,351,54,90,15,2,5,34,36,49,13,6,4,6,2
lewisma01,Mark Lewis,96,274,33,72,18,1,7,36,24,51,4,2,2,2,3
leyriji01,Jim Leyritz,82,203,26,53,11,1,6,27,27,43,2,1,4,1,1
liebemi01,Mike Lieberthal,120,424,63,120,27,1,19,73,39,66,3,1,7,1,5
liefeje01,Jeff Liefer,65,197,25,53,11,1,5,27,19,40,4,1,1,1,2
lindsro01,Rod Lindsey,61,181,33,51,11,1,7,27,20,32,5,2,3,2,2
lockhke01,Keith Lockhart,127,324,43,86,15,2,6,40,33,42,4,2,1,3,4
loducpa01,Paul Lo Duca,77,217,30,57,9,1,7,30,23,32,3,3,2,2,3
loftoke01,Kenny Lofton,126,483,94,138,25,5,12,57,71,73,28,6,4,4,6
lombage01,George Lombard,75,200,33,51,9,1,7,27,20,41,8,1,2,1,2
longte01,Terrence Long,121,482,83,138,28,3,16,68,41,69,5,1,2,1,3
lopezja01,Javy Lopez,122,442,61,128,22,1,23,82,35,75,3,2,5,1,4
lopezlu02,Luis Lopez,115,286,38,74,16,1,7,36,24,59,3,2,5,5,3
loretma01,Mark Loretta,114,410,60,119,25,2,7,50,41,48,4,3,5,6,3
lowelmi01,Mike Lowell,136,468,64,125,30,1,19,77,48,81,4,1,7,1,8
lowerte01,Terrell Lowery,80,211,35,60,15,1,5,27,25,48,3,2,2,1,1
lugoju01,Julio Lugo,111,394,69,111,21,4,11,45,38,81,16,7,4,3,2
lunarfe01,Fernando Lunar,59,189,28,51,10,1,7,27,20,34,3,1,3,1,2
luuloke01,Keith Luuloa,55,187,29,53,10,1,6,26,21,31,3,1,2,1,2
mabryjo01,John Mabry,91,265,35,67,15,0,9,38,22,58,2,1,1,2,2
macharo01,Robert Machado,63,188,28,48,10,1,6,25,19,36,2,1,1,2,1
maciajo01,Jose Macias,94,263,40,71,10,4,7,39,29,42,4,1,2,4,1
magadda01,Dave Magadan,114,256,29,72,14,1,5,36,42,40,2,2,1,1,4
mageewe01,Wendell Magee,105,273,44,77,12,2,10,44,24,45,3,1,1,1,2
mahonmi02,Mike Mahoney,54,179,28,50,11,1,6,27,21,30,3,1,3,1,2
mantoje01,Jeff Manto,58,175,28,50,11,1,7,29,21,32,3,2,2,1,1
marreel01,Eli Marrero,94,264,35,62,13,1,7,32,24,45,8,2,2,2,3
martial03,Al Martin,83,297,47,78,15,4,11,34,26,62,10,2,2,0,2
martida01,Dave Martinez,87,309,45,87,15,2,5,37,37,49,7,4,3,3,2
martied01,Edgar Martinez,135,483,81,155,32,1,26,99,84,86,4,1,4,0,5
martife01,Felix Martinez,112,330,47,76,14,3,6,30,34,68,9,3,6,9,2
martira03,Ramon Martinez,113,284,44,81,16,2,10,39,28,40,4,3,2,6,2
martisa01,Sandy Martinez,69,187,24,50,12,1,5,23,20,41,3,1,2,1,2
martiti02,Tino Martinez,139,509,76,136,29,2,20,91,54,74,4,2,5,0,5
mateoru01,Ruben Mateo,83,306,46,85,18,1,11,39,22,56,7,1,5,1,1
mathemi01,Mike Matheny,128,404,44,103,20,1,8,46,31,85,2,1,5,5,3
matoslu01,Luis Matos,94,277,38,71,13,3,6,34,25,47,12,4,4,2,3
matthga02,Gary Matthews,105,260,39,63,8,2,8,34,30,47,6,1,2,1,1
maxweja01,Jason Maxwell,93,231,34,62,13,1,7,31,24,50,4,2,2,1,4
maynebr01,Brent Mayne,126,370,44,108,26,0,7,56,49,63,3,3,3,3,5
mccarda01,Dave McCarty,106,308,42,86,16,2,13,54,31,67,3,1,1,1,3
mccraqu01,Quinton McCracken,58,209,29,57,11,2,4,24,19,35,6,4,1,2,2
mcdonja02,Jason McDonald,94,237,36,59,10,1,6,26,33,51,8,4,3,4,1
mcdonjo03,John McDonald,67,186,27,54,9,1,6,25,19,32,3,2,2,1,2
mcdonke01,Keith McDonald,56,180,30,51,10,1,9,30,22,31,3,1,2,1,2
mcewijo01,Joe McEwing,107,305,42,81,19,2,7,34,24,53,5,3,3,7,3
mcgrifr01,Fred McGriff,137,497,71,143,24,1,23,87,75,101,4,1,1,0,5
mcgwima01,Mark McGwire,101,324,74,94,14,1,37,86,84,89,2,0,4,0,3
mclemma01,Mark McLemore,125,456,76,119,19,3,6,47,72,69,17,8,1,9,4
mcmilbi01,Billy McMillon,76,235,37,68,13,2,8,39,30,39,3,1,2,2,4
mearepa01,Pat Meares,117,417,52,108,20,2,10,49,32,76,4,2,6,4,3
melhuad01,Adam Melhuse,68,187,29,51,9,2,6,29,22,34,3,1,2,1,2
meloju01,Juan Melo,61,187,28,50,10,1,7,27,20,35,3,1,2,1,2
melusmi01,Mitch Meluskey,115,348,50,100,21,1,14,62,50,71,3,1,4,1,3
mendoca01,Carlos Mendoza,62,183,27,50,10,1,6,26,21,34,3,2,2,1,2
menecfr01,Frank Menechino,92,248,44,67,14,2,9,39,30,58,3,4,2,2,3
merlolo01,Lou Merloni,81,253,32,72,16,2,5,35,20,43,3,1,3,4,2
metcami01,Mike Metcalfe,54,183,27,49,10,1,6,26,21,32,3,1,2,1,2
meyerch02,Chad Meyers,78,222,32,56,12,1,5,24,20,41,5,2,3,2,2
mientdo01,Doug Mientkiewicz,71,216,26,55,13,2,4,27,26,34,2,1,2,2,2
mieskma01,Matt Mieske,84,190,29,54,10,1,7,31,19,34,2,1,1,1,3
millake01,Kevin Millar,121,338,48,93,18,3,13,57,42,61,2,1,7,1,5
milleda02,Damian Miller,112,369,48,102,25,1,12,52,35,84,3,2,2,1,3
minorda01,Damon Minor,59,182,30,52,10,1,9,31,22,31,3,1,2,1,2
minorry01,Ryan Minor,80,237,29,55,11,1,6,25,20,55,3,1,2,1,2
mirabdo01,Doug Mirabelli,100,297,37,75,16,2,9,40,39,67,3,1,3,2,3
moellch01,Chad Moeller,79,245,33,62,11,2,6,29,24,51,4,1,2,2,2
molinbe01,Bengie Molina,122,430,55,120,20,2,13,62,29,42,3,1,5,3,5
mondera01,Raul Mondesi,113,433,73,116,22,3,23,70,40,86,20,6,3,0,3
moralwi01,Willie Morales,53,181,28,51,10,1,6,26,20,33,3,1,2,1,2
morame01,Melvin Mora,107,277,40,77,13,3,6,32,28,48,7,7,4,4,1
moranmi01,Mickey Morandini,79,268,38,72,10,2,4,26,29,41,5,2,3,3,2
mordemi01,Mike Mordecai,124,281,37,73,17,2,8,33,26,48,4,3,2,2,2
morriha02,Hal Morris,85,239,30,71,15,1,3,27,25,35,2,1,1,2,2
morriwa02,Warren Morris,140,497,66,136,25,2,10,58,59,80,6,8,2,5,4
mottoch01,Chad Mottola,53,180,28,50,10,1,6,28,20,33,3,1,3,1,2
moutoja01,James Mouton,134,262,42,67,12,2,6,33,38,58,13,5,3,4,2
moutoly01,Lyle Mouton,82,225,34,62,14,1,8,35,25,48,3,1,2,1,2
muellbi02,Bill Mueller,136,489,81,137,26,2,9,52,60,65,4,2,4,6,4
murraca01,Calvin Murray,118,273,45,72,16,1,6,38,36,48,9,3,3,2,2
myersgr01,Greg Myers,84,241,30,61,12,1,7,31,26,49,2,1,1,1,2
nadyxa01,Xavier Nady,54,182,29,52,10,1,7,27,21,32,3,1,2,1,2
nevinph01,Phil Nevin,142,482,72,136,29,1,25,90,54,106,3,1,4,1,5
newhada01,David Newhan,71,192,30,49,9,1,7,27,20,38,4,2,2,1,1
nichoke01,Kevin Nicholson,74,231,30,60,13,2,7,30,21,51,4,1,2,3,2
nievejo01,Jose Nieves,101,300,34,74,14,3,8,38,23,54,3,2,3,3,3
nixontr01,Trot Nixon,131,431,69,118,26,6,14,60,58,83,6,2,3,4,6
nortogr01,Greg Norton,102,320,44,82,17,1,11,41,41,70,3,2,2,1,2
nunezab01,Abraham Nunez,87,249,31,60,9,1,4,25,28,47,6,2,1,6,1
nunnajo01,Jon Nunnally,85,210,36,51,12,1,7,26,32,47,5,3,1,1,3
nunnata01,Talmadge Nunnari,66,179,29,50,10,1,7,27,25,32,3,1,2,1,3
obriech01,Charlie O'Brien,62,186,24,45,8,1,6,24,18,36,3,1,2,1,2
ochoaal01,Alex Ochoa,131,327,56,96,21,3,11,54,36,47,8,4,4,0,3
offerjo01,Jose Offerman,118,450,76,128,22,6,8,50,68,69,14,8,2,2,4
ojedaau01,Augie Ojeda,67,216,32,57,11,2,7,30,26,35,3,2,2,2,2
oleartr01,Troy O'Leary,132,493,71,134,29,4,18,74,42,79,2,2,3,0,4
olerujo01,John Olerud,142,502,82,152,35,1,16,85,91,73,2,2,6,1,7
olivejo01,Joe Oliver,92,285,41,73,17,1,10,42,26,55,4,1,1,4,2
oneilpa01,Paul O'Neill,130,505,70,147,29,2,17,90,51,81,11,6,2,0,9
ordazlu01,Luis Ordaz,95,234,33,57,9,1,4,28,21,34,6,2,2,5,3
ordonma01,Magglio Ordonez,145,548,87,164,30,3,24,98,47,62,13,5,3,1,8
ordonre01,Rey Ordonez,90,298,31,75,13,1,3,32,26,38,3,2,1,6,3
ortizda01,David Ortiz,119,388,59,109,29,1,11,60,51,79,3,1,2,1,5
ortizhe01,Hector Ortiz,64,218,35,68,13,1,6,27,23,33,3,1,2,2,1
ortizjo02,Jose Ortiz,58,186,31,51,10,1,7,28,22,34,3,1,2,1,2
osikke01,Keith Osik,88,252,28,63,11,1,6,33,26,39,4,1,4,2,2
owenser01,Eric Owens,152,512,73,143,22,5,9,59,44,63,26,9,4,2,3
ozunapa01,Pablo Ozuna,61,190,28,54,10,1,6,26,20,32,4,1,2,3,2
palmede01,Dean Palmer,135,492,74,131,23,2,28,92,53,124,5,2,6,0,7
palmeor01,Orlando Palmeiro,121,325,50,94,18,2,3,35,42,35,6,4,4,8,3
palmera01,Rafael Palmeiro,139,503,85,150,27,2,35,108,79,70,4,3,4,0,6
paquecr01,Craig Paquette,125,385,52,101,22,2,16,64,29,81,5,2,2,2,5
patteco01,Corey Patterson,59,205,34,54,10,1,8,27,22,41,4,2,2,2,2
pauljo01,Josh Paul,75,218,36,61,11,2,6,30,21,42,4,1,2,2,1
paytoja01,Jay Payton,135,423,58,122,21,1,15,56,32,59,6,8,3,1,6
penael01,Elvis Pena,60,184,28,52,11,1,7,28,21,32,4,1,2,1,2
perezed01,Eduardo Perez,84,221,30,61,10,1,7,34,24,45,3,1,3,2,2
perezed02,Eddie Perez,72,217,26,59,13,0,6,30,18,34,2,1,3,2,2
perezne01,Neifi Perez,143,578,83,163,28,8,11,62,32,59,7,5,1,9,6
perezsa01,Santiago Perez,67,204,32,53,11,1,6,26,25,36,6,1,2,2,2
perezti01,Timo Perez,67,204,35,57,12,2,7,27,21,33,4,2,2,1,2
perezto03,Tomas Perez,77,248,35,63,13,2,6,31,25,48,3,2,1,2,1
perrych01,Chan Perry,61,183,28,49,10,1,6,26,20,34,3,1,2,1,2
perryhe01,Herbert Perry,113,384,63,111,25,2,12,60,30,70,4,1,10,2,5
petribe01,Ben Petrick,83,261,48,78,16,1,9,39,33,52,4,2,3,1,4
piattad01,Adam Piatt,86,260,40,75,12,4,9,39,33,57,3,2,2,2,1
piazzmi01,Mike Piazza,129,467,84,147,27,0,32,100,52,67,3,2,2,0,4
pierrju01,Juan Pierre,78,285,41,84,10,1,5,36,26,36,8,5,2,4,2
pierzaj01,A. J. Pierzynski,75,228,34,65,13,2,7,32,22,39,4,1,4,1,3
polanpl01,Placido Polanco,132,370,51,108,16,4,7,44,26,42,5,4,2,6,3
polonlu01,Luis Polonia,75,246,36,74,14,3,7,28,19,31,10,5,2,1,2
portebo03,Bo Porter,74,185,28,49,10,1,7,26,21,40,3,1,2,2,2
posadjo01,Jorge Posada,140,468,75,128,29,1,21,76,77,120,3,2,5,0,4
posesc01,Scott Pose,101,209,34,56,8,1,4,24,27,38,5,2,1,1,2
prattto02,Todd Pratt,114,267,44,75,13,1,10,43,30,54,3,1,5,2,2
pridecu01,Curtis Pride,70,184,30,50,10,1,6,23,19,38,4,1,2,1,2
princto01,Tom Prince,80,231,31,59,14,1,6,30,25,50,3,1,3,3,1
pritcch01,Chris Pritchett,62,188,26,49,8,1,6,23,18,35,4,2,1,1,2
quinnma01,Mark Quinn,122,439,68,129,28,2,19,72,36,79,6,2,3,2,3
ramiral02,Alex Ramirez,89,250,34,65,14,2,9,39,20,56,4,2,2,2,1
ramirar01,Aramis Ramirez,94,322,33,82,16,2,8,42,24,60,2,1,5,2,4
ramirma02,Manny Ramirez,122,444,93,143,30,2,34,117,73,104,3,2,6,0,6
randajo01,Joe Randa,144,541,77,160,28,4,14,79,42,71,6,4,5,2,7
rebouje01,Jeff Reboulet,115,269,43,64,12,1,4,24,39,51,4,2,2,6,2
redmati01,Tike Redman,59,190,29,54,11,1,7,27,21,37,4,1,2,1,2
redmomi01,Mike Redmond,106,304,33,86,14,1,4,34,27,41,2,1,7,4,2
reedje02,Jeff Reed,109,293,41,76,17,1,7,38,46,68,2,1,2,2,2
reesepo01,Pokey Reese,138,501,74,135,25,5,11,51,41,80,26,5,5,4,5
relafde01,Desi Relaford,82,281,37,69,13,2,5,31,29,48,7,2,4,4,2
renteed01,Edgar Renteria,142,531,85,148,29,2,12,61,54,78,27,12,2,7,6
richach01,Chris Richard,80,279,48,78,18,2,14,46,27,51,7,5,4,1,3
riosar01,Armando Rios,129,304,53,87,18,3,13,57,41,58,7,4,2,2,4
ripkeca01,Cal Ripken,96,356,48,101,20,1,14,53,27,43,1,1,3,1,3
rivaslu01,Luis Rivas,62,214,33,61,13,2,6,30,21,33,5,1,2,3,3
riverru01,Ruben Rivera,149,427,66,93,19,4,19,58,52,128,12,5,7,1,3
roberda07,Dave Roberts,67,197,32,52,9,1,6,24,20,30,8,3,1,3,2
rodrial01,Alex Rodriguez,136,524,109,158,29,2,36,109,65,106,21,6,6,1,7
rodrihe02,Henry Rodriguez,81,271,39,76,16,1,14,48,34,64,2,2,1,0,2
rodriiv01,Ivan Rodriguez,108,425,74,138,26,3,23,79,25,57,10,5,2,0,4
rolensc01,Scott Rolen,124,459,83,131,31,3,24,82,61,103,10,3,5,0,4
rolisna01,Nate Rolison,58,187,28,50,10,1,7,28,21,34,3,1,2,1,3
rolliji01,Jimmy Rollins,60,211,30,61,10,2,6,29,21,35,6,1,2,1,2
rollsda01,Damian Rolls,56,182,28,51,10,1,7,27,21,32,3,1,2,1,2
roskojo01,John Roskos,70,194,26,48,11,1,6,26,21,40,3,1,2,1,2
ryanro02,Rob Ryan,78,194,30,54,10,2,7,28,22,37,3,1,2,1,1
sadledo01,Donnie Sadler,95,242,38,63,12,2,5,28,19,45,6,2,3,6,2
saenzol01,Olmedo Saenz,104,305,51,88,19,2,12,47,32,56,3,1,10,1,3
salmoti01,Tim Salmon,137,482,86,138,30,2,26,85,84,109,3,2,4,0,5
sanchre01,Rey Sanchez,139,477,66,135,19,3,4,49,29,59,7,3,4,8,3
sandean01,Anthony Sanders,54,179,29,51,10,1,6,28,20,32,3,1,2,1,2
sandere02,Reggie Sanders,111,386,63,102,20,4,15,51,44,89,21,7,4,2,1
santafp01,F. P. Santangelo,101,260,41,63,13,1,5,25,38,52,7,3,10,6,2
santibe01,Benito Santiago,108,333,35,88,18,2,9,47,30,62,3,2,2,1,4
schnebr01,Brian Schneider,79,240,29,64,13,1,6,32,23,45,3,2,2,1,2
sefcike01,Kevin Sefcik,132,268,37,74,14,3,4,27,32,40,7,3,4,3,2
seguida01,David Segui,82,294,47,90,18,1,11,49,28,47,2,1,1,0,4
seguife01,Fernando Seguignol,99,273,40,75,17,1,13,36,22,67,2,2,6,1,3
selbybi01,Bill Selby,71,198,32,54,10,1,6,28,19,36,3,1,2,1,2
servasc01,Scott Servais,67,200,25,51,10,1,6,24,18,33,2,1,3,2,1
sexsori01,Richie Sexson,96,341,57,94,18,3,20,72,33,82,3,2,4,0,4
sextoch01,Chris Sexton,80,229,31,58,10,1,6,30,29,36,7,3,3,2,2
sheetan01,Andy Sheets,76,212,27,50,9,1,6,29,19,48,3,2,1,3,3
sheffga01,Gary Sheffield,133,467,88,144,22,2,31,90,87,62,10,5,5,0,7
sheldsc01,Scott Sheldon,85,236,37,65,16,1,8,35,24,53,3,1,2,2,3
shumpte01,Terry Shumpert,123,326,62,95,21,5,12,48,36,53,11,3,5,2,4
sierrru01,Ruben Sierra,63,204,27,54,9,1,7,29,19,34,4,1,1,1,1
singlch01,Chris Singleton,137,487,76,134,26,5,14,66,33,69,18,6,2,7,5
siscost01,Steve Sisco,68,187,29,51,9,1,7,27,21,32,3,1,2,1,2
smithbo06,Bob Smith,88,288,36,71,12,1,9,40,27,80,5,3,3,2,2
smithma03,Mark Smith,113,271,37,68,13,1,8,38,27,60,6,1,3,1,3
snowjt01,J. T. Snow,144,493,77,135,28,2,19,85,65,106,2,3,6,1,8
sojolu01,Luis Sojo,80,252,37,68,12,1,5,34,17,31,3,1,1,3,1
soriaal01,Alfonso Soriano,71,208,31,54,11,1,8,28,20,42,5,2,2,3,2
sosasa01,Sammy Sosa,140,538,98,163,26,1,47,119,70,141,9,6,2,0,6
spencsh01,Shane Spencer,101,323,47,89,16,2,14,51,29,63,2,4,3,1,5
spierbi01,Bill Spiers,126,387,55,111,21,4,6,46,48,52,9,4,2,2,2
spiezsc01,Scott Spiezio,119,350,51,89,20,1,13,51,42,57,2,2,3,3,4
spraged02,Ed Sprague,72,241,34,63,13,1,9,36,24,46,2,2,6,1,2
stairma01,Matt Stairs,133,462,76,120,25,1,24,84,68,102,5,4,3,1,4
stanlmi02,Mike Stanley,79,254,36,71,15,0,11,43,38,54,2,1,4,0,3
stevele01,Lee Stevens,131,449,65,123,26,2,21,73,46,106,2,2,1,0,4
stewash01,Shannon Stewart,133,528,91,159,31,3,15,62,49,76,28,10,8,3,3
stinnke01,Kelly Stinnett,100,321,40,79,14,1,13,44,32,78,2,2,6,1,2
stockke01,Kevin Stocker,98,316,40,77,15,3,5,32,34,64,5,5,5,6,2
stynech01,Chris Stynes,134,380,64,111,18,1,11,42,36,53,9,3,3,4,3
surhobj01,B. J. Surhoff,83,305,44,89,18,1,11,46,25,40,4,2,1,1,4
suttola01,Larry Sutton,73,198,26,51,10,1,5,29,22,33,3,1,2,2,3
sweenma01,Mark Sweeney,118,212,29,56,13,2,6,26,28,42,2,1,2,1,2
sweenmi01,Mike Sweeney,150,551,90,173,33,1,22,105,58,62,7,3,10,1,7
tatisfe01,Fernando Tatis,113,397,70,111,25,2,21,72,59,98,10,5,10,1,3
taubeed01,Ed Taubensee,104,348,47,100,19,1,12,55,32,62,1,1,2,1,3
taylore01,Reggie Taylor,59,187,29,51,10,1,7,27,20,38,4,1,2,1,2
tejadmi01,Miguel Tejada,149,545,88,143,30,2,22,87,55,96,7,4,7,5,4
thomafr04,Frank Thomas,139,502,89,151,35,1,26,99,89,79,4,2,6,0,8
thomeji01,Jim Thome,141,490,94,136,30,2,31,95,102,148,2,1,4,0,4
thompan02,Andy Thompson,53,181,29,50,10,1,7,27,23,33,3,1,2,1,2
thompry01,Ryan Thompson,75,200,34,54,11,1,8,36,22,39,3,2,2,1,1
timmooz01,Ozzie Timmons,66,201,32,54,11,1,9,33,20,38,3,2,1,1,1
tocajo01,Jorge Toca,59,179,28,51,10,1,6,29,20,32,3,1,2,1,2
tracyan01,Andy Tracy,98,273,42,74,13,2,13,43,31,66,3,1,3,1,3
trammbu01,Bubba Trammell,75,232,37,65,15,1,11,36,29,43,2,2,1,0,2
trubych01,Chris Truby,92,308,40,83,18,3,12,60,22,61,4,2,5,1,5
tuckemi01,Michael Tucker,139,341,58,89,17,4,14,46,45,82,11,4,5,1,3
turnech01,Chris Turner,75,221,31,58,10,1,6,27,24,45,3,2,2,2,1
tynerja01,Jason Tyner,75,224,30,60,11,1,6,30,21,37,8,2,2,5,2
valdepe01,Pedro Valdes,74,205,28,57,13,1,6,28,23,34,3,2,2,1,1
valenjo02,John Valentin,62,233,37,60,15,1,8,33,25,35,2,2,3,1,3
valenjo03,Jose Valentin,141,475,82,122,27,4,19,70,61,95,12,4,3,7,5
vandejo02,John Vander Wal,149,383,61,110,27,1,17,75,61,85,8,2,3,1,4
varitja01,Jason Varitek,141,451,62,118,31,1,15,68,50,83,3,2,4,3,5
vaughgr01,Greg Vaughn,126,451,83,117,22,2,32,84,68,108,9,2,3,0,3
vaughmo01,Mo Vaughn,141,532,79,154,26,1,31,100,60,134,2,1,10,0,4
velanjo01,Jorge Velandia,97,198,27,50,10,1,6,25,18,39,4,1,3,1,1
velarra01,Randy Velarde,111,429,72,123,21,2,12,47,51,81,11,4,3,2,2
venturo01,Robin Ventura,132,464,66,124,26,1,22,82,63,87,3,3,2,1,4
verasqu01,Quilvio Veras,103,371,66,105,19,1,7,40,55,63,21,10,4,3,3
veraswi01,Wilton Veras,84,282,39,76,14,2,6,34,21,41,2,2,3,3,4
vidrojo01,Jose Vidro,151,535,81,163,43,2,17,75,45,67,4,4,4,3,5
vinafe01,Fernando Vina,111,431,67,128,23,4,6,37,37,38,11,7,17,3,2
vitiejo01,Joe Vitiello,77,204,29,53,11,1,7,29,25,37,3,1,3,1,2
vizcajo01,Jose Vizcaino,97,287,37,77,13,1,4,32,24,40,6,4,1,7,3
vizquom01,Omar Vizquel,138,532,90,159,28,4,7,59,65,61,27,9,3,9,5
walbema01,Matt Walbeck,90,275,33,68,11,1,7,31,24,48,2,2,2,3,2
walkela01,Larry Walker,105,369,81,125,26,4,19,69,49,50,8,4,7,0,4
walketo04,Todd Walker,91,321,46,95,22,3,8,41,33,46,10,4,1,1,3
wardda01,Daryle Ward,130,332,44,89,15,2,19,57,26,69,2,1,1,1,3
wardtu01,Turner Ward,70,199,28,53,11,1,7,30,21,32,4,2,2,2,4
waszgbj01,B. J. Waszgis,66,197,30,53,10,1,6,28,22,36,3,1,2,1,2
webstle01,Lenny Webster,77,219,27,58,11,1,6,29,20,34,2,1,1,1,1
wehnejo01,John Wehner,82,205,30,54,10,1,5,26,21,34,3,1,1,3,1
weisswa01,Walt Weiss,98,286,45,75,13,3,3,31,39,48,5,2,3,6,3
whitede03,Devon White,82,294,43,80,14,1,10,41,24,54,10,4,5,1,2
whitema01,Mark Whiten,60,178,26,49,10,1,6,25,22,37,2,1,2,1,1
whitero02,Rondell White,72,267,40,81,14,2,11,36,21,44,6,4,5,0,2
widgech01,Chris Widger,71,225,26,57,12,1,8,32,19,46,2,2,2,0,1
wilkiri01,Rick Wilkins,53,178,29,49,9,1,6,26,21,31,3,1,2,1,2
willibe02,Bernie Williams,132,493,95,158,29,5,24,98,71,80,11,7,3,0,4
willige02,Gerald Williams,157,526,82,147,28,2,19,79,37,87,15,10,5,6,3
willige03,George Williams,58,182,28,50,9,1,7,27,19,33,3,1,2,1,2
willima04,Matt Williams,109,419,60,119,23,2,18,71,31,67,3,1,3,0,4
wilsocr02,Craig Wilson,81,237,35,64,11,1,6,29,23,32,3,1,1,5,2
wilsoda01,Dan Wilson,107,350,43,90,18,1,8,40,29,66,4,2,2,9,3
wilsoen01,Enrique Wilson,89,274,36,75,16,1,6,31,24,37,4,4,1,3,4
wilsopr01,Preston Wilson,153,532,80,143,28,3,26,92,52,156,21,8,8,1,6
winnra01,Randy Winn,87,295,46,80,13,4,4,28,29,56,12,8,2,4,2
wisede01,Dewayne Wise,74,193,30,52,10,1,7,26,21,35,4,1,3,1,2
womacto01,Tony Womack,133,543,85,150,22,9,6,47,38,70,45,9,3,4,5
woodwch01,Chris Woodward,77,236,35,58,14,1,8,33,25,49,3,1,1,2,2
wootesh01,Shawn Wooten,56,180,29,53,11,1,6,27,20,30,3,1,2,1,2
youngdm01,Dmitri Young,143,492,71,148,36,3,16,77,40,82,3,3,3,1,5
younger01,Eric Young,134,515,84,148,30,2,7,49,58,41,44,12,6,7,4
youngke01,Kevin Young,129,475,76,131,30,2,20,84,44,96,12,5,8,0,5
zaungr01,Gregg Zaun,105,302,39,76,14,1,8,40,42,47,6,3,2,1,3
zeileto01,Todd Zeile,138,497,67,138,33,2,20,77,60,81,3,3,3,1,5
zuletju01,Julio Zuleta,70,214,35,61,15,1,8,34,20,43,3,2,4,1,2
