playerID,playerName,W,L,G,GS,CG,SHO,SV,IPouts,H,ER,HR,BB,SO,IBB,WP,HBP,BK,BFP,GF,R,SH,SF,GIDP
aardsda01,David Aardsma,2,2,14,3,0,0,1,94,34,16,4,13,22,1,1,2,0,139,4,17,1,1,3
abbotpa01,Paul Abbott,4,6,29,12,0,0,2,261,93,51,15,41,58,3,4,3,0,388,6,54,3,2,6
acevejo01,Jose Acevedo,6,8,42,19,0,0,2,395,143,75,21,43,98,5,4,5,1,576,8,79,4,5,10
adamsmi03,Mike Adams,3,3,28,4,0,0,1,156,52,24,6,18,38,2,2,2,0,225,8,26,3,2,4
adamste01,Terry Adams,2,2,24,4,0,0,1,135,47,21,5,16,33,2,2,2,0,194,5,23,2,2,5
adkinjo01,Jon Adkins,3,3,31,4,0,0,1,172,61,29,9,21,41,2,2,2,0,249,10,31,3,2,6
affelje01,Jeremy Affeldt,4,4,34,10,0,0,5,254,90,42,9,32,62,2,3,3,1,370,12,46,3,3,8
ainswku01,Kurt Ainsworth,3,4,29,10,0,0,2,229,82,45,10,32,55,2,4,5,0,340,7,48,3,3,7
alfonan01,Antonio Alfonseca,4,3,48,4,0,0,2,203,69,31,7,26,48,3,2,2,0,294,13,33,4,2,8
almanar01,Armando Almanza,2,2,22,3,0,0,1,106,36,19,5,15,30,1,1,1,0,155,6,20,1,1,3
almanca01,Carlos Almanzar,4,3,36,4,0,0,1,182,59,28,7,20,42,2,2,3,0,258,10,30,2,2,6
alvarab01,Abe Alvarez,3,4,27,7,0,0,2,194,68,33,9,25,47,2,2,3,0,282,7,36,2,2,5
alvarwi01,Wilson Alvarez,6,5,36,13,0,0,2,318,101,47,11,34,85,2,2,5,0,447,7,50,6,3,8
anderbr02,Brian Anderson,7,8,38,19,1,1,1,412,159,76,22,43,74,3,3,3,1,598,6,85,5,5,15
anderja01,Jason Anderson,1,1,12,3,0,0,1,81,28,14,4,11,20,1,1,1,0,118,3,15,1,1,2
anderji02,Jimmy Anderson,2,2,11,4,0,0,1,96,36,18,4,12,19,1,1,1,0,141,3,20,1,1,3
ankieri01,Rick Ankiel,2,2,13,3,0,0,1,92,31,15,4,11,23,1,1,2,0,132,3,17,1,1,2
appieke01,Kevin Appier,4,4,21,9,0,0,1,187,63,31,8,23,43,1,3,2,0,268,4,34,2,2,5
aquingr01,Greg Aquino,2,2,23,4,0,0,5,130,41,20,5,17,32,2,2,2,0,186,10,22,2,2,4
armasto02,Tony Armas,5,6,30,16,0,0,1,301,96,49,14,45,75,5,3,5,0,434,5,53,4,3,9
arroybr01,Bronson Arroyo,8,7,43,20,0,0,2,446,145,68,15,47,115,4,4,12,0,638,7,80,5,4,10
ashbyan01,Andy Ashby,2,2,11,4,0,0,1,97,34,16,4,11,22,1,1,1,0,140,3,17,2,1,3
astacpe01,Pedro Astacio,2,2,13,5,0,0,1,117,41,22,6,15,28,1,1,2,0,172,3,23,1,1,3
atchisc01,Scott Atchison,2,3,20,4,0,0,1,121,41,19,5,16,33,2,2,1,0,175,5,21,2,1,4
ayalalu01,Luis Ayala,6,6,52,4,0,0,3,235,78,31,8,21,55,2,2,4,0,328,17,35,3,2,9
backebr01,Brandon Backe,4,3,34,8,0,0,1,220,76,37,10,30,56,3,2,3,0,319,9,40,4,2,7
bacsimi02,Mike Bacsik,4,4,26,9,0,0,2,210,75,37,10,24,48,2,2,4,0,305,6,40,3,2,7
baekch01,Cha-Seung Baek,4,5,26,8,0,0,2,201,70,35,9,25,48,2,3,3,0,293,7,38,2,2,5
baezda01,Danys Baez,4,5,39,5,0,0,11,201,64,31,7,26,52,2,3,4,0,290,23,34,3,2,5
bajenje01,Jeff Bajenaru,2,2,13,3,0,0,1,89,31,16,3,12,22,1,1,1,0,130,4,17,1,1,3
baldwja01,James Baldwin,3,4,24,8,0,0,1,191,71,35,10,23,42,2,2,3,0,281,6,38,2,2,6
balfogr01,Grant Balfour,3,2,26,4,0,0,1,143,47,23,6,20,40,2,2,2,0,207,8,25,2,1,4
bartocl01,Cliff Bartosh,2,2,21,3,0,0,1,106,37,18,5,14,28,1,1,1,0,155,4,19,1,1,3
batismi01,Miguel Batista,9,10,42,24,1,1,3,509,172,82,17,68,109,3,8,5,0,733,8,90,7,5,17
bauerri01,Rick Bauer,3,3,29,4,0,0,1,184,61,30,7,23,43,2,3,3,0,264,8,34,2,2,7
bautide01,Denny Bautista,4,5,29,9,0,0,2,227,82,40,9,28,55,2,3,4,1,331,7,43,3,2,7
beckejo02,Josh Beckett,9,9,39,23,1,0,1,469,146,67,16,58,144,4,6,5,0,663,6,74,7,3,13
beckro01,Rod Beck,2,2,23,3,0,0,4,119,39,19,6,14,29,1,1,1,0,171,10,21,1,1,3
bedarer01,Erik Bedard,6,8,40,20,0,0,2,389,137,65,14,58,105,3,5,6,1,580,7,74,3,4,9
beimejo01,Joe Beimel,1,2,19,3,0,0,1,97,35,18,4,14,23,2,1,2,0,143,4,19,2,1,3
bellhe01,Heath Bell,2,2,17,4,0,0,1,112,38,18,5,13,30,1,1,1,0,160,4,19,1,1,3
bellro01,Rob Bell,7,7,35,18,1,0,1,375,128,67,17,45,73,2,6,5,0,543,6,73,3,3,10
beltrfr01,Francis Beltran,2,2,15,3,0,0,1,98,35,17,4,13,24,1,1,2,0,144,4,19,2,1,3
beltrri01,Rigo Beltran,1,1,11,3,0,0,1,74,25,12,3,9,18,1,1,1,0,108,3,13,1,1,2
benitar01,Armando Benitez,3,2,38,4,0,0,16,182,50,22,7,22,50,2,1,2,0,251,24,24,2,2,4
benneje01,Jeff Bennett,3,4,35,5,0,0,1,186,65,31,9,23,43,2,3,2,0,271,10,35,2,3,6
benoijo01,Joaquin Benoit,5,6,34,14,0,0,1,319,110,60,17,43,86,2,4,6,0,470,6,64,3,6,7
bensokr01,Kris Benson,6,6,29,15,0,0,1,312,111,53,13,35,73,4,4,4,0,454,5,59,3,3,8
bentzch01,Chad Bentz,2,3,22,4,0,0,1,119,39,21,5,18,29,2,1,2,0,174,5,22,1,1,4
bergmdu01,Dusty Bergman,1,1,11,3,0,0,1,79,27,13,3,10,19,1,1,1,0,115,3,14,1,1,2
bernead01,Adam Bernero,2,3,22,5,0,0,1,146,52,27,7,19,35,2,2,2,0,215,5,29,2,2,4
betanra01,Rafael Betancourt,4,4,40,4,0,0,2,186,62,28,7,21,54,3,3,2,0,266,12,31,2,2,4
biddlro01,Rocky Biddle,4,6,45,7,0,0,10,234,83,44,12,33,56,3,4,5,0,348,20,50,3,2,5
bierbni01,Nick Bierbrodt,4,4,28,9,0,0,2,210,69,36,9,32,51,2,3,3,0,307,7,39,3,3,7
blacktr01,Travis Blackley,4,5,29,10,0,0,2,227,81,45,12,34,54,2,3,3,1,338,7,48,3,2,6
blantjo01,Joe Blanton,2,2,12,3,0,0,1,89,30,15,4,11,22,1,1,1,0,128,3,16,1,1,2
boehrbr01,Brian Boehringer,2,2,27,3,0,0,1,129,43,22,5,18,32,2,1,2,0,187,7,23,2,2,4
bondeje01,Jeremy Bonderman,9,13,45,27,1,1,2,519,176,95,23,66,137,4,8,7,1,756,6,102,7,5,15
bongju01,Jung Bong,5,4,35,7,0,0,2,225,77,38,10,32,56,3,4,3,0,329,9,43,4,2,8
borkoda01,Dave Borkowski,4,4,27,8,0,0,1,210,74,36,8,24,53,2,2,3,1,305,6,40,3,2,6
borlato02,Toby Borland,2,2,18,3,0,0,1,103,34,17,4,14,26,2,1,1,0,150,4,18,2,1,2
borowjo01,Joe Borowski,2,3,26,3,0,0,6,126,41,19,5,16,34,2,1,1,0,181,14,21,2,1,3
bottari01,Ricky Bottalico,3,3,35,4,0,0,1,176,56,27,6,24,46,3,2,3,0,254,7,30,2,2,5
boydja02,Jason Boyd,2,2,20,3,0,0,1,109,35,19,5,15,26,1,1,2,0,159,6,20,2,1,3
bradfch01,Chad Bradford,4,4,45,4,0,0,2,185,59,28,6,23,44,5,1,4,0,264,10,30,2,1,7
brazede01,Dewon Brazelton,6,9,37,19,0,0,2,380,130,68,16,52,78,3,3,8,1,558,6,77,3,5,13
brazoyh01,Yhency Brazoban,3,2,22,4,0,0,1,127,41,19,5,16,32,2,1,1,0,181,6,21,2,1,4
brocado01,Doug Brocail,3,2,26,4,0,0,1,149,51,24,5,19,38,1,2,3,0,217,8,27,2,2,5
brookfr01,Frank Brooks,2,2,16,4,0,0,1,112,37,19,5,14,29,2,1,1,0,161,4,20,1,1,3
broweji01,Jim Brower,5,5,49,5,0,0,2,242,79,36,8,31,57,2,5,3,0,345,13,40,5,2,8
brownja04,Jamie Brown,2,2,12,3,0,0,1,87,31,15,4,11,21,1,1,1,0,127,4,16,1,1,3
brownke01,Kevin Brown,9,7,35,20,0,0,1,427,138,58,14,43,108,2,5,5,0,597,5,64,5,5,14
brunebr01,Brian Bruney,3,3,22,4,0,0,1,126,40,21,5,19,34,2,2,2,0,183,7,22,2,1,3
buehrma01,Mark Buehrle,13,11,43,29,3,1,1,628,219,94,25,55,133,3,2,6,0,881,5,105,6,5,23
bukviry01,Ryan Bukvich,2,1,15,3,0,0,1,90,30,16,4,13,23,1,1,1,0,132,5,17,2,1,3
bulliki01,Kirk Bullinger,2,2,21,4,0,0,1,121,42,22,5,14,27,1,1,2,0,176,6,23,2,1,3
bumpna01,Nate Bump,4,3,37,5,0,0,1,201,71,35,7,27,44,3,2,4,0,295,9,38,2,2,8
burbada01,Dave Burba,2,1,13,3,0,0,1,95,32,15,4,12,23,1,1,2,0,137,3,17,1,1,3
burneaj01,A. J. Burnett,7,6,32,17,1,1,1,364,109,53,11,47,105,3,6,5,0,512,5,57,5,3,9
burnese01,Sean Burnett,6,6,33,14,1,1,2,298,108,51,12,38,62,3,3,3,0,434,7,54,4,3,11
bushda01,Dave Bush,6,5,35,15,1,1,2,332,111,51,13,36,78,3,4,6,0,475,7,57,4,4,8
bynummi01,Mike Bynum,1,2,12,3,0,0,1,88,31,17,5,12,22,1,1,1,0,129,3,18,1,1,3
byrdpa01,Paul Byrd,7,6,31,16,1,0,1,345,119,53,17,29,78,2,2,4,0,488,5,59,3,4,8
cabreda01,Daniel Cabrera,9,7,41,20,1,1,2,410,137,72,15,67,85,3,8,4,0,603,8,76,5,5,12
cabrefe01,Fernando Cabrera,2,2,12,3,0,0,1,85,29,14,3,10,21,1,1,1,0,123,3,15,1,1,2
calerki01,Kiko Calero,3,2,28,4,0,0,2,154,46,22,6,18,45,2,2,2,0,215,6,24,2,2,4
calica01,Carmen Cali,2,2,13,3,0,0,1,87,31,15,4,11,22,1,1,1,0,128,3,16,1,1,2
callami01,Mickey Callaway,3,4,23,8,0,0,1,177,63,32,7,23,44,1,2,3,1,259,5,34,2,2,5
campsh01,Shawn Camp,3,3,28,4,0,0,2,174,61,28,8,19,43,2,2,3,0,251,8,32,2,2,7
capeljo01,Jose Capellan,3,3,22,6,0,0,1,162,57,29,7,21,39,2,2,2,0,237,5,31,2,2,5
capuach01,Chris Capuano,7,8,35,16,0,0,2,326,110,56,16,42,86,3,4,7,1,471,7,62,5,3,9
carpech01,Chris Carpenter,11,6,39,21,1,0,2,452,149,67,20,43,117,3,4,7,0,635,7,72,5,4,13
carradj01,D. J. Carrasco,3,3,27,4,0,0,1,153,53,26,6,21,36,2,2,3,0,224,9,28,2,2,6
carragi01,Giovanni Carrara,4,2,30,4,0,0,1,160,53,24,6,20,39,2,1,2,0,232,9,25,3,1,4
cartela02,Lance Carter,4,4,41,4,0,0,6,218,71,33,10,23,45,3,1,2,0,308,21,35,2,3,6
castifr01,Frank Castillo,1,2,9,3,0,0,1,75,26,13,3,9,18,1,1,1,0,108,2,14,1,1,2
cerdaja01,Jaime Cerda,2,3,34,4,0,0,1,155,51,24,5,24,37,2,3,2,0,227,9,27,2,2,5
chacigu01,Gustavo Chacin,4,4,27,8,0,0,2,206,67,33,8,25,48,2,2,3,0,294,7,35,2,2,7
chacosh01,Shawn Chacon,4,5,31,8,0,0,8,212,71,40,10,34,51,3,4,5,0,317,16,43,4,2,5
chenbr01,Bruce Chen,4,4,32,9,1,0,2,244,79,37,11,30,60,2,2,2,0,348,7,42,3,3,6
choatra01,Randy Choate,2,3,36,4,0,0,1,152,52,26,5,22,40,4,2,3,0,223,9,27,1,2,5
chrisja01,Jason Christiansen,3,3,34,4,0,0,2,134,45,22,5,20,32,1,2,2,0,196,7,24,1,1,5
chulkvi01,Vinnie Chulk,2,3,29,4,0,0,2,163,56,27,6,22,40,1,2,2,0,237,7,29,2,1,5
clausbr01,Brandon Claussen,5,7,33,14,0,0,2,286,104,52,12,40,69,3,3,4,0,426,7,57,5,3,8
clemema01,Matt Clement,10,11,39,25,1,1,1,509,150,75,20,68,155,4,10,9,0,724,5,81,7,4,14
clemero02,Roger Clemens,13,6,40,26,0,0,1,541,163,75,18,62,166,4,6,6,0,756,5,81,6,6,11
colomje01,Jesus Colome,3,4,30,3,0,0,2,160,51,27,6,24,44,2,3,2,0,233,10,28,3,2,4
colonba01,Bartolo Colon,13,10,41,27,3,0,1,560,185,91,27,61,136,3,4,4,1,792,5,97,6,6,17
colonro01,Roman Colon,2,2,17,3,0,0,1,105,36,17,4,13,26,1,1,1,0,152,5,19,1,1,3
colyest01,Steve Colyer,2,2,26,4,0,0,1,131,45,23,6,19,34,1,2,2,0,192,6,24,1,1,4
contrjo01,Jose Contreras,7,5,33,14,0,0,2,309,98,51,11,45,86,2,5,4,0,446,6,55,3,3,8
cookaa01,Aaron Cook,6,6,39,16,1,0,2,369,139,65,12,50,65,5,6,7,1,548,7,70,5,3,15
coopebr01,Brian Cooper,2,3,19,5,0,0,1,136,47,25,7,17,32,2,2,2,0,198,4,27,2,2,4
corcoro01,Roy Corcoran,2,2,13,3,0,0,1,87,30,14,3,11,21,1,1,1,0,127,4,16,1,1,3
cordech01,Chad Cordero,5,3,41,5,0,0,6,210,65,30,8,30,59,3,3,2,0,301,18,32,3,3,5
cordefr01,Francisco Cordero,4,4,46,4,0,0,16,207,64,26,5,28,63,3,2,2,1,294,27,29,3,2,5
coreyma02,Mark Corey,2,3,25,4,0,0,1,137,48,24,6,18,35,2,2,2,0,201,8,26,1,2,4
cormila01,Lance Cormier,3,4,24,7,0,0,1,178,66,35,10,25,41,2,2,3,0,264,6,38,2,2,6
cormirh01,Rheal Cormier,5,4,49,4,0,0,1,216,65,30,7,25,51,3,2,3,0,301,10,32,3,1,7
cornena01,Nate Cornejo,4,7,26,14,1,0,1,282,110,51,11,32,46,3,2,3,0,413,5,56,3,3,11
correke01,Kevin Correia,2,2,18,5,0,0,1,127,45,22,6,17,31,1,1,2,0,186,5,24,2,2,4
cottsne01,Neal Cotts,4,4,33,6,0,0,1,183,61,34,9,27,48,2,4,3,0,266,8,37,2,2,7
crainje01,Jesse Crain,3,2,19,4,0,0,1,119,38,18,5,15,28,1,1,2,0,170,4,19,2,1,4
cressja01,Jack Cressend,2,2,19,3,0,0,1,111,39,18,5,14,26,2,1,1,0,162,4,19,2,1,3
croweji01,Jim Crowell,1,1,12,3,0,0,1,79,27,13,3,10,19,1,1,1,0,115,3,14,1,1,2
crucefr01,Francisco Cruceta,3,4,27,8,0,0,2,197,68,34,8,25,50,2,3,3,0,288,7,37,2,2,5
cruzju02,Juan Cruz,4,4,33,5,0,0,1,204,65,32,8,29,58,2,2,4,0,295,10,35,4,2,6
cubilda01,Darwin Cubillan,2,2,13,3,0,0,1,89,31,15,4,12,22,1,1,1,0,130,3,16,1,1,3
cunnawi01,Will Cunnane,2,2,16,3,0,0,1,99,34,17,4,12,26,1,1,1,0,143,5,18,1,1,3
daiglca01,Casey Daigle,5,5,31,12,0,0,2,261,95,50,12,36,55,3,3,4,1,386,7,54,4,2,8
damicje01,Jeff D'Amico,5,7,26,14,1,0,1,278,103,51,13,27,60,3,2,3,0,405,4,56,4,3,8
darenvi01,Vic Darensbourg,1,2,14,3,0,0,1,84,31,15,4,11,20,1,1,1,0,124,4,16,1,1,2
davisdo02,Doug Davis,10,10,42,24,1,0,2,505,163,70,16,64,126,3,4,6,1,722,6,77,8,5,16
davisja02,Jason Davis,5,8,36,18,0,0,1,382,141,68,16,47,81,3,6,5,1,562,6,77,6,3,11
dawlejo01,Joey Dawley,3,3,27,7,0,0,2,192,67,35,9,25,49,2,2,3,0,281,8,37,2,2,5
dayza01,Zach Day,8,9,37,19,1,1,2,399,133,62,14,53,79,5,7,6,0,575,6,66,4,3,15
dejeami01,Mike DeJean,2,2,20,3,0,0,3,110,37,16,4,14,29,2,2,2,0,159,9,18,2,1,3
delarjo01,Jorge De La Rosa,4,5,29,9,0,0,2,220,78,38,8,30,49,2,3,3,0,325,7,43,3,3,6
delosva01,Valerio De Los Santos,2,2,17,3,0,0,1,93,31,15,3,13,23,1,2,1,0,135,4,17,1,1,3
dempsry01,Ryan Dempster,2,3,18,6,0,0,1,142,50,27,6,22,35,1,1,2,0,211,4,29,2,1,5
denneky01,Kyle Denney,4,4,27,9,0,0,2,205,77,38,9,26,51,2,2,3,0,304,7,40,3,2,5
depaujo01,Jorge De Paula,2,2,18,5,0,0,1,128,42,20,6,16,30,1,1,2,0,183,5,22,2,2,4
desseel01,Elmer Dessens,3,3,17,8,0,0,1,163,58,26,7,19,37,2,1,2,0,236,3,29,2,1,5
diazfe01,Felix Diaz,3,4,26,8,0,0,1,194,70,36,10,23,46,2,2,3,0,285,6,39,3,3,5
dickera01,R. A. Dickey,7,7,37,13,0,0,2,328,125,60,15,37,75,3,4,5,1,485,7,67,4,3,9
dinarle01,Lenny DiNardo,2,2,19,4,0,0,1,119,42,19,4,15,29,1,1,2,0,174,5,22,2,1,3
dingmcr01,Craig Dingman,2,2,19,4,0,0,1,118,41,21,5,17,28,2,1,2,0,174,5,23,2,1,3
dohmasc01,Scott Dohmann,2,3,26,4,0,0,1,146,48,24,7,19,40,1,2,2,0,210,7,25,2,2,3
dominju01,Juan Dominguez,4,5,29,9,0,0,2,225,77,38,10,28,54,2,2,3,1,325,7,41,3,3,8
donnebr01,Brendan Donnelly,3,2,33,3,0,0,1,158,48,20,5,19,49,1,1,2,0,223,8,22,2,2,3
doteloc01,Octavio Dotel,4,3,38,3,0,0,6,176,50,24,7,21,58,2,2,3,0,244,15,25,2,2,4
douglse01,Sean Douglass,2,3,21,6,0,0,1,161,55,31,8,25,41,2,2,2,0,238,5,33,2,2,5
downssc01,Scott Downs,5,6,32,13,1,1,2,275,101,49,13,35,64,3,3,4,1,404,7,56,3,2,9
dreifda01,Darren Dreifort,3,3,30,5,0,0,1,167,54,27,6,25,51,2,3,1,0,243,6,29,3,2,4
dresery01,Ryan Drese,10,9,43,25,1,0,2,502,188,88,17,58,99,4,4,9,0,736,6,95,5,5,18
drewti01,Tim Drew,2,2,16,3,0,0,1,103,36,18,4,13,24,1,1,1,0,150,5,20,2,1,3
drisktr01,Travis Driskill,2,2,13,3,0,0,1,100,37,18,4,11,23,1,1,1,0,147,3,19,1,1,3
duboser01,Eric DuBose,5,7,33,14,0,0,2,314,103,57,13,45,71,2,4,5,1,456,7,60,3,3,9
duchsju01,Justin Duchscherer,5,4,35,5,0,0,1,226,73,33,10,26,52,3,2,4,0,320,10,35,4,2,6
duckwbr01,Brandon Duckworth,3,4,23,10,0,0,1,195,70,36,10,26,50,2,3,3,0,289,5,39,4,2,5
dunnsc01,Scott Dunn,1,1,12,3,0,0,1,80,28,14,3,10,20,1,1,1,0,117,3,15,1,1,2
durbich01,Chad Durbin,2,2,13,3,0,0,1,92,33,17,4,13,23,1,2,1,0,137,3,19,1,1,3
durbijd01,J. D. Durbin,2,2,16,4,0,0,1,116,41,20,5,15,29,1,1,2,0,170,4,21,1,1,4
eatonad01,Adam Eaton,10,11,43,27,0,0,2,537,179,88,23,59,137,4,6,8,0,769,6,97,8,6,13
eischjo01,Joey Eischen,2,2,27,3,0,0,1,116,39,17,4,14,30,2,2,2,0,166,6,20,2,1,4
elartsc01,Scott Elarton,6,7,37,18,1,1,2,372,127,65,22,46,83,4,4,5,0,541,6,71,4,5,9
eldreca01,Cal Eldred,4,3,38,4,0,0,3,190,64,29,9,23,51,2,3,2,0,273,9,32,4,2,6
embreal01,Alan Embree,3,3,43,4,0,0,1,167,54,26,7,18,43,2,1,2,0,235,9,29,2,2,5
ennisjo01,John Ennis,2,2,15,3,0,0,1,101,35,18,4,12,25,1,1,1,0,147,4,20,1,1,3
ericksc01,Scott Erickson,3,5,23,9,0,0,1,203,73,37,8,29,43,2,2,3,0,300,5,40,2,3,7
escobke01,Kelvim Escobar,11,10,53,24,0,0,7,547,179,85,19,72,158,4,8,8,0,787,17,89,5,5,14
estessh01,Shawn Estes,11,9,44,27,1,0,2,524,193,105,24,84,113,4,5,7,1,780,6,112,10,7,26
estrele01,Leo Estrella,2,2,17,3,0,0,1,97,35,16,4,12,21,1,1,1,0,141,5,17,1,1,3
eyresc01,Scott Eyre,3,3,48,4,0,0,1,169,55,26,7,24,43,2,3,2,0,246,8,28,2,2,4
falkebr01,Brian Falkenborg,2,2,14,3,0,0,1,98,34,17,4,13,24,1,1,2,0,144,3,19,2,1,3
farnsky01,Kyle Farnsworth,4,4,48,4,0,0,1,198,64,33,8,28,62,2,2,2,0,286,13,36,3,2,5
fasseje01,Jeff Fassero,2,2,17,3,0,0,1,96,34,17,5,12,23,1,1,1,0,140,4,18,1,1,3
felicpe01,Pedro Feliciano,2,2,20,3,0,0,1,117,39,19,5,16,30,1,2,2,0,171,5,21,1,1,4
fernaja01,Jared Fernandez,3,3,18,6,0,0,1,139,49,24,5,18,32,2,2,2,0,203,4,26,2,2,4
fettemi01,Mike Fetters,2,2,19,3,0,0,1,101,35,18,4,14,25,2,2,2,0,149,5,20,1,1,3
fieldna01,Nate Field,3,3,28,4,0,0,2,148,49,24,6,20,36,2,2,2,0,214,11,27,2,2,4
figuene01,Nelson Figueroa,2,3,20,6,0,0,1,159,54,27,8,20,34,2,3,2,0,228,4,29,3,2,5
fikacje01,Jeremy Fikac,2,3,21,3,0,0,1,117,40,20,6,16,30,2,1,2,0,171,5,22,2,1,4
filebo01,Bob File,2,2,20,4,0,0,1,126,46,22,5,16,29,2,1,2,0,185,5,23,1,2,5
florera01,Randy Flores,2,2,16,4,0,0,1,107,37,17,4,13,25,1,1,2,0,155,4,19,2,1,4
floydga01,Gavin Floyd,4,3,25,8,0,0,2,195,65,31,7,26,49,2,2,4,1,284,6,33,3,2,6
foggjo01,Josh Fogg,10,9,41,26,0,0,1,490,175,85,20,57,92,6,4,8,1,708,5,91,7,5,19
foppeje01,Jesse Foppert,2,2,13,5,0,0,1,112,37,19,5,17,30,1,2,1,0,165,3,21,2,2,3
fordbe01,Ben Ford,2,2,17,4,0,0,1,111,38,19,5,14,26,1,1,2,0,161,5,21,1,1,3
fortuba01,Bartolome Fortunato,2,2,16,3,0,0,1,102,34,17,4,14,26,1,1,1,0,148,4,18,1,1,3
fossuca01,Casey Fossum,7,10,43,21,0,0,2,422,154,83,22,56,112,4,5,8,1,624,8,92,6,4,11
foulkke01,Keith Foulke,5,3,49,4,0,0,17,223,64,27,8,20,63,3,2,4,0,307,32,29,2,2,4
foxch02,Chad Fox,2,2,16,3,0,0,1,97,31,16,4,14,27,1,2,1,0,140,3,17,2,1,3
francfr01,Frank Francisco,3,2,28,4,0,0,1,155,48,24,6,22,44,2,2,2,0,222,6,25,2,1,4
francje01,Jeff Francis,5,4,30,10,0,0,2,242,85,41,12,30,62,2,3,3,0,352,7,44,3,2,7
francjo01,John Franco,2,4,32,4,0,0,1,147,50,24,6,20,35,2,2,2,0,214,9,26,2,2,5
frankry01,Ryan Franklin,7,12,43,25,1,1,1,539,186,87,27,55,101,3,2,8,2,768,6,94,5,7,15
frankwa01,Wayne Franklin,4,4,27,9,0,0,1,213,73,40,11,31,49,2,1,3,1,313,5,43,4,2,6
frasoja01,Jason Frasor,3,4,35,4,0,0,6,179,59,29,6,25,45,2,2,2,1,259,15,30,2,2,5
fredeke01,Kevin Frederick,2,2,19,4,0,0,1,118,41,22,5,16,29,1,1,2,0,173,5,23,1,2,3
fuentbr01,Brian Fuentes,3,3,37,4,0,0,2,164,54,26,6,22,49,3,2,3,0,238,10,28,3,2,4
fultzaa01,Aaron Fultz,3,3,39,4,0,0,1,169,59,29,7,22,42,3,2,2,0,245,9,31,2,2,5
gagneer01,Eric Gagne,4,3,50,4,0,0,25,223,58,25,6,23,85,2,2,3,0,303,35,28,3,2,4
gallomi01,Mike Gallo,3,2,38,4,0,0,1,159,55,26,8,20,37,3,2,3,0,231,6,28,2,2,5
garcifr02,Freddy Garcia,9,7,31,19,0,0,1,395,130,65,18,44,105,3,5,6,0,563,4,69,4,4,12
garcija01,Santiago Casilla,2,2,12,3,0,0,1,86,29,15,4,12,21,1,1,1,0,125,3,16,1,1,2
garciro01,Rosman Garcia,2,2,18,3,0,0,1,101,37,18,4,14,24,1,1,1,0,150,4,19,1,1,3
garlajo01,Jon Garland,11,11,43,28,1,0,1,570,192,98,27,71,112,3,5,5,0,813,5,106,6,6,20
gaudich01,Chad Gaudin,3,3,26,6,0,0,1,174,63,28,7,22,41,2,1,3,0,256,6,32,2,3,5
gearyge01,Geoff Geary,2,2,24,4,0,0,1,144,51,25,6,18,34,2,2,2,0,210,8,27,2,2,4
georgch02,Chris George,5,5,26,12,0,0,1,244,95,51,11,35,47,2,3,3,1,369,5,55,2,3,8
germafr01,Franklyn German,2,2,22,3,0,0,2,113,39,20,5,19,28,2,2,2,0,169,6,23,2,1,3
germaju01,Justin Germano,3,4,25,8,0,0,2,189,68,35,8,26,46,2,2,2,0,279,6,39,3,2,6
gintema01,Matt Ginter,4,4,35,12,0,0,2,280,100,47,11,32,62,4,3,5,0,410,8,53,4,2,9
gissech01,Chris Gissell,2,2,16,4,0,0,1,110,40,21,5,14,28,1,1,1,0,162,4,22,2,1,3
glavito02,Tom Glavine,10,11,41,27,1,1,1,537,180,78,19,63,101,7,2,3,0,766,5,85,9,6,17
glovega01,Gary Glover,4,3,25,7,0,0,1,189,65,32,8,23,41,2,2,3,0,275,7,35,3,2,4
glynnry01,Ryan Glynn,3,2,19,5,0,0,1,139,47,23,6,17,34,2,1,3,0,202,4,24,2,2,4
gobblji01,Jimmy Gobble,9,8,39,20,1,0,2,426,148,77,21,46,76,2,4,5,0,615,7,84,4,6,10
gonzadi01,Dicky Gonzalez,2,2,12,3,0,0,1,87,30,15,4,11,22,1,1,1,0,126,3,16,1,1,3
gonzaed01,Edgar Gonzalez,4,8,33,12,0,0,2,266,104,55,15,33,64,4,4,5,1,398,7,58,5,3,11
gonzaje01,Geremi Gonzalez,4,6,27,13,1,0,1,273,93,47,12,36,59,2,3,5,1,398,5,51,3,4,7
gonzami02,Mike Gonzalez,3,2,30,4,0,0,1,144,46,20,6,16,41,1,2,2,0,204,7,22,2,1,4
goodan01,Andrew Good,3,3,22,6,0,0,1,171,60,30,9,19,40,2,2,3,0,248,5,33,2,2,4
gordoto01,Tom Gordon,6,4,49,4,0,0,4,225,64,29,7,26,70,3,3,3,0,311,14,31,4,2,6
goslimi01,Mike Gosling,3,3,24,7,0,0,2,187,64,31,9,25,44,2,3,3,0,272,6,33,3,2,6
grabojo02,John Grabow,3,4,36,4,0,0,1,171,63,29,7,22,48,3,3,2,0,253,7,32,3,1,5
gracefr01,Frank Gracesqui,1,2,13,3,0,0,1,82,28,14,3,11,20,1,1,2,0,120,4,15,1,1,2
gramaal01,Alex Graman,3,3,22,6,0,0,1,153,55,28,7,19,38,2,2,2,0,225,6,30,2,2,5
graveda01,Danny Graves,3,5,36,7,0,0,12,226,83,38,11,21,43,4,2,3,0,326,20,42,2,2,8
greggke01,Kevin Gregg,4,3,35,5,0,0,1,216,71,34,8,25,58,2,5,3,0,310,11,37,3,3,5
greinza01,Zack Greinke,8,9,40,19,0,0,2,414,139,64,21,38,98,4,3,7,1,584,7,67,4,3,10
greisse01,Seth Greisinger,4,5,27,10,0,0,2,230,85,42,12,27,54,2,2,3,0,337,6,47,3,3,7
griffje01,Jeremy Griffiths,3,4,26,8,0,0,2,201,72,37,9,26,49,2,2,3,0,297,6,40,3,2,6
grillja01,Jason Grilli,4,5,30,11,1,0,2,248,87,47,13,32,57,2,3,4,0,361,7,50,3,2,7
grimsja01,Jason Grimsley,2,4,34,3,0,0,1,148,51,25,5,21,36,3,2,2,0,219,6,28,2,2,4
groombu01,Buddy Groom,3,3,40,3,0,0,1,162,58,26,7,18,38,2,1,2,0,235,12,28,1,2,4
gryboke01,Kevin Gryboski,4,3,43,4,0,0,1,163,56,24,5,24,36,3,3,2,0,236,8,27,2,1,7
guarded01,Eddie Guardado,3,3,35,3,0,0,14,160,48,22,7,17,45,1,2,2,0,222,24,23,2,2,3
guerrma02,Matt Guerrier,2,2,18,5,0,0,1,128,44,22,6,16,31,1,1,2,0,186,5,24,2,1,3
guthrje01,Jeremy Guthrie,2,2,13,3,0,0,1,94,31,16,4,12,23,1,1,1,0,136,4,17,1,1,3
halamjo01,John Halama,6,6,37,12,0,0,1,325,117,53,15,34,65,3,2,5,1,472,9,60,4,3,11
hallaro01,Roy Halladay,11,7,33,21,2,1,1,462,153,64,15,39,113,2,3,4,1,643,4,71,4,3,15
halsebr01,Brad Halsey,4,5,28,10,0,0,2,221,79,40,9,28,55,2,2,3,0,326,6,43,3,3,6
hammoch01,Chris Hammond,3,2,35,3,0,0,1,169,56,22,5,18,41,2,1,2,0,240,8,25,3,2,5
hamptmi01,Mike Hampton,11,9,39,25,1,0,1,490,177,80,16,65,94,4,6,3,1,719,5,87,7,4,17
hancojo01,Josh Hancock,5,4,29,10,0,0,2,239,83,39,13,31,56,3,4,3,0,351,7,44,4,3,6
haranaa01,Aaron Harang,9,8,40,23,1,1,2,441,155,77,20,52,109,4,6,5,0,642,6,81,9,5,10
harderi01,Rich Harden,10,8,44,24,0,0,2,502,160,78,16,70,139,5,6,4,1,717,7,84,5,5,17
harenda01,Dan Haren,4,5,24,9,0,0,1,208,72,35,8,25,48,2,2,3,0,301,5,38,4,2,7
harikti01,Tim Harikkala,4,4,31,4,0,0,1,166,54,28,8,21,36,3,1,2,0,238,7,30,2,2,4
harpetr01,Travis Harper,4,4,39,4,0,0,1,221,72,35,9,25,53,3,3,5,0,316,10,38,4,2,7
harvich01,Chad Harville,3,3,33,4,0,0,1,161,55,28,7,23,42,2,3,2,0,237,8,31,2,1,6
hasegsh01,Shigetoshi Hasegawa,4,4,43,4,0,0,3,194,63,29,6,24,42,3,1,2,0,275,15,31,3,2,7
hawkila01,LaTroy Hawkins,5,3,50,4,0,0,7,219,68,27,8,20,59,3,3,2,0,303,19,30,4,2,5
hayneji01,Jimmy Haynes,3,5,21,11,0,0,1,207,78,39,9,30,45,2,2,3,0,309,4,42,4,2,7
heilmaa01,Aaron Heilman,4,6,28,11,0,0,2,244,86,46,12,36,61,2,3,3,0,361,6,49,4,2,9
hendrbe01,Ben Hendrickson,4,7,30,11,0,0,2,246,89,45,10,32,58,2,2,4,0,362,7,48,3,3,9
hendrma01,Mark Hendrickson,9,11,43,25,1,0,2,493,187,88,20,48,92,5,5,5,1,718,6,99,4,6,16
hennebr01,Brad Hennessey,4,4,30,10,0,0,2,237,84,40,9,30,58,2,3,3,0,349,7,45,4,2,6
henslma01,Matt Hensley,2,2,17,4,0,0,1,118,41,20,5,14,31,1,1,2,0,171,7,21,2,1,3
hentgpa01,Pat Hentgen,5,8,32,16,0,0,2,329,113,61,17,45,67,2,3,4,0,480,6,65,3,5,8
heredfe01,Felix Heredia,2,2,29,3,0,0,1,137,47,23,6,19,31,1,2,2,0,201,7,26,2,1,4
hergema01,Matt Herges,3,3,40,4,0,0,7,180,67,29,7,21,43,3,2,2,0,264,16,33,4,2,7
hermadu01,Dustin Hermanson,5,6,40,13,0,0,7,320,109,53,13,37,80,4,4,4,0,461,15,57,4,4,8
hernaad01,Adrian Hernandez,2,2,16,4,0,0,1,116,41,21,5,17,29,1,2,1,0,172,4,23,2,1,3
hernaca03,Carlos Hernandez,4,5,28,12,0,0,2,249,87,44,12,36,61,2,2,5,0,368,6,47,4,3,7
hernali01,Livan Hernandez,11,12,43,28,6,1,1,631,204,88,23,66,153,6,3,8,1,882,5,94,9,5,20
hernaor01,Orlando Hernandez,7,4,29,14,0,0,2,297,94,43,12,36,81,2,4,5,0,423,6,46,2,3,6
hernaro01,Roberto Hernandez,3,4,41,4,0,0,3,172,61,29,8,26,43,3,2,2,0,255,11,33,4,1,5
hillsh01,Shawn Hill,4,4,27,8,0,0,2,199,71,38,8,26,50,2,2,3,0,294,7,41,2,3,5
hitchst01,Sterling Hitchcock,4,4,27,9,0,0,1,220,76,38,11,27,55,2,3,3,0,320,7,41,3,2,6
hoffmtr01,Trevor Hoffman,3,3,33,4,0,0,14,155,49,21,6,16,44,1,2,1,0,217,21,23,2,1,4
horgajo01,Joe Horgan,3,2,27,4,0,0,2,136,45,21,6,19,33,2,1,2,0,198,7,23,2,1,4
howarbe01,Ben Howard,2,3,22,5,0,0,1,144,48,25,7,21,37,2,2,2,0,210,5,27,2,2,4
howrybo01,Bob Howry,3,3,25,4,0,0,1,139,47,22,6,16,36,1,1,2,0,201,6,24,2,2,3
hudsolu01,Luke Hudson,5,4,30,11,0,0,2,254,80,37,9,35,64,2,5,4,0,365,7,41,3,3,7
hudsoti01,Tim Hudson,11,7,37,24,2,1,1,533,171,68,13,49,114,5,5,9,1,743,5,76,7,4,20
hughetr01,Travis Hughes,1,1,11,3,0,0,1,78,27,13,3,10,20,1,1,1,0,113,3,14,1,1,2
huismju01,Justin Huisman,2,2,17,4,0,0,1,115,41,20,5,14,27,2,1,2,0,167,4,22,1,1,4
ishiika01,Kazuhisa Ishii,11,8,40,26,1,1,1,478,148,78,19,87,118,3,6,5,1,699,5,85,7,5,14
isrinja01,Jason Isringhausen,3,3,45,4,0,0,19,198,58,26,6,23,56,2,2,2,0,278,30,30,3,2,4
jacksed01,Edwin Jackson,4,3,25,8,0,0,1,192,66,33,9,25,47,2,2,2,0,279,6,35,3,2,6
jacksmi02,Michael Jackson,2,2,28,4,0,0,1,140,50,23,6,16,31,2,1,2,1,203,7,25,2,2,4
jarvike01,Kevin Jarvis,2,2,12,5,0,0,1,103,38,19,5,13,23,2,1,1,0,152,2,21,1,1,3
jennija01,Jason Jennings,11,11,43,28,0,0,1,542,205,101,23,81,123,8,6,7,1,811,5,107,9,4,18
jimenjo01,Jose Jimenez,2,5,31,4,0,0,8,159,60,30,6,18,33,2,1,3,0,235,16,32,2,1,5
johnsja02,Jason Johnson,8,12,42,27,1,0,1,527,193,91,21,62,117,5,6,7,1,771,5,99,3,6,18
johnsmi03,Mike Johnston,2,2,19,4,0,0,1,111,39,18,4,15,27,1,1,2,0,163,5,21,1,1,4
johnsra05,Randy Johnson,12,10,40,25,3,1,1,560,160,67,19,47,200,3,3,9,1,763,5,78,6,4,9
jonesbo04,Bobby Jones,1,2,11,3,0,0,1,79,27,13,3,11,19,1,1,1,0,116,3,14,1,1,2
jonesto02,Todd Jones,2,2,24,3,0,0,1,119,42,20,5,15,32,2,1,2,0,175,6,22,2,1,3
juliojo01,Jorge Julio,3,5,46,4,0,0,14,201,64,32,9,30,55,3,4,3,0,292,29,35,2,2,5
karsast01,Steve Karsay,2,1,15,2,0,0,1,84,28,13,3,10,20,1,1,1,0,121,5,14,1,1,2
kazmisc01,Scott Kazmir,4,5,29,10,0,0,2,227,77,39,9,32,63,2,3,3,0,332,7,42,2,2,7
kennejo04,Joe Kennedy,7,9,40,23,1,0,2,472,167,79,19,58,106,6,4,9,0,690,7,86,5,6,15
kensilo01,Logan Kensing,3,4,23,7,0,0,1,164,58,30,8,22,39,2,2,2,0,240,6,32,2,2,5
kershja01,Jason Kershner,2,2,25,4,0,0,1,133,45,22,5,16,31,1,2,2,0,192,5,23,2,1,4
kidama01,Masao Kida,2,2,13,3,0,0,1,91,32,16,4,11,22,1,1,1,0,133,3,17,1,1,3
kimby01,Byung-Hyun Kim,4,3,30,5,0,0,7,173,55,26,6,19,45,2,2,4,0,247,15,30,2,2,4
kimsu01,Sun-Woo Kim,5,5,39,13,0,0,2,326,116,55,14,43,73,6,4,8,0,479,7,61,4,3,12
kingra01,Ray King,4,3,52,4,0,0,1,185,55,26,5,24,44,2,2,2,0,260,8,29,2,2,6
kinnema01,Matt Kinney,3,3,16,7,0,0,1,157,56,29,7,21,41,1,3,2,0,232,3,31,2,2,4
klinest02,Steve Kline,3,3,44,3,0,0,2,168,52,23,6,21,38,3,2,3,0,237,13,25,2,2,6
knottga01,Gary Knotts,6,7,41,16,0,0,2,364,127,68,17,51,78,3,6,5,0,537,8,73,4,3,10
kochbi01,Billy Koch,3,3,27,3,0,0,5,129,42,21,5,20,35,1,2,1,0,188,16,22,2,1,4
kolbda01,Danny Kolb,2,4,39,4,0,0,14,173,55,24,5,21,38,2,2,2,0,247,21,27,2,1,6
koplomi01,Mike Koplove,4,3,46,4,0,0,2,216,70,32,7,27,51,4,3,4,0,309,13,35,4,2,8
kroonma01,Marc Kroon,1,1,12,3,0,0,1,83,29,14,4,12,20,1,1,1,0,122,3,15,1,1,3
lackejo01,John Lackey,11,12,42,27,1,1,1,542,193,91,22,59,131,4,9,8,1,781,5,99,6,5,14
lawrebr02,Brian Lawrence,11,12,41,27,1,1,1,548,192,84,22,54,116,6,3,8,0,780,5,92,9,6,20
leagubr01,Brandon League,2,2,12,3,0,0,1,85,29,14,3,10,21,1,1,1,0,123,3,15,1,1,2
ledezwi01,Wil Ledezma,5,5,31,9,0,0,1,243,86,43,9,30,53,2,3,3,0,352,8,45,2,3,9
leecl02,Cliff Lee,10,8,43,24,0,0,2,470,158,84,23,65,129,3,6,8,0,685,7,91,4,5,12
leeda01,David Lee,2,1,13,3,0,0,1,83,28,14,3,11,21,1,1,1,0,122,3,16,1,1,2
lehrju01,Justin Lehr,2,2,21,4,0,0,1,125,43,21,5,16,29,2,2,2,0,181,6,23,2,2,4
leicejo01,Jon Leicester,3,2,23,4,0,0,1,140,47,22,6,17,35,1,1,2,0,201,5,24,2,2,5
leiteal01,Al Leiter,10,8,38,24,1,0,1,478,147,67,16,75,117,7,3,8,1,692,5,72,8,3,13
leskacu01,Curt Leskanic,3,2,24,3,0,0,2,121,39,18,5,16,31,2,1,2,0,173,8,20,2,2,4
levinal01,Al Levine,3,3,38,4,0,0,2,183,65,29,8,23,37,2,2,2,0,267,10,32,2,2,6
lewisco01,Colby Lewis,5,5,27,12,0,0,1,245,91,50,11,39,59,2,3,4,0,368,5,52,2,2,8
lidgebr01,Brad Lidge,5,4,53,4,0,0,9,242,67,31,8,31,90,4,3,4,1,336,18,33,3,2,6
lidleco01,Cory Lidle,6,6,27,16,1,1,1,327,112,57,12,34,68,2,3,5,0,466,4,61,3,3,11
liebejo01,Jon Lieber,10,7,37,20,1,0,2,437,164,69,17,30,94,3,5,3,0,621,6,77,5,5,13
ligteke01,Kerry Ligtenberg,3,4,40,4,0,0,2,173,61,29,7,22,45,3,2,2,0,253,13,31,2,1,4
lillyte01,Ted Lilly,11,9,43,27,1,0,2,530,168,83,23,69,143,3,5,6,3,761,6,88,4,4,11
limajo01,Jose Lima,10,6,40,19,0,0,1,417,147,70,22,40,83,4,4,4,1,592,7,74,6,3,15
lincomi01,Mike Lincoln,2,2,21,3,0,0,1,112,37,18,4,14,28,1,1,1,0,160,5,20,1,2,4
linebsc01,Scott Linebrink,4,3,45,4,0,0,1,219,67,29,8,26,61,3,3,3,0,307,7,32,2,3,7
liriape01,Pedro Liriano,2,2,15,3,0,0,1,101,34,16,4,12,24,1,1,2,0,146,3,18,1,1,3
loaizes01,Esteban Loaiza,6,4,23,12,0,0,1,265,92,44,10,30,70,2,2,4,0,383,4,47,2,4,6
loeka01,Kameron Loe,3,2,19,5,0,0,1,142,48,24,6,19,34,1,1,2,0,205,5,26,2,1,5
lohseky01,Kyle Lohse,10,10,42,28,1,1,1,535,197,95,25,61,115,4,7,7,0,782,5,103,6,5,13
loopebr01,Braden Looper,4,4,50,4,0,0,14,223,75,31,7,23,53,2,2,2,0,316,32,33,3,2,8
lopezaq01,Aquilino Lopez,2,2,25,3,0,0,3,128,41,21,5,18,32,2,1,2,0,186,9,23,1,1,3
lopezja02,Javier Lopez,3,2,41,4,0,0,1,154,53,28,5,20,35,2,2,3,1,224,8,29,2,1,5
lopezro01,Rodrigo Lopez,10,8,38,20,1,1,1,439,151,70,19,48,104,4,3,5,1,627,6,74,4,4,12
lowede01,Derek Lowe,13,9,40,26,0,0,1,510,181,86,15,60,104,3,4,8,0,743,5,99,6,4,20
lowryno01,Noah Lowry,6,3,34,13,1,1,2,314,104,48,12,36,79,2,3,3,0,446,8,51,3,2,10
macdomi01,Mike MacDougal,2,2,23,3,0,0,4,112,39,18,4,16,30,1,2,2,0,165,12,21,1,1,4
maddugr01,Greg Maddux,13,9,41,27,1,0,1,548,186,80,24,39,121,5,3,7,0,761,5,89,9,6,16
madribo01,Bobby Madritsch,6,4,30,11,1,0,2,284,90,42,9,35,68,3,3,4,1,401,8,45,4,2,10
madsory01,Ryan Madson,5,3,34,5,0,0,2,198,64,27,7,21,48,3,4,3,0,279,9,30,2,2,7
mahayro01,Ron Mahay,3,2,37,4,0,0,1,186,59,26,7,25,48,4,2,2,0,268,8,30,2,1,4
mainejo01,John Maine,3,4,26,7,0,0,2,191,67,32,8,24,46,2,3,3,0,278,7,35,2,2,6
majewga01,Gary Majewski,2,2,17,4,0,0,1,109,39,18,4,13,26,1,1,2,0,159,5,20,1,1,4
malasma01,Mark Malaska,2,2,20,3,0,0,1,111,38,18,4,16,27,2,1,2,0,162,5,20,2,1,4
mantema01,Matt Mantei,2,3,21,3,0,0,5,107,35,18,5,13,31,1,1,1,0,154,10,19,1,1,2
manzajo01,Josias Manzanillo,2,3,21,4,0,0,1,123,45,23,7,16,31,1,1,2,0,183,5,26,2,1,3
marotmi01,Mike Maroth,10,14,43,28,1,0,1,567,210,99,24,56,103,3,7,7,1,815,5,106,8,5,21
marquja01,Jason Marquis,10,7,46,23,0,0,2,500,176,78,21,62,115,3,5,8,0,727,9,84,5,5,16
marsosa01,Sam Marsonek,1,1,11,3,0,0,1,78,27,13,3,10,19,1,1,1,0,113,3,14,1,1,2
marteda01,Damaso Marte,4,3,49,4,0,0,5,209,60,27,8,28,61,3,2,3,0,291,15,29,2,3,7
martian01,Anastacio Martinez,2,2,14,3,0,0,1,92,32,16,4,12,22,1,1,1,0,134,5,17,1,1,2
martipe02,Pedro Martinez,13,7,41,26,1,0,1,553,162,71,18,53,184,2,4,11,0,764,5,77,5,6,10
martito02,Tom Martin,2,2,28,3,0,0,1,114,37,18,5,15,30,2,1,1,0,163,5,19,2,2,3
mateoju01,Julio Mateo,3,2,34,4,0,0,1,188,60,29,9,19,48,2,2,4,0,267,9,31,2,3,5
matthmi01,Mike Matthews,3,2,31,3,0,0,1,138,47,24,6,19,32,2,2,2,0,202,7,26,2,2,5
maureda01,Dave Maurer,1,1,11,3,0,0,1,77,27,14,3,10,19,1,1,1,0,113,3,15,1,1,2
mayda02,Darrell May,8,12,41,25,2,1,1,516,188,91,29,54,112,3,4,3,0,746,6,101,4,6,12
mcconsa02,Sam McConnell,2,2,14,3,0,0,1,89,31,14,3,11,21,1,1,1,0,129,3,16,1,1,2
mcleama01,Marty McLeary,1,1,11,3,0,0,1,80,28,14,4,10,20,1,1,1,0,116,3,15,1,1,2
meadobr01,Brian Meadows,3,4,38,6,0,0,1,214,74,33,8,20,45,4,3,2,0,305,9,38,3,2,6
mechegi01,Gil Meche,9,9,38,22,1,0,1,433,150,75,22,52,106,2,5,5,0,624,6,78,3,4,11
mecirji01,Jim Mecir,2,4,38,3,0,0,2,155,52,25,6,20,41,2,2,3,0,226,9,27,2,2,4
mendora01,Ramiro Mendoza,3,3,25,4,0,0,1,139,51,24,6,15,30,2,1,2,0,201,7,26,1,2,4
merckke01,Kent Mercker,3,2,38,4,0,0,1,156,50,23,6,22,41,2,2,2,0,225,7,24,1,2,4
mesajo01,Jose Mesa,4,4,45,4,0,0,18,191,67,30,7,25,44,3,2,2,0,278,31,32,3,2,7
meyerda02,Dan Meyer,1,1,11,3,0,0,1,80,27,13,3,10,20,1,1,1,0,116,3,14,1,1,3
micelda01,Dan Miceli,4,4,41,4,0,0,2,197,64,29,8,23,55,5,3,2,0,282,10,32,3,2,6
milleju01,Justin Miller,5,5,31,14,0,0,1,282,102,53,13,43,63,3,4,5,1,419,6,58,3,5,11
millema02,Matt Miller,3,2,31,4,0,0,1,157,50,23,5,20,43,3,1,3,0,223,8,26,2,1,6
milletr02,Trever Miller,2,2,42,4,0,0,2,163,54,25,6,21,42,3,2,3,0,235,10,28,2,1,5
millewa04,Wade Miller,9,7,31,19,0,0,1,369,115,54,13,51,100,2,3,4,0,528,5,59,6,4,9
millwke01,Kevin Millwood,10,7,36,23,1,1,1,455,151,72,15,51,121,5,3,6,0,652,5,76,8,3,12
miltoer01,Eric Milton,11,7,41,24,0,0,2,485,161,83,28,54,122,4,4,3,0,691,6,87,7,5,11
mitrese01,Sergio Mitre,4,5,29,11,0,0,2,241,91,46,10,30,58,2,4,4,1,358,7,48,3,2,8
morenor01,Orber Moreno,3,2,23,4,0,0,1,130,43,21,4,16,33,1,2,2,0,187,6,23,2,1,3
morrima01,Matt Morris,12,9,40,26,2,2,1,531,177,84,24,52,125,3,4,6,1,747,5,91,8,5,19
mossda01,Damian Moss,2,3,16,7,0,0,1,144,49,26,7,21,32,1,2,3,0,211,4,29,2,1,4
motagu01,Guillermo Mota,3,3,29,3,0,0,2,156,46,22,5,17,43,2,1,2,0,216,7,23,2,1,4
moyerja01,Jamie Moyer,10,9,39,25,1,0,1,522,173,82,26,54,112,3,2,8,0,743,5,89,6,5,13
muldema01,Mark Mulder,14,8,41,26,4,1,1,578,188,86,21,62,131,3,7,8,0,808,5,92,7,4,23
mulhote01,Terry Mulholland,5,6,41,10,0,0,1,317,124,56,15,35,61,4,2,5,0,467,11,61,4,5,12
munozar01,Arnie Munoz,2,2,16,4,0,0,1,110,39,20,5,15,27,1,2,2,0,162,4,22,2,2,3
munrope01,Peter Munro,6,7,41,15,0,0,1,335,124,57,13,38,73,3,3,8,0,492,8,61,7,3,10
mussimi01,Mike Mussina,11,8,36,23,1,0,1,480,159,74,19,41,131,3,4,4,0,667,5,79,4,4,11
myersbr01,Brett Myers,11,10,42,26,1,1,1,511,182,91,24,63,118,5,6,7,0,746,6,97,7,4,16
myersmi01,Mike Myers,2,2,28,3,0,0,1,106,36,18,4,14,25,1,1,2,0,156,7,19,1,1,3
myersro01,Rodney Myers,1,1,11,3,0,0,1,79,27,13,3,10,19,1,1,1,0,115,3,15,1,1,3
myettaa01,Aaron Myette,1,2,12,3,0,0,1,83,29,16,4,13,21,1,1,2,0,124,3,18,1,1,2
nageocl01,Clint Nageotte,3,5,24,7,0,0,1,178,64,33,7,27,43,2,3,3,0,266,6,36,3,2,5
nakammi01,Micheal Nakamura,2,2,19,4,0,0,1,117,41,22,6,14,31,1,2,2,0,171,5,24,1,1,3
nancesh01,Shane Nance,2,2,19,3,0,0,1,101,37,17,5,14,26,2,1,2,0,151,4,19,1,1,3
narrosa02,Sam Narron,3,3,26,7,0,0,2,190,66,32,9,25,46,2,2,3,0,277,7,35,2,2,5
nathajo01,Joe Nathan,4,3,48,4,0,0,12,206,58,26,6,25,64,2,3,3,0,285,22,27,2,2,5
nealbl01,Blaine Neal,2,2,29,4,0,0,1,146,54,24,6,17,37,2,2,2,0,214,7,26,2,2,4
nelsoje01,Jeff Nelson,2,2,23,3,0,0,1,112,36,19,4,17,31,1,2,2,0,163,6,20,1,1,3
nelsojo01,Joe Nelson,1,1,11,3,0,0,1,79,27,14,3,10,20,1,1,1,0,115,3,15,1,1,2
neumi01,Michael Neu,1,1,15,3,0,0,1,95,32,15,4,13,22,1,1,1,0,139,6,16,1,1,3
nitkocj01,C. J. Nitkowski,2,2,17,3,0,0,1,97,35,17,4,13,24,1,1,2,0,143,4,18,1,1,3
nomohi01,Hideo Nomo,8,8,30,18,0,0,1,363,117,61,17,53,93,3,5,3,0,520,4,65,7,3,8
nortoph01,Phil Norton,3,4,38,4,0,0,1,178,60,30,6,26,43,3,2,2,0,259,8,33,3,2,6
novoaro01,Roberto Novoa,2,2,17,4,0,0,1,108,38,18,5,13,26,1,1,2,0,157,4,20,1,2,3
nunezfr01,Franklin Nunez,2,2,13,3,0,0,1,92,31,15,4,12,24,1,1,2,0,134,3,17,1,1,3
nunezvl01,Vladimir Nunez,2,3,22,3,0,0,2,116,40,22,6,16,29,1,2,1,0,170,7,23,2,2,3
obermwe01,Wes Obermueller,6,8,36,17,1,0,2,356,132,67,16,43,72,2,5,5,0,527,6,72,4,4,10
ohkato01,Tomo Ohka,6,7,31,19,1,0,1,367,134,54,15,34,75,4,4,4,0,527,4,62,6,3,11
oliveda02,Darren Oliver,4,3,18,8,0,0,1,170,60,29,7,20,36,1,1,3,0,246,3,32,2,2,6
oropeed01,Eddie Oropesa,2,2,21,3,0,0,1,99,34,19,4,16,25,2,1,1,0,146,5,21,1,1,3
ortizra01,Ramon Ortiz,7,7,32,16,1,0,1,361,127,61,18,40,79,2,4,5,1,520,7,66,3,4,11
ortizru01,Russ Ortiz,14,8,41,27,1,1,1,547,171,82,19,86,128,6,4,4,0,790,5,88,8,6,15
osbordo01,Donovan Osborne,2,2,18,4,0,0,1,122,44,22,5,15,29,1,1,2,0,178,4,24,2,1,4
osunaan01,Antonio Osuna,3,3,29,3,0,0,2,144,48,21,5,18,40,2,1,2,0,208,8,23,2,2,3
oswalro01,Roy Oswalt,14,9,42,27,1,1,1,574,186,76,18,55,160,4,4,8,1,799,5,84,9,4,17
otsukak01,Akinori Otsuka,4,3,38,5,0,0,2,189,58,24,7,23,55,3,1,2,0,266,10,26,3,1,5
padilju01,Juan Padilla,2,2,15,3,0,0,1,97,35,18,5,13,24,1,1,1,0,143,4,19,1,1,3
padilvi01,Vicente Padilla,9,8,33,20,0,0,1,418,138,63,16,44,95,4,3,10,1,596,4,69,7,5,13
parkch01,Chan Ho Park,6,7,32,16,0,0,1,329,116,63,18,46,78,2,3,10,1,489,5,68,4,4,12
parrajo01,Jose Parra,2,2,15,3,0,0,1,95,32,15,4,12,24,1,1,1,0,137,5,16,1,1,3
parrijo01,John Parrish,4,3,36,5,0,0,1,202,64,29,7,32,53,3,3,3,0,295,10,34,2,3,7
patteda04,Danny Patterson,2,3,27,4,0,0,2,141,48,24,6,17,34,2,2,3,0,203,9,26,2,1,5
pattejo02,John Patterson,5,7,37,17,0,0,2,348,119,62,17,49,98,5,3,6,0,513,7,66,4,3,6
pavanca01,Carl Pavano,13,9,44,26,1,1,1,574,191,80,18,51,127,9,3,8,2,803,6,86,7,6,16
pearcjo01,Josh Pearce,1,1,12,3,0,0,1,82,29,14,3,10,19,1,1,1,0,119,3,15,1,1,2
peavyja01,Jake Peavy,12,8,40,25,0,0,1,503,157,67,20,61,147,4,3,8,1,713,5,73,6,5,15
pennybr01,Brad Penny,6,5,24,13,0,0,1,259,87,41,11,30,62,3,2,2,1,368,4,45,3,2,9
percitr01,Troy Percival,2,3,37,3,0,0,16,161,49,23,7,21,42,2,2,2,0,229,25,25,1,2,4
perezod01,Odalis Perez,9,8,40,26,1,0,1,536,171,76,23,47,126,4,3,4,1,736,5,81,10,4,19
perezol01,Oliver Perez,9,9,42,23,1,1,2,495,142,67,20,68,169,3,4,7,1,698,6,73,7,4,13
perisma01,Matt Perisho,3,3,32,4,0,0,1,145,49,24,6,20,37,2,1,2,0,212,8,26,2,1,4
peterad02,Adam Peterson,1,1,12,3,0,0,1,80,28,14,3,10,20,1,1,1,0,118,3,15,1,1,2
pettian01,Andy Pettitte,10,6,30,18,1,0,1,363,123,54,12,38,99,3,4,2,0,517,4,61,3,2,10
phelpto01,Tommy Phelps,3,3,24,6,0,0,1,166,57,27,7,20,41,1,1,2,0,240,6,30,2,2,5
phelptr01,Travis Phelps,1,2,13,3,0,0,1,85,29,15,4,11,21,1,1,1,0,123,3,16,1,1,2
pineijo01,Joel Pineiro,9,9,36,21,1,1,1,460,151,71,19,52,113,2,5,5,0,651,5,76,3,6,15
politcl01,Cliff Politte,2,3,38,4,0,0,3,166,55,28,7,21,45,3,2,2,0,239,11,30,2,2,4
ponsosi01,Sidney Ponson,9,11,41,25,2,1,2,524,193,92,20,59,107,4,6,6,1,756,6,98,6,4,23
potelo01,Lou Pote,1,1,12,3,0,0,1,78,26,13,3,10,19,1,1,1,0,113,3,14,1,1,2
powelbr01,Brian Powell,2,3,19,5,0,0,1,146,51,26,7,18,34,2,2,2,0,211,6,28,2,2,5
powelja04,Jay Powell,2,2,26,3,0,0,1,127,45,23,5,18,31,2,2,1,0,187,7,26,1,2,4
prattan01,Andy Pratt,1,2,12,3,0,0,1,79,27,14,3,11,19,1,1,1,0,115,3,15,1,1,2
prinzbr01,Bret Prinz,2,2,21,4,0,0,1,119,42,21,5,16,29,1,2,2,0,174,6,23,1,1,4
priorma01,Mark Prior,9,6,35,21,1,0,1,432,134,57,15,48,149,3,4,6,0,608,5,62,7,4,10
proctsc01,Scott Proctor,2,2,19,4,0,0,1,113,39,19,5,15,28,1,1,1,0,166,6,21,1,1,3
puffebr01,Brandon Puffer,2,2,18,3,0,0,1,108,38,18,4,16,25,2,1,2,0,160,6,20,2,1,3
pulidca01,Carlos Pulido,2,2,14,3,0,0,1,95,33,17,4,11,23,1,1,1,0,139,4,18,1,2,3
putzjj01,J. J. Putz,2,3,32,4,0,0,4,172,59,29,8,22,42,2,2,3,0,249,13,31,2,2,6
quallch01,Chad Qualls,3,2,20,4,0,0,1,126,43,20,5,15,31,1,1,2,0,182,5,21,1,1,3
quantpa01,Paul Quantrill,4,4,59,4,0,0,2,235,84,34,6,23,47,4,1,3,0,335,13,38,3,2,8
radkebr01,Brad Radke,11,8,42,28,1,1,1,566,201,86,23,36,121,2,2,6,0,790,5,92,7,5,14
rakeraa01,Aaron Rakers,1,1,12,3,0,0,1,82,28,13,3,10,20,1,1,1,0,119,3,15,1,1,2
ramirel01,Elizardo Ramirez,2,2,14,3,0,0,1,102,35,17,4,12,24,1,1,2,0,147,4,18,1,1,3
ramirer01,Erasmo Ramirez,3,3,26,4,0,0,1,143,48,23,6,15,33,1,1,3,0,204,6,25,2,2,4
ramirho01,Horacio Ramirez,6,5,29,15,1,0,1,320,104,46,13,43,66,5,3,3,1,460,5,53,5,2,13
randost01,Steve Randolph,4,4,40,6,0,0,1,228,72,40,10,46,58,2,3,2,1,343,8,44,3,2,5
rauchjo01,Jon Rauch,3,2,18,5,0,0,1,135,43,21,5,17,33,2,2,2,0,192,4,23,2,1,4
redditi01,Tim Redding,6,8,34,18,0,0,1,349,126,60,14,46,78,3,3,5,0,515,5,67,7,3,11
redmama01,Mark Redman,10,10,39,25,2,0,1,521,180,83,20,59,113,4,6,6,1,746,5,91,6,6,16
reedst01,Steve Reed,3,4,43,4,0,0,1,187,63,27,7,21,42,3,2,5,0,268,12,30,3,1,7
regilni01,Nick Regilio,3,4,24,7,0,0,1,176,60,30,8,25,42,2,2,3,0,257,6,34,2,2,5
reithbr01,Brian Reith,2,3,23,4,0,0,1,134,46,23,6,21,33,2,2,2,0,199,6,25,2,2,4
reitsch01,Chris Reitsma,5,4,44,6,0,0,3,221,78,34,10,23,52,3,2,2,0,317,12,38,3,3,7
remlimi01,Mike Remlinger,3,3,36,3,0,0,1,146,45,21,6,21,43,2,1,2,0,210,8,23,2,2,4
reyesal01,Alberto Reyes,2,2,19,4,0,0,1,114,35,17,4,14,28,1,1,1,0,161,5,18,2,1,3
reyesde01,Dennys Reyes,5,6,36,10,0,0,1,271,95,47,11,38,71,3,4,3,1,399,7,52,4,3,7
reynosh01,Shane Reynolds,4,5,23,11,0,0,1,228,83,41,10,28,49,2,1,3,0,332,4,45,4,2,8
rhodear01,Arthur Rhodes,3,3,33,3,0,0,3,146,49,23,6,18,40,2,2,1,0,210,11,25,2,1,4
riedljo01,John Riedling,4,3,43,5,0,0,1,221,78,38,8,32,50,3,4,3,0,330,10,43,3,3,8
rileyma01,Matt Riley,5,5,32,13,0,0,2,276,91,48,13,44,74,2,3,3,0,405,7,52,3,2,9
rincoju01,Juan Rincon,6,5,47,4,0,0,2,228,68,32,7,30,68,3,3,3,0,322,12,35,3,3,5
rincori01,Ricardo Rincon,3,3,40,4,0,0,1,155,50,23,5,22,40,3,2,2,0,225,8,26,3,2,3
riskeda01,David Riske,4,3,48,4,0,0,4,213,66,31,9,30,64,3,2,3,0,305,16,33,3,2,6
ritchto01,Todd Ritchie,2,4,17,7,0,0,1,146,55,27,7,19,33,1,2,3,0,217,4,30,2,2,4
riverma01,Mariano Rivera,4,3,47,4,0,0,23,210,65,25,6,20,56,2,1,4,0,291,34,27,2,1,7
roajo01,Joe Roa,3,3,30,5,0,0,1,185,68,31,8,21,43,1,1,3,0,271,7,34,3,2,5
robbija01,Jake Robbins,1,1,11,3,0,0,1,78,27,13,3,9,19,1,1,1,0,112,3,14,1,1,2
robergr01,Grant Roberts,2,2,15,3,0,0,1,88,31,15,4,11,21,1,1,1,0,129,4,16,1,1,2
roberje02,Jeriome Robertson,3,3,17,7,0,0,1,145,53,28,7,19,32,2,1,2,0,214,3,30,2,2,4
roberna01,Nate Robertson,9,9,44,23,1,0,2,485,173,87,23,59,123,3,5,5,1,705,7,93,8,4,19
roberwi01,Willis Roberts,2,2,18,3,0,0,1,104,36,17,4,14,25,1,2,2,0,153,5,19,1,1,3
rodried03,Eddy Rodriguez,2,2,23,4,0,0,1,144,47,24,6,22,37,2,2,3,0,210,7,26,2,1,5
rodrife01,Felix Rodriguez,3,3,28,3,0,0,1,123,40,18,4,17,33,1,2,2,0,177,7,20,2,1,4
rodrifr03,Francisco Rodriguez,5,3,47,4,0,0,5,235,63,29,8,30,81,3,4,2,0,324,17,32,2,2,6
rodriri03,Ricardo Rodriguez,4,5,24,10,0,0,1,226,78,38,10,28,49,2,3,3,1,330,5,42,2,2,7
rogerke01,Kenny Rogers,13,8,41,27,1,1,1,536,199,90,20,57,111,3,4,8,1,779,5,96,6,3,16
romerjc01,J. C. Romero,5,3,50,4,0,0,1,205,65,31,7,31,56,4,5,4,0,298,11,33,3,1,7
rueteki01,Kirk Rueter,9,9,40,26,0,0,1,500,185,82,19,56,71,4,2,3,0,723,5,88,8,4,21
ruschgl01,Glendon Rusch,5,7,35,16,1,0,2,357,130,60,13,40,85,2,3,4,0,518,6,65,6,3,11
ryanbj01,B. J. Ryan,4,4,55,4,0,0,2,220,66,30,6,30,75,4,2,3,0,314,13,32,3,2,5
saarlki01,Kirk Saarloos,4,4,30,9,0,0,1,218,77,38,9,27,51,3,2,4,0,318,8,41,3,2,7
sabatcc01,CC Sabathia,11,9,40,26,1,1,1,534,172,81,19,66,129,3,3,6,1,754,5,87,6,5,16
saenzch01,Chris Saenz,4,3,26,7,0,0,2,195,64,31,8,24,49,2,2,3,0,281,7,33,2,2,5
sanchdu01,Duaner Sanchez,3,3,39,5,0,0,1,200,70,32,8,24,44,2,3,4,0,290,13,35,2,2,6
sanchje01,Jesus Sanchez,3,4,29,8,0,0,2,203,72,38,10,28,47,3,3,3,0,299,8,40,2,2,6
santajo01,Johan Santana,15,7,50,25,1,0,2,580,156,69,21,58,200,2,8,7,1,784,8,74,4,4,13
santovi01,Victor Santos,8,10,44,20,0,0,2,409,147,76,17,54,101,5,3,6,1,603,9,83,6,5,12
schilcu01,Curt Schilling,14,7,39,25,2,1,1,553,169,71,20,39,177,2,4,5,0,752,5,75,6,4,11
schmija01,Jason Schmidt,14,7,40,26,3,2,1,575,155,71,17,62,189,3,7,4,1,785,5,75,7,4,12
schoesc01,Scott Schoeneweis,7,8,41,15,0,0,2,348,124,64,15,46,79,3,3,4,0,508,8,69,4,3,10
seaneru01,Rudy Seanez,2,2,20,3,0,0,1,109,36,18,5,15,30,1,2,1,0,158,6,19,1,1,3
seaybo01,Bobby Seay,2,2,20,4,0,0,1,113,38,17,4,14,28,1,1,2,0,163,5,19,1,1,3
seibeph01,Phil Seibel,1,1,11,3,0,0,1,82,27,13,3,11,20,1,1,1,0,119,3,14,1,1,2
seleaa01,Aaron Sele,8,7,36,21,0,0,1,392,148,72,17,51,70,2,4,7,1,581,5,79,4,6,13
seoja01,Jae Weong Seo,7,9,36,20,0,0,1,402,142,65,16,46,81,7,2,4,1,580,6,72,8,3,12
serraji01,Jimmy Serrano,3,3,23,7,0,0,1,176,61,29,8,22,44,1,2,2,0,255,6,31,2,3,5
servisc01,Scott Service,2,2,19,3,0,0,1,107,37,19,5,14,27,1,1,2,0,157,5,20,1,1,3
sheetbe01,Ben Sheets,10,12,43,29,2,0,1,609,197,84,23,46,180,3,7,6,1,843,5,94,8,4,13
sherrge01,George Sherrill,2,2,18,4,0,0,1,111,38,18,5,14,27,1,2,2,0,161,4,20,1,1,3
shielsc01,Scot Shields,5,4,40,6,0,0,2,277,88,37,8,32,76,4,3,3,0,391,9,41,3,2,8
shousbr01,Brian Shouse,2,2,36,4,0,0,1,156,51,22,5,19,38,3,1,2,0,222,9,24,2,2,5
silvaca01,Carlos Silva,10,7,63,20,1,0,2,520,197,82,19,48,91,5,8,7,1,746,13,87,8,2,22
simonja01,Jason Simontacchi,3,2,17,5,0,0,1,135,48,24,7,16,28,1,1,2,0,195,4,25,2,1,4
simpsal01,Allan Simpson,2,2,23,4,0,0,1,134,47,23,5,18,37,1,2,2,0,198,6,25,2,2,4
smallaa01,Aaron Small,2,2,14,3,0,0,1,98,35,18,5,12,23,1,1,1,0,144,3,19,1,1,3
smithtr01,Travis Smith,3,3,21,6,0,0,1,160,58,30,9,19,38,2,2,2,0,234,5,32,3,1,5
smoltjo01,John Smoltz,2,3,48,4,0,0,23,211,65,26,7,19,64,2,3,1,0,289,33,28,2,1,7
snarery01,Ryan Snare,1,1,11,3,0,0,1,81,28,14,4,10,19,1,1,1,0,118,3,15,1,1,3
snellia01,Ian Snell,2,3,18,5,0,0,1,132,45,23,6,18,32,1,1,2,0,192,5,25,2,1,4
soriara01,Rafael Soriano,2,2,16,3,0,0,1,98,31,15,4,11,27,1,1,1,0,139,4,16,1,1,2
sosajo02,Jorge Sosa,4,7,35,11,0,0,1,286,97,52,13,44,69,3,4,3,0,419,7,56,3,4,8
sparkst01,Steve Sparks,4,6,33,14,0,0,1,316,117,62,14,38,61,2,4,5,0,468,7,68,4,4,8
speieju01,Justin Speier,3,4,45,4,0,0,4,199,64,31,9,23,51,4,2,4,0,285,17,34,3,2,5
sprinru01,Russ Springer,2,2,17,3,0,0,1,98,34,17,5,12,24,1,1,2,0,143,4,18,1,1,3
standja01,Jason Standridge,2,3,18,6,0,0,1,137,48,25,7,18,32,1,2,2,0,201,4,27,2,2,4
stanfja01,Jason Stanford,3,4,27,9,0,0,2,213,72,32,8,26,49,2,2,3,0,308,6,34,3,2,6
stantmi02,Mike Stanton,3,5,49,4,0,0,2,199,63,29,7,26,48,3,2,2,0,286,14,32,3,2,5
starkde01,Denny Stark,4,5,27,11,0,0,1,241,92,48,13,35,47,3,2,3,0,365,5,55,4,4,6
stewajo02,Josh Stewart,3,3,22,7,0,0,1,166,60,31,8,22,39,1,2,2,0,245,5,34,2,2,5
stewasc01,Scott Stewart,2,2,22,3,0,0,2,106,37,17,4,13,27,2,1,1,0,154,6,19,1,1,3
stoneri01,Ricky Stone,3,2,30,3,0,0,1,148,51,25,7,18,35,2,1,3,0,214,9,27,2,1,5
sturtta01,Tanyon Sturtze,4,4,26,7,0,0,1,225,81,42,10,31,51,2,3,4,0,332,6,46,2,2,8
sullisc01,Scott Sullivan,3,3,33,4,0,0,1,167,60,29,8,21,43,4,2,4,0,245,9,31,2,2,6
suppaje01,Jeff Suppan,10,9,39,23,1,0,1,479,167,81,22,56,98,2,5,6,1,694,5,89,6,6,14
sweenbr01,Brian Sweeney,2,2,18,5,0,0,1,129,45,21,5,15,31,1,2,2,0,185,5,23,1,1,4
szumija01,Jason Szuminski,2,2,13,3,0,0,1,91,31,16,4,13,22,1,1,2,0,135,3,17,2,1,2
tadanka01,Kazuhito Tadano,3,3,23,6,0,0,1,185,64,31,8,23,46,1,2,3,0,269,5,34,2,1,5
takatsh01,Shingo Takatsu,4,3,32,4,0,0,6,164,50,23,6,20,41,2,2,2,0,231,16,25,2,1,5
tankede01,Dennis Tankersley,3,5,26,9,0,0,1,201,70,38,8,30,51,3,3,3,0,297,6,42,3,2,6
tavarju01,Julian Tavarez,4,4,39,5,0,0,3,195,65,29,5,24,42,3,2,4,0,281,13,32,4,1,7
tayloaa01,Aaron Taylor,1,1,13,3,0,0,1,85,30,15,4,11,21,1,1,1,0,124,4,16,1,1,2
tejermi01,Michael Tejera,2,2,17,4,0,0,1,107,37,18,4,14,26,1,1,1,0,156,3,20,2,1,3
telemam01,Amaury Telemaco,2,3,27,5,0,0,1,169,56,27,8,20,39,2,2,3,0,241,6,29,2,1,5
thomabr01,Brad Thomas,1,2,12,3,0,0,1,81,29,14,3,10,19,1,1,1,0,118,3,15,1,1,2
thomsjo01,John Thomson,11,10,42,27,1,0,1,538,190,85,21,51,120,4,4,5,0,762,5,95,7,5,19
thornma01,Matt Thornton,2,2,19,4,0,0,1,130,43,21,5,19,33,1,2,1,0,189,6,23,2,1,4
timlimi01,Mike Timlin,4,4,47,4,0,0,2,208,68,32,9,19,51,2,2,3,0,293,9,34,3,2,6
tomkobr01,Brett Tomko,10,8,40,26,2,0,1,524,188,88,23,57,107,4,6,3,0,756,5,95,7,3,15
torresa01,Salomon Torres,5,5,44,7,0,0,1,246,83,36,9,27,57,4,3,4,0,350,10,39,5,2,9
towerjo01,Josh Towers,9,7,37,18,0,0,2,376,142,67,19,34,76,4,2,7,1,546,7,71,3,4,12
trachst01,Steve Trachsel,11,10,41,27,1,1,1,536,179,79,22,67,109,7,4,4,1,767,5,88,8,6,13
tsaoch01,Chin-hui Tsao,2,2,15,4,0,0,1,105,36,18,5,13,26,1,1,2,0,152,4,19,2,1,3
tucketj01,T. J. Tucker,4,3,39,5,0,0,1,205,73,33,7,22,47,3,2,3,0,297,10,36,2,2,5
turnbde01,Derrick Turnbow,2,1,13,3,0,0,1,90,29,13,3,12,22,1,1,1,0,128,5,15,1,1,3
urbinug01,Ugueth Urbina,3,4,36,4,0,0,10,166,49,25,7,23,48,2,2,2,0,237,20,26,2,2,3
urdanli01,Lino Urdaneta,1,1,11,3,0,0,1,76,27,14,3,10,19,1,1,1,0,112,3,15,1,1,2
valdeis01,Ismael Valdez,6,6,30,15,0,0,1,296,110,54,16,32,59,2,2,3,0,430,5,58,3,4,9
valdeme01,Merkin Valdez,1,1,11,3,0,0,1,80,28,14,3,10,20,1,1,1,0,116,3,15,1,1,2
valenjo04,Joe Valentine,2,3,21,4,0,0,2,126,42,22,5,19,33,1,2,2,0,185,7,24,1,1,4
valvejo01,Jose Valverde,2,2,28,4,0,0,4,136,41,20,6,19,42,2,2,2,0,195,13,23,2,2,3
vanbejo01,John Van Benschoten,4,4,27,9,0,0,2,210,73,38,9,30,50,2,2,3,0,309,6,42,3,3,7
vanpoto01,Todd Van Poppel,4,5,40,9,0,0,1,279,100,53,15,30,67,2,4,3,1,402,10,56,4,3,7
vargacl01,Claudio Vargas,5,6,38,14,0,0,1,323,109,56,17,46,75,5,5,6,0,472,7,61,4,4,8
vasqujo01,Jorge Vasquez,1,1,11,3,0,0,1,81,28,14,3,10,20,1,1,1,0,118,3,15,1,1,2
vazquja01,Javier Vazquez,11,10,40,26,1,0,1,546,176,85,25,53,152,4,8,7,1,770,5,92,6,6,11
venafmi01,Mike Venafro,2,2,19,3,0,0,1,93,33,15,4,11,21,1,1,2,0,136,4,17,1,1,3
villabr01,Brandon Villafuerte,2,3,22,3,0,0,1,117,40,18,5,17,29,2,1,2,0,172,6,19,2,1,4
villaed01,Eduardo Villacis,3,4,26,7,0,0,2,188,65,32,8,25,45,2,2,3,0,275,7,35,2,2,5
villaos01,Oscar Villarreal,3,3,27,3,0,0,1,135,45,21,5,18,35,2,2,2,0,197,6,23,3,1,4
villoro01,Ron Villone,6,5,39,11,0,0,1,296,93,48,12,44,74,2,3,6,0,429,9,53,4,3,9
vizcalu01,Luis Vizcaino,4,4,49,4,0,0,2,200,63,33,10,24,56,3,4,2,0,285,14,36,2,3,5
vogelry01,Ryan Vogelsong,7,10,40,19,0,0,2,371,134,76,17,54,88,6,4,7,0,555,8,80,7,5,11
waechdo01,Doug Waechter,6,7,33,14,1,0,2,305,100,54,18,41,69,2,2,5,1,440,7,60,2,3,8
wagnebi02,Billy Wagner,3,2,38,3,0,0,14,171,47,21,6,17,55,2,2,2,0,233,25,23,2,1,4
wagnery01,Ryan Wagner,3,3,32,4,0,0,1,165,56,26,7,23,42,2,4,2,0,242,6,29,2,2,4
wakefti01,Tim Wakefield,10,8,41,23,0,0,2,501,164,80,22,58,121,3,7,11,0,722,6,92,3,4,12
walkeja01,Jamie Walker,3,3,48,4,0,0,2,189,63,27,8,19,48,2,2,2,0,269,12,31,2,2,4
walkeke01,Kevin Walker,1,1,13,3,0,0,1,80,27,14,4,11,20,1,1,1,0,116,3,15,1,1,2
walkety01,Tyler Walker,4,2,31,4,0,0,1,170,59,28,7,21,42,2,2,2,0,246,8,30,2,3,6
wasdijo01,John Wasdin,4,5,29,10,0,0,2,241,91,49,14,30,55,2,2,3,0,359,6,52,3,3,6
washbja01,Jarrod Washburn,10,9,36,23,1,0,1,463,156,74,21,46,98,3,4,6,0,658,5,78,4,5,11
watkist01,Steve Watkins,2,2,15,3,0,0,1,98,34,17,4,12,23,1,1,2,0,142,5,18,1,1,3
wayneju01,Justin Wayne,3,3,19,5,0,0,1,133,46,24,6,19,31,1,2,2,0,196,5,26,2,2,5
weathda01,David Weathers,2,3,29,4,0,0,2,149,49,21,5,20,38,2,1,2,0,214,7,23,3,1,5
weaveje01,Jeff Weaver,10,10,45,26,0,0,2,558,200,94,19,59,127,6,6,11,0,809,7,101,6,7,16
webbbr01,Brandon Webb,9,12,44,27,1,0,2,556,170,75,17,86,151,7,11,10,1,807,6,91,10,4,18
webbjo01,John Webb,2,2,13,3,0,0,1,90,31,15,4,12,23,1,1,1,0,132,3,17,1,1,2
weberbe01,Ben Weber,2,2,25,3,0,0,1,130,46,20,5,16,28,2,1,1,0,188,7,22,2,1,4
welleto01,Todd Wellemeyer,2,2,20,3,0,0,1,121,41,22,5,19,34,2,1,1,0,179,6,23,2,1,3
wellsda01,David Wells,11,7,38,24,1,0,1,516,182,77,20,32,100,2,3,5,0,723,5,82,8,5,13
wellski01,Kip Wells,7,8,36,22,0,0,1,449,147,67,17,61,114,5,5,6,0,650,5,72,7,4,13
wendetu01,Turk Wendell,2,2,21,3,0,0,1,116,39,19,5,16,26,2,1,2,0,169,6,20,2,2,4
westbja01,Jake Westbrook,10,10,46,24,2,0,2,537,181,79,17,60,103,3,4,8,1,762,8,89,6,5,23
wheelda01,Dan Wheeler,2,2,19,3,0,0,1,112,37,17,4,13,27,1,1,2,0,160,5,19,1,1,3
whitega01,Gabe White,3,2,28,3,0,0,1,135,45,23,7,14,34,1,1,2,0,192,6,25,2,2,3
whiteri01,Rick White,4,4,36,4,0,0,1,194,67,33,9,24,44,3,2,3,0,279,10,36,3,2,7
wickmbo01,Bob Wickman,2,2,22,3,0,0,5,117,41,19,5,14,30,1,1,2,0,170,10,21,1,1,4
willida07,David Williams,4,4,25,9,0,0,1,200,64,33,8,25,51,2,2,4,0,287,5,36,2,2,5
willido03,Dontrelle Willis,11,9,44,27,2,1,2,543,184,80,19,62,137,5,5,6,0,774,6,87,6,3,15
willije02,Jerome Williams,9,7,37,21,1,0,2,426,137,64,15,51,96,3,3,11,1,609,6,72,5,6,12
willira01,Randy Williams,1,1,12,3,0,0,1,82,28,14,3,11,20,1,1,1,0,119,3,15,1,1,3
willisc01,Scott Williamson,2,2,25,3,0,0,2,124,37,18,4,18,35,2,3,2,0,177,6,20,1,2,3
willito02,Todd Williams,2,2,20,4,0,0,1,120,40,18,5,14,27,1,1,3,0,171,5,20,1,1,5
williwo02,Woody Williams,11,8,39,25,0,0,1,515,171,77,18,52,121,3,6,8,1,735,5,82,8,5,9
wilsopa02,Paul Wilson,9,8,39,25,1,0,1,501,179,84,23,57,107,4,5,8,0,728,5,90,7,5,14
wisema01,Matt Wise,2,3,25,5,0,0,1,164,55,27,6,19,38,2,2,2,0,235,6,29,2,2,5
witasja01,Jay Witasick,2,3,35,4,0,0,1,179,58,26,7,24,48,2,3,2,0,258,11,29,3,2,5
wolfra02,Randy Wolf,8,8,35,22,1,1,1,445,143,68,20,50,113,4,4,5,0,631,5,74,6,4,12
woodke02,Kerry Wood,9,9,35,22,1,1,1,457,132,64,18,62,154,2,6,11,0,647,5,68,7,5,13
woodmi01,Mike Wood,6,8,37,15,0,0,2,342,124,67,16,39,76,4,5,6,1,498,7,70,5,3,12
worreti01,Tim Worrell,4,4,51,4,0,0,12,210,68,29,8,24,54,3,2,2,0,299,24,34,3,3,6
wrighda02,Dan Wright,4,6,24,11,0,0,1,234,82,45,12,33,51,2,3,3,1,344,4,49,3,3,7
wrighja01,Jamey Wright,5,5,32,14,1,0,2,304,103,49,11,46,67,3,3,5,0,447,6,53,3,2,8
wrighja02,Jaret Wright,11,8,45,23,0,0,2,461,149,68,13,59,123,4,4,5,0,659,8,76,6,5,15
wuertmi01,Michael Wuertz,2,2,21,4,0,0,1,120,39,20,5,16,31,1,2,1,0,173,6,21,2,2,3
wunscke01,Kelly Wunsch,1,1,18,3,0,0,1,88,27,13,3,13,22,1,1,2,0,127,4,15,1,1,2
yanes01,Esteban Yan,4,4,45,4,0,0,5,218,77,36,9,27,54,3,4,4,0,318,18,39,3,3,7
yatesty01,Tyler Yates,3,4,26,7,0,0,1,181,66,33,8,25,45,2,2,3,0,270,6,36,2,2,5
youngch03,Chris Young,5,4,29,10,0,0,2,239,81,40,11,28,59,2,3,4,0,345,7,43,3,2,6
youngja01,Jason Young,3,4,27,8,0,0,2,202,75,39,11,26,51,2,3,3,0,301,7,42,3,2,6
zambrca01,Carlos Zambrano,12,9,44,27,1,1,1,575,172,71,15,79,158,6,6,12,1,820,6,81,9,4,18
zambrvi01,Victor Zambrano,6,5,26,11,0,0,1,257,82,42,10,41,62,2,5,6,1,377,5,47,3,4,7
zitoba01,Barry Zito,12,9,42,28,1,0,1,576,179,84,22,72,139,3,4,7,1,817,5,93,7,7,14
