playerID,playerName,W,L,G,GS,CG,SHO,SV,IPouts,H,ER,HR,BB,SO,IBB,WP,HBP,BK,BFP,GF,R,SH,SF,GIDP
aardsda01,David Aardsma,4,4,45,4,0,0,11,197,60,29,6,30,60,2,3,2,0,284,19,32,3,2,4
abreuwi01,Winston Abreu,1,1,12,3,0,0,1,78,27,13,4,10,20,1,1,1,0,113,3,15,1,1,2
accarje01,Jeremy Accardo,2,2,24,3,0,0,4,116,38,17,4,16,29,1,1,2,0,166,8,18,1,1,4
aceveal01,Alfredo Aceves,5,3,32,6,0,0,1,214,66,31,8,22,55,2,2,3,0,298,8,33,2,2,6
acostma01,Manny Acosta,2,3,30,3,0,0,1,147,49,22,6,21,38,2,3,2,0,213,11,24,2,1,5
adamsmi03,Mike Adams,2,2,30,4,0,0,1,149,42,18,5,17,46,1,1,1,0,205,6,21,2,1,3
adenhni01,Nick Adenhart,4,3,28,8,0,0,2,198,68,32,7,28,50,2,3,2,0,289,7,34,2,2,7
affelje01,Jeremy Affeldt,3,3,49,4,0,0,1,191,58,25,6,26,54,2,4,3,0,269,9,28,3,2,9
albaljo01,Jonathan Albaladejo,3,2,24,4,0,0,1,131,45,21,5,17,33,1,1,2,0,190,5,23,2,2,4
alberma01,Matt Albers,3,5,34,5,0,0,1,192,68,34,7,28,46,2,3,3,0,283,7,36,3,3,7
anderbr04,Brett Anderson,9,9,45,22,1,1,2,462,156,71,18,48,126,2,2,4,1,653,7,81,5,4,18
aquingr01,Greg Aquino,2,2,17,3,0,0,1,101,34,17,4,15,26,1,2,1,0,148,5,18,1,1,3
ariasal02,Alberto Arias,3,2,27,4,0,0,1,148,51,23,5,20,39,2,3,3,0,216,7,25,2,1,5
arredjo01,Jose Arredondo,4,3,34,4,0,0,1,164,52,25,6,22,47,1,3,1,0,234,9,27,2,1,5
arroybr01,Bronson Arroyo,12,11,43,28,1,1,1,564,192,88,25,62,132,4,4,7,0,805,5,96,9,5,18
ascanjo01,Jose Ascanio,1,2,13,3,0,0,1,83,28,14,3,11,21,1,1,1,0,120,3,15,1,1,2
atkinmi01,Mitch Atkins,1,1,12,3,0,0,1,80,26,13,3,10,20,1,1,1,0,115,3,13,1,1,2
augenbr01,Bryan Augenstein,2,3,20,5,0,0,1,134,47,23,5,17,33,2,1,2,0,196,5,25,2,2,4
axforjo01,John Axford,2,2,14,3,0,0,1,88,29,14,3,12,23,1,1,1,0,126,4,15,1,1,2
ayalalu01,Luis Ayala,2,2,17,3,0,0,2,91,32,16,4,11,24,1,1,1,0,133,5,17,1,1,2
backebr01,Brandon Backe,3,3,18,8,0,0,1,164,61,32,9,23,41,1,2,2,0,243,4,33,2,1,5
badenbu01,Burke Badenhop,5,4,30,6,0,0,1,206,70,33,7,26,53,2,2,2,0,296,7,36,3,2,7
baezda01,Danys Baez,3,4,36,4,0,0,1,180,57,29,7,22,42,2,2,3,0,257,9,32,2,2,6
bailean01,Andrew Bailey,4,3,39,5,0,0,9,204,57,25,6,24,61,2,3,2,0,282,21,27,3,2,5
baileho02,Homer Bailey,7,7,38,19,0,0,2,372,131,66,15,53,92,2,6,4,1,546,6,71,5,5,10
bakersc02,Scott Baker,12,8,43,26,1,1,1,532,173,81,22,49,141,3,5,5,0,741,5,84,3,5,13
balejo01,John Bale,2,2,25,4,0,0,1,123,43,20,4,17,32,1,2,1,0,179,6,22,2,2,4
balesco01,Collin Balester,4,6,30,13,0,0,2,257,90,47,13,33,62,2,3,3,0,375,6,50,3,2,7
balfogr01,Grant Balfour,4,3,44,4,0,0,3,191,57,29,6,27,61,1,2,2,0,271,10,31,2,2,5
banksjo01,Josh Banks,3,4,23,8,0,0,1,188,67,33,9,22,42,2,2,2,0,272,5,35,4,3,5
bannibr01,Brian Bannister,8,11,39,24,0,0,1,466,164,82,18,52,102,3,8,5,1,673,5,91,4,7,13
bardda01,Daniel Bard,3,3,30,4,0,0,1,153,49,23,6,20,46,2,2,2,0,219,7,26,2,2,4
bassbr01,Brian Bass,4,3,33,5,0,0,1,212,75,36,8,30,50,3,4,3,0,312,8,39,3,2,7
bastaan01,Antonio Bastardo,4,4,28,9,0,0,2,203,69,35,8,26,53,2,2,3,0,293,6,37,2,2,5
batismi01,Miguel Batista,5,5,31,8,0,0,1,210,75,36,8,35,50,2,3,3,0,315,8,40,3,3,6
bautide01,Denny Bautista,2,2,20,3,0,0,1,108,37,19,4,16,29,1,2,1,0,157,5,20,1,2,4
bazaryo01,Yorman Bazardo,3,4,27,8,0,0,1,190,66,36,7,28,46,2,2,2,1,280,8,39,3,3,6
beckejo02,Josh Beckett,14,8,42,26,2,1,1,549,177,80,20,49,167,2,4,7,0,767,5,85,5,4,12
bedarer01,Erik Bedard,7,5,31,16,0,0,1,327,96,44,12,42,104,1,3,4,0,461,5,48,3,3,8
beimejo01,Joe Beimel,2,2,29,3,0,0,1,112,38,16,3,14,27,2,2,1,0,161,6,17,2,2,3
belisma01,Matt Belisle,2,3,17,5,0,0,1,130,48,24,6,13,32,1,2,1,0,189,4,26,1,2,4
belisro01,Ronald Belisario,3,3,38,5,0,0,1,182,55,24,6,24,50,3,3,3,0,260,8,27,2,2,5
bellhe01,Heath Bell,5,4,47,4,0,0,11,200,59,26,5,24,61,2,3,2,0,278,19,27,2,1,6
belltr01,Trevor Bell,3,3,24,7,0,0,1,163,61,30,7,22,42,2,2,2,0,242,5,33,2,2,5
benneje01,Jeff Bennett,2,2,22,4,0,0,1,123,42,20,4,18,30,2,2,2,0,179,5,22,2,1,5
bensokr01,Kris Benson,2,2,19,5,0,0,1,132,47,24,6,18,33,1,1,2,0,195,5,26,1,2,3
bergebr02,Brad Bergesen,7,6,38,16,1,0,2,374,126,54,13,40,82,4,3,5,0,531,7,59,4,4,11
bergju01,Justin Berg,2,2,15,3,0,0,1,95,31,14,3,11,24,1,1,1,0,135,4,15,1,1,3
bergmja01,Jason Bergmann,3,4,29,7,0,0,1,189,64,32,9,24,48,2,2,2,0,273,4,36,4,2,6
berkeja01,Jason Berken,6,9,40,19,0,0,2,364,142,72,17,46,82,3,2,5,1,544,7,77,4,4,12
betanra01,Rafael Betancourt,3,2,30,3,0,0,2,132,41,19,5,14,38,2,1,1,0,185,7,20,2,2,3
billich01,Chad Billingsley,12,9,46,26,1,0,1,541,167,76,17,74,163,6,10,6,0,767,6,82,8,7,16
blackni01,Nick Blackburn,10,10,45,27,1,0,2,550,205,84,22,46,105,3,3,5,0,786,6,95,5,5,18
blantjo01,Joe Blanton,10,7,40,24,1,0,1,493,165,75,21,52,126,3,5,6,0,702,5,79,7,4,13
blevije01,Jerry Blevins,2,2,23,3,0,0,1,121,39,19,4,15,33,1,1,2,0,172,6,20,1,1,3
boggsmi01,Mitchell Boggs,4,4,29,10,0,0,1,235,85,40,8,36,58,1,4,4,1,349,6,42,2,2,8
bondeje01,Jeremy Bonderman,2,2,14,6,0,0,1,126,44,22,6,17,31,1,2,2,0,184,3,23,1,1,4
bonined01,Eddie Bonine,3,3,23,7,0,0,1,176,63,29,8,21,41,1,2,2,0,253,5,32,2,2,8
bootcch01,Chris Bootcheck,2,2,17,3,0,0,1,101,36,19,4,14,26,1,1,1,0,149,5,20,2,1,3
bowdemi01,Michael Bowden,2,2,17,4,0,0,1,117,41,21,5,15,30,1,2,1,0,170,4,22,1,1,3
boyerbl01,Blaine Boyer,2,3,32,4,0,0,1,152,52,25,5,18,39,2,2,2,0,219,10,28,2,2,4
bradeda01,Dallas Braden,8,9,40,19,0,0,2,411,144,65,13,48,93,3,3,4,1,592,8,70,4,4,11
bradfch01,Chad Bradford,2,2,21,3,0,0,1,94,34,14,3,11,22,1,1,1,0,138,4,15,1,1,3
breslcr01,Craig Breslow,4,4,38,4,0,0,1,169,49,22,5,21,44,1,2,2,1,235,7,25,2,1,5
broadla01,Lance Broadway,2,2,15,3,0,0,1,102,35,17,4,13,26,1,1,1,0,149,4,19,1,1,3
brocado01,Doug Brocail,3,2,26,3,0,0,1,117,38,18,5,15,30,1,1,1,0,168,7,19,1,1,3
broxtjo01,Jonathan Broxton,4,4,51,4,0,0,12,213,60,28,6,27,77,2,3,2,0,296,25,31,2,2,5
brunebr01,Brian Bruney,4,2,32,4,0,0,1,145,45,21,6,22,40,2,2,2,0,209,7,23,2,2,4
buchhcl01,Clay Buchholz,7,7,36,17,1,0,2,347,119,59,15,48,93,2,3,3,0,506,6,64,3,4,9
bucknbi02,Billy Buckner,5,6,34,12,0,0,2,284,102,52,13,36,74,2,5,3,0,411,7,55,3,2,12
buehrma01,Mark Buehrle,11,10,42,27,1,1,1,562,196,81,22,49,114,4,3,5,0,784,5,89,7,6,23
bulgeja01,Jason Bulger,4,2,37,4,0,0,1,177,53,28,7,24,52,1,3,2,0,249,11,29,3,2,7
bullibr01,Bryan Bullington,1,2,13,3,0,0,1,88,30,14,4,11,23,1,1,1,0,127,3,15,1,1,3
bumgama01,Madison Bumgarner,2,2,18,5,0,0,1,122,40,19,5,15,32,1,1,1,0,174,4,20,2,1,4
burkegr01,Greg Burke,3,3,28,4,0,0,1,144,49,23,5,20,37,2,2,2,0,210,7,25,2,1,4
burneaj01,A. J. Burnett,12,9,42,27,1,0,1,550,173,83,21,77,172,2,10,8,1,790,5,89,4,4,14
burnese01,Sean Burnett,2,2,29,3,0,0,1,131,41,21,5,19,34,2,2,1,0,188,6,22,2,1,4
burnsmi01,Mike Burns,4,5,28,9,0,0,1,207,72,36,9,25,53,2,2,2,0,299,7,39,2,3,7
burrebr01,Brian Burres,4,5,27,11,0,0,1,228,86,45,9,32,52,2,3,3,0,342,5,48,2,3,6
burtoja01,Jared Burton,3,2,40,4,0,0,1,182,59,27,6,24,49,3,2,3,0,263,10,29,2,2,5
bushda01,Dave Bush,7,8,35,20,0,0,1,400,137,73,19,42,96,2,3,9,0,573,5,77,5,4,10
butlejo03,Josh Butler,2,1,12,3,0,0,1,82,28,13,3,11,21,1,1,1,0,121,3,15,1,1,2
byrdati01,Tim Byrdak,3,2,45,4,0,0,1,179,52,26,8,28,51,2,2,2,0,257,7,28,2,2,4
byrdpa01,Paul Byrd,5,4,23,10,0,0,1,223,84,38,10,22,46,1,2,2,0,323,4,40,2,2,6
cabreda01,Daniel Cabrera,3,3,16,8,0,0,1,163,57,30,7,25,38,1,3,4,0,242,3,32,2,2,6
cabrefe01,Fernando Cabrera,2,2,16,3,0,0,1,92,31,16,4,13,26,1,1,1,0,134,5,17,1,1,2
cahiltr01,Trevor Cahill,9,10,46,23,0,0,2,467,159,78,21,61,97,2,5,4,0,673,7,83,5,6,15
cainma01,Matt Cain,10,10,44,28,2,0,1,582,177,76,19,73,156,6,8,5,1,814,5,80,8,6,13
calerki01,Kiko Calero,3,3,37,4,0,0,1,163,49,23,5,23,49,2,2,2,0,231,9,24,2,3,3
camerke01,Kevin Cameron,2,1,18,3,0,0,1,105,34,16,3,14,27,1,1,1,0,151,5,18,1,1,3
campijo01,Jorge Campillo,2,2,16,5,0,0,1,128,43,20,5,14,31,1,1,1,0,181,4,21,2,1,4
campsh01,Shawn Camp,3,4,43,4,0,0,1,203,68,31,7,25,52,3,1,3,0,290,12,34,2,2,8
cappsma01,Matt Capps,3,5,40,4,0,0,12,175,60,27,7,18,46,2,1,2,0,250,24,29,2,2,5
carides01,Esmailin Caridad,2,2,17,3,0,0,1,105,34,15,4,12,28,1,1,2,0,149,4,17,1,1,3
carlsje01,Jesse Carlson,4,4,47,4,0,0,1,194,61,29,7,23,51,3,2,3,1,275,9,31,2,3,5
carlybu01,Buddy Carlyle,2,2,20,4,0,0,1,124,43,22,5,16,32,3,2,1,0,180,4,23,2,1,4
carmofa01,Roberto Hernandez,8,9,36,21,1,0,1,403,142,73,14,61,88,1,6,7,1,598,5,80,3,3,16
carpean01,Drew Carpenter,2,2,18,5,0,0,1,122,42,20,5,16,32,1,1,2,0,177,4,22,2,1,4
carpech01,Chris Carpenter,11,6,42,21,2,1,2,465,139,53,10,42,116,2,3,6,0,632,7,57,8,4,17
carraca01,Carlos Carrasco,4,5,30,9,0,0,2,221,82,40,10,29,55,2,2,2,1,325,7,43,2,2,6
carradj01,D. J. Carrasco,4,3,38,5,0,0,1,226,76,34,7,27,56,2,2,3,0,324,9,36,2,3,8
carrice01,Cesar Carrillo,4,4,29,8,0,0,2,199,69,36,9,29,50,3,3,3,0,293,7,38,2,2,6
castial02,Alberto Castillo,2,2,20,3,0,0,1,99,33,15,4,13,26,1,1,2,0,143,4,16,1,1,3
cecilbr01,Brett Cecil,7,5,37,15,0,0,2,324,118,56,15,42,82,2,2,5,0,474,7,61,2,3,10
chacijh01,Jhoulys Chacin,2,2,17,4,0,0,1,107,35,17,4,15,29,1,2,1,0,155,4,19,1,1,3
chambjo03,Joba Chamberlain,8,6,52,22,0,0,2,453,150,69,17,64,135,3,5,8,2,659,8,76,5,4,12
chaveje01,Jesse Chavez,2,3,41,4,0,0,1,183,62,29,8,23,47,2,3,2,0,263,12,31,2,2,4
chenbr01,Bruce Chen,3,5,29,9,0,0,1,221,78,39,11,29,56,3,3,3,0,322,7,42,3,2,6
choatra01,Randy Choate,2,2,30,4,0,0,2,127,41,19,5,16,33,2,1,1,0,180,7,21,1,1,4
chulkvi01,Vinnie Chulk,2,2,19,3,0,0,1,102,34,16,4,13,24,1,1,1,0,147,5,17,1,1,3
claggan01,Anthony Claggett,1,1,12,3,0,0,1,78,26,12,3,10,20,1,1,1,0,112,3,13,1,1,2
clippty01,Tyler Clippard,4,3,28,5,0,0,1,173,52,25,8,26,50,2,2,2,0,246,6,27,2,1,4
coffeto01,Todd Coffey,4,3,45,4,0,0,2,202,67,29,8,23,53,2,2,3,0,285,10,31,2,2,8
cokeph01,Phil Coke,3,3,38,4,0,0,2,170,51,26,7,20,45,2,3,2,0,237,8,29,2,3,5
colomje01,Jesus Colome,2,2,21,3,0,0,1,105,34,17,4,14,26,1,2,1,0,151,7,18,2,1,3
colonba01,Bartolo Colon,6,6,30,14,0,0,1,278,100,46,13,32,68,3,2,4,0,407,5,55,4,3,7
colonro01,Roman Colon,3,3,27,4,0,0,1,150,50,25,6,20,36,1,2,2,1,216,7,26,2,1,4
condrcl01,Clay Condrey,4,3,33,3,0,0,1,156,54,23,5,18,35,3,1,2,0,224,11,25,1,1,6
contrjo01,Jose Contreras,3,3,17,7,0,0,1,162,58,27,6,19,38,1,2,2,0,236,3,29,2,2,5
cookaa01,Aaron Cook,10,7,38,23,1,1,1,478,171,73,16,47,87,3,4,4,0,677,5,79,5,5,19
corcoro01,Roy Corcoran,3,2,22,3,0,0,1,125,42,19,4,19,28,1,1,1,0,182,5,21,2,2,5
cordefr01,Francisco Cordero,3,4,47,4,0,0,19,193,60,25,6,27,58,2,3,2,0,274,32,28,3,2,5
cormila01,Lance Cormier,3,4,37,5,0,0,2,212,72,32,8,27,47,2,3,2,1,307,8,35,2,2,6
corpama01,Manny Corpas,2,3,34,3,0,0,3,150,53,24,5,16,37,1,1,2,0,215,12,25,2,1,5
correke01,Kevin Correia,9,10,50,24,1,0,2,508,175,82,18,62,122,5,5,5,1,732,7,88,7,4,13
cottsne01,Neal Cotts,1,2,23,3,0,0,1,102,35,17,5,14,29,1,1,1,0,149,5,18,1,1,3
crainje01,Jesse Crain,4,4,40,4,0,0,1,171,56,27,6,23,45,2,2,3,0,248,10,30,2,2,5
cruzju02,Juan Cruz,3,3,37,4,0,0,1,165,50,26,6,26,50,1,3,2,0,236,10,28,2,2,4
cuetojo01,Johnny Cueto,10,11,44,26,0,0,2,504,169,84,23,63,136,2,5,11,0,730,6,90,6,4,14
daleyma01,Matt Daley,2,2,32,4,0,0,1,152,49,24,6,19,44,2,1,2,0,217,8,26,2,2,4
danksjo01,John Danks,11,10,44,28,1,0,1,552,178,81,23,65,143,2,4,5,0,779,5,86,5,5,17
davidda01,Dave Davidson,1,1,12,3,0,0,1,78,27,13,3,11,21,1,1,1,0,114,3,14,1,1,2
davidda02,Daniel Davidson,1,1,12,3,0,0,1,78,26,12,3,10,20,1,1,1,0,112,3,13,1,1,2
davieky01,Kyle Davies,9,9,38,21,1,0,2,403,138,70,17,59,97,2,9,4,0,586,6,76,4,4,13
davisdo02,Doug Davis,9,11,42,27,0,0,1,519,178,81,20,79,129,3,9,5,1,759,5,88,10,5,17
daviswa01,Wade Davis,5,4,31,10,1,1,2,240,79,37,8,30,66,2,3,2,0,342,7,41,2,2,6
delaceu01,Frankie De La Cruz,1,1,13,3,0,0,1,84,29,15,3,13,21,1,1,1,0,124,4,17,1,1,3
delarjo01,Jorge De La Rosa,12,9,44,26,0,0,1,493,163,84,19,71,150,4,10,7,1,716,6,90,8,6,13
delcama01,Manny Delcarmen,3,3,45,4,0,0,1,188,59,28,6,27,51,2,1,3,0,272,8,30,3,2,4
dempsry01,Ryan Dempster,11,8,49,25,1,0,5,535,168,73,18,64,151,4,7,6,0,754,12,81,7,5,16
desseel01,Elmer Dessens,2,2,21,4,0,0,1,121,40,20,5,15,28,1,1,2,0,174,5,21,2,2,3
detwiro01,Ross Detwiler,4,6,35,14,1,0,2,295,103,50,9,39,69,3,4,3,0,431,7,52,4,2,10
dickera01,R. A. Dickey,3,3,29,6,0,0,1,204,72,35,8,29,46,2,4,3,0,299,8,36,2,3,5
difelma01,Mark DiFelice,3,2,33,4,0,0,1,156,51,23,6,18,43,3,2,2,0,222,7,25,2,1,4
dillati01,Tim Dillard,1,2,14,3,0,0,1,87,30,15,4,12,21,1,1,1,0,126,3,16,1,1,3
dinarle01,Lenny DiNardo,4,5,28,9,0,0,1,218,81,41,8,31,48,2,2,3,0,323,8,45,3,3,9
dolsifr01,Freddy Dolsi,2,2,19,3,0,0,1,107,36,16,4,15,26,1,2,1,0,155,6,18,1,1,3
donnebr01,Brendan Donnelly,3,2,23,3,0,0,1,114,38,17,4,15,30,1,1,2,0,164,6,19,2,1,3
doteloc01,Octavio Dotel,3,3,43,4,0,0,1,184,57,27,8,27,61,2,3,2,0,264,9,30,3,2,4
downssc01,Scott Downs,2,3,39,3,0,0,4,164,51,21,5,20,45,2,2,2,0,232,11,23,2,2,5
duensbr01,Brian Duensing,5,4,31,9,0,0,1,243,81,36,8,31,59,2,2,3,0,349,7,39,3,2,8
dukeza01,Zach Duke,8,13,44,27,2,1,1,562,211,92,21,52,105,2,3,5,1,807,6,99,12,7,17
dumatph01,Phil Dumatrait,2,3,17,5,0,0,1,118,41,22,5,18,29,1,1,1,0,174,4,23,1,1,3
dunnmi01,Mike Dunn,2,1,13,3,0,0,1,83,27,13,3,11,22,1,1,1,0,120,3,14,1,1,2
durbich01,Chad Durbin,3,3,39,5,0,0,2,203,64,31,8,31,51,3,2,4,0,294,9,34,2,2,6
eatonad01,Adam Eaton,2,2,13,6,0,0,1,118,43,22,5,16,27,2,1,2,0,174,2,23,2,1,4
egberja01,Jack Egbert,1,1,12,3,0,0,1,80,28,14,3,10,20,1,1,1,0,116,3,15,1,1,2
ekstrmi01,Mike Ekstrom,2,2,17,3,0,0,1,107,37,18,4,14,28,1,2,1,0,155,4,20,1,1,4
elbersc01,Scott Elbert,2,2,19,3,0,0,1,109,37,18,5,14,30,1,1,1,0,157,4,20,1,1,3
embreal01,Alan Embree,2,3,31,3,0,0,2,126,42,21,5,17,32,2,2,1,0,182,7,23,2,1,4
escalse01,Sergio Escalona,2,2,16,3,0,0,1,97,32,16,3,12,25,1,1,2,0,140,4,17,1,1,3
escobke01,Kelvim Escobar,4,3,21,8,0,0,1,185,60,27,6,23,49,1,2,2,0,263,4,29,2,2,6
estrama01,Marco Estrada,2,2,18,4,0,0,1,117,40,20,5,15,31,1,2,2,0,171,5,22,2,1,3
evelada01,Dana Eveland,5,5,29,13,0,0,1,267,98,47,8,40,63,2,3,4,0,397,5,50,2,3,10
eyresc01,Scott Eyre,3,2,28,3,0,0,1,121,38,17,4,17,32,1,2,1,0,173,5,18,2,1,4
eyrewi01,Willie Eyre,2,2,17,3,0,0,1,101,34,17,4,13,24,1,1,1,0,145,5,18,2,1,4
farnsky01,Kyle Farnsworth,2,3,29,3,0,0,1,134,47,22,5,17,38,2,2,1,0,195,9,25,1,2,3
feldmsc01,Scott Feldman,11,8,47,24,0,0,2,507,168,84,19,63,106,3,5,8,2,721,8,90,3,5,19
felicpe01,Pedro Feliciano,4,3,54,4,0,0,1,177,56,25,7,23,51,3,2,2,0,253,9,28,2,2,6
felizne01,Neftali Feliz,2,2,20,4,0,0,1,127,38,18,5,15,37,1,1,2,0,178,4,19,2,1,3
fienca01,Casey Fien,2,2,14,3,0,0,1,93,31,16,4,12,24,1,1,1,0,135,4,17,1,1,3
figaral01,Alfredo Figaro,4,3,24,7,0,0,1,166,58,28,7,22,44,1,2,2,0,243,5,30,2,2,5
figuene01,Nelson Figueroa,5,6,31,10,1,0,1,254,89,40,9,33,68,3,2,5,0,375,7,43,3,3,6
fisheca01,Carlos Fisher,2,2,27,4,0,0,1,155,51,25,5,23,42,2,3,2,0,224,9,26,2,1,5
fistedo01,Doug Fister,5,5,32,11,0,0,2,267,90,42,12,30,64,2,3,3,0,380,7,45,2,2,9
florera01,Randy Flores,2,2,25,3,0,0,1,99,35,16,4,13,26,1,1,1,0,146,4,18,1,1,3
floydga01,Gavin Floyd,11,9,43,26,1,0,1,538,172,82,23,60,140,4,7,5,0,759,6,91,5,4,17
foggjo01,Josh Fogg,2,3,21,7,0,0,1,169,58,31,8,21,38,2,2,3,0,246,5,33,2,2,5
fossuca01,Casey Fossum,2,2,15,3,0,0,1,93,33,17,4,12,23,1,1,1,0,135,4,18,1,1,3
foxch02,Chad Fox,1,1,11,3,0,0,1,74,25,13,3,10,19,1,1,1,0,107,3,14,1,1,2
francfr01,Frank Francisco,3,3,38,3,0,0,7,167,51,25,6,22,53,2,3,1,0,238,17,27,2,1,3
frankry01,Ryan Franklin,4,4,43,3,0,0,12,186,60,24,6,22,45,2,2,2,0,263,22,26,2,2,5
frasoja01,Jason Frasor,4,3,40,4,0,0,4,174,52,25,6,23,50,2,3,2,0,245,17,27,2,2,4
frenclu01,Luke French,5,5,30,10,0,0,2,229,83,41,11,30,57,2,3,3,0,336,7,45,2,4,7
frierer01,Ernesto Frieri,1,1,12,3,0,0,1,80,26,13,3,10,21,1,1,1,0,115,3,13,1,1,2
fuentbr01,Brian Fuentes,2,4,43,4,0,0,18,173,54,25,6,22,51,1,2,3,0,247,26,27,2,2,4
fulchje01,Jeff Fulchino,4,4,38,5,0,0,1,201,65,31,7,25,54,2,2,3,0,286,11,33,3,2,5
gabinar01,Armando Gabino,2,2,20,5,0,0,1,135,47,23,5,18,35,1,2,2,0,197,5,25,2,1,4
galarar01,Armando Galarraga,8,8,40,21,0,0,1,437,144,75,21,59,104,2,4,5,0,631,6,80,3,7,13
gallase01,Sean Gallagher,2,2,14,4,0,0,1,102,35,17,4,16,27,1,1,1,0,151,3,19,1,1,3
gallayo01,Yovani Gallardo,10,9,43,23,1,0,2,480,143,68,18,70,152,4,6,5,0,683,7,71,5,4,12
garatvi01,Victor Garate,1,1,12,3,0,0,1,79,27,13,3,11,20,1,1,1,0,115,3,14,1,1,2
garcifr02,Freddy Garcia,5,6,30,12,0,0,2,264,89,43,10,30,67,2,3,3,0,376,6,46,3,2,8
garcija01,Santiago Casilla,3,2,36,4,0,0,1,162,58,28,6,23,43,2,4,2,0,241,9,30,2,2,4
garlajo01,Jon Garland,6,5,26,14,0,0,1,292,105,47,11,31,59,2,2,3,0,420,4,52,4,4,10
garzama01,Matt Garza,9,10,44,27,1,1,1,546,171,80,21,67,150,2,4,8,1,775,6,87,4,7,16
gaudich01,Chad Gaudin,4,3,26,9,0,0,1,206,69,33,9,29,55,2,2,3,0,300,6,36,2,2,6
gearyge01,Geoff Geary,2,2,24,3,0,0,1,122,41,20,5,16,30,2,1,2,0,177,5,21,2,1,4
geerjo01,Josh Geer,4,7,36,15,0,0,2,335,118,60,19,35,74,2,2,4,0,480,6,64,4,4,9
gervasa01,Sammy Gervacio,2,2,20,4,0,0,1,109,35,16,4,14,30,2,1,1,0,155,4,17,1,1,3
gieseda01,Dan Giese,2,3,20,4,0,0,1,134,44,21,6,17,33,1,1,1,0,193,5,23,1,2,3
gobblji01,Jimmy Gobble,2,2,22,3,0,0,1,102,36,19,4,15,28,1,2,2,0,152,5,20,1,1,3
gonzaed01,Edgar Gonzalez,3,4,29,8,0,0,1,214,77,39,8,28,50,3,4,4,0,315,8,41,3,2,6
gonzaen01,Enrique Gonzalez,2,1,12,3,0,0,1,82,28,14,3,11,21,1,1,1,0,119,4,15,1,1,2
gonzagi01,Gio Gonzalez,6,7,37,16,0,0,2,330,116,63,15,53,101,3,3,3,0,492,7,69,4,3,10
gonzami02,Mike Gonzalez,4,4,46,4,0,0,6,195,58,26,7,26,62,4,3,3,0,278,17,31,3,2,5
gordoto01,Tom Gordon,2,2,16,2,0,0,1,83,28,14,3,11,22,1,2,1,0,121,4,15,1,1,2
gorzeto01,Tom Gorzelanny,5,4,23,11,0,0,1,222,77,40,10,32,56,1,3,2,0,326,4,42,2,3,7
goslimi01,Mike Gosling,2,2,18,3,0,0,1,112,39,18,5,16,28,2,1,1,0,164,5,20,1,1,4
grabojo02,John Grabow,2,2,31,3,0,0,1,134,42,19,5,19,35,1,2,1,0,192,8,20,2,1,4
grayje02,Jeff Gray,2,2,20,4,0,0,1,116,40,18,5,13,30,1,1,2,0,168,6,20,2,1,3
greense01,Sean Green,3,4,50,4,0,0,1,202,67,33,6,30,52,3,4,5,0,298,11,36,3,3,7
gregelu01,Luke Gregerson,3,3,40,5,0,0,1,191,60,28,6,25,60,4,3,2,0,273,7,30,2,2,5
greggke01,Kevin Gregg,4,5,48,4,0,0,13,197,59,30,8,28,58,2,4,3,0,283,29,33,2,2,5
greinza01,Zack Greinke,13,9,48,27,3,1,2,592,185,69,16,56,184,2,6,5,1,816,6,76,6,4,16
grillja01,Jason Grilli,3,2,27,3,0,0,1,131,42,20,4,18,37,2,2,2,0,189,6,22,1,1,4
guarded01,Eddie Guardado,2,2,28,4,0,0,1,130,45,22,6,16,31,1,1,2,0,188,6,23,2,1,4
guerrma02,Matt Guerrier,4,4,51,4,0,0,1,210,66,29,9,24,52,3,3,3,0,297,11,32,2,2,5
guthrje01,Jeremy Guthrie,9,12,42,26,1,0,1,534,182,86,25,57,115,2,4,7,1,762,5,92,3,5,16
gutieju01,J. C. Gutierrez,3,3,36,5,0,0,4,184,60,29,5,24,51,3,3,2,0,265,10,31,2,3,5
guzmaan01,Angel Guzman,3,3,32,5,0,0,1,169,51,25,7,21,44,2,2,2,0,239,8,26,3,2,5
hackeer01,Eric Hacker,1,1,12,3,0,0,1,80,27,13,3,10,21,1,1,1,0,116,3,14,1,1,2
haegech01,Charlie Haeger,3,3,23,6,0,0,1,159,53,26,7,21,41,1,2,3,0,231,6,29,2,1,4
hallaro01,Roy Halladay,14,9,41,26,6,2,1,605,195,73,18,43,163,2,4,6,0,827,5,80,3,6,18
hamelco01,Cole Hamels,11,9,42,26,1,1,1,545,176,78,22,49,155,5,3,4,0,757,5,83,6,4,12
hammeja01,Jason Hammel,8,8,50,21,1,0,2,459,166,76,17,51,113,5,6,6,0,668,11,83,7,6,11
hamptmi01,Mike Hampton,7,8,36,18,0,0,2,361,128,64,14,47,83,5,2,3,0,523,6,69,8,4,13
hanrajo01,Joel Hanrahan,3,2,29,4,0,0,2,147,46,22,5,23,45,2,3,1,0,213,9,25,1,2,4
hansecr01,Craig Hansen,2,2,15,3,0,0,1,90,29,15,3,14,23,1,1,1,0,132,4,16,1,1,2
hansoto01,Tommy Hanson,9,6,39,18,0,0,2,383,117,51,13,47,107,2,3,5,0,537,7,54,4,3,12
happja01,J. A. Happ,8,5,42,17,1,1,2,405,127,54,16,49,102,3,3,4,0,570,8,56,6,5,12
haranaa01,Aaron Harang,7,11,37,23,1,1,1,474,168,76,23,46,134,4,5,4,0,677,5,81,6,4,11
harderi01,Rich Harden,8,7,40,21,0,0,2,413,120,58,18,59,142,4,5,5,0,586,6,65,8,3,9
harenda01,Dan Haren,13,9,43,27,1,1,1,587,180,75,21,45,178,3,10,5,0,803,5,81,6,4,12
harrima01,Matt Harrison,7,6,33,15,1,1,2,307,114,57,13,38,68,2,3,3,1,449,6,60,3,3,11
hartke01,Kevin Hart,4,7,37,11,0,0,2,270,101,51,11,39,70,3,4,4,0,404,8,57,3,3,9
hawkila01,LaTroy Hawkins,3,3,40,4,0,0,4,172,54,22,6,19,44,2,2,2,0,240,13,23,2,2,5
hawksbl01,Blake Hawksworth,3,2,23,4,0,0,1,137,43,19,5,17,33,2,1,2,0,193,6,21,2,1,4
hayhudi01,Dirk Hayhurst,2,2,18,4,0,0,1,114,40,19,4,15,29,1,2,2,0,166,5,20,1,1,3
heilmaa01,Aaron Heilman,4,5,49,4,0,0,2,204,66,32,8,29,58,3,3,3,0,297,12,35,5,2,5
hendrma01,Mark Hendrickson,5,5,39,11,0,0,1,288,103,50,12,33,65,4,3,3,0,418,8,55,4,4,7
hennse01,Sean Henn,1,1,14,3,0,0,1,82,29,14,3,12,22,1,1,1,0,122,3,15,1,1,2
hergema01,Matt Herges,2,2,20,3,0,0,1,105,36,17,4,13,26,1,1,1,0,151,5,18,1,1,3
hernada01,David Hernandez,6,8,38,16,0,0,2,335,119,59,20,46,82,2,4,3,0,493,7,62,3,3,8
hernafe02,Felix Hernandez,13,8,45,29,1,1,1,616,193,75,18,70,178,4,11,7,1,864,5,85,6,7,21
hernali01,Livan Hernandez,5,5,26,12,1,0,1,260,97,48,11,32,53,2,2,2,0,381,5,50,5,3,9
herreda01,Danny Herrera,3,3,38,4,0,0,1,173,58,26,6,22,44,2,2,2,0,248,8,30,3,3,6
hillri01,Rich Hill,5,4,29,14,0,0,1,264,87,48,11,40,72,2,2,3,1,386,5,51,3,3,7
hillsh01,Shawn Hill,3,4,25,10,0,0,1,217,77,36,8,26,52,2,2,3,0,316,5,40,3,2,6
hinckmi01,Mike Hinckley,2,2,17,3,0,0,1,94,30,14,3,13,23,1,1,1,0,135,3,15,1,1,3
hinshal01,Alex Hinshaw,2,2,19,3,0,0,1,96,32,16,4,15,27,1,2,1,0,141,5,17,1,1,3
hochelu01,Luke Hochevar,7,11,40,22,1,0,2,438,159,88,19,52,104,2,7,7,0,638,6,93,3,2,15
hoffmtr01,Trevor Hoffman,3,3,38,3,0,0,17,162,48,22,5,17,45,2,2,1,0,225,24,23,2,2,4
hollade01,Derek Holland,7,9,41,16,1,1,2,360,129,69,18,43,93,2,3,4,1,524,7,73,3,3,11
howeljp01,J. P. Howell,5,4,43,5,0,0,6,204,60,28,7,29,64,2,3,3,0,291,15,31,3,2,6
howrybo01,Bob Howry,4,4,45,4,0,0,2,187,62,29,7,21,49,3,2,2,0,267,14,31,2,3,4
hudsoda01,Daniel Hudson,3,3,20,5,0,0,1,143,47,22,6,19,37,1,2,2,0,206,5,24,2,2,4
hudsoti01,Tim Hudson,6,4,25,13,0,0,1,281,92,39,8,30,64,3,2,2,0,393,4,41,4,2,10
huffda01,David Huff,9,7,40,18,0,0,2,379,141,69,15,45,82,2,3,3,0,555,7,73,3,3,12
hughedu01,Dusty Hughes,2,2,17,4,0,0,1,110,36,18,4,15,29,1,1,2,0,159,4,19,1,1,3
hugheph01,Phil Hughes,5,4,35,9,0,0,2,235,74,36,8,29,69,1,3,3,1,334,6,38,2,3,6
humbeph01,Philip Humber,2,2,14,3,0,0,1,93,32,16,4,13,24,1,1,1,0,135,4,17,1,1,3
hunteto02,Tommy Hunter,8,7,38,17,1,0,2,362,125,61,15,41,83,3,5,4,1,522,7,65,3,2,10
isrinja01,Jason Isringhausen,2,2,20,3,0,0,4,97,31,15,3,13,26,1,1,2,0,141,9,16,1,1,3
jacksed01,Edwin Jackson,11,10,45,28,1,0,1,563,190,87,23,72,136,3,6,5,1,805,5,94,5,4,18
jacksst01,Steven Jackson,3,3,26,4,0,0,1,140,46,21,5,19,33,2,2,1,0,202,6,24,2,2,4
jacksza01,Zach Jackson,2,2,18,6,0,0,1,141,50,25,6,17,35,1,1,2,0,206,4,27,1,2,5
jakubch01,Chris Jakubauskas,5,5,33,8,1,0,1,236,78,41,11,27,53,2,4,2,0,336,7,45,2,2,7
janssca01,Casey Janssen,3,3,28,5,0,0,2,160,58,26,6,19,38,1,2,2,0,234,7,28,2,2,6
jenksbo01,Bobby Jenks,3,3,39,4,0,0,15,174,54,24,6,19,46,2,2,2,0,243,26,26,2,2,5
jennija01,Jason Jennings,2,4,27,6,0,0,1,173,62,31,8,24,42,2,2,2,0,255,5,33,3,3,5
jepseke01,Kevin Jepsen,4,3,33,4,0,0,1,162,56,27,5,20,44,2,3,1,0,234,8,29,1,2,5
jimenub01,Ubaldo Jimenez,12,11,45,28,1,0,1,577,174,83,15,82,165,5,9,9,1,822,6,89,10,5,15
joaquwa01,Waldis Joaquin,2,2,15,3,0,0,1,94,31,15,4,13,25,1,2,1,0,136,4,16,1,1,3
johnsji04,Jim Johnson,3,4,43,4,0,0,4,203,66,29,6,25,48,2,2,3,1,289,15,31,2,2,9
johnsjo09,Josh Johnson,12,6,45,25,1,0,2,529,168,72,15,57,152,5,8,5,0,740,6,76,9,4,16
johnsra05,Randy Johnson,7,6,32,17,1,0,1,336,112,53,16,35,99,3,3,4,1,479,5,58,7,3,8
joneshu01,Hunter Jones,2,2,15,3,0,0,1,96,33,17,4,13,25,1,1,1,0,139,3,18,1,1,3
juliojo01,Jorge Julio,2,2,20,3,0,0,1,104,34,17,4,15,29,1,3,2,0,152,5,19,1,1,3
jurrjja01,Jair Jurrjens,12,10,46,28,0,0,2,576,180,72,16,70,140,4,4,4,1,810,6,81,11,5,16
karstje01,Jeff Karstens,5,6,37,12,0,0,1,289,101,51,12,37,60,3,2,2,0,419,8,56,4,4,8
kawakke01,Kenshin Kawakami,6,9,40,18,0,0,2,384,127,58,14,48,93,4,6,5,1,551,8,63,7,5,10
kazmisc01,Scott Kazmir,6,5,27,14,0,0,1,285,86,38,11,38,89,2,4,3,0,403,4,41,3,2,7
kellesh01,Shawn Kelley,3,3,27,4,0,0,1,147,49,24,7,16,39,1,2,2,0,209,7,25,2,2,4
kendrky01,Kyle Kendrick,4,3,20,9,0,0,1,188,68,32,8,22,37,1,2,4,0,275,4,34,3,2,6
kenneia01,Ian Kennedy,1,2,12,4,0,0,1,90,31,16,3,13,23,1,1,1,0,132,3,17,1,1,2
kensilo01,Logan Kensing,3,2,26,3,0,0,1,134,46,24,6,19,35,2,3,2,0,198,6,25,2,1,4
keppebo01,Bobby Keppel,2,2,27,4,0,0,1,157,55,26,6,20,38,2,2,3,0,228,6,28,2,2,4
kershcl01,Clayton Kershaw,8,8,45,25,0,0,2,485,140,65,13,76,152,4,9,3,1,684,7,68,8,4,14
kilbybr01,Brad Kilby,2,2,17,4,0,0,1,111,35,16,4,14,31,1,1,1,0,158,4,17,1,1,3
kinnejo01,Josh Kinney,2,2,17,3,0,0,1,99,34,17,4,14,25,1,1,1,0,146,4,18,1,1,3
kobayma01,Masahide Kobayashi,2,2,20,3,0,0,1,104,36,18,4,12,25,1,2,1,0,151,8,19,1,1,3
korecbo01,Bobby Korecky,2,1,15,3,0,0,1,89,31,15,3,12,22,1,2,1,0,129,4,16,1,1,3
koronjo01,John Koronka,3,4,27,8,0,0,2,190,66,33,9,26,48,2,2,2,0,279,6,36,3,2,6
kuoho01,Hung-Chih Kuo,3,2,26,4,0,0,1,144,44,20,5,18,44,1,2,2,0,204,5,21,2,1,3
kurodhi01,Hiroki Kuroda,8,8,36,20,1,1,1,399,130,58,13,37,96,4,5,4,0,563,5,66,6,3,9
lackejo01,John Lackey,11,7,38,23,1,1,1,489,162,69,18,47,129,2,6,8,0,689,5,76,6,5,17
laffeaa01,Aaron Laffey,7,8,37,18,0,0,2,374,134,60,12,50,75,2,4,5,1,544,7,68,3,3,19
lambech01,Chris Lambert,2,2,13,3,0,0,1,91,32,15,4,11,24,1,1,1,0,133,3,17,1,1,2
lannajo01,John Lannan,9,12,45,28,1,0,2,554,184,82,21,68,108,4,5,6,1,790,6,91,10,3,21
latosma01,Mat Latos,6,6,33,12,0,0,2,265,85,43,11,36,69,2,2,2,1,378,7,47,4,2,7
leachbr01,Brent Leach,2,2,22,3,0,0,1,106,34,18,4,14,28,2,2,1,0,153,5,19,1,1,3
leagubr01,Brandon League,3,4,43,4,0,0,1,199,65,31,7,24,56,2,5,4,0,285,11,33,3,1,8
leblawa01,Wade LeBlanc,5,5,32,12,0,0,2,261,84,43,12,36,64,3,2,4,0,376,7,45,4,2,7
ledezwi01,Wil Ledezma,1,1,13,3,0,0,1,85,29,14,3,11,23,1,1,1,0,123,4,15,1,1,2
leecl02,Cliff Lee,9,5,30,16,2,1,1,363,121,49,11,30,96,1,3,4,0,505,5,53,4,3,11
lehrju01,Justin Lehr,6,5,32,12,1,1,2,275,95,47,14,36,63,2,4,4,0,397,7,49,3,3,8
lerewan01,Anthony Lerew,3,3,23,7,0,0,1,166,56,27,8,23,42,1,2,2,0,241,5,29,2,2,5
lerouch01,Chris Leroux,2,2,13,3,0,0,1,87,30,15,3,11,22,1,1,1,0,126,4,16,1,1,2
lestejo01,Jon Lester,13,7,44,27,1,1,1,558,177,75,18,63,167,2,5,6,0,782,6,79,4,5,17
lewisje01,Jensen Lewis,3,4,38,4,0,0,3,198,65,31,9,26,55,2,2,3,0,285,13,33,3,2,5
lewissc02,Scott Lewis,4,3,27,8,0,0,2,196,65,31,9,24,50,2,2,2,0,281,6,33,2,2,6
lidgebr01,Brad Lidge,2,4,45,4,0,0,16,181,59,30,7,27,59,2,3,3,0,266,28,33,3,1,4
lillyte01,Ted Lilly,12,8,39,24,0,0,1,499,152,70,22,48,140,2,4,4,2,690,5,74,7,4,11
linceti01,Tim Lincecum,13,7,44,27,2,1,1,597,165,68,13,70,210,3,11,6,1,821,5,75,9,5,14
lincomi01,Mike Lincoln,2,2,25,3,0,0,1,128,43,23,6,18,32,1,2,2,0,187,6,24,2,1,4
lindsma01,Matt Lindstrom,3,3,40,3,0,0,5,163,56,26,5,22,43,2,2,2,0,237,15,28,2,1,5
linebsc01,Scott Linebrink,3,4,39,4,0,0,2,170,59,27,8,21,48,3,3,2,0,247,12,30,2,2,5
liriafr01,Francisco Liriano,7,9,40,20,0,0,2,394,135,71,17,56,111,2,5,5,1,575,7,77,5,5,11
litscje01,Jesse Litsch,5,5,25,12,1,0,1,252,86,38,11,26,55,2,2,4,0,359,4,42,2,2,7
lizra01,Radhames Liz,2,2,13,5,0,0,1,104,37,21,5,16,26,1,2,2,0,155,3,22,1,1,3
loganbo02,Boone Logan,2,2,27,3,0,0,1,116,42,20,5,15,30,2,1,1,0,170,7,22,1,1,3
lohseky01,Kyle Lohse,8,7,37,21,0,0,1,408,141,65,15,43,92,3,4,4,0,584,5,70,5,4,10
loopebr01,Braden Looper,11,9,42,27,0,0,1,521,189,90,26,54,102,4,4,6,1,753,5,98,7,6,17
lopezar02,Arturo Lopez,1,1,12,3,0,0,1,79,27,13,3,11,20,1,1,1,0,116,3,14,1,1,2
lopezja02,Javier Lopez,2,2,25,3,0,0,1,109,37,17,4,15,26,1,1,2,0,158,5,18,1,1,4
lopezro01,Rodrigo Lopez,4,3,24,8,0,0,1,191,68,32,7,23,46,2,2,2,0,277,5,36,2,3,6
lopezwi01,Wilton Lopez,2,3,19,5,0,0,1,132,47,23,6,17,33,1,2,2,0,193,4,26,2,2,4
louxsh01,Shane Loux,3,3,27,7,0,0,1,201,75,35,7,24,42,1,3,3,0,295,8,38,2,2,7
lowede01,Derek Lowe,12,10,42,27,1,0,1,522,182,79,16,53,118,5,4,3,1,740,5,87,8,5,19
lowema01,Mark Lowe,3,5,48,4,0,0,2,217,72,33,8,29,59,1,3,2,0,315,13,39,2,3,6
lyonbr01,Brandon Lyon,4,4,47,4,0,0,6,210,67,30,7,25,52,4,2,2,0,296,20,32,3,2,6
macdomi01,Mike MacDougal,2,2,34,4,0,0,6,153,50,24,5,25,38,2,4,2,0,224,15,27,2,2,6
madriwa01,Warner Madrigal,2,2,19,3,0,0,1,107,37,19,4,15,26,1,2,1,0,156,6,20,1,1,3
madsory01,Ryan Madson,4,4,50,4,0,0,4,215,69,29,7,24,61,3,2,2,0,303,14,31,3,2,6
mahayro01,Ron Mahay,2,1,22,3,0,0,1,105,34,15,4,14,27,1,1,1,0,150,3,17,1,2,3
maholpa01,Paul Maholm,9,9,41,26,1,0,1,537,190,85,17,58,120,3,6,6,1,763,5,91,7,4,23
mainejo01,John Maine,8,7,31,18,0,0,1,344,104,54,13,49,93,2,5,4,0,494,5,58,7,3,6
malonma02,Matt Maloney,4,5,31,10,0,0,2,245,83,40,12,28,62,2,2,4,0,350,7,43,3,4,7
manshje01,Jeff Manship,3,3,25,7,0,0,1,174,61,29,7,23,44,1,2,2,0,254,5,31,2,2,5
manuero01,Robert Manuel,2,1,12,3,0,0,1,82,28,13,3,10,21,1,1,1,0,119,3,14,1,1,2
marmoca01,Carlos Marmol,3,4,52,4,0,0,6,213,54,28,6,38,75,2,4,5,1,305,15,30,3,2,5
marquja01,Jason Marquis,12,10,43,27,1,1,1,549,185,87,17,71,111,5,6,6,1,792,5,93,9,7,21
marshja01,Jay Marshall,1,2,16,3,0,0,1,87,31,16,3,11,21,1,1,1,0,127,4,17,1,1,3
marshse01,Sean Marshall,4,6,39,9,0,0,1,241,81,37,10,30,63,3,3,2,0,348,8,40,5,2,6
marteda01,Damaso Marte,2,2,22,3,0,0,1,99,32,17,4,13,28,1,1,1,0,142,5,18,1,1,3
martevi01,Victor Marte,2,2,14,3,0,0,1,93,31,16,4,13,24,1,1,1,0,135,4,17,1,1,3
martica03,Carlos Martinez,1,1,12,3,0,0,1,79,27,13,3,10,21,1,1,1,0,114,3,14,1,1,2
marticr01,Cristhian Martinez,2,2,18,4,0,0,1,115,39,19,4,14,29,1,1,1,0,165,4,20,1,1,3
martijd01,J. D. Martin,6,5,35,14,0,0,2,299,103,48,14,36,67,4,2,5,0,434,7,51,4,3,7
martijo07,Joe Martinez,4,3,25,7,0,0,1,180,66,32,7,23,45,2,2,2,0,266,6,35,3,2,5
martipe02,Pedro Martinez,6,4,29,13,0,0,1,271,96,45,12,32,73,2,2,5,0,396,5,48,4,3,6
martish01,Shairon Martis,6,6,36,15,1,0,2,326,107,57,14,46,72,3,4,4,0,473,7,61,5,4,8
masseni01,Nick Masset,4,3,41,4,0,0,1,195,60,27,7,24,52,1,4,2,0,272,9,29,2,2,7
masteju01,Justin Masterson,5,7,36,12,1,0,2,290,91,44,11,43,78,3,3,5,0,416,7,48,3,2,12
mathido01,Doug Mathis,2,2,24,5,0,0,1,156,54,25,6,19,37,1,2,2,0,224,8,27,2,1,6
matosos01,Osiris Matos,2,2,15,3,0,0,1,92,32,15,4,12,24,1,1,1,0,134,4,17,1,1,2
matsuda01,Daisuke Matsuzaka,8,6,29,16,0,0,1,318,104,49,12,48,93,2,5,5,0,463,4,51,3,2,9
matusbr01,Brian Matusz,6,5,32,11,0,0,2,256,89,41,10,31,68,2,2,2,0,370,7,44,3,3,7
mazzavi01,Vin Mazzaro,6,8,37,15,0,0,2,327,122,57,13,44,79,3,5,4,0,483,7,63,3,3,9
mccarbr01,Brandon McCarthy,7,6,35,17,1,0,2,337,112,56,13,44,79,2,3,4,0,486,6,61,2,5,8
mccleky01,Kyle McClellan,3,4,45,4,0,0,2,201,65,30,7,27,52,2,3,3,0,290,9,32,3,2,7
mccluse01,Seth McClung,4,4,33,6,0,0,1,205,66,33,8,32,52,2,3,3,0,297,7,35,3,3,6
mccrobo01,Bob McCrory,2,2,14,3,0,0,1,88,32,17,4,13,23,1,1,1,0,132,4,19,1,1,3
mccutda01,Daniel McCutchen,4,4,30,10,0,0,2,236,79,37,10,29,57,3,2,3,0,339,7,40,4,2,6
mcdonja03,James McDonald,4,4,32,6,0,0,1,184,60,28,7,26,49,3,3,3,0,267,8,31,2,2,5
mechegi01,Gil Meche,8,9,36,22,1,0,1,433,148,69,16,54,113,2,5,3,0,623,5,75,3,6,13
meddebr01,Brandon Medders,4,2,38,4,0,0,1,183,59,27,7,26,48,3,2,3,0,265,8,29,3,3,4
medlekr01,Kris Medlen,3,4,30,6,0,0,1,192,63,30,7,26,56,2,2,2,0,277,8,33,3,2,5
meekev01,Evan Meek,2,2,28,4,0,0,1,151,47,24,5,23,40,2,3,1,0,216,9,25,2,2,5
melanma01,Mark Melancon,2,2,16,3,0,0,1,102,33,16,4,14,26,1,2,2,0,147,4,17,1,1,3
meloajo01,Jon Meloan,2,2,14,3,0,0,1,90,29,14,3,12,24,1,1,1,0,128,4,15,1,1,3
mendolu01,Luis Mendoza,2,2,14,4,0,0,1,97,36,19,4,12,23,1,1,2,0,144,3,22,1,1,3
meredcl01,Cla Meredith,2,2,32,3,0,0,1,141,48,21,5,17,35,2,1,2,0,201,9,23,2,1,6
messera01,Randy Messenger,2,2,17,3,0,0,1,94,33,15,4,11,23,1,1,1,0,136,5,16,1,1,3
meyerda02,Dan Meyer,3,3,36,5,0,0,2,171,56,28,7,22,47,1,2,2,0,246,7,31,2,2,4
mickoka01,Kam Mickolio,2,2,16,3,0,0,1,100,33,15,3,13,27,1,1,1,0,144,5,17,1,1,3
mijarjo01,Jose Mijares,3,3,39,4,0,0,1,174,53,23,6,21,46,1,2,2,0,244,8,25,2,2,5
millean01,Andrew Miller,5,7,35,16,0,0,1,308,108,56,10,48,81,2,6,4,0,460,6,62,6,4,8
milleju01,Justin Miller,4,3,36,4,0,0,1,172,54,25,6,24,46,2,2,2,0,245,7,27,2,2,5
milletr02,Trever Miller,3,2,44,3,0,0,1,150,46,22,5,19,44,2,2,2,0,213,9,23,2,1,4
millsbr02,Brad Mills,4,4,28,8,0,0,2,196,68,35,9,26,52,2,2,2,0,286,7,37,2,2,5
millwke01,Kevin Millwood,10,10,41,26,2,0,1,517,187,83,21,61,121,2,5,8,0,756,5,90,4,4,15
miltoer01,Eric Milton,4,4,28,9,0,0,2,212,74,34,8,25,55,2,2,3,0,308,6,37,3,2,5
minerza01,Zach Miner,6,5,41,8,0,0,1,261,89,41,9,36,59,2,3,3,0,378,8,44,3,2,9
mischpa01,Pat Misch,3,4,29,8,0,0,1,213,73,35,10,25,48,2,2,3,0,306,6,37,4,2,6
mitrese01,Sergio Mitre,4,4,26,11,0,0,1,231,87,42,9,26,54,2,3,4,0,341,5,47,2,4,8
mockga01,Garrett Mock,4,7,39,12,0,0,1,284,102,50,10,41,77,3,6,2,0,419,7,55,4,3,9
moehlbr01,Brian Moehler,8,9,45,22,1,0,2,443,164,79,19,48,95,6,4,4,0,648,9,84,7,5,13
moralfr01,Franklin Morales,3,3,26,6,0,0,3,152,50,25,5,22,40,2,2,2,1,222,7,27,3,2,4
morened01,Edwin Moreno,2,2,18,3,0,0,1,108,37,17,4,15,28,2,1,2,0,158,4,19,1,1,3
morilju01,Juan Morillo,1,1,12,3,0,0,1,79,27,13,3,10,20,1,1,1,0,115,3,14,1,1,2
morrobr01,Brandon Morrow,4,5,41,9,0,0,5,244,75,37,10,41,72,2,4,2,0,353,14,41,2,2,6
mortecl01,Clayton Mortensen,4,5,30,10,0,0,2,227,80,41,10,30,54,2,3,3,0,333,7,45,2,3,6
mortoch02,Charlie Morton,6,9,37,18,1,0,2,352,121,61,12,50,83,2,4,5,0,512,6,65,4,3,11
moscogu01,Guillermo Moscoso,2,2,15,3,0,0,1,97,33,15,4,13,25,1,2,1,0,141,4,17,1,1,3
mosebro01,Robert Mosebach,1,1,12,3,0,0,1,80,27,13,3,11,21,1,1,1,0,116,3,14,1,1,2
moseldu01,Dustin Moseley,4,4,29,9,0,0,1,217,79,38,9,26,52,2,3,2,0,316,7,40,2,2,6
motagu01,Guillermo Mota,4,4,42,4,0,0,1,186,58,29,7,24,46,3,3,3,0,265,14,30,2,2,5
motteja01,Jason Motte,3,3,37,4,0,0,1,164,54,26,7,21,47,1,2,2,0,235,9,28,2,2,5
moyerja01,Jamie Moyer,10,8,36,22,0,0,1,438,153,72,20,47,96,2,3,7,0,629,5,76,6,3,12
moylape01,Peter Moylan,4,3,45,4,0,0,1,185,57,24,5,25,48,4,2,3,0,262,7,28,3,2,7
mujiced01,Edward Mujica,4,4,46,6,0,0,2,238,83,39,10,24,62,3,3,2,0,339,12,43,2,3,7
mulveke01,Kevin Mulvey,3,4,25,7,0,0,2,184,61,32,8,25,48,1,2,3,0,266,6,34,2,2,5
murphbi02,Bill Murphy,2,2,15,3,0,0,1,92,29,14,3,13,23,1,1,1,0,132,4,15,1,1,3
myersbr01,Brett Myers,6,6,32,13,0,0,3,295,100,49,16,35,81,3,2,4,0,424,8,52,3,2,8
narvech01,Chris Narveson,3,2,24,6,0,0,1,166,55,26,7,21,46,1,3,2,0,239,6,28,2,2,4
nathajo01,Joe Nathan,3,3,47,4,0,0,21,194,53,22,7,22,64,2,3,2,0,266,32,24,2,1,5
nelsojo01,Joe Nelson,3,2,33,4,0,0,2,149,46,21,6,22,42,2,2,2,0,215,10,24,2,1,4
niemaje01,Jeff Niemann,10,7,44,22,1,1,2,458,155,70,16,54,112,2,5,7,0,656,8,76,4,4,15
niesejo01,Jonathon Niese,4,4,30,10,0,0,2,229,79,38,8,30,59,2,3,2,0,332,7,40,3,2,7
nievefe01,Fernando Nieve,4,5,32,9,0,0,2,226,77,35,9,30,58,2,3,3,0,328,7,38,3,2,7
nifu01,Fu-Te Ni,2,2,23,4,0,0,1,122,38,18,5,15,31,1,2,1,0,173,6,19,1,1,3
nippedu01,Dustin Nippert,5,4,33,9,0,0,1,254,87,43,10,35,66,2,3,3,0,371,8,46,3,3,7
nolasri01,Ricky Nolasco,12,8,43,26,1,0,1,524,171,85,22,47,159,6,3,4,1,738,6,91,7,6,10
norribu01,Bud Norris,6,5,32,11,0,0,2,260,88,42,11,35,72,2,4,4,0,378,7,45,3,3,7
nunezjh01,Jhonny Nunez,2,2,13,3,0,0,1,86,29,14,3,11,22,1,1,1,0,124,4,15,1,1,2
nunezle01,Juan Carlos Oviedo,4,4,43,4,0,0,8,194,62,29,8,24,50,3,2,3,0,277,16,31,3,2,6
nunezvl01,Vladimir Nunez,1,2,14,3,0,0,1,85,28,14,3,12,22,1,1,1,0,123,4,15,1,1,2
odayda01,Darren O'Day,3,2,37,4,0,0,2,173,53,24,5,20,47,2,2,3,0,243,10,26,2,2,5
oflaher01,Eric O'Flaherty,3,2,41,4,0,0,1,165,55,26,5,20,41,2,2,4,0,238,7,29,2,2,5
ohkato01,Tomo Ohka,3,4,26,8,0,0,1,213,74,39,12,25,45,2,3,3,0,308,6,41,3,2,6
ohlenro01,Ross Ohlendorf,9,9,43,22,0,0,2,455,150,70,20,52,104,2,4,5,1,641,7,75,8,6,13
ohmanwi01,Will Ohman,2,2,28,3,0,0,1,110,36,18,4,15,29,2,1,1,0,158,6,19,1,1,3
okajihi01,Hideki Okajima,4,2,44,4,0,0,1,182,56,25,7,22,51,2,1,2,0,257,7,26,2,2,4
oliveda02,Darren Oliver,4,2,43,4,0,0,1,201,63,27,6,22,53,3,3,3,0,280,9,29,3,3,6
olsensc01,Scott Olsen,5,7,30,17,0,0,1,341,123,60,16,44,78,5,4,2,0,498,4,67,5,3,9
olsonga01,Garrett Olson,5,6,32,13,0,0,1,276,99,55,14,40,63,1,3,4,0,408,6,58,3,3,9
ortegan01,Anthony Ortega,4,4,29,8,0,0,2,204,71,35,9,27,52,2,2,2,0,296,7,39,3,2,6
ortizru01,Russ Ortiz,4,5,31,11,0,0,1,257,90,46,9,38,65,2,3,4,0,378,7,49,3,3,9
osullse01,Sean O'Sullivan,5,4,32,11,0,0,2,249,87,44,12,30,60,2,3,3,0,359,7,46,3,4,8
oswalro01,Roy Oswalt,10,7,40,25,2,0,1,508,169,73,18,47,130,4,3,7,0,715,5,77,8,5,15
outmajo01,Josh Outman,5,4,33,13,0,0,2,279,89,42,11,35,72,2,3,3,0,396,7,46,3,2,8
owingmi01,Micah Owings,7,9,36,18,0,0,2,365,123,67,16,52,86,2,3,8,0,535,7,71,4,4,10
padilvi01,Vicente Padilla,6,4,26,14,0,0,1,274,95,46,12,34,70,2,4,5,1,398,4,50,3,2,9
palmema01,Matt Palmer,7,4,38,11,1,0,1,293,93,46,11,42,65,2,4,4,0,418,9,49,4,3,12
papeljo01,Jonathan Papelbon,3,3,46,4,0,0,20,197,58,23,6,21,64,1,2,3,0,275,32,26,2,2,3
parkch01,Chan Ho Park,4,4,40,7,0,0,1,239,80,37,8,31,65,3,2,4,0,345,8,40,2,3,7
parnebo01,Bobby Parnell,4,5,43,8,0,0,2,225,79,39,8,33,60,2,4,3,0,334,10,42,3,2,6
paronch01,Chad Paronto,2,2,15,3,0,0,1,87,31,15,4,11,21,1,1,1,0,126,4,16,1,1,3
parrama01,Manny Parra,9,9,42,23,0,0,1,442,165,83,18,68,122,4,8,3,1,668,6,90,6,4,14
parrja01,James Parr,2,2,15,4,0,0,1,106,37,17,4,13,27,1,1,1,0,154,4,19,1,1,3
pattoda01,David Patton,3,2,19,4,0,0,1,119,40,21,5,17,31,1,2,1,0,174,5,22,2,1,3
paulife01,Felipe Paulino,5,8,36,14,0,0,2,303,113,58,16,38,85,3,4,4,0,447,6,62,6,2,9
pavanca01,Carl Pavano,7,5,32,14,0,0,2,296,105,50,11,32,74,2,2,4,0,428,6,53,3,3,8
peavyja01,Jake Peavy,6,4,23,12,0,0,1,262,76,32,8,30,79,2,3,3,0,362,4,34,3,2,7
pelfrmi01,Mike Pelfrey,10,11,43,26,1,0,1,526,189,87,16,64,111,5,3,9,2,767,5,93,8,5,18
penato03,Tony Pena,3,2,34,3,0,0,2,152,51,23,5,17,39,2,2,2,0,217,10,25,2,2,4
pennha01,Hayden Penn,2,2,19,4,0,0,1,117,41,21,5,18,33,1,1,2,0,174,5,24,2,1,3
pennybr01,Brad Penny,6,5,26,13,0,0,1,268,89,42,9,33,59,1,3,2,0,381,4,44,5,2,10
peraljo01,Joel Peralta,2,2,25,3,0,0,1,126,43,22,6,15,33,1,1,2,0,181,6,23,1,2,4
percitr01,Troy Percival,2,2,21,3,0,0,5,102,32,16,5,14,27,1,2,1,0,145,9,17,1,1,2
perdolu01,Luis Perdomo,2,2,27,4,0,0,1,168,55,28,8,25,46,2,4,1,0,244,7,30,2,1,4
perezch01,Chris Perez,2,3,28,4,0,0,2,141,44,22,6,19,41,1,2,2,0,200,9,23,1,2,5
perezol01,Oliver Perez,6,6,31,18,0,0,1,337,106,57,15,59,100,3,4,5,0,498,4,63,5,4,8
perezra01,Rafael Perez,3,3,39,3,0,0,1,171,58,29,6,22,48,3,2,2,1,247,9,31,2,1,7
perkigl01,Glen Perkins,8,6,37,18,0,0,1,368,138,65,17,38,74,1,3,3,1,534,6,68,4,4,11
perryry01,Ryan Perry,2,3,33,5,0,0,1,174,56,27,7,26,49,3,3,2,0,252,8,29,2,2,6
petityu01,Yusmeiro Petit,5,8,37,15,0,0,1,309,105,55,17,37,81,2,4,2,1,449,8,59,4,2,6
pettian01,Andy Pettitte,12,9,41,26,0,0,1,519,181,82,17,60,131,2,4,4,0,743,5,90,5,5,15
pineijo01,Joel Pineiro,11,10,43,26,1,1,2,541,190,82,17,41,107,2,4,6,0,755,6,89,9,5,20
pintore01,Renyel Pinto,3,3,47,4,0,0,1,188,57,28,7,32,53,2,4,3,0,272,8,30,3,3,6
ponsosi01,Sidney Ponson,4,6,28,12,0,0,1,251,96,50,10,33,54,2,3,4,0,372,5,53,3,4,8
porceri01,Rick Porcello,11,8,45,23,0,0,2,454,154,69,19,51,96,2,5,4,1,646,7,75,5,3,18
poredaa01,Aaron Poreda,1,1,12,3,0,0,1,81,27,13,3,11,21,1,1,1,0,117,3,14,1,1,3
priceda01,David Price,8,7,41,18,0,0,2,386,123,61,16,51,101,2,3,5,0,555,7,68,4,3,7
purceda01,David Purcey,4,6,31,13,0,0,2,273,94,50,11,41,73,2,4,3,0,401,6,53,4,3,7
putzjj01,J. J. Putz,3,3,28,3,0,0,6,131,41,20,4,19,38,2,2,1,0,189,13,21,1,1,3
quallch01,Chad Qualls,3,4,41,3,0,0,8,174,56,24,6,17,49,2,3,2,0,245,17,27,2,2,6
ramired01,Edwar Ramirez,2,2,25,3,0,0,1,125,41,21,6,19,37,1,2,2,0,182,6,22,1,1,3
ramirho01,Horacio Ramirez,2,3,19,5,0,0,1,118,44,22,5,16,26,2,1,1,0,175,3,24,2,1,4
ramirra02,Ramon Ramirez,4,4,47,4,0,0,1,201,63,27,6,28,54,3,3,2,1,287,11,30,3,2,6
ramirra03,Ramon Ramirez,2,2,15,4,0,0,1,102,32,15,4,13,26,1,1,1,0,144,4,16,1,1,3
ramosce01,Cesar Ramos,2,3,20,5,0,0,1,142,49,22,5,18,36,1,2,2,0,203,5,23,2,1,5
rapadcl01,Clay Rapada,2,1,15,3,0,0,1,86,29,14,3,12,22,1,1,1,0,125,3,15,1,1,2
rauchjo01,Jon Rauch,3,2,22,3,0,0,1,105,34,16,4,13,28,1,1,1,0,149,6,17,2,2,3
raych01,Chris Ray,2,3,29,4,0,0,2,141,51,26,6,20,39,3,1,2,0,209,9,27,2,2,4
rayro01,Robert Ray,4,4,29,9,0,0,2,220,73,35,9,27,55,2,2,3,0,315,7,39,3,2,6
redditi01,Tim Redding,6,7,35,18,0,0,1,366,125,63,17,48,84,4,5,4,0,530,5,68,4,4,11
regisst01,Steven Register,1,1,13,3,0,0,1,82,28,14,4,11,21,1,1,1,0,119,4,15,1,1,2
reinech01,Chad Reineke,4,3,27,8,0,0,2,194,64,32,8,25,49,2,2,3,0,279,7,34,2,2,6
reyesan01,Anthony Reyes,4,5,28,12,0,0,1,248,83,43,10,34,58,1,3,4,0,360,5,46,3,3,7
reyesde01,Dennys Reyes,2,2,46,4,0,0,1,149,48,21,5,20,39,1,3,2,0,214,9,23,3,1,4
reyesjo03,Jo-Jo Reyes,3,6,27,12,0,0,1,241,85,46,11,35,59,3,2,3,0,354,5,50,4,2,9
rhodear01,Arthur Rhodes,3,2,37,4,0,0,1,153,47,21,5,19,42,2,2,2,0,216,7,22,3,2,4
richacl01,Clayton Richard,6,5,34,14,0,0,2,294,100,49,11,40,73,2,3,2,1,425,7,53,4,2,9
richadu02,Dustin Richardson,1,1,12,3,0,0,1,81,27,13,3,10,21,1,1,1,0,117,3,14,1,1,2
richmsc01,Scott Richmond,7,9,39,19,1,0,2,382,132,69,19,49,103,2,4,3,1,554,7,73,3,3,9
rincoju01,Juan Rincon,3,2,25,3,0,0,1,122,40,22,5,18,32,2,2,2,0,177,5,24,1,1,4
riskeda01,David Riske,1,2,17,2,0,0,1,88,30,14,4,12,22,1,1,1,0,127,4,15,1,1,3
riverma01,Mariano Rivera,4,4,44,4,0,0,19,189,54,22,6,17,58,1,2,2,0,257,30,23,1,1,4
riversa01,Saul Rivera,3,3,33,3,0,0,1,156,54,25,5,21,38,2,2,2,0,227,8,27,2,2,5
roberda08,David Robertson,3,2,31,4,0,0,1,153,49,24,6,22,49,2,4,2,0,221,10,26,1,2,3
roberna01,Nate Robertson,4,5,25,10,0,0,1,220,83,42,9,29,52,2,2,2,0,326,4,45,2,2,8
rodnefe01,Fernando Rodney,3,5,45,4,0,0,13,198,63,32,7,31,56,3,3,3,0,289,26,34,3,2,7
rodrife02,Fernando Rodriguez,1,1,11,3,0,0,1,77,26,13,3,10,20,1,1,1,0,112,3,14,1,1,2
rodrifr03,Francisco Rodriguez,3,4,49,4,0,0,23,199,58,27,6,30,63,3,3,2,0,285,35,31,2,2,4
rodrihe03,Henry Rodriguez,2,2,13,3,0,0,1,84,28,13,3,11,22,1,2,1,0,121,3,14,1,1,2
rodrira01,Rafael Rodriguez,2,2,19,4,0,0,1,123,45,21,5,15,29,1,1,1,0,180,5,23,2,2,4
rodriwa01,Wandy Rodriguez,11,10,43,27,1,1,1,527,170,71,19,59,156,4,3,5,1,742,5,80,6,5,17
roenijo01,Josh Roenicke,2,2,17,3,0,0,1,103,35,18,4,14,28,1,1,1,0,151,4,19,1,1,3
rogeres01,Esmil Rogers,3,3,28,7,0,0,2,190,63,30,7,25,49,2,2,2,0,273,7,33,2,2,6
romerjc01,J. C. Romero,2,2,29,3,0,0,1,116,34,16,4,19,31,1,1,2,0,166,6,17,2,1,3
romerri01,Ricky Romero,10,8,43,21,0,0,2,455,158,72,16,63,119,2,5,7,1,656,7,76,4,3,20
romose01,Sergio Romo,3,2,29,4,0,0,1,138,42,20,5,16,40,1,2,2,0,195,7,22,2,1,3
rosaca01,Carlos Rosa,2,2,14,3,0,0,1,94,31,15,4,12,23,1,1,1,0,134,4,16,1,1,3
rosalle01,Leo Rosales,3,2,28,4,0,0,1,152,50,25,6,19,38,2,2,1,0,217,7,26,2,2,4
rowlary01,Ryan Rowland-Smith,6,5,43,14,0,0,2,364,117,53,13,44,84,2,3,4,1,518,9,57,3,5,10
rundlri01,Rich Rundles,1,1,12,3,0,0,1,78,26,12,3,10,21,1,1,1,0,113,3,13,1,1,2
runzlda01,Dan Runzler,2,2,15,3,0,0,1,90,30,14,4,12,24,1,1,1,0,130,3,15,1,1,2
rupejo01,Josh Rupe,2,2,17,3,0,0,1,109,38,19,4,16,26,1,1,2,0,160,4,20,1,2,5
ruschgl01,Glendon Rusch,2,2,17,4,0,0,1,120,44,20,5,13,30,1,1,1,0,174,4,22,2,1,3
russead01,Adam Russell,3,2,18,3,0,0,1,103,35,16,3,14,28,1,1,1,0,150,5,18,1,1,3
ryanbj01,B. J. Ryan,2,2,26,3,0,0,6,121,39,19,5,18,33,2,1,2,0,176,12,21,2,1,4
rzepcma01,Marc Rzepczynski,5,5,33,12,0,0,2,279,88,42,11,39,78,2,4,3,1,399,7,46,3,2,9
sabatcc01,CC Sabathia,14,7,41,25,3,1,1,563,170,69,16,52,161,4,4,7,0,771,5,77,5,6,17
sadlebi01,Billy Sadler,1,1,15,3,0,0,1,90,29,14,4,13,24,1,2,2,0,131,4,15,1,1,3
sadowry01,Ryan Sadowski,4,5,30,10,0,0,2,224,74,36,8,31,56,2,3,3,0,325,7,39,3,3,6
saitota01,Takashi Saito,3,3,38,4,0,0,7,167,51,21,6,21,51,2,2,3,0,236,19,23,1,2,4
samarje01,Jeff Samardzija,2,3,26,5,0,0,1,149,52,26,6,20,38,2,2,2,0,219,7,28,3,2,4
sampsch01,Chris Sampson,4,3,31,6,0,0,1,191,67,32,6,20,41,3,2,2,0,273,6,34,2,2,7
sanchan01,Anibal Sanchez,6,8,35,16,0,0,2,330,112,53,13,50,89,4,3,4,1,488,6,57,4,3,9
sanchbr01,Brian Sanches,4,3,31,4,0,0,1,161,53,24,6,22,44,3,3,3,0,235,6,26,2,1,4
sanchdu01,Duaner Sanchez,2,2,22,3,0,0,1,108,37,18,4,15,27,1,1,2,0,158,5,19,1,1,3
sanchjo01,Jonathan Sanchez,8,11,45,24,1,0,1,465,144,78,17,73,150,4,8,6,0,676,7,82,5,3,11
santaer01,Ervin Santana,9,8,37,22,1,1,1,454,155,74,20,48,127,3,5,7,0,649,5,79,3,3,13
santajo01,Johan Santana,11,8,37,23,1,1,1,497,153,61,19,49,146,3,4,4,1,693,5,67,6,3,10
sarfade01,Dennis Sarfate,2,2,25,4,0,0,1,133,41,22,5,22,39,1,2,2,0,194,6,24,2,1,4
saundjo01,Joe Saunders,13,7,42,26,1,0,1,518,178,80,22,57,106,3,5,5,1,737,5,87,5,4,21
scherma01,Max Scherzer,7,9,45,22,0,0,2,460,149,69,18,58,144,2,5,8,1,664,7,80,6,5,10
schleda01,Daniel Schlereth,2,3,18,3,0,0,1,106,34,17,4,15,29,1,2,1,0,153,4,19,2,1,3
schlitr01,Travis Schlichting,1,1,12,3,0,0,1,80,27,13,3,11,21,1,1,1,0,116,3,14,1,1,2
schmija01,Jason Schmidt,4,4,27,9,0,0,2,202,67,34,8,28,50,2,2,3,0,295,6,37,3,2,5
schoesc01,Scott Schoeneweis,2,3,34,3,0,0,1,125,43,21,6,17,30,2,2,2,0,183,7,22,2,1,4
seaybo01,Bobby Seay,4,3,42,4,0,0,1,163,54,25,5,21,45,3,2,2,0,234,9,27,2,2,4
segovza01,Zack Segovia,2,2,14,3,0,0,1,92,31,16,4,12,23,1,1,1,0,132,3,17,1,1,3
shellst01,Steven Shell,2,2,17,3,0,0,1,99,31,14,4,13,26,1,1,1,0,140,4,16,1,1,3
sherrge01,George Sherrill,2,2,31,3,0,0,5,131,40,18,5,18,38,2,1,1,0,187,11,19,2,2,3
shielja02,James Shields,11,9,42,27,1,1,1,574,195,85,24,48,148,2,5,6,0,802,5,93,6,3,17
shielsc01,Scot Shields,2,3,26,3,0,0,1,118,37,18,4,17,33,1,2,1,0,170,5,21,1,1,4
shousbr01,Brian Shouse,2,2,34,3,0,0,1,127,42,19,5,15,31,2,1,2,0,182,8,21,2,1,4
silvaca01,Carlos Silva,4,6,24,12,0,0,1,244,96,48,10,23,47,1,2,3,0,356,4,50,2,3,9
silvawa01,Walter Silva,3,4,29,9,0,0,2,214,76,39,9,30,52,2,2,2,0,315,7,43,2,3,7
simonal01,Alfredo Simon,3,4,28,8,0,0,2,193,66,33,10,24,49,2,3,3,0,279,6,36,2,2,5
sippto01,Tony Sipp,3,2,27,4,0,0,1,137,42,20,5,20,40,1,2,1,0,195,6,22,2,1,4
slatedo01,Doug Slaten,2,2,21,3,0,0,1,94,32,15,4,12,24,1,1,1,0,137,5,17,1,1,3
sloweke01,Kevin Slowey,9,6,34,18,1,1,1,371,133,60,18,30,97,2,3,4,0,526,5,63,3,4,9
smithch07,Chris Smith,2,2,26,4,0,0,1,150,49,25,8,19,38,1,2,2,0,215,7,26,2,1,4
smithjo05,Joe Smith,3,2,37,3,0,0,1,148,47,22,5,20,40,2,2,2,0,212,7,24,2,1,5
smoltjo01,John Smoltz,5,4,25,11,0,0,1,235,76,34,8,25,71,3,3,2,0,332,4,36,3,3,5
snellia01,Ian Snell,6,6,30,17,0,0,1,326,115,54,12,50,84,1,5,3,0,481,4,59,4,3,10
sonnaan01,Andy Sonnanstine,7,8,34,19,0,0,1,373,140,70,17,36,86,3,4,4,0,541,5,77,3,4,11
soriajo01,Joakim Soria,3,3,39,4,0,0,15,178,51,21,6,20,56,1,2,3,0,248,24,23,2,2,4
soriara01,Rafael Soriano,3,4,44,4,0,0,9,192,55,26,7,23,63,3,1,2,0,267,21,28,2,2,5
sosajo02,Jorge Sosa,3,2,19,4,0,0,1,114,40,20,5,15,28,2,1,1,0,166,4,22,2,1,3
sowerje01,Jeremy Sowers,6,10,38,21,0,0,1,401,145,75,16,51,77,3,4,4,0,586,6,79,4,6,12
speieju01,Justin Speier,3,3,34,3,0,0,1,152,51,25,7,19,42,2,3,3,0,221,8,27,2,2,4
speiery01,Ryan Speier,2,2,18,3,0,0,1,98,33,15,3,13,24,1,1,2,0,141,4,16,1,1,3
sprinru01,Russ Springer,2,2,27,3,0,0,1,109,34,15,4,13,30,1,1,1,0,153,6,16,1,2,3
stammcr01,Craig Stammen,6,7,38,16,1,0,2,345,118,59,14,36,73,2,6,4,0,492,7,65,4,3,8
starkde01,Denny Stark,2,2,14,3,0,0,1,90,30,15,4,13,23,1,1,1,0,130,4,16,1,1,3
staufti01,Tim Stauffer,5,7,34,14,0,0,2,291,97,46,12,40,74,2,3,5,0,421,7,49,3,2,10
stettmi01,Mitch Stetter,4,2,38,4,0,0,1,150,46,22,5,23,43,3,2,3,0,218,8,24,1,1,4
steveje01,Jeff Stevens,2,2,15,3,0,0,1,95,32,16,4,13,25,1,1,1,0,138,4,17,1,1,3
stokebr01,Brian Stokes,3,4,41,4,0,0,1,189,66,31,7,26,46,3,2,2,0,277,11,32,2,3,8
stoneto01,Tobi Stoner,2,2,13,3,0,0,1,90,30,14,4,11,23,1,1,1,0,129,3,15,1,1,3
streehu01,Huston Street,4,3,44,4,0,0,14,191,56,27,7,21,59,3,2,1,0,264,25,29,3,2,4
stroppe01,Pedro Strop,2,2,14,3,0,0,1,88,29,14,3,11,23,1,1,1,0,126,4,15,1,1,3
stulter01,Eric Stults,5,5,31,12,1,1,2,265,90,43,10,36,66,3,3,4,0,386,6,46,4,2,7
suppaje01,Jeff Suppan,8,10,39,25,0,0,1,467,178,84,21,62,91,6,7,7,0,694,5,92,9,5,18
swarzan01,Anthony Swarzak,5,7,34,13,0,0,2,275,100,50,13,34,66,2,2,3,0,402,7,53,3,2,9
swindrj01,R. J. Swindle,2,2,14,3,0,0,1,87,31,16,4,11,23,1,1,1,0,128,3,17,1,1,2
switzjo01,Jon Switzer,1,1,13,3,0,0,1,80,27,13,3,10,21,1,1,1,0,115,3,14,1,1,2
takahke01,Ken Takahashi,2,2,20,4,0,0,1,112,36,17,4,15,29,1,2,2,0,160,4,18,1,1,3
tallebr01,Brian Tallet,6,7,55,15,0,0,1,399,133,67,15,55,103,4,3,5,0,582,12,71,3,5,9
taschja01,Jack Taschner,2,2,31,3,0,0,1,132,47,22,5,20,35,2,2,2,0,197,7,24,2,1,3
tavarju01,Julian Tavarez,3,4,26,4,0,0,1,135,47,22,5,20,35,2,2,2,0,200,6,26,2,2,4
taylogr01,Graham Taylor,3,4,29,8,0,0,2,200,69,34,7,29,50,2,3,3,0,295,7,38,3,3,5
tazawju01,Junichi Tazawa,4,4,26,8,0,0,2,188,70,33,8,24,46,1,2,3,0,279,6,36,2,3,5
tejedro01,Rob Tejeda,4,4,32,8,0,0,1,217,62,34,7,36,66,2,5,3,0,312,8,37,2,2,5
thatcjo01,Joe Thatcher,2,3,33,4,0,0,1,150,50,23,5,20,43,3,2,2,0,217,7,25,2,2,4
thayeda01,Dale Thayer,2,2,15,3,0,0,1,95,33,15,4,11,24,1,1,1,0,137,4,17,1,1,3
thompbr01,Brad Thompson,4,5,33,9,0,0,1,242,86,41,9,27,48,2,3,5,0,349,11,44,3,2,10
thompri03,Rich Thompson,2,2,17,3,0,0,1,106,38,18,5,14,29,1,2,1,0,156,4,19,1,1,3
thornma01,Matt Thornton,5,3,49,4,0,0,2,201,60,27,6,23,64,2,3,2,0,280,11,28,2,2,5
tillmch01,Chris Tillman,5,6,35,13,0,0,2,289,102,50,15,36,70,2,4,3,0,418,7,53,2,2,9
toddje01,Jess Todd,2,2,18,4,0,0,1,109,39,19,4,14,29,1,1,1,0,159,5,20,1,2,3
tomkobr01,Brett Tomko,5,4,30,9,1,0,2,232,73,34,10,26,59,2,3,2,0,326,7,36,3,2,6
torreca01,Carlos Torres,3,4,25,8,0,0,1,184,62,31,8,26,48,2,2,3,0,268,6,34,3,3,4
towerjo01,Josh Towers,1,2,11,3,0,0,1,82,29,14,3,9,21,1,1,1,0,119,3,15,1,1,2
trabebi01,Billy Traber,1,1,14,3,0,0,1,85,31,15,4,11,21,1,1,1,0,125,3,16,1,1,2
troncra01,Ramon Troncoso,4,4,45,4,0,0,3,213,71,30,6,27,54,4,3,3,0,306,12,33,4,3,8
ueharko01,Koji Uehara,4,5,33,12,0,0,2,275,94,43,10,29,70,2,2,2,0,392,7,47,3,3,7
valdelu01,Jairo Asencio,1,2,12,3,0,0,1,80,27,13,3,10,20,1,1,1,0,115,3,14,1,1,2
valdeme01,Merkin Valdez,3,2,31,4,0,0,1,154,53,26,6,22,40,2,3,2,0,224,10,28,2,1,5
valvejo01,Jose Valverde,4,3,41,3,0,0,17,176,53,23,7,22,55,2,2,2,0,248,28,25,1,2,4
vanderi01,Rick van den Hurk,5,5,32,14,0,0,2,279,95,49,13,38,79,3,3,5,1,409,6,51,4,3,6
vargacl01,Claudio Vargas,3,2,19,5,0,0,1,130,42,20,5,16,32,1,1,1,0,185,3,21,1,2,4
vargaja01,Jason Vargas,4,6,34,12,0,0,2,280,97,48,13,31,65,2,3,3,0,399,8,51,3,4,9
vasques01,Esmerling Vasquez,3,3,31,4,0,0,1,156,52,25,6,22,42,2,2,2,0,227,7,27,2,1,4
vasquvi01,Virgil Vasquez,3,4,27,8,0,0,1,196,71,35,8,25,48,2,2,3,0,287,7,37,2,2,6
vazquja01,Javier Vazquez,12,10,41,26,2,0,1,563,174,79,21,51,181,3,5,5,0,778,5,84,7,4,12
vealdo01,Donnie Veal,2,2,17,3,0,0,1,101,34,17,4,16,27,1,2,2,0,149,5,18,1,1,3
verasjo01,Jose Veras,3,2,26,3,0,0,1,129,41,20,5,19,37,2,2,2,0,186,7,22,2,1,3
verlaju01,Justin Verlander,14,10,45,29,2,1,1,608,191,90,19,69,191,5,8,9,2,858,5,97,5,4,12
villaca01,Carlos Villanueva,4,6,45,8,0,0,2,264,89,44,12,32,73,3,3,3,0,381,12,46,4,1,8
villoro01,Ron Villone,3,3,42,3,0,0,1,158,53,25,6,25,41,2,2,2,0,232,8,27,2,2,5
violape01,Pedro Viola,2,2,14,3,0,0,1,87,29,14,4,11,22,1,1,1,0,124,3,15,1,1,3
vizcalu01,Luis Vizcaino,2,2,21,3,0,0,1,104,34,17,5,15,29,2,1,1,0,152,5,18,1,1,3
volqued01,Edinson Volquez,8,4,30,15,0,0,1,317,95,46,11,49,97,2,4,6,1,456,5,50,4,3,8
volstch01,Chris Volstad,9,10,43,23,1,1,2,457,154,76,20,59,108,4,6,5,0,656,6,82,7,3,15
waddeja01,Jason Waddell,1,1,12,3,0,0,1,78,26,12,3,10,20,1,1,1,0,112,3,13,1,1,2
wadeco01,Cory Wade,2,2,27,3,0,0,1,140,44,21,5,16,35,2,2,2,0,196,7,22,1,1,4
waechdo01,Doug Waechter,2,2,18,3,0,0,1,102,35,16,4,13,26,1,1,1,0,148,5,17,1,1,2
wagnebi02,Billy Wagner,2,2,22,3,0,0,6,106,32,14,4,13,33,1,1,1,0,150,10,16,1,1,3
wainwad01,Adam Wainwright,14,8,43,26,1,0,1,569,182,70,16,59,153,2,6,5,0,801,5,76,8,5,16
wakefti01,Tim Wakefield,9,7,34,20,1,0,1,410,134,67,16,50,89,1,6,8,0,586,5,70,3,3,11
walkeja01,Jamie Walker,2,2,26,3,0,0,1,102,37,17,5,11,25,1,1,1,0,148,5,19,1,2,3
walkety01,Tyler Walker,3,3,31,3,0,0,1,142,45,21,5,17,38,2,2,2,0,202,8,23,2,2,4
waltepj01,P. J. Walters,2,2,17,4,0,0,1,115,40,21,5,15,30,1,1,1,0,168,5,22,2,1,3
wangch01,Chien-Ming Wang,5,5,24,12,0,0,1,245,87,44,8,30,55,2,3,3,0,354,4,46,2,2,9
washbja01,Jarrod Washburn,4,7,27,14,0,0,1,284,101,50,13,34,61,2,2,4,0,414,4,54,4,3,8
waterch01,Chris Waters,2,3,17,5,0,0,1,133,44,22,6,18,31,1,1,2,0,192,3,24,1,1,4
weathda01,David Weathers,2,3,28,3,0,0,3,127,43,19,4,17,30,2,1,2,0,184,9,21,2,1,5
weaveje01,Jeff Weaver,4,4,27,9,0,0,1,216,78,36,8,26,54,4,3,3,0,317,5,38,3,2,6
weaveje02,Jered Weaver,13,9,44,28,2,1,1,553,180,83,22,60,149,4,4,5,0,781,5,87,5,6,9
webbbr01,Brandon Webb,6,4,22,11,1,0,1,252,79,35,7,28,67,2,3,4,0,355,3,39,3,3,8
webbry01,Ryan Webb,2,2,21,4,0,0,1,117,39,18,5,15,30,1,2,1,0,170,6,20,2,1,3
welleto01,Todd Wellemeyer,8,8,37,20,0,0,1,391,138,66,17,51,93,2,4,4,0,568,6,72,6,4,13
wellski01,Kip Wells,4,5,26,9,0,0,1,218,72,39,8,32,53,2,2,4,0,319,6,42,3,2,7
wellsra01,Randy Wells,9,8,42,20,0,0,2,432,142,57,14,47,100,4,4,5,1,611,7,65,6,4,15
westse01,Sean West,8,7,39,17,0,0,2,345,121,58,13,46,85,2,4,4,0,506,7,63,5,4,11
wheelda01,Dan Wheeler,4,4,44,4,0,0,4,179,52,26,8,19,47,2,2,1,0,248,13,28,2,2,4
whislwe01,Wes Whisler,1,1,12,3,0,0,1,78,26,13,3,10,20,1,1,1,0,112,3,14,1,1,2
whitese02,Sean White,3,3,31,4,0,0,1,172,53,25,5,21,38,1,3,3,0,243,8,27,2,2,5
willido03,Dontrelle Willis,4,6,26,12,0,0,1,239,83,47,10,41,58,2,4,4,0,358,5,50,4,3,8
willira01,Randy Williams,2,2,18,3,0,0,1,100,32,16,4,14,28,2,1,2,0,144,4,17,1,1,3
wilsobr01,Brian Wilson,4,4,47,4,0,0,19,203,64,29,6,26,63,3,3,2,0,290,30,32,3,3,6
wilsocj01,C. J. Wilson,4,4,47,4,0,0,9,199,63,29,6,28,60,2,3,4,0,289,20,33,2,2,6
wolfebr01,Brian Wolfe,2,2,19,3,0,0,1,104,36,17,5,13,26,1,1,1,0,150,6,18,1,1,4
wolfra02,Randy Wolf,10,7,43,25,0,0,2,515,158,71,19,55,133,3,4,6,0,717,6,76,9,4,13
woodke02,Kerry Wood,3,3,40,4,0,0,11,175,54,26,6,23,56,2,3,3,0,251,24,28,2,2,4
woodti01,Tim Wood,2,2,18,4,0,0,1,109,36,17,4,14,28,1,2,1,0,157,5,18,2,2,3
wrighja01,Jamey Wright,4,5,44,4,0,0,1,214,71,35,7,32,53,3,4,5,0,313,10,41,3,2,9
wrighwe01,Wesley Wright,3,3,39,4,0,0,1,163,54,28,8,25,47,2,2,2,0,238,7,30,1,2,5
wuertmi01,Michael Wuertz,4,3,48,4,0,0,2,205,61,28,7,25,64,2,4,1,0,285,10,31,2,2,5
yabutya01,Yasuhiko Yabuta,2,2,18,3,0,0,1,105,38,20,5,14,26,1,2,1,0,155,5,21,1,1,3
yatesty01,Tyler Yates,2,2,25,3,0,0,1,114,38,19,4,17,31,2,2,1,0,166,6,21,2,1,3
youngch03,Chris Young,6,6,31,16,0,0,1,323,96,51,13,47,87,3,3,3,1,461,5,54,4,4,6
zambrca01,Carlos Zambrano,10,7,39,24,1,1,1,491,152,72,15,69,131,4,5,7,0,702,5,77,7,3,12
zavadcl01,Clay Zavada,3,3,30,4,0,0,1,154,50,23,6,21,43,2,2,2,0,222,7,25,2,1,4
zieglbr01,Brad Ziegler,3,3,43,4,0,0,5,202,67,26,5,26,49,3,1,2,0,284,14,28,2,2,11
zimmejo02,Jordan Zimmermann,5,6,36,15,0,0,2,327,111,54,12,39,95,2,2,4,0,468,7,58,5,3,9
zitoba01,Barry Zito,9,12,42,27,0,0,1,517,168,85,19,77,129,7,4,6,1,750,5,91,9,5,15
zumayjo01,Joel Zumaya,3,3,25,3,0,0,1,131,44,21,5,21,36,2,2,1,0,193,6,23,1,1,3
