playerID,playerName,G,AB,R,H,2B,3B,HR,RBI,BB,SO,SB,CS,HBP,SH,SF
abreubo01,Bobby Abreu,137,507,80,140,31,2,16,78,72,104,21,8,2,0,5
abreuto01,Tony Abreu,100,280,30,70,15,1,5,28,19,61,4,2,1,1,4
aldrico01,Cory Aldridge,54,183,23,47,9,2,5,23,17,38,3,1,2,1,1
alfonel01,Eliezer Alfonzo,65,213,23,50,9,1,5,23,14,49,3,1,1,1,1
allenbr01,Brandon Allen,69,216,28,54,13,1,7,28,26,59,3,1,1,1,2
alonsyo01,Yonder Alonso,69,199,25,52,11,1,5,25,18,43,3,1,2,1,1
alvarpe01,Pedro Alvarez,102,363,46,95,21,1,15,59,38,104,3,1,1,1,2
anderbr05,Bryan Anderson,63,199,24,54,11,1,5,26,18,40,3,1,2,1,2
anderga01,Garret Anderson,92,301,32,79,15,1,8,38,18,49,3,1,1,1,4
anderla03,Lars Anderson,65,200,27,52,10,1,5,25,23,40,3,1,2,1,2
andinro01,Robert Andino,83,234,32,59,11,1,6,23,19,53,4,2,2,1,2
andruel01,Elvis Andrus,148,539,79,143,18,5,5,43,53,91,28,10,5,13,2
ankieri01,Rick Ankiel,87,275,39,68,15,2,10,34,27,70,3,2,3,0,2
arencjp01,J. P. Arencibia,59,201,26,50,10,1,7,25,19,43,3,1,2,1,1
ariasjo01,Joaquin Arias,66,197,27,52,11,2,4,23,17,35,4,1,2,2,1
atkinga01,Garrett Atkins,85,283,32,72,13,1,8,38,25,50,1,1,2,0,3
ausmubr01,Brad Ausmus,70,209,21,53,9,1,4,22,20,43,2,1,3,4,1
avilaal01,Alex Avila,116,340,39,84,16,1,11,43,40,78,4,2,2,1,2
avilemi01,Mike Aviles,108,407,58,118,19,3,9,40,23,61,10,3,2,1,3
aybarer01,Erick Aybar,137,505,69,139,22,6,6,47,33,72,15,6,6,10,3
aybarwi01,Willy Aybar,114,345,38,86,17,1,11,46,37,65,2,1,3,2,3
bakerje03,Jeff Baker,102,301,44,83,20,2,8,37,26,71,3,1,2,1,3
bakerjo01,John Baker,75,251,36,67,15,1,6,33,29,57,1,1,3,1,2
baldero01,Rocco Baldelli,70,206,29,53,9,1,8,30,18,46,3,1,3,1,1
barajro01,Rod Barajas,76,253,30,63,13,0,10,39,16,47,2,0,3,1,3
bardebr01,Brian Barden,89,202,25,51,8,1,6,24,18,45,3,2,3,2,2
bardjo01,Josh Bard,83,260,24,61,15,0,6,29,24,49,2,1,1,2,1
barmecl01,Clint Barmes,129,429,52,109,25,2,13,55,31,83,8,5,5,3,4
barneda01,Darwin Barney,70,222,31,58,12,1,5,22,21,41,3,1,2,1,1
bartlja01,Jason Bartlett,131,461,68,130,26,4,8,51,42,81,17,6,6,6,4
bartoda02,Daric Barton,143,479,69,125,26,4,10,54,79,92,5,3,3,7,4
bautijo02,Jose Bautista,147,489,84,124,26,3,33,85,75,106,7,2,7,3,4
baxtemi01,Mike Baxter,59,184,24,48,9,1,5,24,18,37,4,1,2,1,2
bayja01,Jason Bay,110,394,66,105,22,4,17,69,55,105,9,1,6,0,4
beckhgo01,Gordon Beckham,128,447,62,117,27,2,12,59,42,87,6,5,6,4,4
belliro01,Ronnie Belliard,94,261,36,70,17,1,8,37,28,53,4,2,2,2,2
belljo01,Josh Bell,83,267,31,65,12,1,7,28,17,68,3,2,1,1,1
beltrad01,Adrian Beltre,135,517,69,149,34,1,19,73,37,82,7,2,5,0,4
beltrca01,Carlos Beltran,85,310,47,88,19,2,11,48,43,51,9,2,1,1,3
berkmla01,Lance Berkman,78,263,42,74,18,1,12,42,45,52,5,2,2,0,2
bernaro01,Roger Bernadina,124,390,51,98,18,3,10,44,36,86,13,3,4,2,4
betanyu01,Yuniesky Betancourt,135,486,55,128,26,3,11,59,24,57,3,3,2,4,4
betemwi01,Wilson Betemit,109,324,41,89,22,1,12,45,33,81,2,1,2,1,2
blakeca01,Casey Blake,133,465,63,122,25,3,16,63,49,114,3,3,6,2,5
blaloha01,Hank Blalock,73,259,35,66,14,2,11,36,19,54,2,1,2,0,2
blancan01,Andres Blanco,100,277,34,74,16,1,4,29,22,45,2,3,3,5,2
blancgr01,Gregor Blanco,84,266,33,69,11,3,3,24,35,56,9,3,2,3,2
blanche01,Henry Blanco,89,256,29,64,12,1,7,25,25,54,2,1,1,1,2
blankky01,Kyle Blanks,79,248,35,59,14,1,10,34,29,75,3,1,6,1,1
bloomwi01,Willie Bloomquist,73,228,30,61,7,3,3,19,20,41,11,3,1,2,1
blumge01,Geoff Blum,108,309,34,79,14,1,8,41,25,53,2,1,4,0,4
boescbr01,Brennan Boesch,121,418,48,109,23,3,13,58,38,87,7,2,4,1,3
bogusbr01,Brian Bogusevic,65,194,27,50,12,1,5,25,20,43,4,2,2,1,1
bonifem01,Emilio Bonifacio,98,322,50,83,11,5,3,25,28,69,14,4,1,3,4
borboju01,Julio Borbon,128,423,61,118,14,3,7,47,28,67,19,6,3,8,1
bourgja01,Jason Bourgeois,102,244,33,60,11,1,5,22,24,42,12,4,1,1,1
bourjpe01,Peter Bourjos,80,278,34,66,12,4,9,30,19,58,10,3,3,3,2
bournmi01,Michael Bourn,138,509,76,135,22,6,5,37,51,111,44,10,3,5,2
bowkejo01,John Bowker,76,225,25,56,11,2,7,30,19,47,2,1,2,0,2
bradlmi01,Milton Bradley,98,324,48,85,17,1,12,43,48,83,5,2,6,1,3
brantmi02,Michael Brantley,91,350,44,92,14,2,6,34,29,55,10,4,1,3,2
branyru01,Russell Branyan,90,313,44,77,16,1,20,50,41,100,3,1,4,1,3
braunry02,Ryan Braun,142,557,90,167,36,4,26,93,48,105,14,4,7,0,3
brignre01,Reid Brignac,119,349,45,92,18,2,9,46,26,80,5,4,3,1,2
browndo01,Domonic Brown,76,215,29,55,11,1,7,32,21,52,5,2,2,1,4
browndu01,Dusty Brown,61,184,24,49,10,1,6,25,18,36,3,1,2,1,1
brownjo05,Jordan Brown,66,224,28,58,14,1,5,22,19,39,3,1,2,1,1
bruceja01,Jay Bruce,138,484,72,126,22,3,24,68,50,118,5,4,3,1,3
buckjo01,John Buck,117,398,49,104,24,2,15,61,28,102,2,2,5,1,4
bucktr01,Travis Buck,63,212,26,51,10,1,7,26,20,46,3,1,3,1,1
buddery01,Ryan Budde,55,181,25,50,10,1,6,25,18,38,3,1,2,1,1
burrepa01,Pat Burrell,107,351,46,87,18,1,17,55,53,90,2,1,1,0,4
burriem01,Emmanuel Burriss,68,205,27,54,8,1,3,19,18,33,8,3,3,2,1
buterdr01,Drew Butera,79,251,29,60,12,2,6,29,18,47,3,1,4,3,3
butlebi03,Billy Butler,150,556,69,166,39,1,16,76,56,84,2,1,3,0,5
byrdma01,Marlon Byrd,141,513,72,147,35,3,14,68,37,89,7,2,11,1,5
byrneer01,Eric Byrnes,68,218,26,50,13,1,6,26,18,38,6,2,2,1,1
cabreas01,Asdrubal Cabrera,115,425,56,120,25,2,6,48,38,76,9,4,4,9,4
cabreev01,Everth Cabrera,99,326,44,80,14,5,4,33,35,75,15,6,4,7,1
cabreme01,Melky Cabrera,145,463,56,121,24,2,9,52,41,67,9,2,3,4,3
cabremi01,Miguel Cabrera,141,523,86,163,34,1,30,101,64,96,4,2,4,0,5
cabreor01,Orlando Cabrera,112,440,62,120,25,1,7,45,31,55,10,3,2,3,6
cainlo01,Lorenzo Cain,76,259,33,73,16,2,5,29,22,50,8,2,2,1,2
cairomi01,Miguel Cairo,114,276,40,75,16,2,5,34,23,45,5,1,4,4,3
callaal01,Alberto Callaspo,98,346,43,98,19,3,6,37,29,35,3,2,1,1,2
camermi01,Mike Cameron,84,301,44,76,18,1,12,39,36,83,6,2,3,0,2
canoro01,Robinson Cano,148,566,85,172,37,3,21,82,39,69,4,4,5,1,4
cantujo01,Jorge Cantu,76,288,37,80,18,1,9,42,22,48,3,1,3,1,2
carlilu01,Luke Carlin,61,186,26,45,8,1,6,22,20,43,3,1,2,1,1
carpmi01,Mike Carp,65,205,25,54,11,1,5,22,22,40,3,1,3,1,2
carrobr01,Brett Carroll,102,230,33,55,12,2,6,28,21,56,3,1,7,1,2
carroja01,Jamey Carroll,123,375,57,105,15,2,3,34,44,71,9,3,4,5,3
carsoma01,Matt Carson,76,221,26,54,10,1,8,29,17,50,6,1,1,1,3
cartech01,Chris Carter,113,263,31,70,14,1,7,36,23,42,3,2,2,1,1
cartech02,Chris Carter,66,218,28,54,10,1,7,27,22,48,4,1,2,1,2
cashke01,Kevin Cash,74,207,20,49,10,1,5,22,21,50,2,1,2,1,2
casilal01,Alexi Casilla,91,279,39,72,12,3,4,33,25,41,8,1,2,5,3
castilu01,Luis Castillo,103,337,48,91,10,2,3,31,48,44,13,3,1,10,3
castiwe01,Welington Castillo,58,194,26,52,13,1,6,27,19,41,3,1,2,1,1
castrja01,Jason Castro,90,284,38,68,13,2,6,25,30,58,3,1,1,1,1
castrju01,Juan Castro,92,247,28,60,11,1,4,27,19,48,2,1,1,2,3
castrra01,Ramon Castro,78,240,31,61,10,1,11,37,23,54,3,1,1,2,1
castrst01,Starlin Castro,119,431,52,125,27,4,6,44,32,72,9,6,5,3,4
catalfr01,Frank Catalanotto,80,200,25,53,12,2,3,19,18,33,3,1,3,1,2
cedenro02,Ronny Cedeno,137,432,49,113,23,2,9,46,29,90,9,2,3,6,2
cervefr01,Francisco Cervelli,112,328,39,90,15,2,4,44,33,55,3,3,5,7,4
chaveer01,Eric Chavez,68,236,26,58,14,1,5,27,20,52,2,1,1,1,3
choosh01,Shin-Soo Choo,138,507,79,150,32,4,19,81,69,117,16,4,11,0,4
churcry01,Ryan Church,72,212,33,57,13,1,7,30,22,49,2,1,3,1,1
ciriape01,Pedro Ciriaco,59,185,27,51,10,2,5,24,18,38,4,1,2,1,1
clemeje01,Jeff Clement,82,253,26,60,11,1,9,28,19,62,2,1,3,1,2
clevlbr01,Brent Clevlen,57,181,26,48,10,1,5,22,18,37,3,1,2,1,1
coghlch01,Chris Coghlan,109,415,66,120,24,4,8,40,41,80,9,4,4,3,2
colvity01,Tyler Colvin,126,366,56,94,18,4,17,53,33,91,6,2,3,1,3
congeha01,Hank Conger,62,199,25,51,10,2,5,27,22,42,3,1,2,1,1
conrabr01,Brooks Conrad,119,261,40,66,15,2,10,42,24,64,6,2,2,3,1
coraal01,Alex Cora,68,202,24,53,10,1,3,18,19,28,4,2,4,3,1
counscr01,Craig Counsell,114,304,38,80,15,3,4,30,35,48,3,2,4,2,2
cousisc01,Scott Cousins,72,201,25,55,11,3,5,24,18,44,3,1,2,1,1
craigal01,Allen Craig,77,239,30,62,13,1,8,33,22,50,3,2,2,1,2
crawfca02,Carl Crawford,140,539,89,159,24,9,15,71,43,90,39,10,4,2,5
crispco01,Coco Crisp,96,335,53,90,17,4,8,39,37,56,23,4,1,5,4
crosbbo01,Bobby Crosby,66,209,27,50,12,1,4,25,19,39,3,1,1,1,2
crowetr01,Trevor Crowe,125,421,50,106,22,3,5,41,31,77,15,5,3,5,2
cruzlu01,Luis Cruz,63,197,23,49,8,1,4,19,17,31,3,1,2,1,2
cruzne02,Nelson Cruz,117,421,64,121,26,2,24,73,44,94,16,4,2,1,4
cuddymi01,Michael Cuddyer,143,537,80,145,31,5,18,77,51,94,7,2,5,0,3
cunniaa01,Aaron Cunningham,87,257,32,67,17,2,5,33,20,57,4,3,4,2,3
curtico01,Colin Curtis,72,212,28,53,11,1,6,28,20,44,3,1,2,1,1
custja01,Jack Cust,119,391,61,98,17,0,18,56,71,135,3,1,3,0,3
damonjo01,Johnny Damon,131,489,81,137,30,4,14,60,59,83,14,2,2,2,1
davisbr03,Brad Davis,69,232,27,58,13,2,7,31,22,57,4,1,2,2,3
davisch02,Chris Davis,86,290,37,72,16,1,12,39,24,90,3,1,2,0,2
davisik02,Ike Davis,128,452,62,120,27,1,16,60,57,110,4,2,2,1,4
davisra01,Rajai Davis,150,479,67,136,26,4,6,53,31,80,42,11,5,2,4
deazaal01,Alejandro De Aza,75,196,31,53,11,1,5,24,20,38,5,2,2,2,2
dejesda01,David DeJesus,107,407,54,120,22,5,9,51,38,62,5,5,5,3,3
denorch01,Chris Denorfia,106,318,45,86,17,2,10,41,31,61,8,3,3,2,3
derosma01,Mark DeRosa,70,239,37,61,12,1,8,34,26,50,3,1,4,1,2
descada01,Daniel Descalso,59,200,28,53,11,1,5,25,19,39,4,1,2,1,1
desmoia01,Ian Desmond,133,459,54,123,25,4,11,58,30,92,13,4,4,6,5
dewitbl01,Blake DeWitt,89,278,33,72,13,1,7,36,29,53,3,1,2,1,3
diazar01,Argenis Diaz,69,201,23,53,10,1,5,24,20,42,3,2,2,1,1
diazma02,Matt Diaz,108,323,42,90,17,3,10,45,25,70,8,3,7,3,2
dickech01,Chris Dickerson,78,226,29,61,12,2,5,23,29,56,7,2,2,2,2
dobbsgr01,Greg Dobbs,132,275,31,69,14,1,9,36,21,56,3,1,2,1,2
donalja01,Jason Donald,98,331,44,86,20,3,7,33,28,73,6,2,3,3,1
donaljo02,Josh Donaldson,62,198,24,50,10,1,6,25,19,44,3,1,2,1,1
doumiry01,Ryan Doumit,119,414,52,112,25,1,14,54,35,75,4,1,5,0,3
downsma01,Matt Downs,62,195,25,47,9,1,5,21,19,39,4,1,2,1,2
drewjd01,J. D. Drew,130,441,74,118,25,3,20,65,67,98,4,3,4,1,3
drewst01,Stephen Drew,137,521,74,143,31,10,14,60,49,95,7,3,2,3,4
dudalu01,Lucas Duda,69,226,30,56,13,1,8,31,21,49,3,1,2,1,2
duncash01,Shelley Duncan,101,292,37,71,14,1,11,41,31,77,3,1,3,1,2
dunnad01,Adam Dunn,143,494,73,130,29,1,30,88,83,156,2,1,6,0,3
duranlu01,Luis Durango,75,207,30,57,9,1,5,24,21,39,8,2,2,2,1
dysonja01,Jarrod Dyson,62,209,31,53,12,2,6,25,21,45,10,2,2,2,1
eckstda01,David Eckstein,119,439,53,115,23,1,4,40,34,47,6,1,8,9,3
edmonji01,Jim Edmonds,58,181,29,47,11,1,10,28,24,39,2,1,1,1,1
eldrebr01,Brad Eldred,58,189,26,50,10,1,6,24,19,41,3,1,2,1,1
ellisaj01,A. J. Ellis,79,232,25,62,12,1,5,31,25,43,3,1,2,4,2
ellisma01,Mark Ellis,120,428,52,114,23,1,9,53,39,63,10,4,5,3,4
ellsbja01,Jacoby Ellsbury,73,283,44,79,13,3,5,27,22,40,24,5,3,2,2
encared01,Edwin Encarnacion,103,358,52,90,18,1,18,51,36,69,2,1,5,0,4
escobal02,Alcides Escobar,135,457,57,115,15,7,6,43,34,71,10,4,4,4,3
escobyu01,Yunel Escobar,93,346,51,99,16,1,8,41,36,45,3,3,5,5,1
espinda01,Danny Espinosa,68,237,34,59,12,2,9,32,23,54,3,3,2,1,1
ethiean01,Andre Ethier,134,494,74,141,33,2,21,78,56,94,5,2,6,1,5
evansni01,Nick Evans,78,210,28,55,14,1,5,25,17,47,2,1,2,1,2
everead01,Adam Everett,83,247,31,59,14,1,4,30,19,45,4,2,2,8,3
felicje01,Jesus Feliciano,83,230,29,59,11,2,5,22,20,39,4,1,2,3,2
felizpe01,Pedro Feliz,86,293,33,75,13,1,7,38,20,39,1,1,1,1,2
fieldjo02,Josh Fields,70,227,28,56,8,1,7,28,21,58,3,2,2,1,1
fieldpr01,Prince Fielder,147,529,84,146,27,2,31,93,90,121,3,2,12,0,5
figgich01,Chone Figgins,141,530,76,146,22,3,4,40,72,99,34,13,3,9,4
flowety01,Tyler Flowers,62,188,26,48,10,1,5,22,22,42,3,1,2,1,1
fontemi01,Mike Fontenot,91,248,32,65,15,1,6,31,25,51,3,1,2,1,2
fowlede01,Dexter Fowler,136,446,71,117,24,10,7,40,58,106,17,8,2,9,2
foxja02,Jake Fox,85,250,29,64,13,1,10,37,18,53,2,1,4,1,3
francbe01,Ben Francisco,95,277,38,74,19,0,10,37,24,56,6,2,3,1,2
francje02,Jeff Francoeur,65,240,31,65,14,1,6,32,15,42,1,2,3,0,3
francju02,Juan Francisco,82,214,26,59,11,1,6,30,21,51,3,2,2,1,1
frandke01,Kevin Frandsen,86,265,35,66,15,1,4,27,21,35,4,1,2,3,1
frazije01,Jeff Frazier,57,190,26,50,10,1,5,23,18,39,3,1,2,1,1
freemfr01,Freddie Freeman,69,199,27,51,10,1,6,24,18,42,4,1,2,1,1
freesda01,David Freese,92,303,38,86,16,1,7,44,28,68,3,2,4,3,2
fukudko01,Kosuke Fukudome,124,395,57,103,24,3,11,46,65,81,7,6,2,2,4
fuldsa01,Sam Fuld,83,199,28,53,11,1,5,20,24,34,4,1,2,1,1
furcara01,Rafael Furcal,109,425,68,121,23,5,9,43,44,66,15,4,2,2,2
gamelma01,Mat Gamel,75,201,23,52,11,1,6,27,22,57,3,1,2,1,2
gardnbr01,Brett Gardner,149,444,81,120,18,7,6,47,58,89,37,7,5,6,3
garkory01,Ryan Garko,62,205,24,52,8,1,5,30,19,34,1,1,4,1,2
gentrcr01,Craig Gentry,69,198,27,50,9,1,5,24,18,43,4,1,2,1,2
germaes01,Esteban German,69,187,28,49,11,1,3,21,18,36,6,2,1,2,2
gerutjo01,Jody Gerut,83,229,31,60,11,2,8,29,20,40,4,2,1,0,1
getzch01,Chris Getz,101,331,41,85,16,2,4,32,29,51,18,3,4,2,2
giambja01,Jason Giambi,93,251,33,64,12,1,12,47,40,60,3,1,8,0,4
gibboja01,Jay Gibbons,73,213,29,58,10,1,8,33,19,41,3,2,2,1,2
gilleco01,Cole Gillespie,79,234,29,60,14,1,6,29,21,52,4,2,2,1,2
gimench01,Chris Gimenez,76,216,27,49,11,1,6,25,26,56,3,1,1,2,2
glaustr01,Troy Glaus,113,377,48,96,20,1,15,62,54,81,2,1,3,0,3
gloadro01,Ross Gload,114,263,34,71,13,1,7,33,21,36,2,1,2,1,2
golsogr01,Greg Golson,71,194,26,52,11,1,5,24,17,37,3,3,2,1,1
gomesjo01,Jonny Gomes,147,458,66,119,23,2,20,73,40,115,7,3,10,1,6
gomezca01,Carlos Gomez,120,367,52,92,16,4,6,36,24,85,18,6,4,5,1
gonzaad01,Adrian Gonzalez,145,523,81,149,28,1,29,90,82,106,2,1,4,1,3
gonzaal02,Alex Gonzalez,92,324,41,84,20,2,9,42,21,64,3,2,5,4,2
gonzaal03,Alberto Gonzalez,124,304,36,80,16,2,4,30,19,45,2,1,3,3,3
gonzaca01,Carlos Gonzalez,140,511,85,153,30,7,23,78,39,119,19,6,3,2,5
gordoal01,Alex Gordon,92,316,46,78,17,1,10,36,40,75,5,3,3,2,2
grandcu01,Curtis Granderson,128,472,76,122,19,7,21,59,54,105,12,3,2,3,2
greenni01,Nick Green,72,210,28,52,12,1,5,27,18,47,2,2,4,1,2
greenty02,Tyler Greene,87,244,30,60,11,1,6,26,23,55,5,1,5,1,2
griffke02,Ken Griffey,77,251,29,58,12,0,8,33,33,50,2,1,1,0,2
grossga01,Gabe Gross,124,311,39,76,16,2,7,38,35,70,6,2,1,1,2
grudzma01,Mark Grudzielanek,63,227,26,64,11,1,4,23,18,33,3,1,3,1,1
guerrvl01,Vladimir Guerrero,133,504,74,149,24,2,22,83,36,68,4,3,6,0,4
guillca01,Carlos Guillen,89,319,42,85,18,2,9,43,37,57,4,3,2,1,3
guilljo01,Jose Guillen,76,271,30,70,14,1,8,39,17,51,2,1,6,0,2
gutiefr01,Franklin Gutierrez,148,523,68,136,25,2,13,61,44,117,17,4,4,6,4
guzmacr01,Cristian Guzman,67,260,35,74,13,2,4,26,13,37,3,2,1,2,1
gwynnto02,Tony Gwynn,125,360,47,88,13,4,5,28,44,63,14,5,2,5,2
hafnetr01,Travis Hafner,117,402,50,106,25,0,14,53,49,90,3,1,8,0,3
hairsje02,Jerry Hairston,120,390,55,103,18,2,10,49,34,56,10,5,5,5,4
hairssc01,Scott Hairston,111,351,42,83,17,1,13,43,30,76,6,2,5,1,4
hallbi03,Bill Hall,115,360,45,87,19,1,14,47,34,104,7,3,2,2,3
halmagr01,Greg Halman,58,199,25,50,10,1,5,25,18,43,4,1,2,1,1
hamiljo03,Josh Hamilton,123,469,74,146,30,3,22,85,42,94,8,2,4,1,5
hamilma01,Mark Hamilton,59,187,24,49,9,1,5,23,18,39,3,1,2,1,1
hanigry01,Ryan Hanigan,100,300,35,83,13,1,7,37,40,42,2,1,4,2,2
hardyjj01,J. J. Hardy,109,390,52,102,20,3,11,47,37,71,2,1,1,3,3
harribr01,Brendan Harris,84,273,33,69,15,1,5,27,23,56,1,1,3,2,3
harriwi01,Willie Harris,133,313,43,73,14,4,10,37,44,65,9,3,4,2,2
hartco01,Corey Hart,134,502,74,137,31,4,20,76,40,109,12,6,5,1,5
hawpebr01,Brad Hawpe,70,241,36,66,15,1,11,39,35,65,2,1,2,0,2
hayesbr01,Brett Hayes,73,221,29,56,13,2,7,26,20,53,3,1,2,1,1
headlch01,Chase Headley,150,543,66,144,29,3,12,59,54,130,12,3,4,1,3
heisech01,Chris Heisey,108,282,42,74,15,1,10,33,25,67,4,2,5,1,3
helmswe01,Wes Helms,147,323,35,80,16,2,6,46,28,82,2,2,5,1,4
heltoto01,Todd Helton,118,414,55,117,23,2,10,51,66,74,1,1,2,0,5
hermije01,Jeremy Hermida,75,255,32,66,11,1,8,29,27,60,3,1,3,0,1
hernaan01,Anderson Hernandez,76,216,28,57,11,1,4,26,24,38,4,2,1,1,1
hernadi01,Diory Hernandez,73,194,26,45,9,1,6,22,17,43,3,2,1,3,1
hernalu01,Luis Hernandez,75,210,24,53,8,1,5,22,18,40,4,1,2,3,2
hernara02,Ramon Hernandez,105,358,37,97,18,1,9,50,33,54,2,1,4,3,4
herrejo03,Jonathan Herrera,96,293,41,80,11,2,5,31,30,52,4,3,1,5,3
hessmmi01,Mike Hessman,72,202,27,49,10,2,7,27,22,50,3,1,4,1,1
hestejo01,John Hester,78,230,29,58,14,1,6,26,24,55,4,1,1,1,1
heywaja01,Jason Heyward,126,453,69,124,25,4,15,61,69,105,9,5,7,1,2
hillaa01,Aaron Hill,131,514,70,129,26,0,23,71,38,82,5,2,6,2,3
hillko01,Koyie Hill,101,308,32,73,17,2,4,31,26,83,2,1,1,3,2
hillst01,Steven Hill,53,183,25,49,10,1,6,24,18,36,4,1,2,1,1
hinsker01,Eric Hinske,123,321,46,81,19,1,14,51,37,77,4,1,3,0,3
hoffpja01,Jarrett Hoffpauir,62,197,23,51,11,1,5,22,20,37,3,1,2,2,1
hoffpmi01,Micah Hoffpauir,87,228,30,58,13,1,7,30,21,50,3,1,2,1,2
hollima01,Matt Holliday,132,493,83,154,34,2,22,85,58,86,12,4,7,0,3
hoovepa01,Paul Hoover,58,187,25,49,10,1,5,22,18,41,3,1,1,1,1
howarry01,Ryan Howard,134,506,82,137,25,4,32,105,59,146,4,1,5,0,4
huch01,Chin-lung Hu,74,193,26,46,9,1,4,22,17,39,4,1,2,1,2
hudsoor01,Orlando Hudson,126,473,68,132,27,4,8,47,49,83,8,2,4,5,4
huffau01,Aubrey Huff,132,470,74,133,31,3,20,72,55,75,5,1,5,0,5
huffmch01,Chad Huffman,59,190,25,49,9,1,5,24,19,39,3,1,3,1,1
hughelu01,Luke Hughes,54,184,25,49,9,1,6,24,18,38,4,2,2,1,1
hugherh01,Rhyne Hughes,59,203,25,52,10,1,5,25,20,48,3,1,2,1,1
hundlni01,Nick Hundley,104,343,39,86,19,2,10,46,32,85,3,3,2,2,6
hunteto01,Torii Hunter,135,501,73,142,31,1,20,80,51,97,13,7,5,0,4
iannech01,Chris Iannetta,92,294,39,71,15,2,14,48,42,72,2,1,8,1,3
ibanera01,Raul Ibanez,134,495,73,137,32,3,20,80,55,99,4,2,2,0,5
infanom01,Omar Infante,129,432,58,131,20,3,7,50,33,64,5,3,2,3,4
ingebr01,Brandon Inge,140,480,55,114,21,3,17,68,50,128,4,4,9,2,5
inglejo01,Joe Inglett,104,255,32,70,13,5,4,26,24,48,5,1,3,3,1
ishiktr01,Travis Ishikawa,125,292,40,77,14,1,8,38,27,67,3,1,2,1,2
iwamuak01,Akinori Iwamura,58,215,29,58,11,2,3,21,23,44,4,2,1,1,2
izturce01,Cesar Izturis,140,454,47,113,15,3,4,34,29,51,14,5,5,5,2
izturma01,Maicer Izturis,93,321,50,88,18,2,6,45,30,42,10,3,3,2,4
jacksau01,Austin Jackson,129,503,80,144,27,7,6,41,41,128,19,5,4,3,3
jacksco01,Conor Jackson,61,216,30,58,11,2,5,29,25,32,5,1,3,1,1
jacobmi02,Mike Jacobs,69,236,29,57,11,1,11,36,21,61,1,0,1,1,1
janispa01,Paul Janish,109,303,38,73,18,1,6,31,31,52,3,2,4,4,1
jaramja01,Jason Jaramillo,76,244,25,59,13,1,5,29,23,43,3,1,2,1,1
jasojo01,John Jaso,108,348,54,92,18,3,7,45,50,51,5,1,3,1,3
jayjo02,Jon Jay,109,327,50,94,20,2,7,36,30,60,4,4,3,6,2
jennide01,Desmond Jennings,65,193,28,50,10,2,5,24,19,38,5,3,3,1,1
jeterde01,Derek Jeter,138,558,89,164,25,2,12,60,55,87,17,4,7,3,3
johnsch05,Chris Johnson,103,358,44,102,21,2,11,50,23,86,5,1,3,1,4
johnsda06,Dan Johnson,73,229,31,55,10,1,10,36,32,49,4,1,2,1,3
johnske05,Kelly Johnson,143,502,77,136,32,4,17,60,58,110,11,5,3,5,3
johnsni01,Nick Johnson,65,207,33,51,13,1,6,30,45,45,2,2,5,1,2
johnsre02,Reed Johnson,109,289,40,79,17,2,6,35,19,60,4,3,7,3,3
johnsro07,Rob Johnson,93,294,34,66,17,1,5,30,32,66,3,2,3,2,3
jonesad01,Adam Jones,139,527,75,146,24,5,17,67,31,108,9,5,9,2,3
jonesan01,Andruw Jones,112,338,47,76,17,1,16,47,48,87,7,2,3,0,3
jonesch06,Chipper Jones,107,365,58,105,20,1,14,54,67,61,5,1,1,0,4
jonesga02,Garrett Jones,136,502,61,132,30,1,21,71,51,107,9,3,2,1,6
joycema01,Matthew Joyce,99,291,41,73,18,3,13,45,40,69,3,2,3,1,3
kaaihki01,Kila Ka'aihue,81,271,35,66,12,1,10,35,31,55,3,2,1,1,2
kalisry01,Ryan Kalish,83,270,39,70,16,2,8,37,24,57,10,2,2,2,2
kaplega01,Gabe Kapler,103,256,36,66,15,1,8,36,25,48,4,2,2,1,2
kearnau01,Austin Kearns,80,242,31,56,9,1,6,25,30,60,2,1,6,0,1
kellydo01,Don Kelly,126,303,40,77,11,1,9,35,20,56,5,1,3,2,2
kempma01,Matt Kemp,147,551,81,151,26,5,22,80,48,137,24,10,3,1,6
kendaja01,Jason Kendall,122,426,43,107,20,1,3,41,40,52,9,4,10,5,5
kendrho01,Howie Kendrick,143,532,68,151,34,4,10,69,29,91,13,4,5,3,4
kennead01,Adam Kennedy,125,399,50,109,21,2,7,44,36,61,13,3,4,2,4
keppije01,Jeff Keppinger,133,465,54,127,26,2,7,51,42,44,4,2,2,6,4
kinslia01,Ian Kinsler,112,433,77,121,26,2,16,58,48,64,19,4,6,3,5
konerpa01,Paul Konerko,137,494,72,139,26,1,27,83,60,92,2,1,7,0,5
kotchca01,Casey Kotchman,123,396,42,92,18,1,9,48,37,60,3,1,4,1,4
kotsama01,Mark Kotsay,109,346,37,88,20,2,9,41,34,47,3,3,1,1,2
kottage01,George Kottaras,98,294,38,69,19,1,10,36,37,63,4,1,1,1,5
kouzmke01,Kevin Kouzmanoff,134,509,56,130,28,2,16,71,26,100,2,1,8,0,5
kratzer01,Erik Kratz,56,194,24,48,9,1,5,22,18,40,3,1,2,1,1
kubelja01,Jason Kubel,140,489,69,132,26,3,21,86,52,102,2,1,3,0,5
lairdge01,Gerald Laird,108,350,42,84,19,1,6,35,29,65,4,2,6,6,3
lambmi01,Mike Lamb,81,194,24,50,9,2,5,24,18,37,3,1,2,1,1
langery01,Ryan Langerhans,98,234,32,56,11,2,7,23,36,67,5,2,2,3,2
laporma01,Matt LaPorta,114,393,50,95,20,1,13,46,41,82,3,1,3,1,3
larisje01,Jeff Larish,75,214,28,52,11,1,7,28,24,56,3,2,2,1,1
larocad01,Adam LaRoche,130,473,64,129,29,2,21,80,47,128,2,1,2,0,4
larocan01,Andy LaRoche,114,355,41,84,16,2,8,37,32,62,3,1,4,3,2
larueja01,Jason LaRue,79,211,23,51,9,1,6,23,18,37,2,1,4,2,1
leeca01,Carlos Lee,141,533,63,148,29,1,23,88,39,58,5,3,3,0,5
leede02,Derrek Lee,78,289,44,84,20,1,13,49,37,59,2,1,1,0,2
lewisfr02,Fred Lewis,126,419,68,112,27,5,8,37,43,104,15,5,5,1,3
lillibr01,Brent Lillibridge,99,238,33,55,12,2,5,28,20,62,8,4,2,2,1
lindad01,Adam Lind,140,525,69,142,33,2,23,78,42,112,2,1,4,1,4
lindsjo01,John Lindsey,59,181,23,47,9,1,5,22,17,36,3,1,2,1,1
loneyja01,James Loney,148,537,64,148,31,3,11,80,52,80,8,4,3,1,4
longoev01,Evan Longoria,144,532,86,150,39,3,25,95,62,123,11,2,6,0,8
lopezfe01,Felipe Lopez,58,210,33,65,13,2,5,27,23,38,3,2,1,0,1
lopezjo01,Jose Lopez,139,543,58,144,32,1,15,70,26,66,4,3,3,2,5
lowelmi01,Mike Lowell,94,326,41,88,20,1,11,49,29,51,2,1,2,0,4
lowrije01,Jed Lowrie,87,271,38,70,19,1,8,40,33,56,3,1,2,1,4
lucrojo01,Jonathan Lucroy,91,326,35,84,14,1,7,36,26,57,5,2,2,1,2
lucydo01,Donny Lucy,56,185,25,50,12,1,6,24,19,36,4,1,2,1,1
ludwiry01,Ryan Ludwick,93,327,46,87,17,1,15,57,33,78,3,2,5,1,3
lugoju01,Julio Lugo,102,302,37,80,13,3,4,29,29,60,9,5,3,4,3
lunahe01,Hector Luna,71,192,24,49,10,1,7,25,17,43,3,3,2,1,2
maiermi01,Mitch Maier,131,397,47,103,17,4,6,42,43,79,6,3,3,5,3
maldoca03,Carlos Maldonado,54,182,24,49,9,1,6,25,18,36,3,1,2,1,1
mangima01,Matt Mangini,59,201,25,52,9,1,5,23,19,44,3,1,2,2,1
manzeto01,Tommy Manzella,99,311,30,76,12,1,5,32,22,76,3,2,3,4,3
markani01,Nick Markakis,145,557,80,164,39,2,15,72,65,91,7,3,2,0,5
marsolo01,Lou Marson,101,320,40,74,19,1,6,34,33,68,8,2,3,2,2
martean01,Andy Marte,99,281,33,68,13,2,8,33,25,57,2,3,2,3,3
martife02,Fernando Martinez,62,204,26,49,11,1,5,24,18,39,4,2,4,1,2
martios01,Osvaldo Martinez,61,207,30,57,12,2,5,24,20,39,4,1,2,2,1
martiru01,Russell Martin,112,392,54,102,17,0,8,42,55,66,9,4,5,1,2
martivi01,Victor Martinez,118,440,58,131,27,1,15,68,40,56,3,1,1,1,4
mathejo02,Joe Mather,77,209,28,53,12,1,7,24,18,43,3,2,2,2,1
mathije01,Jeff Mathis,98,302,35,66,11,1,7,36,24,83,4,2,3,6,3
matsuhi01,Hideki Matsui,135,453,57,125,22,1,20,75,58,82,2,1,3,0,3
matsuka01,Kazuo Matsui,72,255,32,66,13,1,5,24,21,44,9,2,2,6,2
matthga02,Gary Matthews,77,233,31,58,12,1,4,29,26,54,4,1,2,1,1
mauerjo01,Joe Mauer,131,482,83,159,32,2,14,76,65,58,3,2,2,1,6
maxweju01,Justin Maxwell,99,238,34,55,13,1,8,29,34,68,9,2,2,1,2
maybejo02,John Mayberry,74,193,28,50,10,1,8,28,17,46,3,2,2,1,1
maybica01,Cameron Maybin,102,351,55,90,15,3,9,35,32,95,9,3,4,3,2
maylu01,Lucas May,59,200,25,51,10,1,5,27,17,41,3,2,2,1,2
mcanupa01,Paul McAnulty,65,185,21,45,9,1,5,22,23,45,2,1,2,1,1
mccanbr01,Brian McCann,138,475,63,133,31,1,20,79,58,84,5,2,6,1,4
mccoymi01,Mike McCoy,80,219,28,54,11,1,5,23,22,46,7,2,2,1,1
mccutan01,Andrew McCutchen,139,518,83,146,31,6,15,58,62,90,25,7,4,1,5
mcdonda02,Darnell McDonald,122,346,44,93,19,3,10,39,31,85,8,1,3,7,1
mcdonjo03,John McDonald,104,266,37,67,14,1,7,32,15,43,4,2,2,4,3
mcgehca01,Casey McGehee,147,520,68,148,31,1,20,87,46,94,2,2,2,1,6
mclouna01,Nate McLouth,93,330,53,83,20,2,11,42,40,64,11,3,6,4,3
menchke01,Kevin Mench,73,189,25,47,11,1,4,21,19,36,3,1,1,1,2
michaja01,Jason Michaels,135,280,35,70,18,2,10,40,26,58,2,1,3,1,1
milesaa01,Aaron Miles,105,263,32,71,12,1,3,22,18,35,3,2,1,4,2
milleco01,Corky Miller,76,215,23,50,10,1,6,28,20,46,2,1,3,3,2
milleja04,Jai Miller,64,210,26,55,11,1,6,25,20,51,4,1,2,1,1
millela02,Lastings Milledge,111,396,45,109,20,2,8,42,30,70,10,5,6,3,3
miranju01,Juan Miranda,76,212,28,55,10,2,7,30,22,43,3,1,2,1,2
mitchru01,Russ Mitchell,62,204,25,50,9,1,7,25,17,40,3,1,2,1,2
moellch01,Chad Moeller,64,190,23,49,13,1,5,22,17,37,2,1,3,1,2
molinbe01,Bengie Molina,89,315,31,85,16,1,10,48,15,38,1,0,4,2,6
molingu01,Gustavo Molina,55,182,24,47,9,1,5,22,18,36,3,1,2,1,1
molinjo01,Jose Molina,92,270,30,65,12,0,6,25,20,55,2,1,5,4,2
molinya01,Yadier Molina,133,460,42,129,21,1,7,58,42,49,7,3,5,3,4
montalu01,Luis Montanez,72,217,25,52,10,1,5,24,15,41,3,1,2,1,2
montemi01,Miguel Montero,113,372,50,102,25,1,12,50,36,79,2,2,3,1,3
mooread01,Adam Moore,84,289,29,67,12,1,7,29,19,73,3,2,3,1,2
mooresc02,Scott Moore,77,223,27,55,10,1,7,28,22,46,5,1,2,2,2
moraljo02,Jose Morales,75,209,27,57,11,1,4,24,23,45,3,1,1,1,3
moralke01,Kendrys Morales,94,335,49,97,19,1,17,59,27,64,2,3,3,0,3
morame01,Melvin Mora,111,372,46,102,18,2,10,54,32,57,3,3,6,2,2
morelbr01,Brent Morel,65,218,30,56,11,1,7,27,20,46,5,1,2,1,2
morelmi01,Mitch Moreland,77,253,35,66,11,1,11,37,33,55,5,2,2,1,3
morgany01,Nyjer Morgan,126,451,61,124,20,5,3,30,35,79,29,13,8,10,3
morneju01,Justin Morneau,101,374,60,111,26,2,18,70,51,65,1,1,2,0,4
morrilo01,Logan Morrison,83,307,48,85,21,6,6,31,42,62,3,2,3,1,1
morsemi01,Mike Morse,114,318,41,88,16,2,14,46,28,73,3,2,4,1,2
mossbr01,Brandon Moss,77,232,27,56,12,2,6,28,21,51,2,2,2,0,2
murphda07,David Murphy,129,430,60,119,26,2,14,64,43,84,10,3,1,1,5
murphdo01,Donnie Murphy,75,201,28,52,12,1,7,32,19,53,3,1,2,1,1
nadyxa01,Xavier Nady,109,338,40,89,17,1,10,42,23,79,2,1,6,1,3
napolmi01,Mike Napoli,134,437,63,113,23,1,24,67,46,120,6,3,9,1,5
navada01,Daniel Nava,85,259,36,66,18,2,5,37,28,61,4,2,7,1,1
navardi01,Dioner Navarro,87,285,31,71,14,0,6,29,22,42,3,2,3,5,2
navaros01,Oswaldo Navarro,62,190,25,47,9,1,5,22,21,37,3,1,2,1,1
navarya01,Yamaico Navarro,66,205,26,51,9,1,5,26,19,47,3,1,2,1,3
nelsoch01,Chris Nelson,65,194,29,52,10,1,5,22,18,37,4,1,2,2,1
nickemi01,Mike Nickeas,56,185,24,49,9,1,5,23,18,39,3,1,2,1,1
nievewi01,Wil Nieves,92,276,27,69,12,1,5,32,21,52,2,1,2,3,3
nixja01,Jayson Nix,107,343,41,81,17,1,14,39,28,83,6,2,6,2,2
nixla01,Laynce Nix,119,292,36,76,20,2,10,38,25,68,2,2,2,1,2
nunezed02,Eduardo Nunez,73,210,33,57,10,1,6,28,19,35,7,1,2,1,1
oeltjtr01,Trent Oeltjen,65,199,29,52,11,2,6,22,18,41,5,2,2,3,2
ojedaau01,Augie Ojeda,97,234,30,57,12,2,3,20,26,32,2,1,5,4,2
olivomi01,Miguel Olivo,119,417,54,109,20,4,17,61,26,117,7,3,3,2,2
ordonma01,Magglio Ordonez,103,379,52,115,20,2,12,57,41,54,2,2,1,0,3
ortizda01,David Ortiz,132,477,74,124,31,1,25,88,69,114,2,1,3,1,4
overbly01,Lyle Overbay,140,474,65,123,32,2,16,63,64,107,2,1,2,1,3
paganan01,Angel Pagan,135,501,71,145,29,8,10,58,41,87,24,7,1,5,4
pagnoma01,Matt Pagnozzi,60,198,26,56,10,1,6,29,18,39,3,1,2,2,1
parrage01,Gerardo Parra,130,421,48,115,21,6,6,47,29,85,4,3,2,3,3
patteco01,Corey Patterson,108,335,44,83,17,2,9,36,23,70,15,5,2,7,2
patteer01,Eric Patterson,84,229,32,58,11,3,5,26,25,58,10,2,2,1,2
pauliro01,Ronny Paulino,110,360,38,94,18,1,8,44,33,66,3,1,1,1,3
paulxa01,Xavier Paul,81,245,33,62,14,2,5,28,22,49,5,2,1,3,2
paytoja01,Jay Payton,68,193,24,51,9,1,5,23,15,33,4,1,1,1,1
pearcst01,Steve Pearce,71,211,25,52,13,1,6,26,23,46,3,1,2,1,2
pedrodu01,Dustin Pedroia,100,396,69,118,30,1,11,50,42,41,12,3,4,3,5
penabr01,Brayan Pena,98,275,30,73,16,1,7,33,23,45,3,1,2,3,3
penaca01,Carlos Pena,131,451,70,102,21,1,28,83,78,142,4,2,8,0,4
penara02,Ramiro Pena,121,275,36,71,10,2,4,32,19,51,9,2,2,4,2
pencehu01,Hunter Pence,146,548,76,152,27,4,22,75,44,102,13,8,2,0,3
pennicl01,Cliff Pennington,139,458,59,118,24,6,8,46,46,90,20,5,3,7,3
peraljh01,Jhonny Peralta,92,348,44,91,20,1,10,51,31,71,2,1,2,1,4
peterbr01,Bryan Petersen,70,195,25,49,9,1,5,24,18,39,3,1,2,1,1
phillbr01,Brandon Phillips,142,551,80,149,28,5,18,71,42,81,18,9,6,3,4
phillpa01,Paul Phillips,61,190,26,51,9,1,5,25,20,36,3,1,1,1,2
piefe01,Felix Pie,118,354,49,95,17,4,9,41,27,74,6,3,2,3,4
pierrju01,Juan Pierre,158,537,76,152,19,5,3,45,39,48,46,14,12,10,2
pierzaj01,A. J. Pierzynski,125,463,51,130,25,1,11,52,22,54,3,2,4,4,3
plouftr01,Trevor Plouffe,67,204,29,51,10,1,7,27,17,45,3,1,2,3,2
podsesc01,Scott Podsednik,89,302,40,85,14,3,5,28,25,49,14,6,2,2,1
polanpl01,Placido Polanco,127,509,71,149,26,3,8,54,33,48,6,1,6,3,5
posadjo01,Jorge Posada,118,393,52,104,24,1,17,64,52,96,3,1,5,0,3
poseybu01,Buster Posey,110,396,55,114,22,2,15,59,32,63,3,2,4,1,3
powella01,Landon Powell,80,249,32,61,12,1,8,36,27,57,3,1,1,1,2
pradoma01,Martin Prado,141,525,81,158,37,3,13,61,41,77,5,3,3,6,5
preslal01,Alex Presley,66,193,25,52,10,1,5,22,18,41,4,2,2,2,1
pujolal01,Albert Pujols,143,513,99,164,37,1,35,106,91,66,12,3,5,0,6
puntoni01,Nick Punto,107,330,43,83,16,2,3,33,41,63,11,3,1,6,4
quentca01,Carlos Quentin,124,436,69,112,22,1,25,77,48,76,5,2,16,0,3
quinlro01,Robb Quinlan,80,206,25,52,8,1,4,22,17,42,4,2,2,1,1
quinthu01,Humberto Quintero,108,326,28,79,15,1,7,31,18,71,2,1,4,2,1
quirogu01,Guillermo Quiroz,59,184,22,45,9,1,5,22,17,39,2,1,2,2,1
raburry01,Ryan Raburn,139,390,58,107,22,2,16,59,34,91,5,3,5,2,2
ramiral03,Alexei Ramirez,144,525,72,147,22,2,17,68,34,74,13,7,2,5,5
ramirar01,Aramis Ramirez,117,430,63,117,24,1,20,78,42,76,2,1,6,0,4
ramirha01,Hanley Ramirez,134,506,89,156,30,2,21,74,61,93,25,8,7,1,4
ramirma02,Manny Ramirez,69,233,36,69,14,1,11,38,39,52,2,1,5,0,2
ramirma03,Max Ramirez,69,213,29,54,10,1,7,28,25,50,3,1,4,1,3
ramoswi01,Wilson Ramos,61,211,25,57,12,1,6,25,19,41,3,1,2,1,1
ransoco01,Cody Ransom,76,203,29,50,12,1,6,27,20,47,4,1,2,2,1
rasmuco01,Colby Rasmus,145,472,77,125,25,3,19,60,51,119,8,5,2,3,3
raynojo01,John Raynor,61,185,25,49,9,1,5,23,19,37,3,1,2,1,1
reddijo01,Josh Reddick,78,224,26,54,12,2,6,25,17,49,4,1,2,1,1
redmomi01,Mike Redmond,68,219,24,56,11,1,3,21,17,35,2,1,2,2,1
reedje03,Jeremy Reed,91,207,21,53,10,1,3,22,18,39,2,2,1,1,2
reimono01,Nolan Reimold,81,272,34,71,14,1,9,34,31,57,5,1,2,1,3
renteed01,Edgar Renteria,96,342,41,90,15,2,6,37,29,54,5,2,1,3,3
repkoja01,Jason Repko,91,240,33,60,12,1,6,25,24,58,5,2,5,1,1
reverbe01,Ben Revere,62,199,25,51,9,1,5,24,19,39,3,2,2,1,1
reyesjo01,Jose Reyes,116,475,71,135,25,9,10,49,39,62,28,8,2,3,3
reynoma01,Mark Reynolds,138,491,78,116,23,2,30,83,67,181,12,5,6,1,4
rhymewi01,Will Rhymes,79,275,40,78,16,3,5,32,24,39,3,3,1,6,2
riosal01,Alex Rios,126,480,68,132,28,3,15,64,34,85,23,8,4,1,4
riverju01,Juan Rivera,127,437,57,117,21,1,18,64,34,60,2,2,3,0,5
roberbr01,Brian Roberts,90,348,55,99,27,2,8,37,41,62,17,4,2,1,4
roberry01,Ryan Roberts,85,238,32,63,13,1,6,26,26,47,4,2,2,2,2
rodrial01,Alex Rodriguez,127,465,76,131,25,1,27,98,61,96,10,3,7,0,6
rodriiv01,Ivan Rodriguez,109,378,40,99,19,1,7,45,22,66,5,2,2,2,3
rodrise01,Sean Rodriguez,119,358,51,89,19,2,10,41,28,94,10,3,6,4,2
rohliry01,Ryan Rohlinger,70,190,22,46,9,1,5,24,18,41,3,2,1,2,1
rolensc01,Scott Rolen,118,415,60,114,28,3,14,64,46,73,4,2,7,0,6
rolliji01,Jimmy Rollins,104,419,59,108,25,4,11,48,38,48,22,3,2,1,3
rominan01,Andrew Romine,56,187,24,48,9,1,5,23,18,38,4,1,2,2,1
rosalad01,Adam Rosales,109,329,38,83,14,2,8,37,30,72,4,3,3,2,3
rossco01,Cody Ross,82,273,36,73,17,1,11,41,20,62,3,1,4,0,2
rossda01,David Ross,94,245,33,67,17,2,8,40,32,57,2,1,2,3,2
rowanaa01,Aaron Rowand,114,388,47,99,21,1,11,47,27,89,4,2,9,1,2
ruizca01,Carlos Ruiz,127,388,47,104,26,1,9,50,53,56,3,2,5,3,2
ruizra01,Randy Ruiz,62,207,32,55,11,1,9,25,18,51,3,1,3,1,1
russoke01,Kevin Russo,73,205,26,52,10,1,5,25,19,40,4,1,2,2,1
ryalru01,Rusty Ryal,118,290,35,77,14,2,7,28,21,78,3,3,6,1,2
ryanbr01,Brendan Ryan,143,438,57,111,21,4,4,40,34,67,12,5,4,7,3
ryanmi03,Mike Ryan,65,195,25,50,12,1,5,23,17,36,3,1,2,1,2
salazos01,Oscar Salazar,111,251,34,65,12,1,8,37,28,45,3,2,1,1,2
saltaja01,Jarrod Saltalamacchia,67,220,28,54,12,0,6,27,24,64,2,2,1,1,1
sanchan02,Angel Sanchez,84,307,39,84,13,3,4,35,21,58,3,2,3,5,1
sanchfr01,Freddy Sanchez,106,405,52,113,19,1,7,42,26,61,3,1,3,6,4
sanchga01,Gaby Sanchez,136,469,60,127,29,2,16,67,46,85,5,1,4,2,5
sandopa01,Pablo Sandoval,145,531,67,157,35,4,17,71,45,80,5,3,3,0,5
santaca01,Carlos Santana,76,255,36,67,17,1,9,35,41,50,5,1,2,1,4
santira01,Ramon Santiago,124,357,47,95,13,2,8,39,34,67,3,2,7,9,3
sardida01,Dane Sardinha,63,200,24,47,9,1,6,26,16,49,3,1,1,2,2
saundmi01,Michael Saunders,115,345,39,80,13,3,9,37,35,91,8,3,1,2,2
scalebo01,Bobby Scales,67,194,27,51,11,2,5,25,22,43,3,1,2,1,2
schiena01,Nate Schierholtz,139,327,44,86,20,3,6,32,26,60,5,4,4,1,3
schmiko01,Konrad Schmidt,55,184,24,48,9,1,5,23,19,35,4,1,2,1,1
schnebr01,Brian Schneider,83,252,27,63,11,1,7,31,30,43,2,1,2,3,2
schumsk01,Skip Schumaker,135,469,70,134,23,2,6,41,44,64,5,2,2,2,2
scottlu01,Luke Scott,130,442,64,119,27,1,23,68,53,96,3,1,3,0,4
scutama01,Marco Scutaro,136,531,81,146,30,1,10,55,59,70,8,4,4,4,5
shoppke01,Kelly Shoppach,92,279,39,66,16,0,12,38,31,95,1,1,10,2,2
sizemgr01,Grady Sizemore,71,279,42,71,15,3,11,38,36,60,11,3,4,1,1
sizemsc01,Scott Sizemore,78,254,34,63,13,1,7,30,26,58,3,1,1,4,2
smithse01,Seth Smith,147,388,60,103,22,4,16,57,44,76,4,1,2,1,3
smoakju01,Justin Smoak,68,241,29,62,11,1,8,31,22,56,3,1,2,1,2
snidetr01,Travis Snider,107,363,47,93,22,1,14,44,33,96,5,3,2,1,2
snydebr02,Brad Snyder,59,192,24,50,10,1,5,26,18,43,3,1,2,1,1
snydebr03,Brandon Snyder,60,193,25,52,11,1,5,25,18,37,3,2,2,1,1
snydech02,Chris Snyder,81,248,31,56,12,1,10,37,36,64,2,1,3,2,3
sogarer01,Eric Sogard,56,186,24,51,10,1,5,23,20,36,4,2,2,1,1
soriaal01,Alfonso Soriano,126,467,66,121,30,2,22,67,43,110,10,2,3,1,3
sotoge01,Geovany Soto,114,374,47,99,23,1,16,58,55,88,2,1,2,0,4
spande01,Denard Span,140,548,85,155,21,8,7,61,61,81,22,6,6,9,4
spilbry01,Ryan Spilborghs,138,378,53,102,23,3,10,49,43,83,8,5,4,2,2
stairma01,Matt Stairs,127,224,32,55,12,1,10,33,28,55,3,1,2,1,2
stantmi03,Giancarlo Stanton,106,373,48,98,21,1,19,56,36,108,6,2,3,1,2
stavini01,Nick Stavinoha,109,251,27,63,12,1,6,30,16,51,3,1,2,1,2
stewaia01,Ian Stewart,133,418,62,105,20,3,19,64,49,121,6,3,6,0,4
stpiema01,Max St. Pierre,56,182,24,48,10,1,5,22,17,36,3,1,2,1,1
stubbdr01,Drew Stubbs,130,460,75,120,18,4,18,62,47,132,22,6,4,3,4
sullico01,Cory Sullivan,100,221,28,55,8,4,4,25,23,44,6,1,1,1,2
suttodr01,Drew Sutton,72,203,27,51,10,1,6,26,20,47,3,2,2,2,1
suzukic01,Ichiro Suzuki,138,570,74,182,25,4,8,42,38,70,29,6,4,2,2
suzukku01,Kurt Suzuki,132,489,58,129,24,2,12,64,34,59,5,2,9,1,4
sweenmi01,Mike Sweeney,73,225,28,61,13,1,7,29,19,32,2,1,3,0,2
sweenry01,Ryan Sweeney,109,384,53,110,23,2,5,45,34,60,5,2,2,2,4
swishni01,Nick Swisher,142,495,80,129,29,2,25,75,69,122,2,2,4,2,4
tabatjo01,Jose Tabata,105,396,57,114,21,3,7,40,32,63,15,5,3,4,2
tatisfe01,Fernando Tatis,87,240,30,65,14,2,7,34,21,47,3,1,4,2,2
tatumcr01,Craig Tatum,80,243,27,62,10,1,5,26,25,45,3,1,2,1,1
taverwi01,Willy Taveras,69,237,33,59,8,1,2,16,16,39,18,3,2,5,1
teagata01,Taylor Teagarden,74,236,33,56,13,1,9,32,22,74,2,1,3,4,2
teahema01,Mark Teahen,100,351,45,92,20,2,8,37,30,81,5,3,3,1,2
teixema01,Mark Teixeira,142,533,93,148,34,1,29,97,75,101,3,1,10,0,5
tejadmi01,Miguel Tejada,92,359,49,104,22,1,9,45,18,41,4,2,4,1,3
tejadru01,Ruben Tejada,97,296,39,71,16,1,5,29,30,55,4,2,7,5,3
thamema01,Marcus Thames,103,307,40,81,13,1,16,46,29,81,2,2,2,0,4
theriry01,Ryan Theriot,88,334,46,94,12,2,4,27,34,48,10,5,3,5,2
tholejo01,Josh Thole,95,291,30,81,13,2,6,33,31,45,4,1,2,1,2
thomeji01,Jim Thome,103,302,50,80,17,1,19,54,51,82,2,1,2,0,2
tolbema01,Matt Tolbert,87,240,32,61,11,3,4,29,23,46,6,2,1,5,3
tollest01,Steven Tolleson,68,204,26,55,11,1,6,25,20,40,3,1,2,1,1
torrean02,Andres Torres,137,442,72,118,31,8,14,57,47,108,18,5,3,4,1
torreyo01,Yorvit Torrealba,105,358,39,97,19,1,8,45,33,71,5,4,4,3,3
towlejr01,J. R. Towles,67,207,23,46,10,1,6,25,19,49,2,1,4,2,1
tracych01,Chad Tracy,88,256,27,65,15,0,7,34,22,46,2,1,2,0,3
treanma01,Matt Treanor,93,290,31,69,11,1,6,35,27,59,3,2,4,4,4
trumbma01,Mark Trumbo,58,190,26,48,9,1,5,25,19,42,4,1,2,1,1
tuiasma01,Matt Tuiasosopo,82,251,28,57,12,1,7,27,22,68,3,1,2,1,2
tulowtr01,Troy Tulowitzki,128,471,80,138,27,4,22,78,53,85,11,6,4,1,5
turneju01,Justin Turner,60,185,25,48,10,1,5,23,20,35,3,1,2,1,1
ugglada01,Dan Uggla,144,519,84,138,28,1,28,86,72,136,4,2,5,1,4
uptonbj01,B. J. Upton,139,502,77,126,32,3,13,58,64,135,35,10,3,2,4
uptonju01,Justin Upton,136,492,73,136,27,5,20,70,59,138,14,6,4,1,5
uribeju01,Juan Uribe,143,478,60,125,27,3,18,69,38,91,3,2,3,3,4
utleych01,Chase Utley,119,438,78,123,24,3,20,69,58,77,13,1,17,1,4
valaich01,Chris Valaika,65,201,25,54,10,1,6,24,18,41,3,1,2,2,1
valbulu01,Luis Valbuena,110,362,43,85,21,2,7,34,32,79,3,3,3,2,2
valdewi01,Wilson Valdez,117,350,42,91,17,3,6,39,28,53,6,1,3,5,1
valenda01,Danny Valencia,96,333,38,98,19,1,9,44,27,57,4,1,1,1,3
vanevjo01,Jonathan Van Every,72,187,27,50,9,1,6,25,19,44,3,1,2,1,1
varitja01,Jason Varitek,79,259,30,59,14,0,10,33,31,66,1,1,2,0,2
velezeu01,Eugenio Velez,79,240,32,62,12,3,5,28,18,43,8,3,2,3,1
venabwi01,Will Venable,128,405,58,103,16,5,14,51,42,113,17,4,4,1,3
vicieda01,Dayan Viciedo,76,242,35,68,14,1,9,31,18,51,4,1,2,1,1
victosh01,Shane Victorino,137,531,83,147,28,9,13,59,48,71,26,7,6,2,2
vizquom01,Omar Vizquel,113,352,38,92,14,2,4,34,33,52,9,5,2,7,3
vottojo01,Joey Votto,141,504,84,156,34,2,27,90,71,109,10,4,5,0,2
walkene01,Neil Walker,112,403,54,114,25,3,11,56,35,81,4,3,3,2,3
wallabr01,Brett Wallace,81,257,31,64,12,2,6,29,21,66,3,1,7,1,1
watsoma02,Matt Watson,58,191,24,49,10,1,6,25,19,37,3,1,2,1,1
weeksri01,Rickie Weeks,134,515,88,134,25,4,21,64,60,133,11,4,15,1,2
wellsca01,Casper Wells,73,228,32,65,13,2,8,33,20,45,3,2,2,1,1
wellsve01,Vernon Wells,140,533,73,145,33,2,21,73,43,76,9,3,3,0,4
werthja01,Jayson Werth,145,504,88,141,30,2,26,79,72,132,15,3,6,0,6
whiteel03,Eli Whiteside,91,254,35,64,13,2,7,28,19,58,3,2,4,2,1
wietema01,Matt Wieters,128,450,45,119,22,1,12,56,43,98,2,1,2,1,5
wiggity01,Ty Wigginton,142,507,59,134,26,1,19,64,41,92,3,3,6,1,5
willijo03,Josh Willingham,121,399,60,105,23,2,18,57,58,91,6,2,10,1,3
willire03,Reggie Willits,128,260,40,64,12,1,3,23,30,50,6,4,2,6,2
wilsobo02,Bobby Wilson,83,228,29,58,13,1,8,31,22,49,3,1,1,3,1
wilsoja02,Jack Wilson,84,284,29,73,16,1,3,26,17,45,3,2,3,5,3
wilsojo03,Josh Wilson,114,373,35,91,17,2,6,33,22,78,6,2,9,2,2
winnra01,Randy Winn,94,298,38,82,18,2,4,32,28,50,10,1,1,1,4
wisede01,Dewayne Wise,103,247,36,62,11,3,7,29,16,54,8,3,3,3,1
woodbr01,Brandon Wood,103,304,32,62,9,1,8,28,17,83,4,1,3,6,2
woodwch01,Chris Woodward,61,184,22,46,9,1,5,21,20,41,3,1,3,1,1
worthda01,Danny Worth,75,236,29,62,12,1,6,26,20,41,4,3,2,3,1
wrighda03,David Wright,139,519,83,151,34,3,20,85,67,125,17,7,3,0,8
youklke01,Kevin Youkilis,112,402,75,121,29,3,20,73,55,85,5,2,10,0,5
youngch04,Chris Young,143,516,74,127,31,3,20,69,61,133,17,5,3,3,3
youngde03,Delmon Young,141,517,69,149,31,2,15,82,29,93,7,5,6,1,6
youngde04,Delwyn Young,130,310,36,80,16,2,8,38,27,76,3,1,2,2,1
younger03,Eric Young,88,276,39,71,11,1,5,23,27,54,16,7,1,1,1
youngmi02,Michael Young,137,552,82,161,32,2,17,73,46,96,7,2,2,0,6
zaungr01,Gregg Zaun,72,229,28,60,13,1,7,30,25,39,2,2,3,1,1
zawadla01,Lance Zawadzki,66,198,26,51,11,1,5,23,21,39,4,1,2,3,1
zimmery01,Ryan Zimmerman,136,511,80,149,30,1,23,79,57,96,4,1,3,0,6
zobribe01,Ben Zobrist,144,494,77,130,26,4,18,75,78,99,17,4,3,3,7
