playerID,playerName,W,L,G,GS,CG,SHO,SV,IPouts,H,ER,HR,BB,SO,IBB,WP,HBP,BK,BFP,GF,R,SH,SF,GIDP
aardsda01,David Aardsma,1,2,13,3,0,0,2,76,24,11,3,9,22,1,1,1,0,107,5,12,1,1,2
abadfe01,Fernando Abad,2,5,34,6,0,0,1,168,59,27,7,20,46,1,2,2,0,243,7,29,2,2,4
accarje01,Jeremy Accardo,2,2,15,3,0,0,1,88,30,14,3,11,24,1,1,1,0,127,4,15,1,1,3
aceveal01,Alfredo Aceves,5,5,44,5,0,0,8,234,70,35,8,28,63,2,2,5,1,330,21,37,2,3,6
acostma01,Manny Acosta,3,3,34,4,0,0,2,159,52,26,6,20,48,1,2,2,0,228,8,28,1,2,4
adamsmi03,Mike Adams,4,3,37,4,0,0,1,158,50,20,5,17,46,1,2,2,0,222,6,22,1,1,4
adcocna01,Nathan Adcock,2,3,23,5,0,0,1,167,55,24,6,20,42,2,2,2,0,237,6,27,2,2,5
affelje01,Jeremy Affeldt,3,3,45,4,0,0,2,186,57,24,5,22,54,2,3,3,0,263,9,27,3,1,5
albaljo01,Jonathan Albaladejo,1,1,12,3,0,0,1,79,26,12,3,9,22,1,1,1,0,112,3,13,1,1,2
alberma01,Matt Albers,2,2,26,3,0,0,1,126,40,19,5,16,36,1,1,2,0,179,6,20,2,1,4
albural01,Al Alburquerque,2,2,20,3,0,0,1,109,31,14,3,15,36,1,2,1,0,154,4,15,1,1,3
allenco01,Cody Allen,2,2,21,4,0,0,1,121,39,18,4,15,35,1,1,1,0,172,6,19,1,1,4
alvarhe01,Henderson Alvarez,8,11,45,24,1,1,2,497,176,80,22,48,101,2,4,5,1,705,7,87,3,4,21
ambrihe01,Hector Ambriz,2,2,18,3,0,0,1,104,34,16,4,13,30,1,2,1,0,148,5,17,1,1,3
anderbr04,Brett Anderson,5,5,27,12,0,0,1,264,85,35,8,26,69,2,2,4,1,369,5,39,3,2,8
archech01,Chris Archer,3,4,26,8,0,0,2,194,60,29,7,23,59,1,3,2,0,273,6,32,2,1,6
arredjo01,Jose Arredondo,4,3,42,4,0,0,1,182,55,24,7,26,55,2,2,2,1,259,10,28,2,2,5
arrieja01,Jake Arrieta,7,8,36,18,0,0,1,366,122,67,16,46,102,3,4,5,0,527,5,71,4,3,10
arroybr01,Bronson Arroyo,10,9,41,26,1,1,1,531,181,81,27,43,117,3,3,5,0,743,5,86,6,5,13
atchisc01,Scott Atchison,3,2,29,4,0,0,1,157,49,20,5,15,41,2,2,1,0,217,6,22,2,2,5
aumonph01,Phillippe Aumont,2,2,17,3,0,0,1,100,31,15,3,12,28,1,1,1,0,142,4,16,1,1,3
avilalu01,Luis Avilan,2,2,23,4,0,0,1,133,41,18,4,14,38,1,2,1,0,185,4,19,2,1,4
axelrdy01,Dylan Axelrod,4,3,27,9,0,0,1,211,70,33,8,26,59,2,2,3,0,304,7,36,2,3,5
axforjo01,John Axford,4,4,49,4,0,0,19,200,60,27,7,27,71,2,5,2,0,285,30,31,2,2,5
ayalalu01,Luis Ayala,4,4,43,4,0,0,1,201,66,25,7,20,52,2,2,3,0,283,12,28,2,2,6
badenbu01,Burke Badenhop,3,3,42,4,0,0,1,187,61,26,6,19,49,3,2,2,0,264,10,28,2,2,6
bailean01,Andrew Bailey,2,2,23,3,0,0,6,111,35,16,4,13,32,1,1,1,0,156,12,17,1,1,3
baileho02,Homer Bailey,11,9,44,26,1,1,2,538,178,79,22,51,148,4,4,7,0,758,6,87,5,5,12
balesco01,Collin Balester,2,2,19,3,0,0,1,114,36,18,5,14,33,1,2,2,0,164,5,20,1,1,3
balfogr01,Grant Balfour,4,3,48,4,0,0,7,201,54,24,6,23,61,2,2,1,0,273,15,26,1,2,5
bardda01,Daniel Bard,4,6,46,8,0,0,2,249,73,38,9,35,70,2,2,4,1,353,8,41,3,3,6
barnesc01,Scott Barnes,2,2,17,3,0,0,1,105,34,16,4,12,30,1,2,2,0,149,4,17,1,1,3
bassan01,Anthony Bass,4,6,40,12,1,0,2,306,95,45,11,38,81,3,4,2,1,431,8,50,3,2,8
bastaan01,Antonio Bastardo,4,3,43,4,0,0,3,171,48,24,7,23,61,2,3,2,0,240,9,26,2,2,4
batismi01,Miguel Batista,1,1,14,3,0,0,1,90,27,12,3,11,23,1,1,1,0,126,4,13,1,1,3
bauertr01,Trevor Bauer,4,4,30,9,0,0,2,213,68,33,8,27,61,2,3,3,0,305,7,36,3,2,6
beachbr01,Brandon Beachy,6,6,34,17,1,0,2,348,99,44,12,40,110,4,6,3,0,481,6,49,4,3,7
beatope01,Pedro Beato,2,2,20,3,0,0,1,108,34,16,4,13,28,1,1,2,0,152,4,18,1,1,3
beavabl01,Blake Beavan,9,10,42,22,0,0,2,451,157,70,20,34,90,1,4,7,0,632,6,73,3,5,13
beckch01,Chad Beck,2,2,17,3,0,0,1,100,33,15,4,11,27,1,1,1,0,142,4,17,1,1,3
beckejo02,Josh Beckett,6,5,27,14,0,0,1,299,92,41,12,31,88,3,3,4,0,416,4,44,4,2,7
bedarer01,Erik Bedard,7,10,39,19,0,0,2,374,125,61,14,49,112,2,3,3,1,541,7,68,4,3,10
belisma01,Matt Belisle,5,5,52,4,0,0,2,214,73,29,6,19,61,3,2,3,0,302,9,33,3,1,7
belisro01,Ronald Belisario,4,2,39,4,0,0,2,180,52,24,5,22,52,2,2,3,0,251,9,26,2,1,5
belivje01,Jeff Beliveau,2,2,18,3,0,0,1,103,34,15,5,13,30,1,1,1,0,148,4,17,1,1,3
bellhe01,Heath Bell,4,4,46,4,0,0,15,185,59,26,5,23,55,2,3,2,0,263,25,29,3,2,5
belowdu01,Duane Below,3,3,25,5,0,0,1,158,52,23,6,16,40,1,2,2,0,222,6,26,2,2,5
benoijo01,Joaquin Benoit,4,3,48,4,0,0,2,196,56,26,8,20,65,2,2,2,0,267,11,28,2,3,5
bergebr02,Brad Bergesen,2,3,20,6,0,0,1,151,53,25,6,16,35,1,1,2,0,216,4,28,2,1,5
berkeja01,Jason Berken,3,5,37,7,0,0,1,221,77,34,9,26,60,2,3,2,0,320,9,38,3,2,6
betanra01,Rafael Betancourt,3,3,43,4,0,0,9,175,53,23,7,15,57,2,2,1,1,241,20,24,2,2,4
billich01,Chad Billingsley,9,9,38,23,0,0,1,461,150,66,12,55,130,3,5,6,0,659,5,72,7,5,11
blackni01,Nick Blackburn,6,9,34,19,0,0,1,370,146,71,19,39,74,2,4,3,0,545,5,76,4,4,11
blacktr01,Travis Blackley,6,5,35,12,0,0,2,293,91,43,10,31,75,2,4,3,1,407,8,46,2,3,8
blantjo01,Joe Blanton,4,5,29,13,0,0,1,276,98,45,11,27,77,3,2,2,0,393,5,48,4,3,8
blevije01,Jerry Blevins,3,2,41,4,0,0,1,181,54,23,7,22,51,2,2,3,0,253,11,26,3,2,5
boggsmi01,Mitchell Boggs,3,3,48,4,0,0,2,203,62,26,6,22,55,2,2,3,0,284,12,28,3,2,7
bowdemi01,Michael Bowden,2,2,25,4,0,0,1,138,43,19,5,17,38,1,2,1,0,195,8,21,2,1,3
boxbebr01,Brad Boxberger,2,2,20,4,0,0,1,119,37,17,4,16,36,1,1,2,0,169,5,19,1,1,3
brachbr01,Brad Brach,3,4,38,4,0,0,1,179,54,26,8,24,57,4,3,2,0,254,9,28,2,2,4
braybi01,Bill Bray,2,2,25,3,0,0,1,102,31,15,4,14,29,1,1,1,0,144,5,16,1,1,2
breslcr01,Craig Breslow,2,2,28,3,0,0,1,121,38,17,4,14,34,1,1,1,0,171,6,18,2,1,4
brittza01,Zack Britton,7,6,32,16,0,0,1,314,105,51,10,42,81,3,5,3,0,451,5,57,3,3,11
brothre01,Rex Brothers,5,3,46,4,0,0,1,192,60,27,6,27,66,3,3,2,0,274,8,30,2,2,5
brownba01,Barret Browning,2,2,18,3,0,0,1,104,33,16,4,12,28,1,1,1,0,147,4,17,1,1,3
broxtjo01,Jonathan Broxton,3,3,23,3,0,0,4,112,36,16,4,13,33,1,1,1,0,159,9,18,1,1,4
brummty01,Tyson Brummett,1,1,11,3,0,0,1,76,25,11,3,9,22,1,1,1,0,108,3,12,1,1,2
brunebr01,Brian Bruney,2,1,15,3,0,0,1,82,27,13,3,11,23,1,1,1,0,118,4,14,1,1,2
buchhcl01,Clay Buchholz,11,7,41,23,1,1,2,489,155,72,19,57,121,2,4,7,1,688,6,78,4,6,18
buehrma01,Mark Buehrle,11,10,41,26,1,0,1,537,183,76,20,44,114,3,3,3,1,747,5,82,8,6,16
buenofr01,Francisley Bueno,2,2,17,3,0,0,1,100,32,14,3,11,27,1,1,1,0,141,4,15,1,1,3
bumgama01,Madison Bumgarner,13,11,45,28,1,0,2,571,179,73,18,50,170,5,3,6,1,788,6,81,7,4,14
bundydy01,Dylan Bundy,2,1,12,3,0,0,1,81,26,12,3,9,23,1,1,1,0,115,3,13,1,1,2
burneaj01,A. J. Burnett,11,10,42,26,1,0,1,529,172,83,21,63,153,2,12,9,0,757,5,89,5,7,17
burneal01,Alex Burnett,4,4,48,4,0,0,1,201,66,31,6,24,48,3,3,4,0,288,11,34,2,2,6
burnese01,Sean Burnett,3,4,46,4,0,0,2,176,57,22,6,18,50,2,2,2,0,248,10,24,2,2,5
burnsco01,Cory Burns,2,2,17,3,0,0,1,104,35,16,4,13,30,1,1,1,0,150,5,17,1,1,3
burtoja01,Jared Burton,3,3,36,4,0,0,2,168,49,21,6,18,48,1,1,3,0,233,8,24,2,1,4
byrdati01,Tim Byrdak,2,2,38,3,0,0,1,128,39,19,4,17,39,2,1,1,0,181,6,21,2,2,3
cabreal03,Alberto Cabrera,2,2,20,4,0,0,1,110,34,17,4,15,33,1,2,1,0,157,5,19,1,1,3
cabreed01,Edwar Cabrera,4,4,28,8,0,0,2,192,63,30,8,24,54,2,2,2,0,275,7,33,2,2,6
cahiltr01,Trevor Cahill,12,11,43,27,1,1,1,555,175,79,17,67,140,2,9,8,1,781,5,86,8,5,19
cainma01,Matt Cain,12,8,42,27,1,1,1,576,162,67,17,53,161,3,6,7,0,783,5,74,8,6,11
campsh01,Shawn Camp,4,4,50,4,0,0,2,206,70,29,7,21,50,4,2,2,0,291,13,32,2,2,7
cappsca01,Carter Capps,2,2,19,4,0,0,1,117,38,17,4,14,34,1,1,1,0,165,4,18,1,1,3
cappsma01,Matt Capps,3,3,31,3,0,0,7,138,45,20,6,13,34,1,2,2,0,193,16,21,1,1,4
capuach01,Chris Capuano,10,10,45,26,0,0,1,524,172,78,22,52,148,4,6,4,0,735,6,84,10,3,14
carigan01,Andrew Carignan,2,2,16,3,0,0,1,92,30,14,3,12,26,1,1,1,0,132,4,15,1,1,3
carmofa01,Roberto Hernandez,4,6,24,12,0,0,1,255,86,43,10,28,57,1,2,4,0,365,4,48,3,3,7
carpean01,Drew Carpenter,2,2,14,3,0,0,1,91,29,14,4,11,26,1,2,1,0,129,4,15,1,1,2
carpech01,Chris Carpenter,5,4,23,12,1,0,1,269,88,36,8,25,72,2,2,3,0,377,3,39,4,2,8
carpech02,Chris Carpenter,2,1,15,3,0,0,1,87,29,13,3,12,24,1,2,1,0,126,4,14,1,1,3
carpeda01,David Carpenter,2,2,16,3,0,0,1,88,29,14,3,11,26,2,1,2,0,127,4,15,1,1,2
carpeda02,David Carpenter,2,2,23,4,0,0,1,137,45,21,6,16,37,1,2,1,0,195,7,22,1,1,4
carradj01,D. J. Carrasco,2,2,17,3,0,0,1,93,32,15,4,10,25,1,1,2,0,134,5,17,1,1,3
carrejo01,Joel Carreno,2,3,21,5,0,0,1,134,43,20,6,17,37,1,1,1,0,189,5,22,1,1,4
carsoro01,Robert Carson,2,2,17,3,0,0,1,98,31,15,4,11,26,1,1,1,0,138,4,16,1,1,3
cashnan01,Andrew Cashner,3,4,31,6,0,0,1,166,51,25,6,21,50,2,2,2,0,234,6,27,3,1,4
cassebo01,Bobby Cassevah,2,2,16,3,0,0,1,95,30,14,3,12,25,1,1,1,0,135,4,15,1,1,3
castile01,Lendy Castillo,2,2,16,3,0,0,1,102,35,17,4,13,29,1,2,2,0,149,4,18,1,1,3
cecilbr01,Brett Cecil,4,5,26,12,0,0,1,252,85,42,12,29,66,1,2,3,0,360,4,45,2,3,8
cedenxa01,Xavier Cedeno,2,2,26,4,0,0,1,123,41,19,5,15,37,1,2,1,0,177,6,20,2,2,3
chacijh01,Jhoulys Chacin,6,8,32,17,1,0,1,350,111,50,13,48,94,2,4,4,0,502,5,55,3,3,10
chambjo03,Joba Chamberlain,2,2,24,3,0,0,1,115,38,17,4,12,34,1,1,1,0,163,5,18,1,1,3
chapmar01,Aroldis Chapman,4,4,46,4,0,0,12,202,51,24,6,27,79,1,3,3,0,277,21,26,1,1,5
chapmja02,Jaye Chapman,2,2,16,3,0,0,1,95,30,14,3,12,27,1,1,1,0,134,4,15,1,1,3
chatwty01,Tyler Chatwood,5,7,32,14,0,0,2,289,103,49,11,41,67,3,4,3,0,422,6,53,4,3,11
chaveje01,Jesse Chavez,2,2,13,3,0,0,1,82,28,14,4,10,23,1,1,1,0,118,4,15,1,1,2
chenbr01,Bruce Chen,11,10,43,26,0,0,2,503,173,82,23,51,124,3,4,6,0,717,6,87,4,5,11
chenwe02,Wei-Yin Chen,9,9,45,23,0,0,2,472,152,70,21,49,129,2,3,5,1,667,7,78,5,6,10
choatra01,Randy Choate,2,2,29,3,0,0,1,100,31,14,4,13,29,2,1,2,0,142,4,16,1,1,3
chulkvi01,Vinnie Chulk,2,2,13,3,0,0,1,87,30,14,3,10,25,1,1,1,0,125,4,15,1,1,2
cingrto01,Tony Cingrani,2,2,13,3,0,0,1,85,27,12,3,10,25,1,1,1,0,120,3,13,1,1,2
cishest01,Steve Cishek,4,3,42,4,0,0,5,189,57,24,5,23,58,4,2,3,0,268,17,27,3,2,6
cletoma01,Maikel Cleto,2,2,15,3,0,0,1,92,31,15,4,11,28,1,1,1,0,132,4,16,1,1,2
clippty01,Tyler Clippard,4,4,49,4,0,0,8,212,57,27,8,25,72,2,3,2,0,291,16,29,3,3,4
cloydty01,Tyler Cloyd,4,4,31,10,0,0,2,234,76,36,11,25,67,2,2,3,0,329,7,38,3,2,7
cobbal01,Alex Cobb,9,8,40,19,1,1,2,408,130,59,13,44,109,3,6,6,1,572,7,65,3,5,13
coellro01,Robert Coello,2,2,13,3,0,0,1,84,28,14,3,10,25,1,1,1,0,121,3,15,1,1,2
coffeto01,Todd Coffey,2,2,28,3,0,0,1,120,38,18,4,14,34,1,2,2,0,171,6,20,2,2,3
cokeph01,Phil Coke,3,4,40,6,0,0,1,187,67,28,5,22,51,3,3,2,0,271,8,32,3,2,6
colemca01,Casey Coleman,2,3,19,6,0,0,1,146,52,26,6,20,39,1,2,2,0,215,4,28,2,1,4
colemlo01,Louis Coleman,2,3,34,4,0,0,1,171,51,24,8,22,56,3,2,2,0,241,10,26,2,1,4
colliti01,Tim Collins,4,4,48,4,0,0,1,206,61,29,7,31,68,3,3,2,0,292,10,31,3,2,5
collmjo01,Josh Collmenter,6,5,34,13,0,0,1,302,96,42,12,27,80,2,2,2,0,417,7,44,5,2,6
colonba01,Bartolo Colon,9,9,39,21,0,0,2,443,151,62,17,36,110,3,2,3,0,621,6,68,3,4,12
colonro01,Roman Colon,2,1,13,3,0,0,1,86,29,13,3,10,23,1,1,1,0,122,3,14,1,1,3
contrjo01,Jose Contreras,2,2,20,3,0,0,2,96,30,14,3,11,28,1,1,1,0,135,5,16,1,1,3
cookaa01,Aaron Cook,5,9,34,18,1,0,1,345,130,63,14,37,64,3,3,4,0,502,5,69,3,4,13
cookry01,Ryan Cook,4,3,41,5,0,0,5,191,54,24,6,23,59,2,3,3,0,265,12,26,2,1,5
corbipa01,Patrick Corbin,6,7,37,14,0,0,2,326,111,51,13,32,90,2,3,4,0,461,8,54,3,4,10
cordefr01,Francisco Cordero,2,2,22,2,0,0,7,101,32,15,4,12,27,1,1,1,0,142,12,16,1,1,3
corpama01,Manny Corpas,2,3,30,4,0,0,2,144,48,23,6,16,38,2,1,2,0,206,8,24,1,1,5
correke01,Kevin Correia,10,10,41,23,0,0,1,464,160,75,20,47,99,2,3,4,0,661,5,82,8,5,12
crainje01,Jesse Crain,3,3,39,3,0,0,1,165,47,21,6,22,53,2,2,1,0,229,7,22,1,1,4
crawfev01,Evan Crawford,2,2,14,3,0,0,1,88,29,13,4,10,24,1,1,1,0,125,4,15,1,1,3
crosbca01,Casey Crosby,4,4,29,8,0,0,2,203,67,33,8,26,57,2,3,2,0,290,7,36,2,2,7
crowaa01,Aaron Crow,4,3,45,4,0,0,2,193,59,26,7,24,59,2,4,2,0,270,12,28,2,2,6
cruzju02,Juan Cruz,3,2,32,4,0,0,2,141,45,20,5,19,41,1,2,2,0,200,7,21,2,2,4
cruzrh01,Rhiner Cruz,2,2,31,4,0,0,1,159,54,27,6,21,45,1,2,2,0,231,11,29,2,2,5
cuetojo01,Johnny Cueto,13,8,44,27,2,0,1,559,172,64,15,52,144,4,4,9,2,771,5,72,7,5,15
danksjo01,John Danks,6,6,28,15,1,0,1,313,104,50,11,34,81,2,4,3,0,445,4,53,3,3,9
darviyu01,Yu Darvish,11,8,44,21,0,0,2,473,138,69,14,65,161,2,6,7,0,670,7,74,3,5,11
daviswa01,Wade Davis,5,4,30,9,0,0,1,237,74,34,9,28,64,1,3,2,0,335,6,36,2,2,6
dedunsa01,Sam Deduno,6,6,36,14,0,0,2,299,93,46,12,46,80,2,5,4,0,429,7,49,3,3,11
defraju01,Justin De Fratus,2,2,16,3,0,0,1,94,29,14,3,11,26,1,1,1,0,132,4,15,1,1,3
delabst01,Steve Delabar,2,2,22,4,0,0,1,121,37,17,4,15,39,1,2,1,0,171,4,19,1,1,3
delarda01,Dane De La Rosa,1,1,14,3,0,0,1,84,28,14,3,10,24,1,1,1,0,120,4,15,1,1,2
delarjo01,Jorge De La Rosa,4,4,24,10,0,0,1,212,67,33,9,25,60,1,4,2,0,300,5,36,3,2,7
delarru01,Rubby De La Rosa,2,2,13,4,0,0,1,97,31,14,4,13,28,1,1,1,0,137,3,15,1,1,3
delgara01,Randall Delgado,6,8,37,16,0,0,2,335,106,50,12,43,90,4,5,4,1,477,7,54,4,3,9
delosfa01,Fautino De Los Santos,2,2,17,3,0,0,1,91,29,13,3,11,27,1,2,1,0,130,4,15,1,1,2
delroen01,Enerio Del Rosario,2,2,24,3,0,0,1,120,43,21,4,15,31,1,1,2,0,177,6,22,1,1,3
demelsa01,Sam Demel,2,2,16,3,0,0,1,85,28,13,3,10,23,1,1,1,0,121,4,14,1,1,3
dempsry01,Ryan Dempster,7,7,29,17,0,0,1,337,112,55,13,42,104,2,4,3,0,483,4,60,5,3,8
detwiro01,Ross Detwiler,8,8,44,21,0,0,2,432,136,58,15,47,103,2,4,5,1,607,7,67,7,4,13
devrico01,Cole De Vries,6,6,36,14,0,0,2,307,100,46,14,29,79,2,3,4,0,436,7,52,4,2,7
diamosc01,Scott Diamond,9,9,42,21,1,1,2,457,158,65,16,40,99,3,8,4,0,641,7,72,4,4,19
dickera01,R. A. Dickey,12,9,43,26,2,1,1,572,173,67,19,51,158,3,6,7,1,783,5,74,9,6,19
dicksbr01,Brandon Dickson,2,1,13,3,0,0,1,87,29,13,4,10,25,1,1,1,0,124,3,15,1,1,3
diekmja01,Jake Diekman,2,2,22,4,0,0,1,118,38,17,4,16,36,2,1,2,0,170,5,20,1,1,3
dillati01,Tim Dillard,2,2,26,4,0,0,1,139,46,21,5,15,39,1,1,2,0,197,9,23,2,1,4
dolisra01,Rafael Dolis,3,3,24,4,0,0,2,136,44,22,5,18,36,1,2,2,0,194,8,24,2,1,5
doolise01,Sean Doolittle,3,2,28,4,0,0,1,148,46,20,5,15,47,1,1,1,0,206,6,22,2,2,3
doteloc01,Octavio Dotel,4,3,36,4,0,0,2,164,50,23,5,16,51,2,2,1,0,228,9,25,2,2,3
doubrfe01,Felix Doubront,9,8,47,21,0,0,2,432,143,72,19,58,135,2,5,5,0,625,8,78,3,5,10
downsda02,Darin Downs,2,2,18,3,0,0,1,106,34,15,4,12,30,1,1,1,0,149,4,17,1,1,3
downssc01,Scott Downs,3,3,39,3,0,0,3,156,47,19,5,17,41,2,2,1,0,218,8,21,2,2,4
drabeky01,Kyle Drabek,6,7,35,15,0,0,2,316,104,54,13,52,80,1,8,3,0,460,6,58,3,3,12
duensbr01,Brian Duensing,5,8,40,13,0,0,1,307,110,51,11,31,74,3,3,2,0,439,7,56,3,3,11
duffyda01,Danny Duffy,5,5,30,13,0,0,2,259,87,43,10,36,74,2,3,3,1,374,6,45,2,2,7
dukeza01,Zach Duke,2,2,14,5,0,0,1,118,43,19,4,12,28,1,1,1,0,171,3,21,1,1,3
dunnmi01,Mike Dunn,3,3,41,4,0,0,1,161,51,24,6,24,51,3,2,1,0,233,7,27,2,2,4
durbich01,Chad Durbin,3,2,45,4,0,0,1,183,60,27,8,23,52,2,2,2,0,263,10,30,2,3,4
dysonsa01,Sam Dyson,1,1,12,3,0,0,1,78,26,12,3,9,22,1,1,1,0,111,3,13,1,1,2
edginjo01,Josh Edgin,2,2,22,4,0,0,1,115,36,17,5,13,34,1,1,2,0,162,5,19,2,1,3
edlefst01,Steve Edlefsen,2,2,18,3,0,0,1,102,35,16,4,13,27,1,1,1,0,147,5,17,1,1,3
egberja01,Jack Egbert,1,1,11,3,0,0,1,76,24,11,3,9,21,1,1,1,0,107,3,12,1,1,2
ekstrmi01,Mike Ekstrom,2,2,17,3,0,0,1,99,33,15,3,11,27,1,1,1,0,140,5,16,2,1,3
elbersc01,Scott Elbert,2,2,31,4,0,0,1,135,42,18,4,16,39,2,2,1,0,189,8,19,1,2,4
elyjo01,John Ely,1,2,11,3,0,0,1,84,28,14,3,11,23,1,1,1,0,120,3,15,1,1,2
enrigba01,Barry Enright,2,2,12,4,0,0,1,93,32,16,5,10,23,1,1,1,0,133,3,17,1,1,3
eovalna01,Nathan Eovaldi,5,7,35,14,0,0,2,295,97,44,10,38,77,2,2,4,0,425,7,47,3,3,9
eppleco01,Cody Eppley,2,3,33,4,0,0,1,148,48,22,5,17,40,2,2,1,0,209,8,23,2,1,5
escaled01,Edgmer Escalona,2,2,21,3,0,0,1,118,37,17,5,13,32,1,2,1,0,165,5,19,1,1,3
estrama01,Marco Estrada,6,8,47,17,0,0,2,392,123,57,16,37,123,2,5,2,1,544,9,62,6,3,8
evelada01,Dana Eveland,3,3,20,5,0,0,1,147,48,22,5,17,37,2,1,3,0,209,5,24,1,2,5
familje01,Jeurys Familia,2,2,17,4,0,0,1,110,35,17,4,14,31,1,1,1,0,155,5,18,1,1,3
farnsky01,Kyle Farnsworth,3,3,30,3,0,0,4,130,39,18,4,15,38,1,2,2,0,182,12,19,2,1,3
feldmsc01,Scott Feldman,6,8,38,16,0,0,1,345,121,59,13,35,88,2,4,3,1,495,8,65,2,4,9
felizne01,Neftali Feliz,5,4,47,8,0,0,13,256,71,33,9,33,74,2,3,3,0,354,25,36,2,2,7
fickch01,C. J. Fick,2,2,18,4,0,0,1,110,36,16,4,15,30,2,2,2,0,158,4,18,2,1,4
fienca01,Casey Fien,2,2,24,4,0,0,1,127,39,17,5,14,36,2,1,1,0,178,5,19,1,1,3
fiersmi01,Mike Fiers,8,8,40,17,0,0,2,370,120,53,13,39,117,2,4,3,0,522,8,56,4,4,8
fifest01,Stephen Fife,4,4,30,9,0,0,2,223,71,31,8,26,62,2,4,3,0,316,7,34,3,2,6
figuepe01,Pedro Figueroa,2,2,18,4,0,0,1,108,34,16,4,14,29,1,2,1,0,152,5,17,1,1,4
fistedo01,Doug Fister,9,8,38,21,1,0,2,444,142,58,14,36,118,2,3,6,1,616,6,66,3,2,13
floydga01,Gavin Floyd,10,10,40,24,0,0,1,489,159,76,19,52,135,3,8,9,0,690,5,80,4,4,17
fontwi01,Wilmer Font,2,1,12,3,0,0,1,81,26,12,3,10,23,1,1,1,0,115,3,13,1,1,2
francfr01,Frank Francisco,3,3,36,3,0,0,8,151,50,23,6,19,48,1,2,1,0,218,18,25,1,1,3
francje01,Jeff Francis,6,9,37,22,0,0,1,401,153,71,15,34,90,4,3,5,0,580,5,74,7,4,11
frasoja01,Jason Frasor,2,3,33,3,0,0,1,143,46,21,6,19,45,2,3,2,0,205,7,23,1,1,4
freemsa01,Sam Freeman,2,2,19,4,0,0,1,107,34,16,4,13,30,1,1,1,0,151,5,18,1,1,3
friedch01,Christian Friedrich,6,7,36,15,0,0,2,313,110,56,14,36,89,2,6,3,0,450,7,59,5,3,8
frierer01,Ernesto Frieri,3,3,40,4,0,0,6,176,48,22,6,24,62,2,2,4,0,248,19,24,2,1,4
fuentbr01,Brian Fuentes,2,2,20,3,0,0,2,97,31,14,4,12,27,1,1,1,0,138,6,16,1,1,2
furbuch01,Charlie Furbush,4,4,29,5,0,0,1,162,50,25,6,18,48,2,3,2,0,227,6,27,2,2,4
galarar01,Armando Galarraga,4,5,26,11,0,0,1,227,76,39,12,31,56,2,3,3,1,331,5,43,3,3,6
gallayo01,Yovani Gallardo,14,9,44,28,1,1,1,555,173,77,22,66,179,3,7,2,0,781,5,83,9,5,13
garcich02,Christian Garcia,2,2,16,3,0,0,1,95,30,13,4,10,27,1,1,1,0,133,4,15,1,1,3
garcifr02,Freddy Garcia,7,6,33,16,0,0,1,331,113,53,14,35,84,3,5,3,0,471,7,56,4,4,8
garcija01,Santiago Casilla,4,4,44,4,0,0,8,183,54,22,6,23,53,2,3,2,0,258,17,25,2,1,5
garcija02,Jaime Garcia,9,7,36,21,1,1,1,426,146,58,11,42,116,2,8,2,1,602,5,68,6,5,16
garzama01,Matt Garza,7,7,33,19,1,0,1,394,122,55,15,42,117,2,4,4,0,551,5,61,5,2,11
gaudich01,Chad Gaudin,3,3,33,4,0,0,1,181,60,28,7,22,50,2,2,2,0,260,8,32,4,2,5
gearrco01,Cory Gearrin,2,2,21,3,0,0,1,112,35,17,4,13,33,1,2,2,0,158,5,18,1,1,4
geedi01,Dillon Gee,8,7,37,19,0,0,1,397,127,60,15,46,107,2,3,7,1,566,6,66,5,4,10
geltzst01,Steve Geltz,1,1,12,3,0,0,1,79,26,12,3,9,22,1,1,1,0,113,3,13,1,1,2
germaju01,Justin Germano,4,8,36,11,0,0,2,270,94,48,10,29,71,2,4,6,0,393,8,52,4,3,7
godfrgr01,Graham Godfrey,3,5,26,8,0,0,2,198,68,31,8,23,51,1,2,3,0,285,6,35,2,3,5
gomesbr01,Brandon Gomes,2,2,21,3,0,0,1,113,36,16,4,14,32,1,1,2,0,161,6,18,1,1,3
gomezje01,Jeanmar Gomez,7,7,35,16,0,0,2,325,114,57,14,37,74,4,3,4,0,469,6,62,3,5,10
gonzaed01,Edgar Gonzalez,5,4,30,9,0,0,2,217,70,34,8,24,60,1,3,2,0,308,7,36,3,2,6
gonzagi01,Gio Gonzalez,15,9,43,27,1,0,1,543,153,66,14,72,172,2,7,6,1,761,5,72,6,4,13
gonzami02,Mike Gonzalez,2,2,28,4,0,0,1,128,40,18,4,16,39,1,2,1,0,181,7,20,2,1,4
gonzami03,Miguel Gonzalez,7,5,35,13,0,0,2,320,99,44,13,36,85,2,3,4,1,448,7,46,3,3,9
gorzeto01,Tom Gorzelanny,4,4,30,8,0,0,1,216,69,30,8,27,62,2,3,3,0,307,6,33,3,2,7
grayje02,Jeff Gray,4,2,32,4,0,0,1,162,55,27,7,20,39,1,3,2,0,235,7,29,1,2,5
gregelu01,Luke Gregerson,3,3,50,4,0,0,3,199,59,25,6,21,59,2,2,2,0,277,10,27,3,1,5
greggke01,Kevin Gregg,2,3,35,3,0,0,7,156,51,24,6,23,45,2,2,2,0,226,17,27,2,1,5
greinza01,Zack Greinke,8,5,31,17,0,0,1,364,115,52,13,35,114,1,5,3,0,507,4,57,4,3,10
griffaj01,A. J. Griffin,7,4,36,14,0,0,2,311,97,42,12,31,85,2,2,3,0,433,7,45,2,3,6
grillja01,Jason Grilli,3,4,37,4,0,0,2,169,50,22,6,20,59,3,2,2,0,237,7,24,2,1,4
grimmju01,Justin Grimm,3,3,21,5,0,0,1,141,48,23,5,15,40,1,2,1,0,201,6,25,1,2,4
guerrja01,Javy Guerra,3,3,34,4,0,0,6,157,49,20,4,20,44,2,2,2,0,223,14,21,3,2,5
guerrma02,Matt Guerrier,2,2,26,3,0,0,1,114,34,16,4,13,30,1,1,1,0,160,5,18,1,1,3
guthrje01,Jeremy Guthrie,6,8,31,17,0,0,1,373,120,54,14,36,85,2,2,5,1,522,5,60,3,5,10
hackeer01,Eric Hacker,2,2,17,4,0,0,1,117,39,17,5,13,32,1,1,1,0,166,4,19,1,1,3
hagadni01,Nick Hagadone,2,2,22,4,0,0,1,118,37,19,4,15,34,1,2,1,0,168,6,20,1,1,3
hallaro01,Roy Halladay,11,7,35,22,3,1,1,474,149,60,14,35,139,2,3,4,0,647,5,63,7,5,12
hamelco01,Cole Hamels,13,8,42,26,2,1,1,566,166,67,20,50,177,3,4,5,2,767,5,72,6,3,13
hammeja01,Jason Hammel,8,8,36,20,0,0,2,406,133,62,14,47,107,2,6,4,1,576,5,67,6,3,11
hampsju01,Justin Hampson,2,2,15,3,0,0,1,89,28,13,3,10,24,1,1,1,0,125,3,14,1,1,3
handbr01,Brad Hand,3,5,27,9,0,0,2,211,67,33,9,29,56,2,2,2,0,303,6,37,3,2,5
hanrajo01,Joel Hanrahan,3,3,45,4,0,0,16,183,53,22,6,23,59,1,4,2,0,257,27,24,2,1,4
hansoto01,Tommy Hanson,11,9,41,25,0,0,1,487,155,72,20,58,149,4,5,6,0,691,5,79,6,3,10
happja01,J. A. Happ,4,6,25,12,0,0,1,244,78,41,9,35,72,2,3,2,0,351,5,44,4,3,6
haranaa01,Aaron Harang,10,9,42,25,0,0,1,492,162,70,17,64,125,6,5,4,0,706,5,78,6,6,13
harenda01,Dan Haren,11,10,41,24,1,1,1,510,166,71,20,39,139,3,5,4,1,706,5,78,7,6,11
harrelu01,Lucas Harrell,9,9,46,23,1,1,2,477,154,68,13,62,123,4,7,3,2,681,7,77,6,7,13
harrima01,Matt Harrison,13,9,47,26,2,1,2,559,182,74,18,58,130,2,5,3,0,779,7,80,4,4,22
harriwi02,Will Harris,2,2,18,3,0,0,1,102,35,17,4,11,29,1,2,1,0,146,5,18,1,1,3
harvema01,Matt Harvey,5,6,34,12,0,0,2,277,82,37,10,34,87,2,4,4,0,389,7,40,4,3,8
hatchch02,Chris Hatcher,2,2,17,3,0,0,1,101,33,15,4,12,28,1,2,1,0,144,5,17,1,1,3
hawkila01,LaTroy Hawkins,3,3,34,4,0,0,1,147,49,21,5,15,37,1,1,1,0,208,7,23,2,1,4
heathde01,Deunte Heath,1,1,12,3,0,0,1,78,25,12,3,9,22,1,1,1,0,111,3,13,1,1,2
hefneje01,Jeremy Hefner,5,6,34,11,0,0,2,271,95,44,10,25,70,2,5,3,0,388,8,47,3,2,6
hellije01,Jeremy Hellickson,10,10,44,25,1,0,2,511,152,63,21,59,124,5,6,5,0,712,6,68,4,3,14
hendeji01,Jim Henderson,2,3,23,4,0,0,2,120,38,17,4,14,38,1,1,1,0,170,5,19,1,2,3
hendrli01,Liam Hendriks,4,8,36,15,1,0,2,324,117,56,16,35,80,3,4,4,0,467,7,62,3,3,11
henslcl01,Clay Hensley,4,4,37,5,0,0,2,169,53,26,6,23,47,2,1,3,0,243,9,28,2,2,4
hernada01,David Hernandez,4,4,47,4,0,0,4,199,57,26,6,24,69,2,4,2,1,280,14,28,2,2,3
hernafe02,Felix Hernandez,11,10,43,27,4,2,1,605,183,73,16,57,187,1,10,8,1,829,5,81,4,4,20
hernali01,Livan Hernandez,3,3,19,7,0,0,1,177,62,29,7,17,41,1,2,2,0,251,4,32,3,2,5
hernape02,Pedro Hernandez,4,4,28,7,0,0,2,192,65,31,8,22,53,2,2,2,0,274,7,33,2,2,5
herndda01,David Herndon,2,2,19,3,0,0,1,104,35,15,4,12,28,2,1,1,0,148,6,17,2,1,4
herreke01,Kelvin Herrera,4,4,43,5,0,0,2,208,66,26,6,21,60,3,2,2,0,290,8,29,3,1,6
herrmfr01,Frank Herrmann,2,2,22,3,0,0,1,121,40,18,4,12,31,1,1,1,0,171,7,20,1,1,3
hillri01,Rich Hill,2,2,20,3,0,0,1,106,33,14,3,13,31,1,1,1,0,149,4,15,1,1,3
hillsh01,Shawn Hill,2,1,11,3,0,0,1,79,25,11,3,9,22,1,1,1,0,111,3,12,1,1,2
hinshal01,Alex Hinshaw,1,1,11,3,0,0,1,75,25,12,3,9,21,1,1,1,0,107,3,13,1,1,2
hochelu01,Luke Hochevar,9,12,42,26,1,0,1,516,175,93,21,57,130,3,6,8,1,735,5,101,4,3,15
hollade01,Derek Holland,11,7,42,24,1,1,1,501,161,79,23,54,139,1,3,5,1,705,6,87,4,4,13
hollagr01,Greg Holland,5,3,42,4,0,0,6,195,58,25,5,25,68,3,3,1,0,273,16,26,2,2,6
hoovejj01,J. J. Hoover,2,2,22,4,0,0,1,123,37,17,4,15,36,1,1,1,0,172,5,18,2,1,3
horstje01,Jeremy Horst,2,2,24,4,0,0,1,127,39,16,4,15,38,1,1,1,0,179,6,19,1,1,4
hottoto01,Tommy Hottovy,2,2,15,3,0,0,1,89,29,13,3,11,25,1,1,1,0,127,4,14,1,1,3
howeljp01,J. P. Howell,3,2,37,4,0,0,1,159,49,23,7,21,45,2,2,3,0,224,7,25,2,1,5
hudsoda01,Daniel Hudson,7,5,29,15,1,0,1,320,106,48,11,29,86,1,3,3,0,448,5,52,3,3,9
hudsoti01,Tim Hudson,12,8,38,24,1,1,1,499,152,65,14,49,115,4,5,8,0,692,5,70,7,4,15
huffda01,David Huff,4,5,24,9,0,0,1,200,69,31,9,22,51,1,2,2,0,289,5,37,2,2,5
hugheja02,Jared Hughes,3,3,39,5,0,0,2,193,59,26,7,21,50,2,3,3,0,271,10,29,2,1,6
hugheph01,Phil Hughes,12,10,44,25,1,0,2,495,165,79,24,49,136,2,5,5,0,704,6,86,3,4,11
humbeph01,Philip Humber,6,6,35,16,0,0,1,339,112,58,15,38,90,2,7,4,0,486,7,61,2,4,8
hunteto02,Tommy Hunter,7,6,37,17,0,0,1,364,133,62,21,31,81,2,2,4,1,519,7,67,3,4,13
hutchdr01,Drew Hutchison,6,5,34,12,0,0,2,278,90,43,11,31,78,2,3,5,0,396,7,46,3,2,7
igarary01,Ryota Igarashi,2,1,18,3,0,0,1,90,30,15,3,13,26,1,1,1,0,131,4,15,1,1,2
isrinja01,Jason Isringhausen,3,3,34,4,0,0,2,152,47,23,6,19,42,2,2,1,0,216,10,24,2,2,3
iwakuhi01,Hisashi Iwakuma,7,5,37,13,0,0,2,316,100,42,13,36,87,3,4,3,0,442,8,46,2,2,12
jacksed01,Edwin Jackson,9,8,42,23,1,0,2,486,157,70,19,51,138,4,5,3,0,684,6,77,8,6,12
janseke01,Kenley Jansen,4,3,43,4,0,0,9,192,49,23,6,24,75,1,2,2,0,263,17,25,1,1,3
janssca01,Casey Janssen,3,2,42,4,0,0,6,186,55,23,6,18,57,1,2,2,0,254,17,24,2,1,4
jeffrje01,Jeremy Jeffress,2,2,18,3,0,0,1,101,33,16,3,14,29,1,1,1,0,147,5,18,1,1,3
jenkich01,Chad Jenkins,3,3,22,5,0,0,1,150,48,23,6,17,39,1,1,2,0,212,6,24,2,1,5
jennida01,Dan Jennings,2,2,19,3,0,0,1,105,34,15,4,13,28,1,1,1,0,150,4,16,1,1,3
jepseke01,Kevin Jepsen,3,3,33,4,0,0,1,146,47,21,5,17,41,2,3,2,0,206,7,23,2,1,5
jimenub01,Ubaldo Jimenez,9,11,40,23,1,0,1,465,152,77,17,68,133,3,10,6,1,674,5,84,3,3,12
johnsji04,Jim Johnson,4,3,46,4,0,0,15,205,62,25,6,19,50,2,2,2,0,281,23,27,2,1,7
johnsjo09,Josh Johnson,8,9,41,23,0,0,2,485,147,62,13,53,143,5,5,4,0,671,6,66,6,6,12
johnsst02,Steve Johnson,4,2,24,6,0,0,1,171,50,23,6,21,52,1,2,2,0,237,6,24,2,1,4
jonesna01,Nate Jones,5,2,37,5,0,0,1,185,59,24,6,23,53,2,3,2,0,260,8,25,2,2,7
jurrjja01,Jair Jurrjens,7,5,28,14,1,0,1,292,101,45,11,32,67,2,3,3,1,416,5,48,4,2,8
karstje01,Jeff Karstens,6,6,33,16,0,0,1,341,114,49,14,28,81,3,3,3,1,474,5,53,5,3,9
kellesh01,Shawn Kelley,3,3,30,4,0,0,1,145,46,20,5,16,43,3,2,1,0,205,7,22,2,2,3
kellyca01,Casey Kelly,5,5,31,10,0,0,2,230,79,37,9,26,65,2,2,3,0,331,7,41,4,2,6
kellyjo05,Joe Kelly,5,6,37,13,0,0,2,313,104,44,11,35,82,2,4,3,0,444,8,49,4,2,9
kendrky01,Kyle Kendrick,9,9,43,20,1,0,1,419,137,61,17,43,97,4,2,6,1,591,7,68,6,4,12
kenneia01,Ian Kennedy,13,9,43,27,1,0,1,559,176,76,22,54,164,3,8,9,2,785,5,82,9,6,12
kershcl01,Clayton Kershaw,14,8,44,28,2,1,1,606,162,64,16,59,199,4,5,5,1,815,5,70,11,4,14
keuchda01,Dallas Keuchel,5,7,37,15,1,0,2,315,106,52,14,40,73,2,3,3,0,453,7,57,6,3,10
kimbrcr01,Craig Kimbrel,4,3,46,4,0,0,19,197,50,20,5,22,83,1,4,2,0,266,29,22,1,1,4
kinnejo01,Josh Kinney,2,2,24,4,0,0,1,126,40,19,4,15,38,2,2,2,0,180,7,21,1,1,3
kintzbr01,Brandon Kintzler,2,2,17,3,0,0,1,104,34,15,4,12,30,1,1,1,0,148,4,17,1,1,3
kirkmmi01,Michael Kirkman,2,2,24,4,0,0,1,138,41,21,6,17,41,1,2,2,0,196,7,23,1,2,3
klubeco01,Corey Kluber,5,6,35,13,0,0,2,279,97,45,11,31,79,2,3,5,0,403,7,51,3,2,8
koehlto01,Tom Koehler,2,2,17,4,0,0,1,109,36,17,5,12,31,1,1,1,0,155,4,18,1,1,3
kontoge01,George Kontos,3,2,28,4,0,0,1,143,44,19,5,16,42,1,2,1,0,200,7,21,1,2,4
korecbo01,Bobby Korecky,1,1,11,3,0,0,1,75,24,11,3,9,21,1,1,1,0,107,3,12,1,1,2
kurodhi01,Hiroki Kuroda,12,11,42,27,1,1,1,555,175,71,20,49,147,5,10,6,0,764,5,77,6,4,15
laffeaa01,Aaron Laffey,5,6,39,13,0,0,2,307,102,48,13,37,69,2,3,5,0,439,6,52,3,2,10
lannajo01,John Lannan,6,6,27,14,0,0,1,284,98,42,8,35,63,2,2,4,0,411,4,47,5,2,11
latosma01,Mat Latos,11,8,44,28,1,0,1,562,165,74,20,59,170,5,5,4,1,775,5,80,7,4,12
layneto01,Tommy Layne,2,2,19,3,0,0,1,100,31,14,3,11,30,1,1,2,0,141,4,16,1,1,2
leagubr01,Brandon League,3,3,30,3,0,0,7,134,40,17,4,15,37,2,2,1,0,186,15,20,2,1,5
leakemi01,Mike Leake,9,9,43,25,1,0,1,508,175,79,23,46,122,3,4,5,0,715,6,85,5,6,16
leblawa01,Wade LeBlanc,4,5,27,11,0,0,1,240,81,36,9,26,60,2,2,2,0,338,4,38,4,2,7
lecursa01,Sam LeCure,3,3,33,5,0,0,1,184,55,26,6,22,56,2,2,2,0,257,8,28,3,1,5
leecl02,Cliff Lee,9,8,41,25,2,1,1,556,173,66,20,37,176,1,3,3,0,752,5,71,4,4,16
lerouch01,Chris Leroux,2,2,18,3,0,0,1,100,32,15,3,11,29,1,1,1,0,141,4,16,1,1,3
lestejo01,Jon Lester,11,10,43,27,1,0,1,546,173,83,20,65,161,2,5,7,0,767,5,88,4,5,19
lewisco01,Colby Lewis,8,7,32,19,1,0,1,392,122,57,18,35,114,1,4,5,0,545,4,63,3,3,8
lidgebr01,Brad Lidge,1,2,19,3,0,0,3,93,29,14,3,13,28,2,1,1,0,133,6,15,1,1,2
lillyte01,Ted Lilly,7,6,29,15,0,0,1,303,90,43,12,31,83,3,3,4,1,422,5,47,5,3,6
linceti01,Tim Lincecum,10,11,42,26,0,0,1,524,161,77,18,71,172,4,10,5,1,748,5,82,9,4,10
lincobr01,Brad Lincoln,2,2,20,5,0,0,1,133,45,22,6,15,35,1,1,2,0,191,4,24,2,2,3
lindbjo01,Josh Lindblom,2,2,23,3,0,0,1,121,37,18,4,16,36,2,2,2,0,171,6,19,1,1,3
lindsma01,Matt Lindstrom,2,2,23,3,0,0,2,106,35,15,3,11,29,1,2,1,0,150,7,16,1,1,3
liriafr01,Francisco Liriano,6,6,29,15,0,0,1,296,94,48,10,42,89,1,5,4,0,425,4,51,2,3,9
lockeje01,Jeff Locke,3,5,28,9,0,0,2,214,71,35,9,25,60,1,2,2,0,305,6,37,2,2,6
loeka01,Kameron Loe,4,5,47,4,0,0,2,197,65,29,7,20,55,2,3,2,0,279,12,32,3,1,6
loganbo02,Boone Logan,5,3,48,4,0,0,1,170,54,24,6,22,55,3,2,2,0,243,7,26,2,2,4
lohseky01,Kyle Lohse,12,7,43,27,0,0,1,543,174,71,17,45,126,2,2,4,0,756,5,78,8,6,13
lopezja02,Javier Lopez,3,2,41,3,0,0,3,142,44,18,4,17,39,2,2,1,0,199,10,20,2,1,5
lopezro01,Rodrigo Lopez,2,2,13,5,0,0,1,111,39,18,5,12,26,1,1,1,0,160,3,20,2,1,3
lopezwi01,Wilton Lopez,4,4,47,4,0,0,3,195,63,24,6,16,53,2,2,2,0,269,13,26,3,2,7
loupaa01,Aaron Loup,2,2,23,4,0,0,1,123,39,17,4,12,33,1,1,1,0,171,4,19,2,1,3
louxsh01,Shane Loux,2,2,18,4,0,0,1,111,37,17,4,13,29,1,1,1,0,158,5,18,1,1,3
lowede01,Derek Lowe,3,4,17,8,0,0,1,161,56,26,5,18,41,2,1,1,0,231,4,27,2,1,5
lowema01,Mark Lowe,2,3,31,4,0,0,1,147,47,21,6,17,41,1,3,1,1,208,8,24,1,2,4
luebkco01,Cory Luebke,5,5,33,11,0,0,1,270,80,36,9,29,83,2,3,2,1,373,6,39,3,2,6
luekejo01,Josh Lueke,2,2,15,3,0,0,1,90,30,15,3,11,25,1,2,1,0,129,4,16,1,1,2
luetglu01,Lucas Luetge,3,2,32,4,0,0,2,138,44,20,5,18,40,2,3,1,0,197,8,22,1,2,4
lylesjo01,Jordan Lyles,6,11,43,21,1,1,2,435,154,76,19,45,111,3,3,6,0,632,7,86,6,4,11
lynnla01,Lance Lynn,12,7,48,20,0,0,2,444,140,63,15,52,142,3,4,7,0,624,8,66,4,3,13
lyonbr01,Brandon Lyon,3,2,25,3,0,0,3,115,37,17,4,13,32,2,1,1,0,164,8,18,1,1,3
macdomi01,Mike MacDougal,2,2,21,3,0,0,1,98,32,14,3,13,27,1,1,1,0,142,5,15,1,1,3
machije01,Jean Machi,2,1,14,3,0,0,1,84,27,13,3,9,23,1,1,1,0,119,4,14,1,1,2
maholpa01,Paul Maholm,6,8,30,16,1,1,1,330,110,49,10,35,80,3,3,4,0,469,4,53,4,4,10
mainesc01,Scott Maine,2,2,15,3,0,0,1,87,29,14,4,10,24,1,1,1,0,125,4,15,1,1,3
malonma02,Matt Maloney,2,2,15,3,0,0,1,97,35,16,4,10,26,1,1,1,0,140,3,18,1,1,3
manshje01,Jeff Manship,2,2,17,3,0,0,1,109,37,19,4,12,29,1,1,1,0,156,4,20,1,1,3
marcush01,Shaun Marcum,9,6,35,21,0,0,1,422,130,58,17,43,118,3,4,3,1,589,5,63,5,3,8
marinjh01,Jhan Marinez,2,2,12,3,0,0,1,81,26,12,3,9,23,1,1,1,0,114,3,13,1,1,2
marmoca01,Carlos Marmol,3,3,44,3,0,0,13,179,50,25,5,31,67,1,2,3,0,258,28,27,2,1,5
maronni01,Nick Maronde,2,2,15,3,0,0,1,87,28,12,3,10,25,1,1,1,0,123,3,13,1,1,2
marquja01,Jason Marquis,6,7,34,15,1,0,2,318,109,51,14,35,86,3,4,4,0,459,6,60,5,2,8
marshse01,Sean Marshall,4,4,48,4,0,0,4,188,57,22,5,19,62,2,1,2,0,262,12,24,2,1,4
martelu01,Luis Marte,2,2,18,4,0,0,1,111,35,16,4,13,31,1,1,1,0,157,5,17,1,1,3
martevi01,Victor Marte,3,2,28,4,0,0,1,134,47,22,6,16,38,1,1,2,0,194,5,23,1,1,4
marticr01,Cristhian Martinez,3,3,39,4,0,0,1,208,66,30,7,20,58,2,2,2,0,290,13,32,2,2,6
martijo07,Joe Martinez,1,1,12,3,0,0,1,76,25,11,3,9,21,1,1,1,0,108,3,12,1,1,2
masteju01,Justin Masterson,10,11,44,27,1,0,1,558,187,87,15,69,145,3,9,10,0,801,5,96,5,7,19
matsuda01,Daisuke Matsuzaka,5,6,29,13,0,0,1,257,85,47,11,35,72,1,3,4,0,373,5,50,2,3,5
matthry01,Ryan Mattheus,4,3,41,4,0,0,1,184,56,24,7,21,45,3,2,2,0,255,9,26,3,2,7
matusbr01,Brian Matusz,5,8,34,15,0,0,1,291,106,54,14,37,80,3,2,2,0,428,5,58,3,3,8
mazzavi01,Vin Mazzaro,4,4,24,8,0,0,1,187,66,32,7,24,45,2,2,2,0,270,6,35,2,2,6
mcallza01,Zach McAllister,6,8,40,18,0,0,2,380,130,59,16,41,109,2,2,3,1,545,7,71,3,4,8
mccarbr01,Brandon McCarthy,8,7,35,18,1,0,2,397,131,52,12,32,99,2,3,4,0,552,6,58,4,5,11
mccleky01,Kyle McClellan,3,3,23,5,0,0,1,146,46,21,6,16,35,1,2,2,0,206,5,23,2,1,4
mcclemi01,Mike McClendon,2,2,16,3,0,0,1,101,34,15,4,11,27,1,2,2,0,144,5,17,2,1,3
mccutda01,Daniel McCutchen,2,2,18,3,0,0,1,100,34,16,4,12,25,1,2,1,0,143,4,17,1,1,3
mcdonja03,James McDonald,10,8,42,25,1,0,2,484,152,74,19,64,139,5,5,5,0,687,6,79,6,4,13
mcgeeja01,Jake McGee,4,3,41,4,0,0,1,168,49,22,6,18,55,2,2,2,0,233,9,23,1,2,4
mchugco01,Collin McHugh,3,4,24,7,0,0,1,162,54,27,7,19,45,2,2,2,0,232,5,30,2,2,4
mcpheky01,Kyle McPherson,2,3,22,6,0,0,1,149,47,21,6,16,41,1,1,2,0,209,5,22,2,1,4
medlekr01,Kris Medlen,7,3,41,11,1,0,2,310,90,33,9,25,87,1,3,2,0,414,8,36,3,2,9
meekev01,Evan Meek,2,2,19,3,0,0,1,99,32,14,3,12,28,1,1,1,0,141,5,16,1,1,2
mejiaje01,Jenrry Mejia,3,4,26,6,0,0,1,167,56,26,6,21,44,1,3,2,0,240,6,28,2,1,5
melanma01,Mark Melancon,3,3,36,4,0,0,4,166,52,25,6,18,48,2,2,2,0,234,15,27,2,1,4
mendolu01,Luis Mendoza,8,8,42,18,0,0,2,415,140,63,14,48,99,3,5,7,1,589,7,68,3,4,15
mijarjo01,Jose Mijares,2,2,28,3,0,0,1,116,38,17,4,15,32,1,2,1,0,167,6,19,1,1,3
mikolmi01,Miles Mikolas,2,2,21,4,0,0,1,126,41,18,5,15,35,1,2,2,0,180,6,20,2,1,3
mileywa01,Wade Miley,12,9,44,22,0,0,2,480,159,65,15,43,123,2,5,3,1,673,7,71,7,3,13
millean01,Andrew Miller,3,3,29,6,0,0,1,156,51,25,6,23,47,1,2,2,0,227,5,27,2,2,5
milleji02,Jim Miller,3,2,26,4,0,0,1,149,45,20,6,20,43,1,2,2,0,212,9,22,1,2,4
millesh01,Shelby Miller,2,2,17,4,0,0,1,117,37,16,4,13,34,1,1,1,0,164,4,18,1,1,3
millsbr02,Brad Mills,4,4,27,8,0,0,2,194,63,31,8,23,56,2,2,3,0,277,6,33,2,2,5
millwke01,Kevin Millwood,6,10,38,21,1,0,1,425,147,67,16,46,104,3,5,3,0,604,5,74,5,3,14
milonto01,Tommy Milone,10,8,45,23,1,0,2,481,166,68,19,40,123,3,3,5,0,674,7,76,5,4,14
minormi01,Mike Minor,10,8,44,24,0,0,2,482,151,74,20,53,136,6,4,4,0,673,6,79,6,6,14
mitchdj01,D. J. Mitchell,2,1,13,3,0,0,1,83,27,12,3,10,23,1,1,1,0,119,3,13,1,1,2
moorema02,Matt Moore,9,9,46,23,0,0,2,462,142,66,16,62,144,4,7,6,1,657,7,73,4,4,14
moralfr01,Franklin Morales,4,4,41,8,0,0,2,227,70,33,10,28,69,2,3,4,2,323,10,38,2,2,5
morribr01,Bryan Morris,2,2,13,3,0,0,1,84,26,12,3,10,24,1,1,1,0,118,3,13,1,1,2
morrobr01,Brandon Morrow,9,8,36,21,1,1,1,421,125,61,15,51,136,1,6,6,0,591,5,67,3,5,8
mortecl01,Clayton Mortensen,2,3,23,5,0,0,1,156,48,22,7,19,42,2,2,2,0,219,6,24,2,1,5
mortoch02,Charlie Morton,5,8,30,15,1,0,1,306,110,49,9,36,73,3,5,5,0,448,5,55,6,4,11
moscogu01,Guillermo Moscoso,4,4,25,8,0,0,1,201,66,31,8,23,52,1,2,2,0,287,5,34,2,2,5
moseldu01,Dustin Moseley,3,5,25,10,0,0,1,221,72,32,8,25,53,2,2,2,0,312,5,37,2,2,6
motagu01,Guillermo Mota,2,2,26,3,0,0,1,126,40,19,5,15,37,1,1,1,0,177,6,20,1,1,3
motteja01,Jason Motte,4,4,49,4,0,0,13,202,57,24,7,20,65,2,1,2,0,275,23,27,2,2,5
moyerja01,Jamie Moyer,5,6,28,11,0,0,1,243,86,41,12,25,62,2,2,3,0,352,5,45,3,2,8
moylape01,Peter Moylan,2,1,17,3,0,0,1,83,26,12,3,10,23,1,1,1,0,118,4,13,1,1,3
mujiced01,Edward Mujica,3,2,30,3,0,0,1,137,41,17,5,12,39,1,1,1,0,186,6,19,2,1,4
myersbr01,Brett Myers,3,4,21,8,0,0,1,189,62,27,8,19,49,1,2,2,0,266,4,30,2,2,5
narvech01,Chris Narveson,5,4,25,12,0,0,1,240,79,39,9,29,65,1,2,2,0,343,4,41,3,3,6
nathajo01,Joe Nathan,3,3,41,4,0,0,13,179,55,25,7,18,57,1,3,2,0,250,25,27,2,2,5
neshepa01,Pat Neshek,2,2,22,3,0,0,1,111,33,15,4,15,31,1,1,1,0,156,6,16,1,1,3
nicasju01,Juan Nicasio,5,5,33,14,0,0,2,292,101,47,11,32,83,3,4,3,0,416,6,50,3,2,9
niemaje01,Jeff Niemann,6,5,27,14,0,0,1,277,86,41,11,30,75,2,4,4,0,389,4,44,2,2,7
niesejo01,Jonathon Niese,11,10,42,26,0,0,1,519,172,74,19,51,145,3,5,5,0,737,5,83,9,4,15
noesihe01,Hector Noesi,5,8,42,14,0,0,2,344,114,60,16,41,87,3,3,3,1,489,11,63,3,5,9
nolasri01,Ricky Nolasco,11,11,42,26,2,1,1,525,191,86,19,45,131,6,6,5,1,753,5,92,11,5,16
norbejo01,Jordan Norberto,3,2,30,4,0,0,1,157,47,22,6,21,44,1,2,2,0,221,7,24,2,2,4
norribu01,Bud Norris,7,11,41,25,0,0,1,491,159,77,21,63,153,4,6,6,1,706,5,85,7,3,10
novaiv01,Ivan Nova,12,7,43,24,0,0,2,494,171,79,20,56,131,3,7,7,1,709,6,85,4,5,16
odayda01,Darren O'Day,4,3,42,4,0,0,1,179,53,23,7,17,54,2,1,3,0,247,9,24,2,2,5
odorija01,Jake Odorizzi,4,4,29,8,0,0,2,198,64,29,8,23,55,2,2,2,0,281,7,32,2,2,5
oflaher01,Eric O'Flaherty,3,3,46,4,0,0,1,184,55,19,5,20,52,3,2,2,0,255,7,22,3,1,6
ogandal01,Alexi Ogando,5,3,35,8,0,0,2,226,66,30,8,22,64,1,3,3,0,311,7,33,2,2,6
ohlenro01,Ross Ohlendorf,4,5,27,12,0,0,1,231,84,44,10,30,62,2,3,4,0,342,5,47,5,3,4
ohmanwi01,Will Ohman,2,3,29,3,0,0,1,128,41,20,6,14,36,1,1,3,0,182,7,22,1,1,4
oliveda02,Darren Oliver,3,4,41,4,0,0,2,168,51,20,5,17,49,1,2,2,0,232,9,22,2,1,5
olivele01,Lester Oliveros,1,1,13,3,0,0,1,83,27,12,3,10,23,1,1,1,0,118,3,13,1,1,2
olsonga01,Garrett Olson,1,2,13,3,0,0,1,77,25,12,3,9,21,1,1,1,0,110,3,13,1,1,2
omogrbr01,Brian Omogrosso,2,2,18,3,0,0,1,106,34,15,4,12,30,1,1,1,0,151,4,16,1,1,3
ondrulo01,Logan Ondrusek,4,3,44,4,0,0,1,176,55,24,7,24,46,3,3,2,0,253,11,27,2,2,5
ortegjo01,Jose Ortega,2,1,12,3,0,0,1,81,26,12,3,9,23,1,1,1,0,115,3,13,1,1,2
oswalro01,Roy Oswalt,5,5,26,12,0,0,1,255,89,38,9,23,70,1,3,3,1,362,5,41,4,2,8
oteroda01,Dan Otero,2,2,15,3,0,0,1,94,32,14,3,10,26,1,1,1,0,134,4,16,1,1,3
ottavad01,Adam Ottavino,4,3,34,5,0,0,1,195,64,31,8,24,58,3,4,2,0,278,6,33,2,1,7
outmajo01,Josh Outman,3,4,27,8,0,0,1,181,61,31,7,23,50,1,3,1,0,260,5,34,3,2,5
owingmi01,Micah Owings,3,2,17,3,0,0,1,108,34,16,4,13,29,1,1,1,0,153,4,17,1,1,3
padilvi01,Vicente Padilla,3,2,28,5,0,0,2,149,49,23,6,16,44,2,1,2,0,211,6,24,2,1,5
palmema01,Matt Palmer,1,2,12,3,0,0,1,81,27,13,3,10,22,1,1,1,0,116,3,14,1,1,2
papeljo01,Jonathan Papelbon,4,4,47,4,0,0,18,197,58,25,7,19,70,2,2,3,0,273,32,27,2,1,4
parkebl01,Blake Parker,2,1,13,3,0,0,1,85,28,13,4,10,24,1,1,1,0,121,3,14,1,1,3
parkeja02,Jarrod Parker,10,8,44,22,0,0,2,465,145,63,13,53,123,3,7,4,0,648,7,66,6,6,14
parnebo01,Bobby Parnell,4,4,48,4,0,0,4,196,64,25,6,22,58,2,3,2,0,279,14,29,3,1,6
parrama01,Manny Parra,2,3,31,5,0,0,1,162,55,27,6,23,50,1,4,2,0,238,6,30,2,2,5
paterjo01,Joe Paterson,1,2,20,3,0,0,1,90,31,15,3,11,25,1,1,1,0,131,5,16,1,1,2
pattotr01,Troy Patton,3,2,34,4,0,0,1,169,51,22,6,16,47,2,2,2,0,234,8,23,1,1,4
pauleda01,David Pauley,1,2,13,3,0,0,1,90,31,14,4,10,23,1,1,1,0,129,3,16,1,1,3
paulife01,Felipe Paulino,4,5,28,13,0,0,1,273,87,39,8,34,83,2,4,3,0,388,5,43,3,3,7
pavanca01,Carl Pavano,6,7,28,16,1,0,1,333,122,54,13,25,68,2,2,4,0,470,4,59,3,3,10
peavyja01,Jake Peavy,10,10,43,25,2,1,2,537,167,77,21,47,155,3,4,7,1,740,6,82,3,6,12
pelfrmi01,Mike Pelfrey,4,5,25,13,0,0,1,268,94,41,8,29,60,2,2,3,1,386,4,44,5,3,8
pennybr01,Brad Penny,3,3,20,7,0,0,1,168,63,29,7,18,35,1,2,2,0,244,4,32,2,2,6
peraljo01,Joel Peralta,3,4,47,4,0,0,2,191,53,25,7,19,61,2,3,1,0,259,9,27,2,2,4
peralwi01,Wily Peralta,4,4,29,9,0,0,2,212,66,29,7,24,59,1,2,2,0,296,7,32,3,2,6
perdolu01,Luis Perdomo,2,2,17,3,0,0,1,100,32,15,3,13,27,1,1,1,0,143,5,16,1,1,3
perezch01,Chris Perez,3,4,43,4,0,0,17,180,53,24,6,21,52,2,2,2,0,253,27,26,2,2,4
perezju01,Juan Perez,2,2,15,3,0,0,1,85,27,13,3,11,25,1,1,1,0,122,4,14,1,1,2
perezlu01,Luis Perez,3,3,29,4,0,0,1,158,52,24,6,19,45,1,2,3,0,226,6,26,1,1,5
perezma02,Martin Perez,3,4,27,8,0,0,1,192,65,31,7,22,52,2,4,2,1,277,6,34,2,2,5
perezol01,Oliver Perez,2,3,22,4,0,0,1,118,38,17,4,15,33,1,2,1,0,169,5,18,1,1,3
perezra01,Rafael Perez,2,2,23,3,0,0,1,105,34,14,3,12,26,1,1,1,0,147,4,16,1,1,4
perkigl01,Glen Perkins,4,3,46,4,0,0,5,198,61,25,7,20,62,3,3,3,0,275,18,28,3,2,6
perryry01,Ryan Perry,2,2,19,3,0,0,1,100,33,16,4,12,26,1,1,1,0,142,5,17,1,1,3
pestavi01,Vinnie Pestano,3,3,47,4,0,0,2,200,57,25,7,23,66,2,2,3,0,277,11,26,1,2,4
petityu01,Yusmeiro Petit,3,3,27,7,0,0,2,187,61,28,7,22,51,1,3,2,0,265,7,30,2,2,5
pettian01,Andy Pettitte,6,5,30,13,0,0,2,282,88,37,10,30,80,2,2,2,0,392,6,40,3,2,9
phelpda01,David Phelps,4,4,35,10,0,0,2,263,79,36,11,31,78,2,3,4,1,368,7,38,3,3,7
phillza01,Zach Phillips,2,1,14,3,0,0,1,87,28,13,4,10,25,1,1,1,0,124,4,14,1,1,2
pomerdr01,Drew Pomeranz,5,8,40,18,0,0,2,338,111,55,13,44,95,2,6,4,1,489,7,60,6,4,8
pomerst01,Stu Pomeranz,2,1,13,3,0,0,1,84,27,12,3,9,23,1,1,1,0,119,3,13,1,1,2
porceri01,Rick Porcello,11,10,43,26,0,0,1,511,195,85,17,47,112,3,8,6,1,739,5,93,4,4,19
priceda01,David Price,14,8,42,26,1,1,1,567,163,67,17,58,176,3,5,6,1,772,5,72,4,4,16
pryorst01,Stephen Pryor,3,2,20,4,0,0,1,113,36,17,5,14,33,1,2,1,0,161,5,18,2,1,3
putkolu01,Luke Putkonen,2,2,16,3,0,0,1,100,33,15,3,12,27,1,1,1,0,143,5,16,1,1,3
putnaza01,Zach Putnam,2,2,13,3,0,0,1,82,27,12,3,9,23,1,1,1,0,116,3,13,1,1,2
putzjj01,J. J. Putz,3,4,40,4,0,0,15,170,50,21,5,16,55,1,2,2,0,235,24,23,2,2,4
quallch01,Chad Qualls,2,2,26,3,0,0,1,116,38,18,4,12,29,1,1,1,0,163,6,19,2,1,3
quintjo01,Jose Quintana,6,6,40,17,0,0,2,383,128,55,14,41,92,3,7,4,1,537,8,60,4,2,12
raleybr01,Brooks Raley,4,4,30,9,0,0,2,222,75,38,10,26,60,2,2,2,0,319,7,41,3,2,6
ramirel02,Elvin Ramirez,2,2,19,4,0,0,1,109,36,17,4,15,32,1,1,1,0,157,5,18,1,1,3
ramirer02,Erasmo Ramirez,3,4,29,9,0,0,2,224,68,31,8,22,62,2,2,3,0,312,6,35,2,3,6
ramirra02,Ramon Ramirez,3,3,42,4,0,0,2,189,57,26,5,25,54,3,3,2,0,267,12,29,2,2,5
ramosaj01,AJ Ramos,2,2,15,3,0,0,1,90,29,13,4,10,26,1,1,1,0,127,4,14,1,1,2
ramosce01,Cesar Ramos,2,2,28,4,0,0,1,139,42,20,5,17,39,2,1,2,0,197,7,21,1,1,4
rapadcl01,Clay Rapada,3,2,37,4,0,0,1,136,41,19,5,17,40,1,1,1,1,191,6,21,1,1,4
rauchjo01,Jon Rauch,4,4,44,4,0,0,5,174,55,25,7,17,46,1,2,2,0,244,16,28,2,2,4
redmoto01,Todd Redmond,3,4,27,7,0,0,2,186,61,28,7,23,52,1,2,2,0,266,7,31,2,2,5
reedad01,Addison Reed,3,3,35,4,0,0,9,164,54,25,6,18,49,2,1,2,0,233,16,27,1,2,4
resopch01,Chris Resop,3,4,46,4,0,0,1,205,69,30,7,24,58,4,2,2,0,297,10,32,3,4,4
reynoma02,Matt Reynolds,3,3,47,4,0,0,1,176,58,26,8,19,52,3,3,1,1,249,9,29,3,2,5
richacl01,Clayton Richard,11,11,43,26,1,1,2,536,182,78,21,51,113,4,4,5,1,754,6,88,5,4,18
richaga01,Garrett Richards,4,4,33,9,0,0,2,222,75,35,9,29,58,1,3,3,0,321,7,41,2,3,7
richmsc01,Scott Richmond,1,1,12,3,0,0,1,78,26,12,3,9,22,1,1,1,0,111,3,13,1,1,2
riverma01,Mariano Rivera,2,2,22,3,0,0,8,101,30,12,3,9,29,1,1,1,0,138,13,13,1,1,3
roberda08,David Robertson,3,4,46,4,0,0,2,187,55,22,5,24,68,2,3,2,1,262,10,24,2,1,5
roberty01,Tyler Robertson,2,2,24,4,0,0,1,115,36,18,5,14,33,1,1,1,0,163,4,19,1,1,3
rodnefe01,Fernando Rodney,3,3,47,4,0,0,15,192,54,22,5,23,57,1,3,3,0,268,25,25,3,1,5
rodrian01,Aneury Rodriguez,3,4,33,8,0,0,1,218,69,35,9,25,60,2,3,2,0,309,9,38,3,2,5
rodrife02,Fernando Rodriguez,3,5,44,4,0,0,1,196,63,32,8,27,62,4,4,2,0,282,8,34,3,2,5
rodrifr03,Francisco Rodriguez,4,4,45,4,0,0,4,191,58,27,6,23,59,1,3,1,0,268,11,29,2,2,5
rodrihe03,Henry Rodriguez,2,3,31,3,0,0,3,141,42,22,4,22,44,1,6,2,0,204,11,24,2,1,3
rodrist02,Paco Rodriguez,2,2,15,3,0,0,1,89,28,13,3,10,25,1,1,1,0,125,3,14,1,1,2
rodriwa01,Wandy Rodriguez,7,6,29,16,0,0,1,337,107,46,13,39,93,3,3,3,0,475,4,51,3,3,11
roenijo01,Josh Roenicke,4,3,41,5,0,0,1,212,67,29,7,29,53,2,4,2,0,302,10,34,3,2,7
rogeres01,Esmil Rogers,3,3,28,6,0,0,1,180,63,31,7,22,52,2,3,3,0,263,7,33,2,2,5
rogerma01,Mark Rogers,5,4,31,10,0,0,2,241,76,35,9,28,72,2,3,3,0,340,7,37,3,2,6
romerjc01,J. C. Romero,2,1,16,3,0,0,1,81,27,12,3,10,23,1,1,1,0,117,4,14,1,1,2
romerri01,Ricky Romero,10,10,41,25,2,1,1,519,164,82,19,75,134,2,8,9,0,744,5,89,6,3,19
romose01,Sergio Romo,4,3,45,4,0,0,4,172,48,19,6,15,58,1,2,2,0,233,13,21,2,1,4
rosarsa02,Sandy Rosario,1,1,13,3,0,0,1,81,28,13,3,9,23,1,1,1,0,116,3,14,1,1,2
rosenbj01,B. J. Rosenberg,2,2,20,4,0,0,1,118,36,19,5,15,34,1,1,2,0,167,4,20,2,1,3
rosentr01,Trevor Rosenthal,2,2,19,4,0,0,1,113,34,16,4,13,33,1,1,1,0,158,5,17,1,1,3
rossro01,Robbie Ross,4,2,35,5,0,0,1,178,55,23,5,20,48,2,2,2,0,248,7,26,2,2,7
rossty01,Tyson Ross,5,8,35,12,0,0,2,277,98,48,9,37,70,3,4,4,1,401,8,51,3,3,10
runzlda01,Dan Runzler,2,2,18,3,0,0,1,89,28,13,3,12,26,1,1,1,0,127,4,15,1,1,3
rusinch01,Chris Rusin,4,5,31,10,0,0,2,227,77,37,9,26,62,2,2,3,0,325,7,40,2,2,7
russeja02,James Russell,4,3,50,5,0,0,2,202,67,29,8,21,54,3,2,2,0,286,11,33,3,3,6
rzepcma01,Marc Rzepczynski,2,3,35,5,0,0,1,153,50,23,6,19,43,1,2,2,0,217,7,25,1,1,6
sabatcc01,CC Sabathia,13,7,39,24,2,0,1,545,170,68,18,49,168,3,4,6,1,757,5,77,5,4,15
saitota01,Takashi Saito,2,2,20,3,0,0,1,97,31,14,4,11,29,1,1,1,0,137,4,16,1,1,3
salasfe01,Fernando Salas,3,4,44,4,0,0,5,187,56,26,6,22,57,3,3,2,0,262,17,27,3,1,4
salech01,Chris Sale,12,8,60,19,1,0,5,500,147,62,17,52,161,4,5,5,0,684,13,64,3,3,15
samarje01,Jeff Samardzija,10,10,59,18,1,0,2,471,141,67,17,59,148,3,9,5,0,663,11,73,5,4,10
sanchan01,Anibal Sanchez,6,7,30,17,1,1,1,351,115,49,12,37,103,3,4,4,1,497,4,54,5,2,8
sanchbr01,Brian Sanches,2,2,19,3,0,0,1,101,32,15,4,13,29,1,2,1,0,144,5,17,1,1,2
sanched01,Eduardo Sanchez,2,2,20,3,0,0,2,110,32,16,4,15,32,2,3,2,0,155,6,17,1,1,3
sanchjo01,Jonathan Sanchez,4,5,24,11,0,0,1,226,67,34,8,35,70,2,4,3,0,324,4,37,3,3,6
santaer01,Ervin Santana,9,10,39,25,2,1,1,513,160,80,25,57,134,3,6,7,0,724,5,86,4,4,12
santajo01,Johan Santana,6,7,34,17,1,1,1,350,112,53,14,38,100,2,2,2,0,493,6,56,4,3,9
santihe01,Hector Santiago,4,3,32,6,0,0,2,196,58,27,8,27,60,2,3,4,1,278,11,28,2,2,5
santose01,Sergio Santos,2,2,21,3,0,0,4,101,31,15,4,13,33,1,2,1,0,143,9,16,1,1,3
saundjo01,Joe Saunders,6,6,28,14,0,0,1,308,103,44,12,31,67,2,3,2,0,429,4,48,4,3,11
saverjo01,Joe Savery,2,2,19,4,0,0,1,114,37,17,5,13,31,1,1,1,0,161,5,19,2,1,3
scahiro01,Rob Scahill,2,2,14,3,0,0,1,90,28,13,3,10,25,1,1,1,0,126,4,14,1,1,3
schepta01,Tanner Scheppers,2,2,25,4,0,0,1,126,44,19,5,14,36,2,2,2,0,181,7,21,2,1,4
scherma01,Max Scherzer,13,8,42,27,0,0,1,520,169,76,21,56,174,2,6,6,1,730,5,81,4,4,12
schleda01,Daniel Schlereth,2,2,19,3,0,0,1,101,33,15,4,14,29,2,2,2,0,146,5,17,1,1,3
schwich01,Chris Schwinden,3,3,23,7,0,0,1,166,56,28,7,19,44,2,2,2,0,240,6,30,2,2,4
schwimi01,Michael Schwimer,3,2,25,4,0,0,1,132,42,20,5,16,40,1,1,2,0,188,8,22,2,2,3
scribev01,Evan Scribner,2,2,24,4,0,0,1,133,42,19,4,15,37,1,1,1,0,188,8,21,1,1,3
seddoch01,Chris Seddon,2,2,21,5,0,0,1,138,45,20,5,16,36,1,2,1,0,196,5,22,1,2,4
septile01,Leyson Septimo,2,2,17,3,0,0,1,97,30,15,4,11,28,1,1,1,0,137,4,16,1,1,2
shawbr01,Bryan Shaw,3,4,40,4,0,0,2,176,58,24,6,21,47,2,3,3,0,249,11,27,2,2,6
sheetbe01,Ben Sheets,5,5,28,11,0,0,2,249,83,37,10,27,66,2,3,2,0,352,6,40,4,2,7
sherrge01,George Sherrill,2,1,19,3,0,0,1,86,29,13,3,10,25,1,1,1,0,123,4,14,1,1,2
shielja02,James Shields,12,10,42,27,4,2,1,591,182,79,23,54,181,2,6,7,1,814,5,88,4,3,16
simonal01,Alfredo Simon,3,4,29,6,0,0,2,199,68,30,7,23,54,2,4,3,0,286,9,33,2,2,6
sippto01,Tony Sipp,3,3,44,4,0,0,1,176,52,26,8,23,52,2,2,1,0,246,9,27,2,2,3
skaggty01,Tyler Skaggs,4,5,31,10,0,0,2,233,76,37,10,28,64,2,3,3,0,334,7,40,3,2,6
slatedo01,Doug Slaten,2,2,20,3,0,0,1,98,32,14,4,12,27,1,1,1,0,141,6,15,1,1,3
smithjo05,Joe Smith,4,4,49,4,0,0,1,196,57,25,5,23,52,2,2,2,0,272,9,27,2,2,6
smithwi04,Will Smith,7,8,37,15,0,0,2,324,116,54,13,38,83,2,4,3,0,465,7,57,3,4,12
smylydr01,Drew Smyly,5,5,38,15,0,0,2,315,100,46,12,35,93,2,4,3,0,444,7,51,3,3,8
socolmi01,Miguel Socolovich,2,2,13,3,0,0,1,85,27,13,3,10,24,1,1,1,0,120,3,14,1,1,2
soriara01,Rafael Soriano,3,3,44,4,0,0,15,185,54,23,6,21,56,2,2,2,0,258,23,25,1,1,5
spencjo01,Josh Spence,2,2,20,3,0,0,1,102,31,15,4,13,30,2,1,1,0,144,5,16,1,1,2
stammcr01,Craig Stammen,4,3,35,6,0,0,1,211,65,28,7,25,61,2,2,2,0,297,8,31,3,2,6
staufti01,Tim Stauffer,4,5,26,11,0,0,1,242,77,33,8,26,62,2,2,3,0,338,5,36,4,2,7
stewaza01,Zach Stewart,4,5,27,9,0,0,2,206,74,38,10,22,55,2,2,2,0,297,6,40,2,2,6
stinsjo01,Josh Stinson,2,2,19,4,0,0,1,113,36,17,4,14,30,1,1,1,0,160,5,18,1,1,4
storedr01,Drew Storen,3,2,34,3,0,0,8,146,43,19,4,15,42,1,2,2,0,201,15,20,2,1,4
storemi01,Mickey Storey,2,2,21,4,0,0,1,122,39,18,4,14,36,1,1,1,0,172,4,19,2,1,3
straida01,Dan Straily,5,4,32,10,0,0,2,245,78,36,12,29,68,2,2,3,0,348,7,39,3,2,5
strasst01,Stephen Strasburg,11,7,42,22,0,0,2,436,129,55,14,44,156,2,5,4,0,601,7,61,5,4,12
streehu01,Huston Street,3,3,34,3,0,0,11,151,44,20,6,15,47,1,1,1,0,206,20,22,2,1,4
stroppe01,Pedro Strop,4,3,40,4,0,0,2,179,54,23,5,25,51,1,3,2,0,254,10,25,2,1,6
stulter01,Eric Stults,7,4,35,12,0,0,2,294,93,40,10,30,71,2,2,3,1,413,7,44,6,4,7
stutemi01,Michael Stutes,2,2,20,3,0,0,1,103,32,15,4,13,30,1,1,1,0,146,5,17,1,1,2
suppaje01,Jeff Suppan,4,5,28,10,0,0,2,220,74,34,9,26,51,2,2,2,0,314,6,37,4,2,6
swarzan01,Anthony Swarzak,4,5,36,8,0,0,1,264,91,43,11,28,63,3,3,3,0,376,7,46,3,3,8
takahhi01,Hisanori Takahashi,2,2,19,3,0,0,1,105,33,15,4,12,30,2,1,1,0,148,5,17,2,1,3
tateyyo01,Yoshinori Tateyama,2,2,20,3,0,0,1,111,35,18,5,12,33,1,1,1,0,156,5,20,1,1,3
tayloan01,Andrew Taylor,1,1,12,3,0,0,1,79,26,12,3,10,22,1,1,1,0,113,3,13,1,1,2
tazawju01,Junichi Tazawa,2,2,26,4,0,0,1,144,45,18,4,14,43,1,1,2,0,199,8,19,1,1,4
teafoev01,Everett Teaford,3,4,30,7,0,0,1,209,69,32,10,24,52,1,3,2,0,295,7,34,2,2,8
teherju01,Julio Teheran,3,3,21,6,0,0,1,149,48,23,6,17,40,1,2,1,0,210,5,24,2,1,4
thatcjo01,Joe Thatcher,2,3,33,3,0,0,1,124,39,17,4,15,39,2,1,2,0,177,8,19,2,1,3
thayeda01,Dale Thayer,3,3,35,4,0,0,3,163,52,23,5,16,45,2,2,2,0,227,11,25,2,2,4
thomaju01,Justin Thomas,1,1,13,3,0,0,1,80,26,12,3,9,22,1,1,1,0,113,3,13,1,1,2
thompri03,Rich Thompson,2,2,16,3,0,0,1,92,29,13,3,10,27,1,1,1,0,130,5,14,1,1,2
thornma01,Matt Thornton,4,5,46,4,0,0,3,186,59,25,5,20,56,3,2,2,0,260,12,29,2,2,6
thornty01,Tyler Thornburg,2,2,22,6,0,0,1,151,49,23,7,17,43,1,2,2,0,214,6,24,2,1,4
tillmch01,Chris Tillman,8,6,35,17,0,0,2,335,106,50,13,39,88,1,4,3,0,475,6,57,3,3,8
tollesh01,Shawn Tolleson,3,2,26,4,0,0,1,135,42,20,5,17,40,1,1,1,0,190,7,22,2,1,4
tomlijo01,Josh Tomlin,7,7,33,17,0,0,1,360,124,63,17,29,79,3,4,3,0,504,5,66,3,3,11
torreca01,Carlos Torres,3,3,25,4,0,0,1,154,50,25,5,20,43,1,3,2,0,220,6,27,3,2,4
turneja01,Jacob Turner,4,6,32,11,0,0,2,258,81,39,10,27,69,2,4,2,0,362,7,44,3,3,6
ueharko01,Koji Uehara,2,2,28,3,0,0,2,131,38,17,5,11,42,1,1,1,0,178,8,18,1,1,3
valdejo01,Jose Valdez,2,2,16,3,0,0,1,97,32,15,4,12,28,1,1,1,0,139,5,16,2,1,3
valdelu01,Jairo Asencio,2,2,16,3,0,0,1,100,32,15,4,13,27,1,1,1,0,143,4,17,1,1,3
valdera02,Raul Valdes,3,2,23,4,0,0,1,125,38,18,5,13,38,1,1,1,0,173,5,19,1,1,3
valvejo01,Jose Valverde,3,4,48,4,0,0,19,197,57,26,6,25,55,3,2,3,0,277,35,29,2,2,5
vanderi01,Rick van den Hurk,1,2,13,3,0,0,1,82,27,13,3,10,23,1,1,1,0,118,3,14,1,1,2
vargaja01,Jason Vargas,11,11,43,27,2,1,1,565,181,83,24,54,131,3,4,4,1,787,5,88,4,5,15
varvaan01,Anthony Varvaro,2,2,18,3,0,0,1,107,33,16,4,14,32,1,2,1,0,152,5,17,1,1,3
vasques01,Esmerling Vasquez,3,5,40,8,0,0,2,236,75,38,8,33,61,2,3,4,0,338,9,41,2,3,6
vealdo01,Donnie Veal,2,2,18,3,0,0,1,94,29,13,3,11,28,1,1,1,0,132,4,14,1,1,2
ventejo01,Jonny Venters,4,3,47,4,0,0,2,191,56,23,5,26,63,3,4,4,0,270,9,25,3,1,7
verasjo01,Jose Veras,4,4,49,4,0,0,1,194,58,28,6,29,64,2,2,2,0,279,12,30,2,2,4
verdury01,Ryan Verdugo,3,4,28,7,0,0,2,186,62,30,7,22,53,1,2,2,0,266,7,32,2,2,5
verlaju01,Justin Verlander,15,7,42,27,3,1,1,611,166,67,18,56,196,2,5,5,1,822,5,74,4,4,13
villabr02,Brayan Villarreal,3,4,33,4,0,0,1,165,50,23,6,22,52,2,4,2,1,233,9,25,2,3,4
villaca01,Carlos Villanueva,6,6,44,13,0,0,1,338,106,51,15,39,98,3,5,4,0,476,9,53,2,4,10
villape01,Pedro Villarreal,1,1,12,3,0,0,1,78,25,11,3,9,22,1,1,1,0,110,3,12,1,1,2
vinceni01,Nick Vincent,2,2,21,4,0,0,1,116,36,16,4,13,34,1,1,1,0,162,4,17,1,1,3
vogelry01,Ryan Vogelsong,12,8,43,25,0,0,2,508,156,64,16,57,139,5,3,6,0,709,6,70,7,4,14
volqued01,Edinson Volquez,9,9,44,25,1,0,2,485,150,78,17,81,149,4,7,7,1,705,6,83,5,5,13
volstch01,Chris Volstad,6,10,36,21,0,0,1,401,146,73,17,46,93,4,3,4,1,584,5,78,6,7,11
wadeco01,Cory Wade,3,2,30,4,0,0,1,145,48,23,6,14,41,1,1,1,0,204,6,24,1,1,3
wainwad01,Adam Wainwright,11,9,40,22,2,1,2,474,149,64,14,45,142,3,4,5,1,657,6,71,7,5,14
waldejo01,Jordan Walden,3,3,35,4,0,0,6,154,47,21,5,20,50,1,4,1,0,219,15,23,2,1,3
waldrky01,Kyle Waldrop,2,2,18,3,0,0,1,111,37,16,4,13,28,1,1,2,0,158,4,17,1,1,3
walljo02,Josh Wall,2,2,14,3,0,0,1,85,27,13,3,9,24,1,1,1,0,120,4,14,1,1,2
waltepj01,P. J. Walters,5,5,33,12,1,0,2,274,93,46,13,32,72,2,3,3,0,392,7,49,3,2,9
wangch01,Chien-Ming Wang,4,4,24,8,0,0,1,192,69,31,8,21,45,1,3,3,0,278,5,34,3,2,5
warread01,Adam Warren,3,3,28,7,0,0,2,187,62,30,8,22,52,1,2,2,0,267,7,32,2,2,5
watsoto01,Tony Watson,4,3,40,4,0,0,1,168,49,24,6,21,50,2,2,2,0,235,7,25,2,2,4
weaveje02,Jered Weaver,14,7,40,25,2,1,1,530,147,59,18,47,148,1,5,3,0,710,5,64,3,4,11
webbry01,Ryan Webb,3,3,43,4,0,0,1,183,62,26,5,21,47,4,2,3,0,262,11,28,2,2,5
weberth01,Thad Weber,1,2,12,3,0,0,1,81,27,12,3,9,22,1,1,1,0,116,3,13,1,1,2
weilaky01,Kyle Weiland,3,5,29,9,0,0,2,216,74,37,10,26,58,1,2,3,1,311,7,39,2,2,7
wellski01,Kip Wells,4,5,30,10,0,0,2,231,76,35,9,29,60,2,4,3,0,331,7,39,2,3,6
wellsra01,Randy Wells,3,4,20,9,0,0,1,192,66,32,8,25,47,2,2,2,0,279,3,33,3,2,5
wernean01,Andrew Werner,5,5,32,11,0,0,2,245,81,39,9,28,69,2,3,3,1,349,7,42,3,3,7
westbja01,Jake Westbrook,11,9,41,24,1,0,1,487,171,74,14,55,110,3,4,5,0,699,5,81,7,4,18
wheelda01,Dan Wheeler,2,2,22,3,0,0,1,106,34,17,5,11,28,1,1,1,0,150,6,18,1,1,2
whiteal01,Alex White,5,8,38,17,0,0,2,332,118,61,16,46,84,6,6,5,0,492,6,66,4,3,7
wielajo01,Joe Wieland,4,5,31,9,0,0,2,229,73,35,9,26,65,2,3,3,0,325,7,38,3,3,6
wilheto01,Tom Wilhelmsen,4,3,43,4,0,0,9,203,59,26,6,24,63,2,3,2,0,284,20,28,2,2,5
wilkad01,Adam Wilk,3,5,29,8,0,0,2,204,70,33,9,22,56,1,2,2,0,292,7,36,2,2,5
willije02,Jerome Williams,6,6,37,13,1,0,2,341,112,53,14,34,87,2,2,4,0,477,8,57,2,3,12
wilsobr01,Brian Wilson,2,2,19,2,0,0,7,94,30,13,3,12,29,1,1,1,0,134,10,14,1,1,2
wilsocj01,C. J. Wilson,12,8,42,27,1,0,1,544,161,72,16,71,157,2,5,7,1,763,5,83,4,5,20
wilsoju10,Justin Wilson,2,1,14,3,0,0,1,83,28,12,3,10,24,1,1,1,0,119,3,13,1,1,2
wolfra02,Randy Wolf,4,3,18,9,0,0,1,199,66,29,8,23,47,1,1,3,0,283,3,31,3,2,7
woodke02,Kerry Wood,2,2,21,3,0,0,1,101,31,15,4,14,30,1,2,1,0,145,4,16,1,1,3
woodtr01,Travis Wood,7,10,41,22,0,0,2,454,141,71,19,52,119,4,3,6,1,638,6,76,8,5,12
worleva01,Vance Worley,8,7,41,21,0,0,2,427,144,60,14,49,120,3,3,5,0,611,6,66,9,4,11
wrighja01,Jamey Wright,3,3,43,4,0,0,1,191,62,27,5,25,51,3,3,3,0,274,13,30,2,2,6
wrighwe01,Wesley Wright,3,3,39,4,0,0,1,158,49,22,6,18,47,1,2,3,0,223,8,24,2,1,4
youngch03,Chris Young,6,7,37,17,0,0,2,354,113,51,15,40,93,4,4,3,0,501,6,55,6,3,6
zagurmi01,Mike Zagurski,2,2,27,4,0,0,1,132,43,21,5,17,38,1,2,2,0,188,7,23,2,2,4
zambrca01,Carlos Zambrano,7,7,38,18,0,0,1,374,121,59,12,55,97,2,3,6,0,543,6,65,7,5,12
zieglbr01,Brad Ziegler,4,3,44,4,0,0,1,181,54,23,5,20,46,2,1,2,0,248,9,25,2,2,9
zimmejo02,Jordan Zimmermann,10,9,44,26,0,0,2,528,168,66,17,44,141,3,4,7,0,732,6,72,7,4,13
zitoba01,Barry Zito,10,8,42,23,1,0,2,464,151,73,18,59,110,5,3,4,0,662,6,78,8,4,14
