playerID,playerName,W,L,G,GS,CG,SHO,SV,IPouts,H,ER,HR,BB,SO,IBB,WP,HBP,BK,BFP,GF,R,SH,SF,GIDP
abadfe01,Fernando Abad,2,2,26,3,0,0,1,107,34,16,5,13,33,1,2,1,0,152,7,17,1,1,3
achteaj01,A. J. Achter,2,2,24,4,0,0,1,136,46,20,7,16,36,1,1,1,0,193,8,22,1,1,5
adamsau01,Austin Adams,2,2,21,3,0,0,1,112,39,20,5,13,33,1,1,1,0,162,7,21,1,1,3
adlemti01,Tim Adleman,5,5,35,13,0,0,2,284,90,43,14,31,78,2,3,5,0,398,7,46,4,2,9
alberan01,Andrew Albers,2,2,20,5,0,0,1,135,47,22,7,16,41,1,2,1,0,195,5,25,1,1,4
alberma01,Matt Albers,3,3,36,4,0,0,1,163,56,26,7,18,44,1,2,2,0,234,7,29,2,2,5
albural01,Al Alburquerque,2,1,21,3,0,0,1,96,31,14,4,13,30,1,2,1,1,137,5,15,1,1,3
alcanra01,Raul Alcantara,4,5,31,9,0,0,2,219,75,37,12,24,63,1,3,4,1,314,7,40,1,3,6
alexasc01,Scott Alexander,2,2,18,3,0,0,1,106,35,16,4,12,31,1,1,1,0,151,4,17,1,1,4
allenco01,Cody Allen,3,4,48,4,0,0,16,198,55,25,7,24,74,2,4,2,0,272,29,28,2,2,6
altavda01,Dan Altavilla,2,2,17,3,0,0,1,96,31,14,4,10,29,1,1,1,0,135,5,15,1,1,3
alvarda01,Dario Alvarez,2,2,16,3,0,0,1,94,32,16,5,10,29,1,1,2,0,135,4,17,1,1,3
alvarjo02,Jose Alvarez,3,3,43,4,0,0,1,182,62,26,6,20,54,2,2,2,0,261,10,30,1,1,5
anderbr04,Brett Anderson,4,4,24,11,0,0,1,225,80,35,9,23,57,1,3,2,0,319,4,38,2,2,8
anderch01,Chase Anderson,8,9,42,25,0,0,1,449,151,71,22,49,123,2,5,5,0,635,5,77,4,5,13
anderco01,Cody Anderson,5,5,29,11,0,0,1,246,86,41,12,24,66,2,3,2,0,348,5,43,2,2,7
anderty01,Tyler Anderson,6,6,39,16,0,0,2,354,118,51,14,35,104,2,5,4,2,498,7,56,4,3,12
andrima01,Matt Andriese,7,7,42,15,0,0,2,357,120,56,15,33,102,2,4,3,2,501,9,59,2,5,10
antoldu01,Dustin Antolin,1,1,12,3,0,0,1,78,26,13,4,9,23,1,1,1,0,112,3,13,1,1,2
aquinja01,Jayson Aquino,1,1,13,3,0,0,1,80,26,12,3,9,24,1,1,1,0,114,3,13,1,1,2
araujel01,Elvis Araujo,3,2,28,4,0,0,1,129,43,20,5,18,40,1,2,2,0,187,6,23,1,1,4
archech01,Chris Archer,9,13,43,27,0,0,1,546,164,76,21,61,194,1,9,4,0,764,5,85,4,4,12
armstsh01,Shawn Armstrong,2,2,16,3,0,0,1,95,30,14,4,11,28,1,1,1,0,133,4,15,1,1,3
arojo01,Jonathan Aro,1,2,13,3,0,0,1,80,27,13,3,9,24,1,1,1,0,114,3,14,1,1,2
arrieja01,Jake Arrieta,15,7,42,26,1,1,1,541,137,59,14,57,176,2,9,5,0,724,5,64,3,2,14
asheral01,Alec Asher,4,5,31,11,0,0,2,234,78,38,10,25,63,1,3,3,1,334,6,42,3,2,6
avilalu01,Luis Avilan,2,2,25,3,0,0,1,110,34,17,4,14,35,2,2,2,0,156,5,18,1,1,3
axforjo01,John Axford,4,4,45,4,0,0,6,187,61,29,7,26,59,2,3,2,0,270,15,30,1,2,5
baezpe01,Pedro Baez,4,3,47,4,0,0,1,201,59,28,9,21,67,1,3,2,1,278,9,30,2,2,4
bailean01,Andrew Bailey,2,2,16,3,0,0,2,93,30,14,4,11,27,1,1,1,0,133,5,16,1,1,3
baileho02,Homer Bailey,4,4,26,10,0,0,1,217,75,35,9,24,65,2,3,3,0,311,5,37,2,2,6
barbajo01,Johnny Barbato,2,2,16,3,0,0,1,97,32,16,4,11,30,1,1,2,0,138,4,17,1,1,3
barneda02,Danny Barnes,2,2,16,3,0,0,1,96,31,15,4,11,29,1,1,1,0,136,4,16,1,1,3
barneja01,Jacob Barnes,2,2,21,4,0,0,1,116,37,17,4,13,35,1,2,1,0,163,5,18,1,1,3
barnema01,Matt Barnes,4,4,40,5,0,0,1,190,64,30,8,24,60,1,3,3,0,274,9,32,2,1,5
barneto01,Tony Barnette,4,3,32,4,0,0,1,163,52,21,6,17,48,1,3,3,0,228,6,23,1,2,6
barraky01,Kyle Barraclough,4,3,44,4,0,0,1,194,53,26,6,29,73,1,4,2,0,273,7,28,1,2,4
barreja01,Jake Barrett,2,3,37,4,0,0,2,167,51,25,7,21,51,2,3,2,0,236,7,27,1,2,4
bassich01,Chris Bassitt,3,5,29,11,0,0,1,249,83,39,9,31,70,1,4,4,0,359,6,42,2,2,8
bastaan01,Antonio Bastardo,3,2,30,3,0,0,1,127,37,19,5,17,42,1,3,2,0,180,6,20,1,1,2
bauertr01,Trevor Bauer,10,9,44,25,1,0,1,506,158,80,20,65,154,2,5,7,0,719,6,85,3,5,12
baumabu01,Buddy Baumann,2,2,15,3,0,0,1,89,29,14,4,10,27,1,1,1,0,126,3,15,1,1,2
beckch02,Chris Beck,2,2,21,4,0,0,1,116,40,20,5,16,34,1,1,2,0,169,4,21,1,1,3
bedroca01,Cam Bedrosian,2,2,32,4,0,0,1,148,47,21,5,19,49,1,2,2,0,211,7,23,1,2,4
belisma01,Matt Belisle,2,2,32,4,0,0,1,150,49,20,5,16,41,2,2,2,0,213,7,22,2,2,4
benoijo01,Joaquin Benoit,3,2,28,3,0,0,2,126,35,15,5,14,40,1,2,1,0,173,6,16,1,1,3
bergmch01,Christian Bergman,2,3,21,5,0,0,1,140,52,25,7,14,37,1,2,1,0,201,5,27,1,1,5
berrijo01,Jose Berrios,5,7,36,14,0,0,2,277,98,54,14,39,82,1,3,5,0,408,7,59,2,2,8
betande01,Dellin Betances,4,4,49,4,0,0,5,210,55,24,7,26,90,1,4,2,0,288,11,27,1,2,4
bettich01,Chad Bettis,11,8,47,25,1,0,2,496,175,84,20,56,134,4,6,6,0,720,7,90,8,3,12
biagijo01,Joe Biagini,3,3,36,5,0,0,1,179,59,25,6,19,54,1,3,3,0,255,8,28,2,2,5
blachty01,Ty Blach,3,3,22,6,0,0,1,155,48,22,6,18,45,1,2,2,0,216,6,24,1,1,5
blairaa01,Aaron Blair,5,7,37,14,0,0,2,292,101,57,15,38,80,3,3,5,0,426,7,61,3,5,7
blantjo01,Joe Blanton,5,3,42,4,0,0,1,200,57,25,7,22,64,3,3,2,0,276,9,27,1,2,5
blazemi01,Michael Blazek,3,3,32,4,0,0,1,155,51,24,6,21,46,2,2,2,0,223,8,27,1,2,4
bleieri01,Richard Bleier,2,2,19,4,0,0,1,109,35,16,4,12,31,1,1,1,0,154,5,17,1,1,3
blevije01,Jerry Blevins,3,2,36,4,0,0,1,137,42,20,5,16,45,2,2,1,0,194,7,21,1,2,3
bolsimi01,Mike Bolsinger,4,6,29,13,0,0,1,254,86,41,11,31,76,2,3,3,0,364,5,45,3,2,8
boscawi01,Wilfredo Boscan,2,2,17,4,0,0,1,116,38,19,5,14,33,1,2,1,0,165,4,20,1,1,3
boshebu01,Buddy Boshers,2,2,25,4,0,0,1,129,42,20,5,14,40,1,2,2,0,183,6,22,1,2,3
bowmama01,Matthew Bowman,3,4,35,5,0,0,1,180,56,26,6,20,51,1,2,2,0,253,8,29,1,1,6
boxbebr01,Brad Boxberger,3,3,30,3,0,0,6,130,39,19,6,18,44,1,2,2,0,186,11,21,1,1,3
boydma01,Matt Boyd,6,6,38,17,0,0,2,337,112,57,18,37,96,1,3,4,0,477,7,61,2,3,10
boyerbl01,Blaine Boyer,3,4,43,4,0,0,1,189,65,27,6,19,44,2,2,2,0,267,10,29,1,2,6
brachbr01,Brad Brach,6,3,47,4,0,0,2,216,61,26,8,26,73,2,3,1,0,297,10,29,1,2,6
brachsi01,Silvino Bracho,2,2,23,4,0,0,1,118,40,20,6,14,35,1,2,2,0,171,6,21,1,1,3
bradlar01,Archie Bradley,8,8,43,21,0,0,2,413,142,72,16,59,128,5,6,5,1,604,7,76,3,5,10
bradlje01,Jed Bradley,2,2,14,3,0,0,1,87,28,14,4,11,26,1,1,1,0,123,3,15,1,1,3
braulst01,Steven Brault,3,5,31,10,0,0,2,222,77,35,10,28,66,2,3,3,0,325,6,41,3,2,6
breslcr01,Craig Breslow,1,2,23,3,0,0,1,113,40,18,5,13,31,1,2,1,0,163,6,20,1,1,4
briceau01,Austin Brice,2,2,17,3,0,0,1,98,31,16,4,11,30,1,1,2,0,139,4,17,1,1,3
bridwpa01,Parker Bridwell,1,1,13,3,0,0,1,81,27,13,4,9,24,1,1,1,0,116,3,14,1,1,2
brittza01,Zack Britton,3,2,47,4,0,0,20,195,53,20,5,20,64,2,5,1,0,262,31,22,1,1,6
broadmi01,Mike Broadway,1,2,15,3,0,0,1,88,30,15,4,10,26,1,1,1,0,126,4,16,1,1,3
broxtjo01,Jonathan Broxton,4,3,39,4,0,0,1,171,53,26,7,21,53,2,2,2,0,243,8,28,2,2,4
buchaja01,Jake Buchanan,3,3,21,5,0,0,1,140,45,21,6,16,40,1,2,2,0,198,6,22,1,1,4
buchhcl01,Clay Buchholz,7,8,37,18,0,0,1,373,122,60,15,41,101,1,3,5,0,526,7,66,2,4,13
buchtry01,Ryan Buchter,3,2,36,4,0,0,1,169,47,24,6,22,57,2,2,2,0,234,7,25,1,2,5
bumgama01,Madison Bumgarner,14,9,44,28,3,1,1,589,168,69,22,48,204,2,4,7,1,799,5,75,4,5,14
bundydy01,Dylan Bundy,7,5,38,11,0,0,1,287,94,44,14,35,88,3,2,4,0,410,8,47,2,2,7
burgoen02,Enrique Burgos,3,3,31,4,0,0,2,147,47,25,6,20,48,2,4,2,0,210,9,26,1,2,4
burnese01,Sean Burnett,1,1,14,3,0,0,1,82,27,13,4,9,24,1,1,1,0,116,3,14,1,1,2
buschma01,Matt Buschmann,1,1,12,3,0,0,1,81,26,12,4,9,24,1,1,1,0,114,3,13,1,1,2
bushma01,Matt Bush,4,3,34,4,0,0,1,166,50,23,6,17,52,1,2,2,0,231,8,24,1,2,4
butleed01,Eddie Butler,4,6,30,12,0,0,1,255,97,50,13,32,66,2,2,4,0,376,5,55,3,2,9
cabrema01,Mauricio Cabrera,3,2,27,4,0,0,3,136,43,20,5,17,40,1,2,2,0,193,6,21,1,1,4
cahiltr01,Trevor Cahill,3,4,31,5,0,0,1,181,55,26,7,25,57,2,3,3,0,258,8,28,1,1,5
cainma01,Matt Cain,5,7,34,15,0,0,1,308,108,55,16,36,85,2,4,5,0,445,6,58,4,5,9
caminar01,Arquimedes Caminero,2,2,26,3,0,0,1,127,40,19,5,16,39,1,2,2,0,182,6,21,1,1,3
campojo01,Vicente Campos,2,2,13,3,0,0,1,86,27,13,4,10,25,1,1,1,0,121,3,14,1,1,2
campole01,Leonel Campos,2,2,18,3,0,0,1,108,35,18,5,14,34,1,2,1,0,155,5,19,1,1,3
capuach01,Chris Capuano,2,2,18,4,0,0,1,120,40,21,6,16,37,1,2,2,0,174,4,22,1,1,3
carasma01,Matt Carasiti,2,2,18,3,0,0,1,100,35,17,4,13,31,1,2,2,0,146,5,19,1,1,3
carmofa01,Roberto Hernandez,4,4,27,9,0,0,1,214,73,35,10,24,55,1,2,2,0,304,6,39,1,2,6
carraca01,Carlos Carrasco,10,9,41,22,1,1,1,453,136,60,18,40,156,2,5,4,0,619,6,66,2,4,12
carrosc02,Scott Carroll,1,2,12,3,0,0,1,88,30,14,3,10,24,1,1,2,0,127,3,16,1,1,3
cashnan01,Andrew Cashner,4,7,29,15,0,0,1,304,105,48,11,37,89,2,3,3,0,437,4,55,3,3,10
castrmi01,Miguel Castro,2,2,19,3,0,0,1,102,34,17,5,12,31,1,1,1,0,146,4,18,1,1,3
cecilbr01,Brett Cecil,3,4,38,3,0,0,2,145,46,20,6,16,51,1,2,2,0,205,9,22,1,1,4
cedenxa01,Xavier Cedeno,3,3,38,4,0,0,1,149,47,21,5,16,47,1,3,1,0,210,7,22,1,1,4
cervehu01,Hunter Cervenka,2,2,16,3,0,0,1,90,30,14,4,11,27,1,1,1,0,128,4,15,1,1,2
cessalu01,Luis Cessa,5,5,31,10,0,0,1,242,77,38,13,24,66,1,3,3,0,338,8,41,2,2,6
chacijh01,Jhoulys Chacin,5,6,36,14,0,0,1,321,107,52,12,40,89,3,5,4,1,460,7,56,2,4,9
chafian01,Andrew Chafin,2,2,29,3,0,0,1,133,41,20,4,17,40,2,2,1,0,187,4,22,1,1,4
chambjo03,Joba Chamberlain,2,2,21,3,0,0,1,106,33,16,4,13,32,1,2,1,0,150,5,17,1,1,3
chapmar01,Aroldis Chapman,2,2,30,3,0,0,11,135,36,16,4,17,56,1,4,2,0,187,17,17,1,1,2
chapmke02,Kevin Chapman,2,1,15,3,0,0,1,89,30,14,4,11,27,1,1,1,0,128,3,15,1,1,2
chargjt01,J. T. Chargois,2,2,20,4,0,0,1,111,37,17,4,14,32,1,2,1,0,158,6,19,1,1,4
chatwty01,Tyler Chatwood,9,8,42,20,0,0,2,420,133,63,16,55,114,2,6,5,0,594,7,68,2,3,16
chaveje01,Jesse Chavez,3,3,19,7,0,0,1,158,53,24,6,17,47,1,2,1,0,225,4,26,1,2,5
chenwe02,Wei-Yin Chen,8,6,36,21,0,0,1,419,143,63,20,34,115,1,3,4,0,586,5,67,3,4,11
cingrto01,Tony Cingrani,3,4,38,5,0,0,5,181,57,29,7,28,54,2,3,3,1,260,13,31,1,2,5
cishest01,Steve Cishek,3,4,41,4,0,0,10,177,52,24,7,21,59,1,3,3,0,247,19,26,1,1,4
claudal01,Alex Claudio,3,2,31,4,0,0,1,161,53,22,6,17,45,1,2,2,0,228,9,25,1,2,6
clemepa02,Paul Clemens,4,5,33,11,0,0,2,246,81,37,11,30,70,1,4,3,1,353,7,42,2,3,7
clevimi01,Mike Clevinger,4,4,31,10,0,0,1,219,70,36,10,29,67,1,3,2,0,313,7,38,1,2,5
clippty01,Tyler Clippard,3,2,27,3,0,0,1,122,36,16,5,14,38,1,3,2,0,171,5,18,1,1,3
cobbal01,Alex Cobb,4,4,25,10,0,0,1,212,70,34,9,23,62,1,3,3,0,302,5,36,2,2,6
cokeph01,Phil Coke,2,1,14,3,0,0,1,80,26,12,3,10,23,1,1,1,0,114,4,13,1,1,3
coleaj01,A. J. Cole,4,4,33,11,0,0,2,246,81,40,11,28,76,2,3,3,0,353,7,45,2,3,5
colege01,Gerrit Cole,10,8,36,21,0,0,1,421,138,55,11,41,129,2,6,7,1,589,5,62,5,4,12
colemlo01,Louis Coleman,3,2,34,4,0,0,1,147,48,24,6,19,44,1,2,2,0,211,7,25,1,2,4
collmjo01,Josh Collmenter,4,4,29,10,0,0,1,243,79,34,11,22,60,1,2,2,0,337,8,37,3,3,7
colomal01,Alex Colome,4,4,35,6,0,0,9,193,60,26,7,20,60,2,3,2,0,268,15,27,1,2,5
colonba01,Bartolo Colon,12,9,41,25,0,0,1,499,174,72,21,34,124,3,2,4,0,696,5,77,6,4,15
colonjo01,Joe Colon,2,2,15,3,0,0,1,91,30,15,4,11,28,1,1,1,0,131,4,16,1,1,2
concege01,Gerardo Concepcion,1,1,13,3,0,0,1,80,26,12,3,9,24,1,1,1,0,114,3,13,1,1,2
conlead01,Adam Conley,8,6,42,20,0,0,2,405,129,60,15,53,123,5,6,8,0,580,7,63,5,4,13
corbipa01,Patrick Corbin,6,9,43,19,0,0,2,406,144,68,18,48,119,2,7,4,0,590,8,78,4,4,12
cosarja01,Jarred Cosart,4,5,30,13,0,0,1,260,84,42,10,36,70,1,4,3,0,373,5,45,2,2,10
cothaca01,Caleb Cotham,2,2,21,4,0,0,1,114,40,20,5,14,34,1,2,2,0,165,5,21,1,1,3
cottojh01,Jharel Cotton,4,4,31,9,0,0,2,229,71,32,10,24,67,1,3,2,0,320,7,36,1,2,6
couloda01,Danny Coulombe,3,2,27,4,0,0,1,150,46,24,6,17,47,1,3,1,0,210,7,25,1,2,4
cravyty01,Tyler Cravy,2,3,22,5,0,0,1,142,45,22,6,18,41,1,1,2,0,202,5,24,1,1,4
crockky01,Kyle Crockett,2,2,25,3,0,0,1,106,34,16,4,12,32,1,1,1,0,151,5,17,1,1,3
cuetojo01,Johnny Cueto,13,7,42,24,3,1,1,531,163,65,17,45,158,2,3,7,1,726,5,69,5,3,12
cuevawi01,William Cuevas,2,2,13,3,0,0,1,83,27,13,3,10,25,1,1,1,0,119,3,14,1,1,2
cunnibr02,Brandon Cunniff,2,2,22,3,0,0,1,111,35,17,5,15,34,1,2,1,0,158,5,19,1,1,3
curtiza01,Zac Curtis,2,2,18,3,0,0,1,97,32,16,4,13,29,1,1,2,0,140,4,17,1,1,3
danisty01,Tyler Danish,1,1,13,3,0,0,1,80,27,13,3,10,24,1,1,1,0,115,3,14,1,1,2
danksjo01,John Danks,4,7,25,13,0,0,1,264,93,46,12,31,68,1,4,3,0,381,4,50,3,3,8
darviyu01,Yu Darvish,7,6,34,15,0,0,1,329,99,45,13,36,121,2,6,3,0,461,6,50,1,3,7
davieza01,Zach Davies,10,7,44,22,0,0,2,448,147,67,18,44,127,1,4,5,0,628,7,73,3,4,11
daviswa01,Wade Davis,4,2,37,3,0,0,9,159,43,17,4,18,55,1,2,2,0,217,16,18,1,1,4
daytogr01,Grant Dayton,2,2,20,4,0,0,1,114,34,16,5,12,38,1,1,1,0,159,3,18,1,1,3
deanpa02,Pat Dean,3,5,30,9,0,0,1,227,82,41,11,26,64,1,3,2,0,327,7,43,2,2,8
degroja01,Jacob deGrom,9,8,38,22,0,0,1,459,138,55,15,41,150,2,5,3,0,626,5,59,6,4,12
delabst01,Steve Delabar,2,1,18,3,0,0,1,94,30,16,4,13,29,1,2,1,0,136,4,17,1,1,2
delacjo01,Joel De La Cruz,3,5,30,9,0,0,1,213,71,35,10,25,57,1,2,3,0,306,6,39,2,2,5
delarjo01,Jorge De La Rosa,8,8,37,21,0,0,1,405,136,69,18,55,115,3,6,6,1,587,5,75,4,4,14
delarru01,Rubby De La Rosa,6,6,29,15,0,0,1,290,96,47,14,34,84,2,3,3,1,415,4,50,3,3,7
deleojo03,Jose De Leon,4,3,30,9,0,0,2,210,69,34,10,25,63,2,3,4,0,302,7,39,3,2,5
delgara01,Randall Delgado,5,3,49,4,0,0,1,212,68,33,8,29,66,2,5,2,0,306,10,35,2,3,5
delosab01,Abel De Los Santos,2,2,14,3,0,0,1,86,28,14,4,10,25,1,1,1,0,123,3,15,1,1,2
dermoma01,Matt Dermody,1,1,13,3,0,0,1,80,27,13,4,9,25,1,1,1,0,115,3,14,1,1,2
desclan01,Anthony DeSclafani,8,8,39,21,0,0,1,425,142,62,17,42,122,3,6,5,1,598,6,68,7,4,14
despaod01,Odrisamer Despaigne,2,2,14,5,0,0,1,117,40,20,5,12,29,1,2,2,0,167,3,21,2,1,3
detwiro01,Ross Detwiler,4,4,37,8,0,0,1,226,80,39,9,28,60,2,3,3,0,329,8,43,2,2,8
devench02,Chris Devenski,4,4,38,7,0,0,2,251,73,31,7,23,78,1,3,3,0,339,10,32,1,2,7
diamosc01,Scott Diamond,1,1,12,3,0,0,1,76,25,12,3,9,23,1,1,1,0,108,3,13,1,1,2
diazda01,Dayan Diaz,2,2,14,3,0,0,1,86,28,14,4,11,25,1,1,1,0,123,3,15,1,1,3
diazed04,Edwin Diaz,2,3,31,4,0,0,6,158,50,22,6,17,59,1,3,2,0,223,10,24,1,1,4
diazju03,Jumbo Diaz,2,2,36,4,0,0,1,156,49,23,7,19,49,2,3,2,0,220,9,25,1,1,4
dickera01,R. A. Dickey,9,10,39,24,1,0,1,474,151,73,22,53,119,1,6,7,1,669,5,80,2,5,15
diekmja01,Jake Diekman,3,3,40,4,0,0,2,161,47,23,6,21,54,1,3,2,0,226,8,25,1,2,5
dominjo01,Jose Dominguez,2,2,25,4,0,0,1,132,42,21,6,16,37,1,2,2,0,187,5,23,1,1,5
doolise01,Sean Doolittle,2,3,30,3,0,0,4,137,41,19,6,14,46,1,1,1,0,189,10,21,2,1,3
drabeky01,Kyle Drabek,1,1,12,3,0,0,1,79,26,12,3,10,24,1,1,1,0,113,3,13,1,1,2
drakeol01,Oliver Drake,2,2,18,3,0,0,1,106,33,16,4,13,33,1,2,1,0,151,5,18,1,1,3
duensbr01,Brian Duensing,2,2,24,3,0,0,1,108,35,16,4,13,29,1,2,1,0,153,5,17,1,1,3
duffety01,Tyler Duffey,9,9,42,21,0,0,2,402,146,74,20,40,118,3,7,5,1,581,6,80,3,3,14
duffyda01,Danny Duffy,9,7,45,22,0,0,1,450,140,62,19,47,137,1,6,6,0,626,7,66,3,3,13
dukeza01,Zach Duke,2,2,31,3,0,0,1,126,38,17,5,17,42,1,2,2,0,178,6,19,1,1,5
dullry01,Ryan Dull,4,4,41,5,0,0,2,193,55,26,9,19,60,2,3,2,0,265,7,28,1,3,4
dunnmi01,Mike Dunn,4,3,40,3,0,0,1,153,49,23,6,19,49,1,2,2,0,218,7,24,1,1,4
dysonsa01,Sam Dyson,3,3,43,4,0,0,11,190,59,23,6,20,55,1,3,3,0,264,20,25,1,1,7
edginjo01,Josh Edgin,2,1,18,3,0,0,1,90,29,14,4,11,28,1,1,1,0,127,4,15,1,1,3
edwarca01,Carl Edwards,2,2,26,4,0,0,1,133,38,20,5,16,45,1,3,1,0,185,7,22,1,1,4
eflinza01,Zach Eflin,5,6,35,13,1,1,2,285,95,49,14,31,73,2,3,3,0,405,7,52,2,4,8
egeco01,Cody Ege,2,2,15,3,0,0,1,90,29,13,4,10,27,1,1,1,0,127,4,14,1,1,3
eickhje01,Jerad Eickhoff,9,11,46,24,0,0,2,497,156,69,23,44,145,2,6,6,1,688,7,75,4,6,12
eliasro01,Roenis Elias,3,3,17,7,0,0,1,156,51,25,7,19,45,1,2,3,0,223,3,27,1,1,5
ellinbr02,Brian Ellington,3,2,26,4,0,0,1,134,41,19,5,17,40,1,2,2,0,190,7,20,1,1,4
eovalna01,Nathan Eovaldi,9,7,36,20,0,0,1,405,140,66,16,42,109,2,6,3,0,577,5,68,3,3,11
erlinro01,Robbie Erlin,3,4,23,7,0,0,1,176,57,28,7,18,50,1,3,2,0,245,5,29,1,2,7
eschja01,Jake Esch,3,4,30,8,0,0,2,202,68,32,10,24,60,2,3,3,0,288,6,34,1,2,7
escobed02,Edwin Escobar,2,2,22,4,0,0,1,122,42,21,5,15,36,1,1,2,0,177,5,23,1,1,4
estevca01,Carlos Estevez,3,4,35,4,0,0,4,161,51,27,7,21,51,2,2,3,0,232,11,28,1,2,4
estrama01,Marco Estrada,9,8,43,23,0,0,1,491,136,67,22,55,141,2,4,5,0,676,6,72,2,3,8
evelada01,Dana Eveland,2,2,24,3,0,0,1,109,37,19,5,15,33,1,1,2,0,159,6,20,1,1,3
familje01,Jeurys Familia,3,4,53,4,0,0,21,216,63,25,6,25,71,3,4,2,0,300,32,28,2,2,7
farmebu01,Buck Farmer,2,3,21,5,0,0,1,141,47,25,7,19,41,1,2,2,0,204,5,26,1,1,5
farquda01,Danny Farquhar,2,3,31,3,0,0,1,143,46,21,7,17,47,1,2,2,0,204,8,23,1,1,4
faulkan01,Andrew Faulkner,2,2,16,3,0,0,1,90,29,14,4,11,26,1,2,1,0,128,3,15,1,1,3
feldmsc01,Scott Feldman,2,2,15,6,0,0,1,128,44,20,5,13,32,1,2,1,0,182,3,22,1,1,4
felizmi01,Michael Feliz,5,3,33,5,0,0,1,180,56,29,8,21,64,1,3,2,0,255,10,31,1,2,4
felizne01,Neftali Feliz,3,3,38,4,0,0,3,164,50,26,8,19,51,1,3,2,0,229,9,27,2,1,5
fernajo02,Jose Fernandez,12,7,44,23,0,0,2,484,143,60,15,49,192,4,7,5,1,666,6,65,4,5,13
fieldjo03,Josh Fields,2,2,26,3,0,0,1,118,37,17,4,14,40,1,1,1,0,168,7,19,1,1,2
fienca01,Casey Fien,2,3,29,3,0,0,1,131,42,20,6,12,37,1,1,1,0,182,5,21,1,1,3
fiersmi01,Mike Fiers,9,7,42,22,0,0,2,444,146,67,21,44,129,1,10,5,0,625,6,72,3,4,8
finnebr01,Brandon Finnegan,9,9,47,23,1,0,2,458,140,69,23,64,135,2,5,4,1,650,7,76,4,4,14
fistedo01,Doug Fister,10,10,43,24,0,0,2,476,165,73,20,48,113,2,7,7,0,677,6,80,4,4,15
flandyo01,Yohan Flande,2,2,13,4,0,0,1,100,34,17,5,12,27,1,1,1,0,143,3,18,1,1,4
floreke01,Kendry Flores,4,4,29,7,0,0,2,192,63,29,8,23,56,2,2,2,0,273,7,32,1,2,6
florody01,Dylan Floro,2,2,16,3,0,0,1,99,34,15,4,11,30,1,2,1,0,142,4,17,1,1,3
floydga01,Gavin Floyd,2,3,21,4,0,0,1,124,39,18,5,13,37,1,3,2,0,173,5,20,1,1,4
flynnbr01,Brian Flynn,2,3,28,5,0,0,1,163,49,23,6,20,47,1,4,2,0,228,7,25,2,1,6
foltymi01,Mike Foltynewicz,8,7,42,19,0,0,2,398,139,67,20,43,119,2,9,6,1,574,7,72,4,5,10
freemsa01,Sam Freeman,1,1,21,3,0,0,1,98,32,15,4,14,30,1,1,2,0,142,5,16,1,1,3
friasca01,Carlos Frias,2,2,14,4,0,0,1,105,35,16,4,12,28,1,1,1,0,149,3,17,1,1,3
friedch01,Christian Friedrich,5,10,56,16,0,0,2,386,132,66,14,49,108,3,7,3,0,561,10,71,4,6,10
fulmeca01,Carson Fulmer,2,2,15,3,0,0,1,95,31,16,4,12,29,1,2,2,0,136,4,17,1,1,3
fulmemi01,Michael Fulmer,9,7,43,20,1,1,2,431,131,57,16,43,124,2,3,7,1,597,7,61,4,3,14
gallayo01,Yovani Gallardo,8,8,37,22,0,0,1,410,140,64,16,53,105,2,7,3,0,590,5,69,2,4,13
gamboed01,Eddie Gamboa,2,2,15,3,0,0,1,94,30,14,4,11,28,1,1,1,0,133,4,15,1,1,3
gantjo01,John Gant,3,4,28,8,0,0,1,191,64,31,8,23,59,2,3,2,0,274,7,34,2,2,5
garcija01,Santiago Casilla,3,3,43,4,0,0,15,175,53,24,7,20,56,2,3,3,1,244,24,25,2,1,6
garcija02,Jaime Garcia,10,9,42,23,0,0,1,467,151,69,19,48,134,2,6,6,0,655,6,74,5,3,17
garcilu03,Luis Garcia,2,2,26,3,0,0,1,118,40,19,4,16,36,2,3,1,0,172,6,20,1,1,4
garciyi01,Yimi Garcia,2,2,21,3,0,0,1,106,33,15,4,10,33,1,1,1,0,148,5,17,1,1,2
garnepe01,Perci Garner,2,2,14,3,0,0,1,89,29,14,4,11,27,1,1,1,0,128,3,15,1,1,3
gartory01,Ryan Garton,2,2,25,4,0,0,1,135,45,21,6,15,40,1,2,1,0,192,7,23,1,1,4
garzama01,Matt Garza,6,9,34,19,0,0,1,371,131,63,15,44,96,2,5,3,0,541,5,72,5,3,10
gausmke01,Kevin Gausman,8,10,45,24,0,0,1,492,163,71,23,48,151,2,8,5,0,692,6,76,4,4,13
gearrco01,Cory Gearrin,3,3,32,4,0,0,2,148,46,23,6,16,45,1,2,2,0,207,6,25,1,2,5
geedi01,Dillon Gee,6,7,34,13,0,0,1,317,113,53,16,34,83,2,2,4,1,457,6,55,3,3,9
geltzst01,Steve Geltz,2,3,30,4,0,0,1,135,40,21,7,16,41,1,2,2,0,189,7,23,1,1,3
germego01,Gonzalez Germen,2,2,30,4,0,0,1,145,48,24,6,21,42,2,3,2,0,210,6,25,1,1,4
gibsoky01,Kyle Gibson,8,10,39,23,1,0,1,458,158,75,17,53,116,3,7,5,0,656,5,79,4,4,19
gileske01,Ken Giles,4,4,47,4,0,0,7,197,60,26,7,23,75,1,5,2,0,279,15,29,2,2,4
gilmase01,Sean Gilmartin,2,2,24,4,0,0,1,128,41,20,5,15,38,2,1,2,0,181,6,21,1,1,4
giolilu01,Lucas Giolito,3,3,27,8,0,0,1,183,62,31,9,23,52,1,3,2,1,264,6,33,1,1,5
girodch01,Chad Girodo,2,2,16,3,0,0,1,92,30,14,4,10,27,1,1,1,0,131,3,15,1,1,3
givenmy01,Mychal Givens,5,3,41,4,0,0,1,198,59,27,7,25,70,1,2,3,0,278,7,29,2,2,5
glasnty01,Tyler Glasnow,3,4,25,7,0,0,1,175,57,27,7,22,54,1,3,3,1,251,5,30,2,1,6
gloveko01,Koda Glover,2,2,19,4,0,0,1,108,34,17,5,12,32,1,2,1,0,153,4,18,1,1,3
godleza01,Zack Godley,5,4,32,9,0,0,1,236,79,42,11,28,69,3,4,4,0,339,5,44,4,2,7
goedder01,Erik Goeddel,2,2,29,4,0,0,1,138,43,21,5,16,43,1,3,2,0,196,7,22,1,2,3
goforda01,David Goforth,2,2,17,3,0,0,1,98,34,17,5,11,30,1,2,1,0,142,5,18,1,1,3
gomezje01,Jeanmar Gomez,3,4,46,4,0,0,10,200,70,30,7,21,52,2,3,2,0,286,23,32,1,2,7
gonzach01,Chi Chi Gonzalez,4,5,29,10,0,0,1,221,72,36,9,30,58,1,3,3,0,319,6,40,1,2,6
gonzagi01,Gio Gonzalez,10,9,43,26,0,0,1,494,163,76,15,58,157,2,5,6,0,705,5,82,5,5,14
gonzami03,Miguel Gonzalez,7,9,37,21,0,0,1,416,138,63,17,44,108,2,4,6,0,589,5,67,2,4,12
gonzase01,Severino Gonzalez,3,3,23,5,0,0,1,140,49,25,6,14,43,1,1,2,1,202,6,26,1,2,3
goodyni01,Nick Goody,2,2,23,4,0,0,1,122,40,19,6,15,38,1,1,2,0,175,7,21,1,1,3
gorzeto01,Tom Gorzelanny,2,2,19,3,0,0,1,90,30,15,4,12,27,1,1,1,0,130,5,16,1,1,2
gotttr01,Trevor Gott,2,2,20,3,0,0,1,101,32,14,4,12,28,1,1,2,0,143,4,16,1,1,3
gracema02,Matt Grace,2,2,16,3,0,0,1,85,28,13,3,10,25,1,1,1,0,121,3,14,1,1,2
grahajr01,J. R. Graham,2,2,16,3,0,0,1,98,33,16,4,11,29,1,2,1,0,140,5,18,1,1,3
graveke01,Kendall Graveman,9,10,46,25,1,0,2,500,172,76,21,50,118,2,4,6,0,709,6,81,2,5,15
grayjo02,Jon Gray,8,9,45,23,1,1,2,452,146,75,17,52,152,3,7,8,0,644,7,81,4,5,11
grayso01,Sonny Gray,8,8,35,21,1,1,1,420,132,62,16,46,118,1,10,3,0,588,4,67,2,5,12
greench03,Chad Green,4,5,30,9,0,0,2,217,72,35,12,25,70,1,3,2,0,310,7,37,2,2,6
greensh02,Shane Greene,4,4,30,8,0,0,1,197,67,37,8,23,57,2,2,4,0,283,5,39,2,2,6
gregelu01,Luke Gregerson,4,3,43,4,0,0,9,178,51,24,6,18,57,2,3,2,0,244,18,26,1,1,5
greinza01,Zack Greinke,12,6,38,23,1,0,1,478,142,59,18,40,143,2,5,3,0,649,5,62,5,3,12
griffaj01,A. J. Griffin,7,5,40,18,0,0,2,358,116,61,21,44,108,2,3,6,1,510,7,64,2,3,10
grillja01,Jason Grilli,4,3,32,4,0,0,5,143,43,21,6,17,50,1,2,2,0,200,9,22,1,2,4
grimmju01,Justin Grimm,3,3,45,4,0,0,1,169,51,24,6,22,59,1,5,2,0,239,9,26,1,2,4
gsellro01,Robert Gsellman,5,4,31,10,0,0,2,241,78,33,8,28,73,2,3,3,0,340,6,36,3,3,6
guaipma01,Mayckol Guaipe,2,2,16,3,0,0,1,95,32,15,4,12,28,1,1,1,0,136,3,17,1,1,3
guerrde01,Deolis Guerra,3,2,30,4,0,0,1,161,54,24,7,15,46,1,2,2,0,227,7,27,1,1,4
guerrja01,Javy Guerra,1,2,15,3,0,0,1,84,27,13,3,11,25,1,1,1,0,120,3,14,1,1,3
guerrju02,Junior Guerra,8,5,39,16,0,0,2,360,107,48,13,42,104,3,6,4,1,500,8,51,3,3,10
guerrta01,Tayron Guerrero,1,1,12,3,0,0,1,79,26,12,3,9,24,1,1,1,0,113,3,13,1,1,2
gurkaja01,Jason Gurka,2,2,15,3,0,0,1,92,32,16,4,10,27,1,1,1,0,132,4,17,1,1,3
gustaja01,Jandel Gustave,2,2,17,3,0,0,1,100,32,15,4,11,31,1,2,1,0,141,4,16,1,1,3
hahnje01,Jesse Hahn,5,6,30,13,0,0,1,280,92,44,10,32,73,2,5,4,0,398,5,48,2,2,11
haleda02,David Hale,2,2,14,4,0,0,1,101,35,17,5,12,28,1,2,1,0,146,3,19,1,1,3
hallco01,Cody Hall,1,1,13,3,0,0,1,82,27,13,4,10,25,1,1,1,0,118,3,14,1,1,2
hamelco01,Cole Hamels,11,6,41,24,0,0,1,499,154,64,19,57,159,2,5,7,1,697,5,70,3,3,16
hammeja01,Jason Hammel,11,9,42,25,0,0,1,473,146,69,22,48,143,2,8,7,0,660,5,75,5,4,13
handbr01,Brad Hand,4,5,44,7,0,0,1,240,75,36,9,29,74,2,4,2,0,338,9,38,3,2,7
happja01,J. A. Happ,14,6,43,24,0,0,1,483,147,63,18,50,142,1,4,4,1,667,6,66,2,3,15
hardybl01,Blaine Hardy,3,2,29,3,0,0,1,132,43,18,4,16,39,1,2,1,0,188,7,20,1,1,4
harrelu01,Lucas Harrell,4,4,29,9,0,0,2,205,69,34,9,27,61,1,3,3,0,296,6,36,2,2,6
harriwi02,Will Harris,3,3,45,4,0,0,4,190,55,23,7,20,61,1,3,2,0,261,12,25,1,2,5
hartdo01,Donnie Hart,2,2,19,3,0,0,1,104,32,14,4,12,30,1,1,1,0,146,4,16,1,1,3
harvema01,Matt Harvey,7,8,35,18,0,0,1,378,123,54,13,34,115,2,4,3,0,527,5,58,5,3,11
hatchch02,Chris Hatcher,3,3,33,3,0,0,1,146,47,23,6,18,47,2,3,2,0,209,8,25,1,1,4
hathast01,Steve Hathaway,2,2,19,3,0,0,1,98,33,15,4,12,30,1,1,1,0,140,3,17,1,1,3
hayesdr01,Drew Hayes,2,2,14,3,0,0,1,89,30,15,4,11,27,1,1,1,0,128,3,16,1,1,3
heanean01,Andrew Heaney,4,4,26,10,0,0,1,225,73,34,9,23,64,1,3,3,0,316,5,36,2,2,6
hellebe01,Ben Heller,2,2,15,3,0,0,1,87,29,14,4,10,26,1,1,1,0,126,4,15,1,1,2
hellije01,Jeremy Hellickson,10,10,45,26,0,0,1,506,163,77,22,49,143,2,7,6,1,710,6,83,5,5,15
hembrhe01,Heath Hembree,3,2,30,4,0,0,1,160,52,22,7,18,47,2,2,1,0,228,8,26,1,1,4
hendeji01,Jim Henderson,2,2,26,4,0,0,1,125,41,20,6,15,40,1,1,2,0,179,6,21,1,1,3
hendrky01,Kyle Hendricks,11,8,44,26,1,1,1,519,150,62,17,46,153,3,5,7,0,704,5,67,5,3,14
hendrli01,Liam Hendriks,3,3,40,4,0,0,1,193,64,28,7,18,63,2,3,2,0,271,9,30,1,2,5
hernada01,David Hernandez,3,4,44,4,0,0,1,192,64,29,9,24,62,2,3,3,0,277,10,31,1,1,5
hernafe02,Felix Hernandez,11,7,37,22,0,0,1,468,139,62,18,52,141,1,8,7,0,648,5,68,3,3,14
herreke01,Kelvin Herrera,3,4,50,4,0,0,4,205,60,25,7,21,67,1,3,3,0,283,11,27,2,2,5
herrmfr01,Frank Herrmann,2,2,16,3,0,0,1,96,32,16,5,11,29,1,2,1,0,138,4,18,1,1,3
hesslke01,Keith Hessler,2,2,20,3,0,0,1,107,36,17,5,13,31,1,1,1,0,154,4,18,1,1,3
hestoch01,Chris Heston,3,3,15,6,0,0,1,136,44,21,5,17,38,1,2,2,0,193,3,22,1,1,5
hillri01,Rich Hill,5,4,31,10,0,0,2,234,68,30,9,23,77,1,2,3,0,321,6,32,2,2,6
hinojda01,Dalier Hinojosa,2,2,17,3,0,0,1,98,31,14,4,11,29,1,1,1,0,138,4,15,1,1,3
hochelu01,Luke Hochevar,2,3,31,4,0,0,1,144,46,22,7,15,45,1,2,2,0,202,6,23,1,1,3
hoffmje02,Jeff Hoffman,3,5,29,9,0,0,2,207,70,33,10,26,60,2,4,2,0,299,6,40,2,2,6
holdejo02,Jonathan Holder,2,2,15,3,0,0,1,90,29,14,4,11,27,1,1,1,0,128,3,15,1,1,3
hollade01,Derek Holland,7,7,37,17,0,0,2,347,117,57,16,37,89,3,3,4,0,491,6,60,3,3,11
hoovejj01,J. J. Hoover,3,3,26,3,0,0,1,122,39,22,7,17,37,1,1,1,0,176,7,23,1,1,3
housetj01,T. J. House,1,2,12,4,0,0,1,83,29,14,3,10,24,1,1,1,0,120,2,15,1,1,3
howeljp01,J. P. Howell,3,2,44,4,0,0,1,162,53,22,6,18,48,1,3,2,0,230,9,24,1,1,5
hoytja01,James Hoyt,2,2,19,4,0,0,1,107,34,17,5,13,34,1,2,1,0,152,5,18,1,1,3
hudsoda01,Daniel Hudson,3,3,45,4,0,0,3,185,62,30,7,22,58,2,4,2,0,266,10,34,1,1,4
huffda01,David Huff,3,4,30,7,0,0,1,188,65,30,9,22,54,1,2,2,0,271,8,34,2,2,5
hugheja02,Jared Hughes,3,3,46,4,0,0,1,182,60,23,6,20,45,2,3,4,0,258,10,26,3,2,7
hugheph01,Phil Hughes,6,7,29,15,1,0,1,305,111,50,15,21,78,1,2,2,0,429,4,52,2,3,8
hunteto02,Tommy Hunter,2,2,19,3,0,0,1,98,32,14,4,10,28,1,1,1,0,137,5,15,1,1,4
hurshja01,Jason Hursh,1,1,12,3,0,0,1,78,26,13,3,9,24,1,1,1,0,112,3,14,1,1,2
hutchdr01,Drew Hutchison,3,3,17,8,0,0,1,156,55,27,7,17,47,1,2,3,0,225,3,29,1,2,4
iglesra01,Raisel Iglesias,4,4,32,9,0,0,3,238,71,33,9,26,78,1,3,4,1,334,9,34,2,2,6
iwakuhi01,Hisashi Iwakuma,12,9,42,25,0,0,1,507,170,74,23,40,139,3,4,4,0,700,5,78,4,5,16
jacksed01,Edwin Jackson,6,7,36,13,0,0,2,293,99,53,14,39,82,2,5,3,0,422,7,57,3,3,9
jackslu01,Luke Jackson,2,2,16,3,0,0,1,96,33,17,5,12,27,1,1,1,0,139,4,18,1,1,3
janseke01,Kenley Jansen,3,3,47,4,0,0,22,193,51,23,7,17,77,1,2,2,0,260,31,24,2,2,3
jeffrje01,Jeremy Jeffress,2,2,25,3,0,0,1,115,37,16,4,13,34,1,2,1,0,161,4,17,1,1,5
jenkity01,Tyrell Jenkins,4,4,30,9,0,0,1,218,73,37,11,31,58,1,3,2,0,315,6,40,2,3,7
jennida01,Dan Jennings,3,3,43,4,0,0,1,182,59,24,5,24,52,2,3,2,0,260,11,27,2,3,7
jepseke01,Kevin Jepsen,2,2,25,3,0,0,2,111,34,16,5,13,33,1,2,1,0,155,6,17,1,1,3
jimenub01,Ubaldo Jimenez,8,9,39,22,0,0,2,429,143,73,17,61,129,1,5,5,0,623,5,78,2,3,12
johnser04,Erik Johnson,4,5,29,10,0,0,2,221,77,38,13,27,63,1,4,3,0,319,6,41,2,3,6
johnsji04,Jim Johnson,3,4,39,4,0,0,6,175,57,27,6,20,55,1,3,3,0,249,14,29,1,1,6
johnsst02,Steve Johnson,2,2,18,3,0,0,1,101,33,16,5,13,31,1,2,1,0,145,6,17,1,1,3
jonesna01,Nate Jones,4,3,41,4,0,0,2,186,54,25,8,19,62,2,4,2,0,255,8,27,2,2,5
jungmta01,Taylor Jungmann,4,6,27,11,0,0,1,231,74,38,9,30,67,1,4,4,0,330,5,41,2,3,6
kahnlto01,Tommy Kahnle,2,2,27,3,0,0,1,127,39,19,5,19,39,1,3,1,0,182,7,21,1,1,4
karnsna01,Nate Karns,6,4,34,16,0,0,2,331,106,53,14,43,108,2,7,4,0,474,6,55,2,3,7
kazmisc01,Scott Kazmir,8,7,38,21,0,0,1,402,130,63,18,46,121,2,5,6,0,572,5,68,3,3,9
kelake01,Keone Kela,4,3,33,4,0,0,1,148,46,23,6,18,50,1,3,2,0,210,6,24,1,1,5
kellesh01,Shawn Kelley,3,3,44,4,0,0,3,175,52,23,7,18,63,2,2,1,0,241,13,26,1,2,3
kellyca01,Casey Kelly,2,3,18,4,0,0,1,122,43,21,5,14,33,1,2,2,0,177,4,22,1,1,3
kellyjo05,Joe Kelly,5,3,25,10,0,0,1,207,70,35,8,27,62,1,3,3,0,300,5,36,1,3,6
kenneia01,Ian Kennedy,10,11,43,27,0,0,1,518,162,76,26,58,166,3,6,8,0,728,5,81,4,4,10
kensilo01,Logan Kensing,2,2,15,3,0,0,1,85,28,13,4,10,25,1,1,1,0,121,3,14,1,1,3
kershcl01,Clayton Kershaw,12,5,36,21,2,2,1,473,120,44,12,30,179,1,6,3,2,613,5,48,4,2,10
keuchda01,Dallas Keuchel,11,9,39,23,2,1,1,502,155,68,17,46,146,1,7,3,0,687,5,72,2,3,17
kiekhde01,Dean Kiekhefer,2,2,20,4,0,0,1,109,36,17,4,12,31,2,1,2,0,155,6,19,1,1,3
kimbrcr01,Craig Kimbrel,3,4,41,4,0,0,17,172,46,23,6,23,68,1,4,2,0,240,26,25,1,1,4
kintzbr01,Brandon Kintzler,2,3,34,4,0,0,5,157,54,23,6,16,42,1,2,2,0,221,14,25,1,1,6
kirkmmi01,Michael Kirkman,1,1,12,3,0,0,1,76,25,12,3,9,23,1,1,1,0,108,3,13,1,1,2
kleinph01,Phil Klein,3,3,24,6,0,0,1,150,50,25,6,19,44,2,2,2,0,216,5,27,2,1,5
klubeco01,Corey Kluber,12,10,42,26,2,1,1,566,163,71,19,49,197,2,5,7,1,766,5,77,5,3,15
knebeco01,Corey Knebel,2,3,30,4,0,0,1,142,45,22,6,17,47,1,2,2,0,202,7,24,1,1,3
kochma01,Matt Koch,3,2,20,5,0,0,1,134,41,19,5,15,38,1,2,2,0,187,5,21,1,1,3
koehlto01,Tom Koehler,9,11,42,26,0,0,1,498,162,77,20,68,137,4,6,5,0,713,5,84,5,5,15
kontoge01,George Kontos,3,3,41,4,0,0,1,175,52,22,6,19,46,2,2,2,0,241,10,24,1,2,5
krolia01,Ian Krol,3,2,40,4,0,0,1,163,55,25,7,19,51,2,3,3,0,234,7,27,1,1,5
kuhlch01,Chad Kuhl,6,5,36,14,0,0,2,293,97,45,12,32,83,1,4,4,0,416,7,48,2,3,8
lackejo01,John Lackey,10,8,41,24,0,0,1,512,154,65,20,49,152,3,5,6,1,701,5,70,7,5,16
lambjo02,John Lamb,4,8,35,15,0,0,2,303,108,57,16,38,93,1,3,3,1,441,6,60,5,2,9
latosma01,Mat Latos,2,2,15,4,0,0,1,108,35,17,5,12,31,1,1,1,0,153,3,18,1,1,3
lawde01,Derek Law,3,3,34,4,0,0,1,159,49,21,6,16,48,1,2,1,0,221,7,23,1,1,4
layneto01,Tommy Layne,2,2,28,3,0,0,1,112,34,16,4,15,33,1,2,2,0,159,5,18,1,1,3
leakemi01,Mike Leake,8,10,40,23,0,0,1,460,161,73,18,38,117,2,6,6,0,650,5,79,4,6,14
leblawa01,Wade LeBlanc,2,2,14,3,0,0,1,92,29,13,3,10,27,1,1,1,0,128,4,14,1,1,3
leclejo01,Jose Leclerc,2,2,16,3,0,0,1,100,32,15,4,13,30,1,1,1,0,143,4,16,1,1,3
leonar01,Arnold Leon,1,2,14,3,0,0,1,86,29,14,4,10,25,1,1,1,0,123,4,15,1,1,3
leonedo01,Dominic Leone,2,2,23,3,0,0,1,119,42,19,6,14,36,1,2,2,0,172,5,21,1,2,4
lestejo01,Jon Lester,13,8,43,26,1,0,1,539,155,63,19,49,173,1,6,6,0,728,5,68,4,4,13
lewisco01,Colby Lewis,9,7,35,20,1,0,1,405,135,65,19,36,102,2,3,5,0,569,4,70,2,5,10
liberad01,Adam Liberatore,3,3,36,4,0,0,1,147,46,22,5,17,47,2,2,2,0,207,7,23,1,2,4
lightpa01,Pat Light,2,2,17,3,0,0,1,98,32,17,4,13,30,1,2,1,0,142,3,18,1,1,3
linceti01,Tim Lincecum,6,6,29,13,0,0,1,257,93,47,12,36,74,1,5,3,0,379,5,50,2,3,8
liriafr01,Francisco Liriano,5,5,27,14,0,0,1,285,84,38,10,36,96,1,5,3,0,400,4,42,2,2,9
lobstky01,Kyle Lobstein,2,3,18,5,0,0,1,132,45,22,5,16,34,1,2,1,0,190,4,23,1,1,4
lockeje01,Jeff Locke,7,8,36,19,0,0,1,382,135,65,15,44,95,3,5,4,0,551,6,71,5,4,12
loewead01,Adam Loewen,2,1,16,3,0,0,1,89,29,16,4,12,27,1,2,2,0,128,4,17,1,1,3
loganbo02,Boone Logan,2,4,42,4,0,0,1,153,47,24,6,20,52,2,3,3,0,219,8,26,2,1,4
lohseky01,Kyle Lohse,4,5,25,10,0,0,1,233,81,42,12,24,61,1,2,3,0,332,4,44,3,3,6
lopezja02,Javier Lopez,2,2,41,3,0,0,1,123,37,17,4,16,33,1,1,2,0,173,7,19,1,1,4
lopezre01,Reynaldo Lopez,5,4,28,8,0,0,1,205,68,33,8,26,63,2,4,2,0,297,6,36,2,2,5
lorenmi01,Michael Lorenzen,3,4,28,7,0,0,1,188,63,30,8,23,54,2,2,4,1,270,5,31,1,1,6
loupaa01,Aaron Loup,2,2,26,3,0,0,1,109,35,17,4,12,34,1,2,3,0,155,5,18,1,1,3
lowema01,Mark Lowe,2,3,34,4,0,0,1,152,51,27,8,18,46,2,2,2,0,219,11,30,1,3,3
luebkco01,Cory Luebke,2,2,14,3,0,0,1,87,30,14,4,12,26,1,1,1,0,127,4,15,1,1,2
lugose01,Seth Lugo,5,4,29,9,0,0,1,222,67,30,9,25,62,2,2,3,1,310,6,32,4,3,6
lylesjo01,Jordan Lyles,4,4,28,8,0,0,1,193,67,33,6,25,49,1,3,3,0,281,5,37,2,2,7
lyonsty01,Tyler Lyons,3,2,25,5,0,0,1,165,51,24,8,17,51,1,2,2,0,230,6,26,2,1,5
madsory01,Ryan Madson,4,4,43,4,0,0,9,186,58,25,7,20,54,2,3,2,0,260,19,27,1,2,6
maedake01,Kenta Maeda,11,9,45,22,0,0,2,444,134,62,18,46,143,4,6,6,0,615,7,67,2,3,10
magilma01,Matt Magill,1,1,13,3,0,0,1,82,27,13,4,10,24,1,1,1,0,117,3,14,1,1,3
magnida01,Damien Magnifico,1,1,13,3,0,0,1,81,26,13,3,10,24,1,1,1,0,115,3,14,1,1,2
mahlegr01,Greg Mahle,2,2,20,4,0,0,1,106,35,17,5,13,31,1,2,2,0,152,4,18,1,1,4
manaese01,Sean Manaea,7,8,42,19,0,0,2,402,128,60,18,40,118,2,4,4,0,561,7,64,3,4,12
manesse01,Seth Maness,3,2,33,3,0,0,1,142,48,21,5,13,37,2,2,1,0,199,8,23,2,1,5
manshje01,Jeff Manship,3,2,33,4,0,0,1,150,46,20,6,19,44,2,1,1,0,211,7,23,1,2,5
mantijo01,Joe Mantiply,1,1,13,3,0,0,1,80,27,13,4,9,24,1,1,1,0,115,3,14,1,1,2
marinjh01,Jhan Marinez,2,2,29,4,0,0,1,163,54,24,6,19,47,2,3,3,0,233,7,26,1,1,5
mariomi01,Michael Mariot,2,2,20,3,0,0,1,108,35,18,5,14,33,1,2,1,0,155,5,19,1,1,3
marksju01,Justin Marks,2,2,13,3,0,0,1,88,29,13,4,11,26,1,1,1,0,127,3,14,1,1,2
marksma01,Matt Marksberry,1,2,16,3,0,0,1,88,29,14,4,11,26,1,1,1,0,127,3,15,1,1,2
marquge01,German Marquez,3,3,24,6,0,0,1,165,56,26,7,19,48,1,2,3,0,238,5,28,2,2,4
marshev01,Evan Marshall,2,2,20,3,0,0,1,103,37,17,4,12,30,1,2,1,0,150,6,19,1,1,4
marteke02,Kelvin Marte,1,1,12,3,0,0,1,80,26,12,4,9,24,1,1,1,0,114,3,14,1,1,2
martica04,Carlos Martinez,12,8,50,25,0,0,2,536,165,68,16,64,166,4,8,8,1,751,7,72,5,3,22
martico01,Cody Martin,2,3,21,5,0,0,1,140,48,23,7,17,39,1,2,2,0,201,5,25,1,2,4
martini01,Nick Martinez,4,5,24,10,0,0,1,217,75,35,10,27,51,1,3,5,0,316,4,38,1,2,8
martira04,Rafael Martin,2,1,15,3,0,0,1,83,26,13,4,10,27,1,1,1,0,118,4,14,1,1,2
matusbr01,Brian Matusz,3,4,43,6,0,0,1,199,63,30,9,24,63,2,3,3,0,284,10,33,2,2,5
matzst01,Steven Matz,9,7,40,19,0,0,2,396,129,54,15,38,124,2,4,5,1,554,7,58,5,2,10
maurebr01,Brandon Maurer,3,4,45,4,0,0,4,197,62,30,7,22,60,2,3,2,0,279,14,33,1,2,4
mayermi01,Mike Mayers,2,2,17,4,0,0,1,111,39,21,5,13,33,1,1,2,0,161,4,22,1,1,3
maytr01,Trevor May,3,4,30,6,0,0,1,174,59,29,7,19,58,1,4,2,0,251,7,31,1,1,4
mazzavi01,Vin Mazzaro,2,1,13,3,0,0,1,80,27,13,3,10,23,1,1,1,0,115,3,15,1,1,2
mcallza01,Zach McAllister,3,3,37,5,0,0,1,178,59,26,7,21,58,2,3,2,0,256,7,28,1,1,4
mccarbr01,Brandon McCarthy,5,4,28,11,0,0,1,233,73,37,10,28,75,1,3,3,0,328,5,40,2,2,6
mccarke01,Kevin McCarthy,2,2,15,3,0,0,1,90,30,14,4,11,27,1,1,1,0,128,3,16,1,1,2
mcculla02,Lance McCullers,7,7,36,17,0,0,1,349,110,47,11,47,122,2,8,3,1,495,6,50,1,2,11
mcfartj01,T. J. McFarland,2,2,22,3,0,0,1,125,45,21,5,15,32,2,2,2,0,181,5,22,1,1,5
mcgeeja01,Jake McGee,3,3,37,3,0,0,6,154,50,22,6,16,49,1,2,2,0,217,12,23,1,1,4
mcgowdu01,Dustin McGowan,3,3,35,5,0,0,1,179,55,26,8,25,53,3,3,2,0,256,10,30,1,2,5
mchugco01,Collin McHugh,13,9,43,26,0,0,1,517,175,77,20,51,158,2,7,6,0,730,5,80,3,4,13
medlekr01,Kris Medlen,5,5,31,10,0,0,1,232,78,39,9,31,65,1,3,3,0,334,6,44,1,2,7
mejiaad01,Adalberto Mejia,1,1,12,3,0,0,1,81,27,13,3,9,24,1,1,1,0,115,3,14,1,1,2
melanma01,Mark Melancon,2,2,33,3,0,0,13,141,41,17,4,12,42,1,2,1,0,191,19,18,1,1,4
melviti01,Tim Melville,3,3,24,6,0,0,1,159,54,27,8,20,48,1,2,2,0,232,5,29,2,1,5
mendeyo01,Yohander Mendez,2,2,13,3,0,0,1,83,27,14,3,10,24,1,1,1,0,118,3,15,1,1,2
mengdda01,Daniel Mengden,5,8,36,14,0,0,2,297,102,54,13,38,92,1,5,4,0,433,7,58,2,2,7
merriry01,Ryan Merritt,2,2,18,4,0,0,1,121,38,18,5,13,35,1,2,1,0,169,4,19,1,1,4
meyeral01,Alex Meyer,4,4,31,9,0,0,2,216,69,35,9,28,67,1,3,2,0,308,6,37,2,3,6
mileywa01,Wade Miley,5,7,29,16,0,0,1,317,111,54,12,36,92,1,5,3,0,455,4,56,2,3,8
millean01,Andrew Miller,3,2,29,3,0,0,6,136,37,17,5,14,52,1,2,2,0,185,12,18,1,1,3
milleju02,Justin Miller,3,3,31,4,0,0,1,149,49,25,6,18,47,1,2,2,0,212,8,26,1,2,4
millesh01,Shelby Miller,6,10,35,21,1,1,1,398,133,62,15,49,107,4,4,4,1,569,4,67,4,3,11
millsal02,Alec Mills,1,1,13,3,0,0,1,81,26,13,3,10,25,1,1,1,0,116,3,14,1,1,2
milonto01,Tommy Milone,5,5,32,14,0,0,1,283,99,47,14,31,75,2,3,2,0,408,6,54,4,4,7
minayju01,Juan Minaya,2,2,15,3,0,0,1,92,30,14,4,11,27,1,1,1,0,131,4,15,1,1,3
miranar01,Ariel Miranda,6,4,33,11,0,0,2,256,78,38,13,29,72,1,3,2,0,356,7,41,1,3,7
mitchbr01,Bryan Mitchell,4,5,34,9,0,0,2,230,78,36,9,29,65,1,4,3,0,331,8,41,2,2,8
molledu01,Dustin Molleken,2,2,13,3,0,0,1,86,29,13,3,10,26,1,2,1,0,124,3,14,1,1,2
montera01,Rafael Montero,2,3,21,6,0,0,1,143,48,24,7,20,45,2,2,1,0,207,4,26,1,1,4
montgmi01,Mike Montgomery,3,3,25,8,0,0,1,192,61,29,8,25,55,1,5,3,0,274,5,32,1,1,7
moorema02,Matt Moore,6,6,34,15,0,0,2,303,99,49,12,39,91,2,5,4,0,432,6,51,2,3,9
moralfr01,Franklin Morales,2,2,18,3,0,0,1,99,33,16,4,12,27,1,2,1,1,142,4,17,1,1,3
morgaad01,Adam Morgan,5,9,39,19,0,0,2,371,134,67,20,35,101,2,4,5,0,534,6,72,3,4,10
morimsh01,Shawn Morimando,2,2,13,3,0,0,1,84,28,14,4,10,25,1,1,1,0,121,3,15,1,1,2
morinmi01,Mike Morin,3,3,42,4,0,0,1,172,55,28,6,18,53,2,2,2,0,242,8,31,2,2,4
morriaj01,A. J. Morris,2,2,14,3,0,0,1,89,29,14,4,11,27,1,1,1,0,128,4,15,1,1,2
morribr01,Bryan Morris,2,2,27,3,0,0,1,120,39,16,5,15,34,1,2,2,0,171,6,18,1,1,4
morrobr01,Brandon Morrow,2,2,17,4,0,0,1,108,35,15,4,12,30,1,1,1,0,151,3,17,1,1,4
mortoch02,Charlie Morton,5,5,25,12,0,0,1,241,79,38,8,28,68,2,3,5,1,343,4,42,3,2,9
moscojo01,Jon Moscot,4,5,31,10,0,0,2,219,73,38,13,27,61,2,3,3,0,318,6,41,3,2,6
motteja01,Jason Motte,3,2,28,3,0,0,2,123,41,19,6,13,36,1,2,2,0,176,8,21,1,1,3
moylape01,Peter Moylan,3,2,31,4,0,0,1,141,46,21,6,16,41,1,2,2,0,200,7,23,1,2,5
mulleco01,Conor Mullee,1,1,12,3,0,0,1,80,25,12,3,10,24,1,1,1,0,113,3,13,1,1,2
murraco01,Colton Murray,2,2,22,4,0,0,1,126,42,21,6,15,39,1,3,2,0,182,5,23,1,1,4
musgrjo01,Joe Musgrove,5,5,33,12,0,0,2,270,87,41,12,29,81,1,3,4,0,379,7,44,1,2,7
narvech01,Chris Narveson,2,2,15,3,0,0,1,95,30,16,5,11,29,1,1,1,0,134,4,16,1,1,2
nathajo01,Joe Nathan,2,1,15,3,0,0,3,78,25,12,3,10,24,1,1,1,0,111,5,13,1,1,2
nealza01,Zach Neal,3,4,29,7,0,0,2,206,68,32,9,18,50,1,3,2,0,287,7,34,1,2,6
nelsoji02,Jimmy Nelson,9,13,44,26,0,0,1,505,168,82,21,67,140,3,8,12,0,734,6,92,5,5,16
nerishe01,Hector Neris,4,4,46,4,0,0,2,209,62,28,9,24,72,2,3,3,0,292,9,31,1,2,5
neshepa01,Pat Neshek,3,3,41,3,0,0,1,158,46,21,7,15,48,2,2,2,0,217,7,23,2,1,4
nicasju01,Juan Nicasio,6,6,48,10,0,0,1,292,97,47,12,37,97,3,3,4,0,421,10,51,4,3,7
nicolju01,Justin Nicolino,5,6,33,14,0,0,1,297,103,48,12,30,66,2,3,4,0,422,5,51,4,4,11
niesejo01,Jonathon Niese,3,3,18,8,0,0,1,178,61,28,7,20,47,1,2,2,0,256,3,31,3,2,5
nolaaa01,Aaron Nola,7,8,39,19,0,0,2,381,127,61,15,38,123,3,3,5,0,541,6,67,4,4,8
nolasri01,Ricky Nolasco,6,6,31,14,1,0,1,295,102,48,12,29,81,2,4,3,0,417,5,51,2,2,10
norribu01,Bud Norris,5,4,29,10,0,0,1,215,70,36,10,26,66,2,4,3,0,307,5,38,1,2,7
norrida01,Daniel Norris,6,4,36,14,0,0,2,296,98,43,14,32,91,1,3,2,0,421,7,48,1,4,7
novaiv01,Ivan Nova,6,7,33,15,1,0,1,304,104,48,12,28,83,1,5,5,0,431,5,52,3,4,10
nunovi01,Vidal Nuno,2,3,33,6,0,0,1,187,63,28,9,17,54,1,2,3,1,263,8,29,1,2,5
obergsc01,Scott Oberg,2,2,28,3,0,0,1,133,44,22,6,17,38,1,3,2,0,191,7,23,1,1,5
oberhbr01,Brett Oberholtzer,2,3,17,6,0,0,1,136,49,23,6,15,37,1,2,2,0,197,4,25,1,2,4
odayda01,Darren O'Day,3,2,32,3,0,0,2,139,40,17,6,15,47,1,1,2,0,192,8,19,1,1,3
odorija01,Jake Odorizzi,10,8,44,27,0,0,1,518,159,73,23,53,157,2,5,5,1,722,5,76,3,5,11
oflaher01,Eric O'Flaherty,2,3,27,4,0,0,1,120,42,21,5,14,35,1,2,2,0,174,6,23,1,1,3
ogandal01,Alexi Ogando,3,2,32,3,0,0,1,140,46,22,6,20,41,2,2,2,0,203,8,24,1,2,4
ogandne01,Nefi Ogando,2,2,17,3,0,0,1,100,32,15,4,12,29,1,1,1,0,143,4,17,1,1,3
ohlenro01,Ross Ohlendorf,4,4,38,4,0,0,2,176,56,28,9,23,56,1,3,3,0,253,14,30,2,1,4
ohse01,Seunghwan Oh,4,3,41,5,0,0,7,191,56,24,7,19,66,2,3,2,0,264,14,26,2,1,5
okertst01,Steven Okert,2,2,17,3,0,0,1,98,32,15,4,11,30,1,1,1,0,138,4,16,1,1,3
olsonty01,Tyler Olson,2,2,13,3,0,0,1,83,28,13,4,10,24,1,1,1,0,120,3,14,1,1,3
ondrulo01,Logan Ondrusek,2,2,15,3,0,0,1,84,28,14,4,10,25,1,1,1,0,120,3,15,1,1,2
orourry01,Ryan O'Rourke,2,2,24,4,0,0,1,119,37,19,5,15,37,1,2,1,0,168,6,21,1,1,4
osichjo01,Josh Osich,2,3,34,4,0,0,1,138,43,21,7,17,40,1,2,2,0,197,7,23,1,1,4
osullse01,Sean O'Sullivan,3,4,26,10,0,0,1,212,78,38,11,23,55,2,3,4,0,308,5,41,2,3,6
osunaro01,Roberto Osuna,3,4,50,4,0,0,15,216,62,28,9,20,71,2,4,2,0,294,28,30,1,2,5
oteroda01,Dan Otero,4,3,42,4,0,0,1,193,62,26,6,16,52,2,2,2,0,266,10,27,2,2,7
ottavad01,Adam Ottavino,2,2,26,3,0,0,3,118,36,16,5,12,39,1,2,2,0,164,8,18,1,1,3
overtdi01,Dillon Overton,3,4,27,8,0,0,1,190,71,37,12,21,55,1,3,2,0,279,6,39,1,2,5
owenshe02,Henry Owens,4,5,30,11,0,0,2,237,78,40,11,33,70,2,4,3,0,342,6,43,1,2,7
papeljo01,Jonathan Papelbon,2,3,28,3,0,0,8,131,42,19,5,14,39,1,1,2,0,185,15,21,1,1,4
parkebl01,Blake Parker,2,2,17,3,0,0,1,99,32,16,4,12,30,1,1,1,0,141,5,17,1,1,2
parnebo01,Bobby Parnell,2,2,17,3,0,0,1,89,30,15,3,12,26,1,2,1,0,129,4,16,1,1,3
partccu01,Curtis Partch,1,1,12,3,0,0,1,76,25,12,3,9,23,1,1,1,0,108,3,13,1,1,2
pattosp01,Spencer Patton,2,2,21,3,0,0,1,114,37,20,5,15,36,1,1,2,0,165,6,22,1,1,3
paulida01,David Paulino,2,2,19,5,0,0,1,125,40,20,5,15,36,1,2,2,0,177,4,21,1,1,4
paxtoja01,James Paxton,7,7,37,19,0,0,2,382,129,55,13,39,116,3,6,3,0,541,6,63,2,5,13
pazosja01,James Pazos,2,1,15,3,0,0,1,83,27,13,4,10,25,1,1,1,0,118,3,14,1,1,2
peacobr01,Brad Peacock,2,3,23,8,0,0,1,176,55,28,8,23,53,1,3,2,0,251,5,31,1,2,5
peavyja01,Jake Peavy,7,7,36,17,0,0,1,350,116,56,15,35,97,2,4,3,1,494,6,60,4,3,9
pelfrmi01,Mike Pelfrey,6,9,38,21,0,0,1,394,153,67,15,45,85,1,4,7,0,577,5,74,3,4,19
penaar01,Ariel Pena,2,2,12,3,0,0,1,86,28,14,4,11,26,1,1,1,0,123,3,15,1,1,3
penafe01,Felix Pena,2,2,15,3,0,0,1,90,28,14,4,10,28,1,1,1,0,126,3,15,1,1,2
peraljo01,Joel Peralta,2,2,18,2,0,0,1,86,28,14,4,9,27,1,1,1,0,123,4,15,1,1,2
peralwa01,Wandy Peralta,2,2,15,3,0,0,1,88,29,14,4,11,26,1,1,1,0,126,4,15,1,1,2
peralwi01,Wily Peralta,8,10,37,21,0,0,1,407,147,66,18,45,104,2,4,4,0,583,5,71,5,4,14
perdolu02,Luis Perdomo,7,8,42,15,1,0,2,366,137,67,17,40,98,4,7,5,0,535,10,72,1,3,14
perezma02,Martin Perez,9,10,46,25,0,0,2,511,174,82,16,61,114,2,4,5,1,728,6,91,5,6,25
perezol01,Oliver Perez,2,3,36,3,0,0,1,136,44,22,5,17,45,2,3,3,0,196,6,24,1,1,4
perezwi01,Williams Perez,5,5,33,15,0,0,2,301,103,53,12,36,75,3,5,5,0,433,6,56,3,3,11
perkigl01,Glen Perkins,2,2,20,2,0,0,6,94,31,14,4,9,29,1,2,1,0,133,10,15,1,1,2
petityu01,Yusmeiro Petit,3,3,31,5,0,0,1,191,63,29,9,18,57,2,2,1,0,268,10,31,2,2,4
petrija01,Jake Petricka,2,2,23,3,0,0,2,103,34,15,4,13,29,1,2,1,0,146,6,16,1,1,4
phelpda01,David Phelps,5,5,37,9,0,0,2,245,76,34,9,30,78,2,2,3,0,346,6,37,2,2,7
phillza01,Zach Phillips,2,2,14,3,0,0,1,84,28,13,4,9,25,1,1,1,0,120,3,14,1,1,3
pindebr01,Branden Pinder,1,2,15,3,0,0,1,85,28,13,4,10,26,1,1,1,0,122,4,14,1,1,3
pinedmi01,Michael Pineda,9,10,44,26,0,0,1,495,168,80,22,43,168,1,6,5,0,697,5,84,2,4,10
plutkad01,Adam Plutko,1,1,13,3,0,0,1,82,27,13,4,10,25,1,1,1,0,117,3,14,1,1,2
pomerdr01,Drew Pomeranz,6,6,42,13,0,0,2,301,94,45,14,35,95,2,4,3,0,424,8,49,3,3,9
porceri01,Rick Porcello,14,9,44,27,1,0,1,566,183,80,22,41,158,1,6,9,0,780,5,88,3,4,18
poundbr01,Brooks Pounders,2,2,16,3,0,0,1,95,32,16,5,11,29,1,1,1,0,136,4,17,1,1,2
pressry01,Ryan Pressly,4,4,44,4,0,0,1,196,65,28,7,22,57,2,4,2,0,281,8,31,2,2,4
priceda01,David Price,13,8,45,25,1,0,2,542,173,77,21,47,178,2,4,5,0,751,6,81,5,5,14
purkema01,Matt Purke,2,2,17,3,0,0,1,103,34,17,4,13,31,1,2,1,0,148,5,18,1,1,3
putnaza01,Zach Putnam,2,2,27,3,0,0,1,130,40,18,5,16,43,2,3,2,0,184,7,19,1,2,3
quackke01,Kevin Quackenbush,4,4,43,4,0,0,2,182,57,27,7,21,53,2,2,2,0,256,12,29,1,2,4
quallch01,Chad Qualls,2,3,34,3,0,0,3,135,46,21,6,13,39,1,2,1,0,192,11,23,1,2,3
quintjo01,Jose Quintana,10,10,43,27,0,0,1,557,181,72,18,49,163,3,7,5,0,768,5,77,3,4,16
ramirer02,Erasmo Ramirez,5,6,38,10,0,0,1,265,85,39,11,27,71,2,4,4,0,371,8,42,3,2,8
ramirjc01,J. C. Ramirez,3,2,29,4,0,0,1,147,47,22,6,17,41,1,3,3,0,210,6,23,1,2,4
ramirjo02,Jose Ramirez,2,2,24,4,0,0,1,127,41,20,5,17,39,2,2,3,0,183,5,22,1,2,3
ramirne01,Neil Ramirez,2,2,19,3,0,0,1,102,32,15,5,13,31,1,2,1,0,144,5,17,1,1,3
ramirno01,Noe Ramirez,2,2,18,3,0,0,1,99,33,16,5,12,31,1,1,2,0,142,5,18,1,1,3
ramosaj01,AJ Ramos,3,3,47,4,0,0,15,191,54,24,5,27,66,2,4,3,0,269,24,25,2,2,5
ramosce01,Cesar Ramos,3,3,34,6,0,0,1,186,64,30,8,23,51,2,3,2,0,267,9,32,2,2,7
ramosed02,Edubray Ramos,2,3,27,4,0,0,1,138,44,21,6,15,43,1,2,1,0,194,5,23,1,1,4
ranauan01,Anthony Ranaudo,3,4,26,8,0,0,1,197,67,37,11,24,53,1,3,2,0,286,6,38,2,3,4
rasmuco02,Cory Rasmus,2,2,22,4,0,0,1,123,39,20,5,16,38,1,2,1,1,176,5,21,1,1,3
ravinjo01,Josh Ravin,2,2,16,3,0,0,1,92,29,14,4,11,29,1,2,1,0,131,4,15,1,1,2
rayro02,Robbie Ray,8,13,46,26,0,0,2,488,166,80,20,62,171,4,6,7,0,709,6,88,4,4,14
reaco01,Colin Rea,4,4,28,8,0,0,2,197,63,30,8,22,59,1,2,2,0,278,6,32,2,2,5
reedad01,Addison Reed,3,3,46,4,0,0,4,196,59,24,7,18,66,2,3,1,0,270,13,26,2,2,4
reedco01,Cody Reed,4,7,34,12,0,0,2,259,94,48,14,31,78,2,4,4,1,380,7,54,2,2,8
reyesal02,Alex Reyes,4,3,27,7,0,0,2,195,59,25,7,25,62,1,3,2,1,274,6,27,1,2,5
reyesjo03,Jo-Jo Reyes,2,1,12,3,0,0,1,77,25,12,3,9,23,1,1,1,0,110,3,13,1,1,2
reynoma02,Matt Reynolds,1,2,16,3,0,0,1,87,29,14,4,11,26,1,1,1,0,125,4,15,1,1,2
richacl01,Clayton Richard,5,5,34,10,0,0,1,250,85,35,9,29,66,1,4,2,0,357,6,39,1,2,10
richaga01,Garrett Richards,6,5,27,14,0,0,1,294,88,39,9,35,88,1,7,3,0,411,4,44,2,3,8
riverfe01,Felipe Vazquez,2,3,28,4,0,0,1,133,41,19,5,16,43,1,2,2,0,188,6,21,1,1,3
roachdo01,Donn Roach,2,2,13,3,0,0,1,85,29,14,4,10,24,1,1,1,0,122,3,15,1,1,3
roarkta01,Tanner Roark,11,9,48,24,0,0,2,522,159,67,18,54,139,3,4,8,1,720,7,71,6,3,19
roberda08,David Robertson,4,4,44,4,0,0,18,186,55,26,7,23,68,2,2,2,0,260,27,28,2,1,4
robleha01,Hansel Robles,5,4,47,4,0,0,1,210,64,30,8,27,70,2,3,2,0,296,9,33,1,3,6
rodgebr01,Brady Rodgers,2,2,17,4,0,0,1,110,37,19,4,14,32,1,1,2,0,159,4,21,1,1,3
rodnefe01,Fernando Rodney,2,3,28,3,0,0,6,129,42,20,5,18,42,1,2,2,0,187,12,22,2,1,4
rodonca01,Carlos Rodon,9,9,44,24,0,0,2,481,161,72,19,60,156,2,9,7,1,691,6,78,5,5,15
rodried05,Eduardo Rodriguez,7,7,39,20,0,0,2,388,124,61,17,45,115,2,3,4,0,553,6,65,3,4,8
rodrife02,Fernando Rodriguez,3,2,31,4,0,0,1,152,45,23,5,19,47,1,2,2,0,212,6,24,1,1,4
rodrifr03,Francisco Rodriguez,3,4,43,4,0,0,20,176,51,23,7,19,55,1,3,1,0,242,29,25,1,2,5
rodrijo04,Joely Rodriguez,2,2,15,3,0,0,1,91,29,14,4,11,27,1,1,1,0,129,3,15,1,1,3
roech01,Chaz Roe,2,2,23,3,0,0,1,117,37,18,4,14,37,1,1,1,0,165,5,19,1,1,3
rogerta01,Taylor Rogers,3,2,34,4,0,0,1,169,56,26,7,18,53,2,2,3,0,241,6,28,1,1,6
rollida01,David Rollins,2,2,17,3,0,0,1,97,34,17,4,12,29,1,1,1,0,141,5,18,1,1,3
romeren01,Enny Romero,2,2,33,4,0,0,1,155,51,27,6,21,50,1,2,1,0,225,9,28,1,2,4
romose01,Sergio Romo,2,2,34,3,0,0,3,136,42,19,6,13,45,1,2,1,0,188,10,20,1,1,4
rondobr01,Bruce Rondon,3,2,30,4,0,0,2,140,43,21,6,17,46,1,2,2,0,199,8,23,2,1,3
rondohe01,Hector Rondon,3,3,42,4,0,0,11,172,52,22,7,16,56,1,3,2,0,237,21,24,1,2,4
rondojo01,Jorge Rondon,1,2,13,3,0,0,1,85,29,15,4,10,25,1,1,1,0,122,3,16,1,1,3
rosentr01,Trevor Rosenthal,3,3,38,3,0,0,14,158,52,22,5,23,56,1,2,2,0,229,21,23,1,1,4
rossjo01,Joe Ross,8,7,39,18,0,0,2,371,120,53,13,38,111,2,4,5,0,524,6,56,5,3,10
rossro01,Robbie Ross,3,3,37,4,0,0,2,177,58,27,6,21,53,1,4,4,0,255,8,30,1,2,6
rossty01,Tyson Ross,5,5,23,12,0,0,1,246,76,34,7,31,81,1,5,4,0,347,4,37,2,2,7
rothmi01,Michael Roth,2,1,12,3,0,0,1,81,28,14,4,10,24,1,1,1,0,117,3,15,1,1,2
rowenbe01,Ben Rowen,1,1,13,3,0,0,1,80,27,13,3,9,24,1,1,1,0,114,3,14,1,1,2
rusinch01,Chris Rusin,4,5,31,10,0,0,1,265,94,43,10,28,71,2,3,3,0,380,5,47,3,1,9
russeja02,James Russell,1,2,19,3,0,0,1,91,31,15,4,11,26,1,1,1,0,131,4,17,1,1,3
ryanky01,Kyle Ryan,3,3,33,5,0,0,1,179,57,26,7,19,46,2,2,2,0,250,8,28,2,1,6
ryuhy01,Hyun-Jin Ryu,4,4,24,8,0,0,1,186,62,29,7,19,56,1,2,2,0,264,5,31,2,1,5
rzepcma01,Marc Rzepczynski,1,2,22,3,0,0,1,96,31,14,4,11,29,1,1,2,0,136,3,16,1,1,3
sabatcc01,CC Sabathia,8,10,42,25,0,0,1,488,165,77,23,55,140,2,4,7,1,698,5,82,4,4,17
salasfe01,Fernando Salas,2,2,27,3,0,0,1,119,37,17,5,11,39,1,2,1,0,166,5,19,1,1,3
salazda01,Danny Salazar,10,8,39,23,0,0,1,447,136,64,18,54,156,3,6,4,2,628,5,69,2,4,11
salech01,Chris Sale,13,9,44,27,3,0,1,586,171,75,22,47,212,2,5,12,0,797,5,81,4,3,14
samarje01,Jeff Samardzija,10,10,43,26,1,1,1,544,177,84,23,48,151,2,4,5,0,754,5,88,4,5,16
sampsad01,Adrian Sampson,3,4,29,7,0,0,2,190,63,30,9,22,56,1,3,2,0,271,6,32,1,2,6
sampske01,Keyvius Sampson,2,3,23,7,0,0,1,164,57,28,8,24,50,1,3,2,0,243,4,31,2,1,4
sanchaa01,Aaron Sanchez,12,6,54,22,0,0,2,508,147,64,16,60,141,2,7,5,0,703,8,69,3,3,15
sanchan01,Anibal Sanchez,8,9,40,21,0,0,1,425,143,77,22,46,125,2,6,4,1,604,6,82,4,4,11
santaer01,Ervin Santana,8,9,40,23,1,0,1,476,151,67,17,51,135,3,8,5,1,664,5,73,4,5,15
santihe01,Hector Santiago,6,7,32,17,0,0,1,325,103,50,16,40,91,2,3,4,1,466,5,55,2,3,6
saupowa01,Warwick Saupold,2,2,14,3,0,0,1,91,31,15,4,10,27,1,1,1,0,130,3,16,1,1,3
scahiro01,Rob Scahill,2,2,21,3,0,0,1,111,36,16,4,13,32,1,1,2,0,160,6,18,1,1,3
schepta01,Tanner Scheppers,2,2,19,3,0,0,1,99,32,17,4,13,29,1,2,1,0,143,4,18,1,1,3
scherma01,Max Scherzer,14,8,43,27,1,1,1,584,159,70,24,49,222,2,6,5,1,786,5,73,6,4,9
schugaj01,A. J. Schugel,3,3,27,4,0,0,1,157,50,24,6,17,46,1,2,2,0,220,7,27,1,1,5
schulbo02,Bo Schultz,2,2,20,3,0,0,1,111,35,18,5,12,31,1,1,1,0,157,6,19,1,1,3
schuspa01,Patrick Schuster,1,2,13,3,0,0,1,79,26,14,4,10,24,1,1,1,0,114,3,15,1,1,2
scottro02,Robby Scott,2,2,14,3,0,0,1,85,27,13,3,10,25,1,1,1,0,120,3,14,1,1,2
scribev01,Evan Scribner,2,2,22,3,0,0,1,113,35,16,5,10,36,1,1,2,0,156,5,18,1,1,3
severlu01,Luis Severino,5,6,32,12,0,0,1,262,86,43,12,30,79,1,4,3,0,373,6,46,1,1,8
shawbr01,Bryan Shaw,3,4,50,4,0,0,2,194,59,26,8,23,59,2,3,2,0,271,10,28,2,1,6
shielja02,James Shields,7,8,35,21,0,0,1,404,138,68,23,50,118,2,6,6,1,585,4,73,3,3,11
shiplbr01,Braden Shipley,5,6,34,12,0,0,2,275,95,46,14,33,74,2,3,3,0,394,6,49,2,3,11
shoemma01,Matt Shoemaker,9,10,41,23,0,0,1,458,152,68,20,38,136,2,4,6,0,639,6,71,3,5,10
shrevch01,Chasen Shreve,3,2,32,4,0,0,1,144,45,22,7,19,46,1,2,2,0,204,8,23,1,1,3
siegrke01,Kevin Siegrist,5,3,48,4,0,0,3,191,55,25,8,25,64,2,3,2,0,268,9,27,1,2,4
simmosh01,Shae Simmons,2,2,15,3,0,0,1,86,27,13,3,10,26,1,1,1,0,121,3,14,1,1,3
simonal01,Alfredo Simon,6,6,27,14,0,0,1,290,104,55,14,36,71,2,5,6,0,426,4,58,3,3,8
sippto01,Tony Sipp,3,3,40,3,0,0,1,154,49,22,8,18,50,1,2,2,0,218,9,24,1,1,4
skaggty01,Tyler Skaggs,5,5,30,12,0,0,1,259,85,40,10,31,78,1,3,3,0,368,6,43,2,3,7
smithbl01,Blake Smith,1,1,13,3,0,0,1,81,27,13,4,9,24,1,1,1,0,116,3,14,1,1,2
smithca02,Carson Smith,2,2,20,3,0,0,2,101,30,13,3,11,34,1,2,2,0,141,5,15,1,1,3
smithch07,Chris Smith,2,2,17,4,0,0,1,110,33,16,4,14,34,1,1,1,0,155,5,18,1,1,3
smithja06,Jake Smith,2,1,13,3,0,0,1,82,27,13,4,9,25,1,1,1,0,116,3,14,1,1,2
smithjo05,Joe Smith,2,2,26,3,0,0,2,115,35,16,4,12,35,1,1,2,0,159,6,17,1,1,3
smithjo07,Josh Smith,3,4,28,6,0,0,1,180,60,31,9,24,53,2,2,3,0,261,6,33,1,2,4
smithwi04,Will Smith,3,2,31,3,0,0,1,122,38,17,4,15,44,1,2,1,0,173,5,19,1,1,3
smokejo01,Josh Smoker,2,2,18,3,0,0,1,98,32,15,5,11,32,1,1,1,0,139,4,17,1,1,3
smylydr01,Drew Smyly,8,9,43,23,0,0,2,466,148,74,24,47,148,2,8,3,0,651,6,79,4,6,10
snellbl01,Blake Snell,6,7,39,16,0,0,2,321,107,47,11,46,105,1,6,2,1,466,7,53,2,3,9
socolmi01,Miguel Socolovich,2,2,20,3,0,0,1,110,33,15,4,12,33,1,1,1,0,154,6,16,1,1,2
solissa01,Sammy Solis,3,3,28,4,0,0,1,143,45,20,5,18,45,2,2,2,0,203,7,22,2,1,4
somsela01,Layne Somsen,1,1,12,3,0,0,1,79,26,13,4,9,24,1,1,1,0,113,3,14,1,1,2
soriajo01,Joakim Soria,3,4,42,4,0,0,2,181,60,27,8,21,57,1,3,2,1,258,10,29,2,2,4
stephro01,Robert Stephenson,5,5,33,11,0,0,2,243,81,41,12,31,72,2,4,4,1,350,7,44,2,2,7
stewabr01,Brock Stewart,4,4,28,8,0,0,2,195,66,32,10,23,59,2,2,2,0,280,6,34,2,2,5
storedr01,Drew Storen,2,2,27,3,0,0,5,119,36,16,4,12,37,1,2,2,0,166,8,18,1,1,3
strahma01,Matt Strahm,2,2,19,4,0,0,1,110,34,15,4,13,35,1,2,1,0,155,4,17,1,1,3
straida01,Dan Straily,10,7,46,22,0,0,2,463,137,70,23,58,134,3,4,8,1,650,7,73,4,3,10
strasst01,Stephen Strasburg,12,7,38,22,0,0,1,440,131,60,17,41,163,2,4,4,0,605,5,64,5,2,9
stratch01,Chris Stratton,2,2,14,3,0,0,1,91,30,14,4,11,27,1,1,1,0,129,4,15,1,1,3
streehu01,Huston Street,3,2,28,3,0,0,9,125,41,19,5,15,37,2,2,1,0,178,15,20,1,1,3
strichu01,Hunter Strickland,3,3,45,4,0,0,2,182,54,24,6,19,56,2,2,2,0,251,10,26,1,2,4
stripro01,Ross Stripling,5,7,35,12,0,0,2,294,95,44,11,32,82,2,5,3,0,414,8,47,3,2,8
stromma01,Marcus Stroman,10,8,45,24,0,0,2,503,166,76,18,48,141,1,8,5,1,702,6,81,2,3,17
stroppe01,Pedro Strop,3,3,41,3,0,0,1,165,44,22,6,20,57,2,4,3,0,227,8,24,1,2,4
stumpda01,Daniel Stumpf,2,2,14,3,0,0,1,84,28,14,4,10,25,1,1,1,0,120,3,15,1,1,2
sturdty01,Tyler Sturdevant,2,2,17,3,0,0,1,102,33,16,4,12,30,1,1,1,0,144,4,17,1,1,3
suareal01,Albert Suarez,4,5,33,11,0,0,2,260,85,41,11,29,70,3,3,4,0,368,6,43,3,3,8
surkaer01,Eric Surkamp,4,5,36,10,0,0,2,238,85,43,12,31,66,3,3,5,0,353,6,46,2,3,7
suterbr01,Brent Suter,3,2,20,5,0,0,1,123,41,19,5,14,36,1,2,2,0,175,5,20,1,1,3
swarzan01,Anthony Swarzak,2,2,23,3,0,0,1,124,42,20,6,13,36,1,1,1,0,176,5,22,1,1,4
syndeno01,Noah Syndergaard,11,9,45,25,0,0,2,509,156,62,17,45,182,3,8,4,1,698,6,69,4,4,13
taillja01,Jameson Taillon,6,6,38,16,0,0,2,342,110,49,14,31,99,2,3,4,1,474,7,51,3,2,11
tanakma01,Masahiro Tanaka,12,7,42,25,1,0,1,526,158,67,22,39,155,1,6,4,0,714,5,74,3,5,11
tazawju01,Junichi Tazawa,3,3,40,4,0,0,1,166,55,25,7,17,53,1,4,2,0,234,7,26,1,1,4
teherju01,Julio Teheran,9,9,42,26,1,1,1,532,160,71,22,51,155,3,5,7,1,732,5,77,6,3,12
teperry01,Ryan Tepera,2,2,22,3,0,0,1,112,35,16,5,13,33,1,2,2,0,159,7,18,1,1,3
tepesni01,Nick Tepesch,3,4,24,8,0,0,1,186,62,30,8,21,49,1,2,3,0,265,5,32,1,2,5
thompja03,Jake Thompson,5,6,34,12,0,0,2,270,88,46,13,35,74,2,5,4,0,387,7,48,2,3,10
thornma01,Matt Thornton,2,2,25,3,0,0,1,109,35,16,4,12,30,1,1,1,0,155,6,17,1,1,4
thornty01,Tyler Thornburg,4,4,40,4,0,0,4,186,53,25,7,23,64,1,3,2,0,259,12,28,1,2,4
tillmch01,Chris Tillman,12,8,42,26,0,0,1,490,155,75,19,59,130,2,7,6,0,689,5,77,3,5,15
tollesh01,Shawn Tolleson,3,3,35,3,0,0,8,151,51,24,7,16,46,2,2,1,0,215,15,26,1,1,4
tollias01,Ashur Tolliver,2,1,13,3,0,0,1,82,27,13,4,10,25,1,1,1,0,117,3,14,1,1,2
tomlijo01,Josh Tomlin,11,8,42,22,1,0,1,452,151,70,26,30,120,2,5,4,0,628,7,78,3,3,8
tonkimi01,Michael Tonkin,3,3,42,4,0,0,1,191,65,31,9,22,61,1,3,3,0,274,13,34,2,1,5
torreca01,Carlos Torres,4,4,48,4,0,0,2,212,66,29,8,25,65,3,3,2,0,297,11,31,2,2,6
torrejo02,Jose Torres,2,1,13,3,0,0,1,82,27,12,3,10,25,1,1,1,0,116,3,13,1,1,2
treinbl01,Blake Treinen,3,3,44,4,0,0,1,196,60,26,6,25,59,3,2,2,0,271,11,28,1,2,10
triggan01,Andrew Triggs,3,3,28,7,0,0,1,187,61,29,7,19,57,1,2,3,0,265,7,32,1,2,5
tropeni01,Nick Tropeano,5,5,35,14,0,0,2,297,99,44,14,37,92,2,4,3,0,424,6,47,2,3,7
tsaoch01,Chin-hui Tsao,2,2,12,3,0,0,1,78,26,13,4,9,23,1,1,1,0,112,3,14,1,1,2
tuivasa01,Sam Tuivailala,2,2,17,3,0,0,1,95,32,15,4,12,29,1,2,1,0,137,4,16,1,1,3
turneja01,Jacob Turner,2,3,20,5,0,0,1,126,44,22,6,16,36,1,2,2,0,183,5,25,1,1,4
ueharko01,Koji Uehara,3,3,35,3,0,0,8,151,44,21,7,15,53,1,2,2,0,208,15,22,1,1,3
urenajo01,Jose Urena,4,7,36,11,0,0,2,269,93,49,11,32,69,3,2,4,0,390,7,52,3,4,8
uriasju01,Julio Urias,6,4,37,14,0,0,2,291,97,42,10,36,94,1,4,4,0,417,7,46,3,2,8
valdejo03,Jose Valdez,2,3,21,4,0,0,1,114,36,18,5,15,34,1,2,1,0,162,5,19,1,1,3
vargace01,Cesar Vargas,4,5,32,10,0,0,2,235,80,38,10,29,69,2,3,3,0,338,7,40,1,3,7
vargaja01,Jason Vargas,4,4,24,10,0,0,1,208,69,30,8,21,56,1,2,2,0,293,4,32,1,1,6
velasvi01,Vince Velasquez,7,6,44,19,1,0,2,403,130,62,18,47,138,2,5,3,0,567,8,67,5,4,12
vendipa01,Pat Venditte,2,2,18,3,0,0,1,103,33,17,5,13,30,1,1,1,0,146,5,18,1,1,3
ventuyo01,Yordano Ventura,11,10,44,27,1,0,1,517,169,79,19,65,149,2,10,7,1,742,5,83,3,4,15
verhadr01,Drew VerHagen,2,2,20,3,0,0,1,113,38,18,5,14,31,1,2,1,0,161,4,19,1,1,4
verlaju01,Justin Verlander,11,9,43,26,1,0,1,553,160,74,22,52,178,2,5,6,0,756,5,79,3,6,11
verrelo01,Logan Verrett,4,6,37,10,0,0,2,263,86,43,13,34,74,3,3,4,0,375,9,46,3,3,8
villaca01,Carlos Villanueva,3,3,36,4,0,0,2,201,69,34,10,20,59,2,2,3,0,286,11,35,2,2,5
vinceni01,Nick Vincent,3,3,40,4,0,0,2,171,54,25,7,18,55,2,2,2,0,240,9,27,1,1,5
vizcaar01,Arodys Vizcaino,3,3,32,4,0,0,5,145,46,21,5,20,48,2,3,1,0,209,14,24,1,1,4
vogelry01,Ryan Vogelsong,5,7,31,14,0,0,1,290,96,47,12,38,80,2,3,4,0,420,5,52,4,2,8
volqued01,Edinson Volquez,10,9,43,27,0,0,1,516,175,82,19,64,136,2,6,7,0,746,5,91,6,5,15
wachami01,Michael Wacha,9,7,39,22,0,0,1,437,146,67,16,48,125,4,5,4,0,624,5,73,4,4,11
wagnety01,Tyler Wagner,2,2,14,4,0,0,1,96,32,15,4,11,27,1,1,1,0,137,3,16,1,1,3
wainwad01,Adam Wainwright,11,8,41,23,1,1,1,476,159,70,16,46,132,3,3,5,0,666,6,75,6,5,18
walketa01,Taijuan Walker,9,9,41,23,1,0,1,443,142,70,23,44,133,2,5,7,1,625,6,78,3,4,10
wangch01,Chien-Ming Wang,4,2,27,4,0,0,1,151,51,23,6,17,41,1,2,2,0,216,10,25,1,1,4
warread01,Adam Warren,3,3,27,5,0,0,1,159,49,22,6,17,46,1,3,2,0,222,5,24,1,1,5
watsoto01,Tony Watson,4,3,49,4,0,0,5,197,57,24,7,20,59,1,2,3,0,270,11,26,2,2,7
weaveje02,Jered Weaver,10,10,41,25,1,1,1,486,170,81,26,47,113,2,3,6,1,689,5,85,3,4,13
weavelu01,Luke Weaver,4,5,32,10,0,0,2,230,79,38,11,26,74,1,3,3,0,331,6,43,2,3,6
webbda01,Daniel Webb,2,1,16,2,0,0,1,86,29,14,3,12,25,1,2,1,0,125,4,15,1,1,3
webbry01,Ryan Webb,2,2,23,3,0,0,1,116,39,17,4,12,32,1,2,1,0,163,6,19,1,1,4
weberry01,Ryan Weber,2,3,22,6,0,0,1,153,52,25,7,15,42,1,2,2,0,216,5,27,1,1,5
wendejb01,J. B. Wendelken,2,2,15,3,0,0,1,97,33,17,4,12,29,1,2,1,0,140,4,18,1,1,3
whalero01,Robert Whalen,4,4,31,10,0,0,2,225,71,38,10,27,69,1,3,4,0,321,7,41,2,2,6
whitlch01,Chase Whitley,2,2,17,5,0,0,1,124,42,19,5,13,37,1,2,2,0,177,3,21,1,1,3
wielajo01,Joe Wieland,3,4,28,8,0,0,2,192,65,33,9,22,56,2,2,2,0,275,6,35,1,2,5
wilheto01,Tom Wilhelmsen,2,2,27,3,0,0,3,129,39,18,5,17,38,1,2,1,0,181,7,19,1,1,4
willije02,Jerome Williams,2,3,17,6,0,0,1,134,49,23,7,14,34,1,1,2,0,196,4,26,1,1,5
willitr01,Trevor Williams,2,2,17,4,0,0,1,112,38,18,5,13,33,1,1,1,0,160,4,20,1,1,3
wilsoal01,Alex Wilson,4,2,43,4,0,0,1,204,64,26,7,20,52,2,2,2,0,281,8,28,1,3,7
wilsoju10,Justin Wilson,4,3,47,4,0,0,1,181,57,27,6,21,59,2,3,2,0,254,7,29,1,1,6
wilsoty01,Tyler Wilson,5,6,35,12,0,0,1,285,100,48,12,29,70,2,3,4,0,409,8,50,2,3,9
wimmeal01,Alex Wimmers,2,2,17,3,0,0,1,101,32,16,4,13,30,1,1,1,0,143,4,17,1,1,3
winklda01,Dan Winkler,1,1,13,3,0,0,1,80,26,12,4,9,24,1,1,1,0,113,3,13,1,1,2
wislema01,Matt Wisler,8,11,43,22,0,0,2,454,154,78,22,51,119,4,5,5,1,650,6,82,3,4,13
withrch01,Chris Withrow,3,2,28,4,0,0,1,132,40,20,6,17,39,1,2,2,0,187,5,21,1,1,4
wittgni01,Nick Wittgren,3,3,30,4,0,0,1,155,50,22,6,16,45,1,2,2,0,218,6,24,2,2,4
woodal02,Alex Wood,5,6,29,12,0,0,1,266,84,38,10,29,82,1,4,3,0,372,5,42,2,2,8
woodbl01,Blake Wood,4,4,39,5,0,0,1,188,60,29,8,25,60,2,4,2,0,269,11,31,1,2,6
woodtr01,Travis Wood,4,3,38,6,0,0,1,196,61,29,8,25,60,2,2,2,0,278,8,33,2,1,4
worleva01,Vance Worley,4,4,31,8,0,0,1,238,79,34,9,27,61,1,3,3,0,336,8,37,2,2,9
wrighda04,Daniel Wright,4,5,31,9,0,0,2,224,75,36,10,24,63,1,3,5,0,319,7,39,2,2,7
wrighmi01,Mike Wright,5,6,34,13,0,0,1,274,94,50,13,32,72,2,3,7,0,396,7,53,2,4,9
wrighst01,Steven Wright,10,7,41,19,2,0,2,432,133,60,16,51,121,2,7,6,0,608,7,70,2,3,12
yateski01,Kirby Yates,2,2,30,4,0,0,1,143,47,24,7,18,47,1,2,3,0,205,8,26,1,1,3
ynoaga01,Gabriel Ynoa,3,2,22,5,0,0,1,138,47,23,5,16,42,1,2,2,0,199,5,24,1,2,4
ynoami01,Michael Ynoa,2,2,21,4,0,0,1,122,37,18,4,16,37,1,2,2,0,175,5,19,1,1,3
youngch03,Chris Young,6,6,33,13,0,0,1,277,88,45,17,35,79,1,4,2,0,396,6,47,2,3,4
youngma03,Madison Younginer,2,2,14,3,0,0,1,87,29,14,4,10,26,1,1,1,0,124,3,15,1,1,2
zastrro01,Rob Zastryzny,2,2,18,4,0,0,1,115,36,16,4,13,35,1,1,2,0,162,4,18,1,1,3
zieglbr01,Brad Ziegler,2,3,31,3,0,0,5,136,41,17,4,15,38,2,2,2,0,189,12,19,1,1,5
zimmejo02,Jordan Zimmermann,9,7,34,19,0,0,1,391,132,57,15,32,106,1,3,4,0,545,5,63,3,3,10
zychto01,Tony Zych,2,2,17,3,0,0,1,102,32,15,4,12,34,1,1,2,0,145,4,16,1,1,3
