playerID,playerName,W,L,G,GS,CG,SHO,SV,IPouts,H,ER,HR,BB,SO,IBB,WP,HBP,BK,BFP,GF,R,SH,SF,GIDP
adamja01,Jason Adam,2,3,23,4,0,0,1,124,39,21,6,16,41,1,2,2,0,177,7,22,1,1,3
adamsau02,Austin Adams,1,1,13,3,0,0,1,78,24,12,3,11,25,1,1,1,0,113,3,13,0,1,2
adamsch01,Chance Adams,2,2,20,5,0,0,1,124,39,20,6,15,38,1,2,2,0,177,4,21,1,1,4
alberma01,Matt Albers,3,3,33,3,0,0,1,142,45,23,7,16,44,1,2,2,0,201,9,25,1,2,5
alcansa01,Sandy Alcantara,4,5,35,10,0,0,2,241,72,36,10,34,76,1,3,4,0,342,7,38,2,3,6
alcanvi01,Victor Alcantara,2,2,23,4,0,0,1,124,39,18,6,14,37,1,2,2,0,175,6,19,1,1,3
alexasc01,Scott Alexander,3,3,46,4,0,0,2,196,60,27,6,25,59,1,3,2,0,272,7,29,1,1,9
allarko01,Kolby Allard,3,3,20,5,0,0,1,127,43,21,6,16,39,1,2,2,0,184,4,23,1,1,3
allenco01,Cody Allen,4,5,48,4,0,0,14,195,57,28,9,25,71,1,4,3,0,274,27,30,1,1,5
almonmi01,Miguel Almonte,2,2,15,3,0,0,1,88,28,15,4,11,27,1,1,1,0,125,4,16,1,1,2
almonye01,Yency Almonte,2,2,17,3,0,0,1,99,31,14,4,12,31,1,1,1,0,140,4,16,1,1,3
altavda01,Dan Altavilla,2,2,25,3,0,0,1,121,36,18,5,16,40,1,3,2,0,172,6,19,1,1,3
alvarjo02,Jose Alvarez,3,4,50,4,0,0,1,184,57,25,6,20,57,2,2,2,0,259,8,27,1,1,5
alvarjo03,Jose Alvarado,2,4,44,4,0,0,3,185,52,25,5,24,64,2,3,2,0,259,10,27,2,2,4
anderbr04,Brett Anderson,6,6,37,16,0,0,2,309,107,51,13,29,82,1,4,3,0,435,6,54,2,2,10
anderch01,Chase Anderson,10,8,42,25,0,0,1,455,133,64,23,52,133,1,3,7,0,629,5,68,4,3,12
anderdr02,Drew Anderson,2,2,19,4,0,0,1,118,39,19,5,14,37,1,2,2,0,170,4,21,1,1,3
anderju01,Justin Anderson,3,3,34,4,0,0,2,160,47,24,6,25,54,2,4,3,0,228,7,26,1,1,5
anderta01,Tanner Anderson,2,2,15,3,0,0,1,94,30,15,4,12,29,1,2,1,0,134,3,16,1,1,3
anderty01,Tyler Anderson,8,9,44,24,0,0,1,468,150,75,24,52,146,2,8,4,2,657,6,80,4,5,13
andrima01,Matt Andriese,2,3,18,6,0,0,1,136,46,23,7,15,42,1,2,2,1,195,4,25,0,1,4
aranovi01,Victor Arano,3,3,37,4,0,0,2,172,53,23,7,19,56,2,2,2,0,242,8,25,1,2,4
araujpe01,Pedro Araujo,2,3,20,4,0,0,1,119,38,21,6,16,38,1,2,2,0,171,5,22,1,1,3
archech01,Chris Archer,6,7,30,16,0,0,1,317,100,48,14,35,117,2,6,3,0,449,4,53,2,2,8
armstsh01,Shawn Armstrong,2,2,19,3,0,0,1,104,32,15,4,12,33,1,1,2,0,147,5,16,1,1,2
arrieja01,Jake Arrieta,11,9,42,25,0,0,1,484,145,68,20,56,145,2,10,7,0,675,5,79,2,5,15
asheral01,Alec Asher,2,2,15,4,0,0,1,98,31,15,4,12,29,1,1,2,0,140,3,16,1,1,3
avilalu01,Luis Avilan,2,2,23,3,0,0,1,97,30,14,4,13,32,1,1,1,0,137,3,15,1,1,2
axforjo01,John Axford,2,2,17,3,0,0,1,85,28,14,3,12,27,1,1,1,0,124,4,15,1,1,2
baezpe01,Pedro Baez,3,3,43,4,0,0,1,178,52,23,7,22,59,1,2,2,1,251,7,25,1,1,4
baezsa01,Sandy Baez,2,2,16,3,0,0,1,98,30,15,4,13,30,1,1,2,0,140,3,17,1,1,3
baileho02,Homer Bailey,5,11,39,19,0,0,1,362,138,71,19,44,100,5,4,5,1,540,6,77,4,3,8
bandaan01,Anthony Banda,3,3,21,5,0,0,1,142,44,22,5,17,44,1,2,2,0,201,4,24,1,1,4
barbajo01,Johnny Barbato,2,2,17,3,0,0,1,95,30,16,4,13,29,1,2,2,0,137,5,17,1,1,2
bardlu01,Luke Bard,2,2,15,3,0,0,1,92,29,14,4,11,30,1,1,2,0,132,4,15,1,1,2
barlosc01,Scott Barlow,2,2,15,3,0,0,1,99,31,15,4,11,31,1,1,1,0,140,4,16,1,1,2
barneda02,Danny Barnes,3,3,36,4,0,0,1,156,49,25,7,20,49,1,2,2,0,222,7,26,1,1,4
barneja01,Jacob Barnes,2,3,40,4,0,0,2,170,53,24,6,22,56,2,3,2,0,242,9,27,1,2,5
barnema01,Matt Barnes,5,3,45,4,0,0,1,188,55,28,7,26,71,1,4,2,0,266,9,29,1,2,4
barneto01,Tony Barnette,3,2,27,3,0,0,1,129,40,19,5,14,41,1,2,2,0,181,5,21,1,2,4
barraky01,Kyle Barraclough,3,4,44,4,0,0,3,178,50,25,7,28,63,2,4,3,0,255,11,27,2,2,4
barreja01,Jake Barrett,2,2,19,3,0,0,1,94,29,15,4,12,30,1,2,1,0,134,5,16,0,1,3
barrija01,Jaime Barria,9,8,44,20,0,0,2,387,119,54,17,47,111,1,4,6,1,543,7,57,1,2,12
bashlty01,Tyler Bashlor,2,3,22,4,0,0,1,125,38,19,6,15,38,1,2,2,0,177,5,21,1,1,3
bassan01,Anthony Bass,2,2,17,3,0,0,1,99,33,16,4,11,30,1,2,1,0,140,4,17,1,1,3
bassich01,Chris Bassitt,4,4,29,9,0,0,1,213,66,31,8,27,65,1,3,4,0,303,5,35,1,1,5
bauertr01,Trevor Bauer,12,7,43,24,0,0,2,495,148,64,17,57,180,2,7,7,0,692,6,69,3,4,11
baumabu01,Buddy Baumann,2,2,16,3,0,0,1,84,26,14,4,11,27,1,1,2,0,120,3,14,0,1,2
bautige01,Gerson Bautista,2,2,14,3,0,0,1,84,27,14,4,11,26,1,1,1,0,120,4,15,1,1,2
beckch02,Chris Beck,2,2,22,3,0,0,1,110,36,19,6,16,31,1,1,2,0,159,4,20,1,1,4
bedroca01,Cam Bedrosian,4,4,46,4,0,0,2,186,58,27,7,23,60,1,3,2,0,262,8,30,1,1,7
beedety01,Tyler Beede,3,4,30,8,0,0,2,195,62,31,8,26,62,1,3,3,0,279,6,33,1,2,5
beeksja01,Jalen Beeks,3,2,20,4,0,0,1,144,45,22,6,18,44,1,2,2,0,204,4,24,1,1,5
belisma01,Matt Belisle,2,2,28,3,0,0,2,125,41,21,5,15,38,2,2,2,0,178,8,23,1,1,4
belivje01,Jeff Beliveau,2,2,16,3,0,0,1,86,28,14,4,11,27,1,1,1,0,123,4,16,1,1,2
bellch02,Chad Bell,1,2,16,3,0,0,1,104,37,19,5,13,33,1,1,2,0,152,3,20,0,1,4
bergmch01,Christian Bergman,3,4,25,7,0,0,1,181,60,31,10,20,51,1,2,2,0,257,5,32,2,2,6
berrijo01,Jose Berrios,12,10,47,27,1,0,1,524,157,80,22,60,173,2,5,11,0,738,6,85,3,4,13
betande01,Dellin Betances,4,5,47,4,0,0,4,192,50,25,7,27,84,1,4,4,1,269,12,27,2,1,4
bettich01,Chad Bettis,6,5,36,17,0,0,1,346,116,59,16,41,91,2,4,5,0,496,5,64,5,3,9
biagijo01,Joe Biagini,4,6,40,8,0,0,1,227,80,40,10,26,65,1,5,4,0,329,7,43,1,2,7
bibenau01,Austin Bibens-Dirkx,4,4,29,8,0,0,1,209,71,36,11,23,57,1,3,4,0,300,7,38,1,2,6
biddlje01,Jesse Biddle,4,2,35,5,0,0,1,172,51,24,7,23,56,2,2,3,0,242,8,27,1,1,5
biebesh01,Shane Bieber,9,6,41,16,0,0,2,357,122,57,14,34,117,1,5,4,0,505,7,60,1,4,9
blachty01,Ty Blach,6,7,41,14,0,0,1,331,114,53,11,36,77,2,3,2,1,470,9,57,5,2,13
blackpa01,Paul Blackburn,5,4,31,11,0,0,1,243,80,39,9,26,65,1,3,3,0,342,6,42,1,2,7
blackra01,Ray Black,2,2,21,4,0,0,1,110,33,18,5,14,37,1,2,2,0,155,4,19,1,1,3
bleicje01,Jeremy Bleich,1,1,12,3,0,0,1,75,24,12,3,9,24,1,1,1,0,106,3,13,0,1,2
bleieri01,Richard Bleier,3,2,30,3,0,0,1,142,46,17,5,14,36,1,2,2,0,198,6,20,1,2,5
blevije01,Jerry Blevins,4,2,45,4,0,0,1,152,46,23,6,21,52,1,2,3,0,218,6,24,1,1,3
borucry01,Ryan Borucki,6,6,39,15,0,0,2,334,106,50,12,39,94,3,4,4,0,473,7,55,3,3,11
bowmama01,Matthew Bowman,2,3,30,3,0,0,1,128,41,20,5,15,39,2,1,2,0,182,6,22,1,2,4
boxbebr01,Brad Boxberger,4,5,38,4,0,0,9,163,49,25,7,24,58,2,2,2,0,233,16,27,1,1,4
boydma01,Matt Boyd,8,11,45,26,0,0,1,479,153,80,23,54,145,2,5,8,1,680,5,84,2,6,10
boyerbl01,Blaine Boyer,2,2,24,3,0,0,1,117,41,21,5,14,32,2,1,1,0,169,6,23,1,2,4
brachbr01,Brad Brach,3,3,30,3,0,0,3,129,38,16,5,16,42,1,2,1,0,181,9,19,1,1,3
brachsi01,Silvino Bracho,2,2,27,4,0,0,1,129,40,20,6,16,42,1,2,2,0,183,7,22,1,1,3
bradfch02,Chase Bradford,4,2,33,4,0,0,1,165,52,24,7,19,48,1,2,3,0,235,9,26,1,2,4
bradlar01,Archie Bradley,4,4,43,6,0,0,2,207,63,29,8,24,69,2,2,3,1,291,7,31,1,2,5
brasiry01,Ryan Brasier,2,2,24,4,0,0,1,124,36,17,5,14,39,1,2,1,0,172,5,18,1,2,3
braulst01,Steven Brault,4,4,36,8,0,0,1,237,77,38,9,36,71,2,5,5,0,348,6,42,2,2,7
brebbjo01,John Brebbia,3,3,36,4,0,0,1,166,49,23,7,18,56,2,2,2,0,233,10,24,1,1,3
breweco01,Colten Brewer,2,2,16,3,0,0,1,91,29,14,4,12,29,1,1,1,0,130,4,16,1,1,3
briceau01,Austin Brice,2,3,28,4,0,0,1,142,45,24,7,16,43,2,2,3,0,202,6,26,1,1,4
bridwpa01,Parker Bridwell,3,2,18,6,0,0,1,143,47,23,8,15,39,1,2,2,0,201,3,25,1,1,4
brighje01,Jeff Brigham,4,5,31,9,0,0,2,207,65,33,9,28,64,1,3,4,0,296,6,35,1,3,6
brittza01,Zack Britton,2,2,27,3,0,0,6,123,36,16,4,15,38,1,3,2,0,172,13,17,1,1,4
brookaa01,Aaron Brooks,1,1,13,3,0,0,1,79,24,12,3,10,25,1,1,1,0,112,3,13,0,1,2
brothre01,Rex Brothers,2,2,15,3,0,0,1,81,25,13,3,10,27,1,1,1,0,116,3,14,0,1,2
buchhcl01,Clay Buchholz,7,5,36,15,0,0,1,324,99,44,13,34,92,2,3,4,0,451,6,47,1,4,10
buchtry01,Ryan Buchter,3,2,35,3,0,0,1,141,40,19,5,17,45,1,2,2,0,196,6,21,1,1,3
buehlwa01,Walker Buehler,8,6,44,18,0,0,2,394,108,51,14,43,135,2,5,6,0,539,7,54,2,3,8
bumgama01,Madison Bumgarner,7,8,36,19,1,0,1,407,122,52,17,40,127,3,3,5,1,566,5,56,3,3,9
bummeaa01,Aaron Bummer,2,3,29,4,0,0,1,131,42,20,5,16,42,1,3,2,0,188,6,22,1,1,4
bundydy01,Dylan Bundy,10,11,46,25,1,0,1,494,163,85,29,54,162,2,4,7,1,703,6,92,2,4,14
burdini01,Nick Burdi,1,1,13,3,0,0,1,78,25,12,3,10,25,1,1,1,0,112,3,13,0,1,2
burneco01,Corbin Burnes,4,2,24,4,0,0,1,135,40,19,6,15,42,1,2,2,0,189,5,20,1,1,4
burrry01,Ryan Burr,2,2,15,3,0,0,1,92,29,15,4,11,28,1,1,1,0,130,3,16,1,1,3
busenal01,Alan Busenitz,3,2,24,4,0,0,1,122,40,20,6,15,38,1,2,2,0,175,6,22,1,2,3
bushma01,Matt Bush,2,2,27,3,0,0,2,124,39,18,5,15,40,1,2,2,0,178,8,20,1,1,3
butleed01,Eddie Butler,2,3,21,5,0,0,1,140,48,24,7,18,38,1,3,2,0,204,4,26,1,2,4
buttrty01,Ty Buttrey,2,2,18,3,0,0,2,101,32,15,4,12,33,1,1,1,0,144,4,16,1,1,2
cahiltr01,Trevor Cahill,7,5,44,15,0,0,1,345,104,52,14,47,106,2,6,5,0,487,8,57,3,3,10
carlesh01,Shane Carle,3,2,34,4,0,0,1,172,52,24,6,21,50,3,2,2,0,241,7,26,1,2,6
carpery01,Ryan Carpenter,4,4,29,8,0,0,1,196,66,33,10,22,59,1,2,4,0,282,6,35,1,2,5
carraca01,Carlos Carrasco,14,8,43,25,1,0,1,517,156,68,20,45,189,3,8,7,0,707,5,73,3,5,13
carroco01,Cody Carroll,2,2,18,3,0,0,1,102,33,17,5,14,32,1,2,1,0,147,4,19,1,1,3
cashnan01,Andrew Cashner,7,11,42,24,0,0,1,454,155,74,20,60,109,2,7,6,0,655,5,82,2,4,15
castidi01,Diego Castillo,4,3,36,9,0,0,1,191,54,27,8,22,64,1,4,3,0,265,6,29,1,1,4
castijo03,Jose Castillo,3,3,27,4,0,0,1,137,40,20,5,16,47,1,2,2,0,191,5,21,1,1,3
castilu02,Luis Castillo,8,10,45,24,0,0,2,467,140,70,22,51,153,2,5,6,1,650,6,76,4,5,12
castrmi01,Miguel Castro,3,5,45,5,0,0,1,231,69,34,9,34,61,4,5,4,1,329,10,37,1,3,8
cecilbr01,Brett Cecil,2,3,36,3,0,0,1,142,47,23,6,18,44,2,2,1,0,204,7,25,1,2,4
cedenxa01,Xavier Cedeno,2,2,19,3,0,0,1,87,27,13,4,11,27,1,1,1,0,124,3,14,1,1,2
cessalu01,Luis Cessa,3,4,26,7,0,0,2,188,61,31,9,21,56,1,4,2,0,267,6,33,1,1,4
chacijh01,Jhoulys Chacin,12,9,47,27,0,0,1,520,152,74,18,65,148,4,6,10,1,730,6,80,5,7,13
chafian01,Andrew Chafin,2,3,48,4,0,0,1,164,50,24,5,22,56,1,2,2,0,234,8,25,1,2,4
chapmar01,Aroldis Chapman,3,2,39,4,0,0,13,166,44,22,5,23,68,1,5,3,0,232,22,23,1,1,3
chargjt01,J. T. Chargois,2,3,26,4,0,0,1,124,38,18,5,16,41,1,2,2,0,175,5,20,1,1,3
chatwty01,Tyler Chatwood,6,8,37,19,0,0,1,361,111,61,14,67,103,2,7,5,1,526,6,64,3,3,15
chaveje01,Jesse Chavez,3,3,27,6,0,0,2,171,54,26,8,18,53,1,1,2,0,238,6,27,1,1,5
chenwe02,Wei-Yin Chen,6,8,40,20,0,0,1,384,123,63,18,42,112,3,4,3,1,543,6,67,3,5,8
chiriyo01,Yonny Chirinos,5,5,31,9,0,0,1,255,80,37,9,28,77,2,4,4,0,357,6,40,2,4,9
cimbead01,Adam Cimber,2,2,21,4,0,0,1,105,34,16,5,13,31,2,2,2,0,150,4,17,1,1,4
cingrto01,Tony Cingrani,2,2,26,3,0,0,2,114,35,17,4,14,39,1,2,2,1,161,6,19,1,1,3
cishest01,Steve Cishek,4,3,46,4,0,0,4,186,50,22,6,22,63,2,3,4,0,257,10,24,1,1,4
claudal01,Alex Claudio,4,3,47,4,0,0,3,206,71,29,6,19,55,2,1,3,1,290,16,31,2,2,8
clevimi01,Mike Clevinger,12,8,48,26,0,0,1,516,146,66,20,65,176,2,5,5,0,713,6,71,1,2,12
clippty01,Tyler Clippard,3,3,43,5,0,0,3,181,54,27,9,22,63,1,4,2,0,255,12,29,1,2,3
cloydty01,Tyler Cloyd,2,2,16,3,0,0,1,101,33,17,4,13,31,1,1,2,0,145,4,18,1,1,3
cobbal01,Alex Cobb,8,11,42,24,0,0,1,458,157,74,21,46,119,3,6,5,1,650,5,81,2,4,14
coleaj01,A. J. Cole,3,3,23,5,0,0,1,149,48,23,8,20,49,1,2,2,0,215,6,25,1,1,3
colege01,Gerrit Cole,12,8,45,27,1,0,1,541,158,73,21,57,201,2,7,6,0,747,5,78,3,3,13
colemlo01,Louis Coleman,3,2,33,4,0,0,1,150,46,22,6,20,46,1,2,3,0,213,7,24,1,2,5
coleta01,Taylor Cole,3,3,23,5,0,0,1,141,41,21,6,17,46,1,2,3,0,195,5,22,1,1,5
colliti01,Tim Collins,2,2,23,4,0,0,1,109,34,17,5,14,34,1,2,1,0,154,4,18,1,1,3
colomal01,Alex Colome,3,2,38,4,0,0,10,164,48,21,6,18,53,2,3,3,0,228,15,23,1,2,5
colonba01,Bartolo Colon,7,8,37,20,1,0,1,388,140,68,22,31,92,1,3,3,0,550,5,72,2,4,8
conlead01,Adam Conley,4,4,28,8,0,0,1,182,57,30,8,23,54,2,3,3,0,260,4,33,2,2,6
conlopj01,P. J. Conlon,3,3,25,6,0,0,1,159,53,25,7,19,49,1,2,2,0,228,6,27,1,1,4
cookry01,Ryan Cook,2,2,18,3,0,0,1,100,31,16,5,12,33,1,2,2,0,142,4,17,1,1,2
copelsc01,Scott Copeland,1,1,12,3,0,0,1,76,24,12,3,9,24,1,1,1,0,108,3,12,0,1,2
corbipa01,Patrick Corbin,10,10,46,27,0,0,1,535,169,76,20,55,186,4,8,5,0,750,6,83,4,4,13
corcida01,Daniel Corcino,1,1,13,3,0,0,1,81,25,12,3,10,25,1,1,1,0,115,3,13,1,1,2
cordeji01,Jimmy Cordero,2,2,19,4,0,0,1,104,34,17,4,14,32,1,1,2,0,150,4,18,1,1,3
cortene01,Nestor Cortes,2,2,14,3,0,0,1,84,27,13,4,10,26,1,1,1,0,120,3,14,1,1,2
couloda01,Danny Coulombe,2,2,30,3,0,0,1,126,39,19,5,16,40,1,2,2,0,177,5,20,1,1,4
coveydy01,Dylan Covey,5,10,41,18,0,0,1,362,124,68,17,49,98,3,6,3,0,526,7,74,3,3,11
crickky01,Kyle Crick,3,3,40,4,0,0,1,177,51,23,6,23,58,2,5,4,1,250,10,25,1,1,4
crockky01,Kyle Crockett,2,2,18,3,0,0,1,90,30,14,4,11,29,1,1,1,0,129,3,16,1,1,2
cruzrh01,Rhiner Cruz,1,1,13,3,0,0,1,79,25,12,3,10,25,1,1,1,0,112,3,13,0,1,2
cuetojo01,Johnny Cueto,6,5,28,14,0,0,1,300,96,43,12,31,90,1,3,5,0,421,4,45,3,2,8
cuevawi01,William Cuevas,2,2,18,4,0,0,1,112,36,19,5,15,36,1,2,3,0,162,4,20,1,1,3
cumptbr01,Brandon Cumpton,1,1,12,3,0,0,1,77,24,12,3,9,24,1,1,1,0,110,3,13,0,1,2
curtijo02,John Curtiss,2,2,16,3,0,0,1,89,28,14,4,11,28,1,2,1,0,126,4,15,1,1,2
curtiza01,Zac Curtis,2,2,16,3,0,0,1,87,27,14,4,12,28,1,1,1,0,125,3,15,1,1,2
danisty01,Tyler Danish,2,2,15,3,0,0,1,88,28,14,4,12,28,1,1,1,0,126,3,15,1,1,2
darviyu01,Yu Darvish,5,5,29,12,0,0,1,252,76,38,11,31,91,1,4,4,1,357,5,41,1,2,5
davieza01,Zach Davies,7,7,33,18,0,0,1,342,115,52,13,35,91,2,3,5,0,484,4,56,2,4,11
davisau01,Austin Davis,2,2,24,4,0,0,1,129,41,20,5,15,42,1,2,2,0,184,6,22,1,2,3
daviswa01,Wade Davis,3,4,46,4,0,0,19,188,51,26,7,24,67,1,4,3,0,260,31,27,1,1,5
deetzde01,Dean Deetz,2,1,13,3,0,0,1,81,26,12,4,10,26,1,1,1,0,115,3,13,1,1,2
degroja01,Jacob deGrom,11,9,44,27,1,0,1,563,156,60,18,51,211,3,5,5,0,757,5,67,3,5,14
dejonch01,Chase De Jong,4,4,31,9,0,0,2,219,70,35,10,27,64,1,3,3,0,311,6,38,1,2,6
delarjo01,Jorge De La Rosa,2,2,22,4,0,0,1,119,38,18,5,15,36,1,2,2,0,170,4,20,1,1,3
delgara01,Randall Delgado,2,2,20,3,0,0,1,111,35,17,5,13,34,1,2,1,0,158,4,18,1,1,3
delosen01,Enyel De Los Santos,3,2,21,5,0,0,1,138,43,21,6,17,43,1,2,2,0,195,5,23,1,1,4
desclan01,Anthony DeSclafani,7,7,37,17,0,0,1,352,115,56,19,36,109,2,5,4,0,495,6,61,4,4,9
despaod01,Odrisamer Despaigne,3,4,25,7,0,0,1,171,58,29,7,22,49,1,2,3,0,249,5,31,1,2,5
detwiro01,Ross Detwiler,1,2,12,3,0,0,1,83,27,13,3,10,25,1,1,1,0,118,2,14,0,1,3
devench02,Chris Devenski,3,3,36,4,0,0,2,172,48,23,7,18,59,1,2,2,0,236,7,24,1,1,4
diazed04,Edwin Diaz,3,4,51,4,0,0,23,210,55,26,8,24,88,1,3,4,1,288,31,28,1,1,4
diazmi02,Miguel Diaz,2,2,21,4,0,0,1,118,37,20,6,17,39,1,2,2,0,171,5,22,1,2,3
diekmja01,Jake Diekman,2,2,22,3,0,0,1,99,30,16,4,14,33,1,2,2,0,141,5,17,0,1,3
dominse01,Seranthony Dominguez,3,4,33,4,0,0,5,166,46,23,6,20,58,1,4,3,0,231,11,25,1,1,4
doolise01,Sean Doolittle,3,3,33,4,0,0,10,150,41,19,6,15,52,1,2,2,0,203,16,20,1,1,3
drakeol01,Oliver Drake,2,2,26,3,0,0,1,120,37,18,5,15,40,1,2,1,0,170,7,19,1,1,3
duensbr01,Brian Duensing,3,2,36,4,0,0,1,147,47,24,6,20,44,1,2,2,0,212,7,26,1,2,4
duffety01,Tyler Duffey,3,3,24,5,0,0,1,139,48,26,7,14,42,1,2,2,0,200,4,28,1,2,4
duffyda01,Danny Duffy,9,9,42,23,0,0,1,454,148,71,20,54,141,1,8,5,1,647,5,75,3,4,11
dukeza01,Zach Duke,2,2,23,3,0,0,1,100,30,15,4,12,31,1,2,2,0,142,4,16,1,1,3
dullry01,Ryan Dull,2,2,29,3,0,0,1,125,37,19,6,14,40,1,3,2,0,174,4,21,1,1,3
dunnmi01,Mike Dunn,2,2,28,3,0,0,1,114,36,19,5,17,36,1,2,1,0,164,5,20,1,1,3
dysonsa01,Sam Dyson,4,3,47,4,0,0,7,191,57,25,6,22,55,2,2,3,0,264,16,27,1,2,7
edwarca01,Carl Edwards,3,3,43,4,0,0,1,174,45,23,6,26,65,1,3,2,0,242,6,25,1,1,4
edwarjo02,Jon Edwards,2,2,15,3,0,0,1,87,27,13,4,11,28,1,1,1,0,124,3,14,1,1,2
eflinza01,Zach Eflin,8,8,41,21,0,0,1,401,135,68,20,41,116,3,5,5,0,571,6,73,4,5,9
eickhje01,Jerad Eickhoff,3,3,17,8,0,0,1,156,52,24,7,18,49,1,2,2,0,224,3,27,1,2,3
eliasro01,Roenis Elias,3,3,27,6,0,0,1,169,53,24,6,20,49,1,3,2,0,238,8,26,1,2,4
eovalna01,Nathan Eovaldi,5,5,31,12,0,0,1,252,82,38,10,27,76,1,4,3,0,357,5,42,1,2,7
erlinro01,Robbie Erlin,4,5,38,10,0,0,1,271,88,42,11,22,80,1,3,2,1,374,8,46,2,3,8
estrama01,Marco Estrada,8,10,40,24,0,0,1,442,143,77,24,53,129,1,4,3,0,632,5,80,1,5,7
familje01,Jeurys Familia,3,3,28,3,0,0,5,129,38,18,4,17,44,1,2,1,0,182,11,20,1,1,3
fariaja01,Jake Faria,5,5,33,13,0,0,1,278,84,44,12,37,84,1,4,4,0,392,6,46,1,3,8
farmebu01,Buck Farmer,4,4,38,6,0,0,1,196,63,33,8,29,60,1,2,3,0,284,7,35,1,2,6
farquda01,Danny Farquhar,2,2,17,3,0,0,1,90,28,14,4,11,29,1,1,1,0,128,4,15,1,1,2
farrelu01,Luke Farrell,3,3,24,5,0,0,1,136,42,21,6,18,45,1,2,2,0,195,6,24,1,1,3
feddeer01,Erick Fedde,4,5,35,13,0,0,2,265,89,46,13,34,83,2,3,3,1,379,6,49,2,3,9
felizmi01,Michael Feliz,3,3,36,4,0,0,1,164,53,28,7,22,60,1,4,2,0,237,8,30,1,2,3
ferguca01,Caleb Ferguson,4,3,28,6,0,0,2,165,51,24,8,18,56,1,2,3,0,232,6,26,1,1,4
fernajo04,Jose Fernandez,2,2,16,3,0,0,1,92,29,14,4,11,28,1,1,1,0,131,3,16,1,1,2
festama01,Matt Festa,2,2,17,4,0,0,1,102,33,15,4,12,31,1,2,2,0,146,3,16,1,1,3
fieldjo03,Josh Fields,3,2,35,4,0,0,2,151,43,20,7,17,48,1,1,2,0,207,8,21,1,1,4
fiersmi01,Mike Fiers,6,5,29,15,0,0,1,291,95,48,16,32,90,1,6,6,0,412,4,51,2,2,8
fillmhe01,Heath Fillmyer,5,4,36,12,0,0,2,285,90,44,12,35,81,1,4,4,1,402,7,47,1,3,10
finnebr01,Brandon Finnegan,4,5,27,11,0,0,1,219,69,35,11,33,66,2,3,2,0,316,5,39,1,3,6
fistedo01,Doug Fister,5,8,31,15,0,0,1,301,100,49,13,35,82,2,4,5,0,431,5,55,1,3,9
flaheja01,Jack Flaherty,7,8,46,22,0,0,2,425,118,60,19,54,152,3,6,8,0,591,7,64,2,3,13
flexech01,Chris Flexen,2,3,19,6,0,0,1,128,45,24,6,19,38,1,2,2,0,189,4,27,1,1,4
florody01,Dylan Floro,2,2,23,4,0,0,1,119,37,17,4,14,38,1,2,2,0,169,5,18,1,1,3
flynnbr01,Brian Flynn,3,4,34,4,0,0,1,189,62,28,7,25,52,2,4,3,0,270,7,30,1,2,8
foltymi01,Mike Foltynewicz,11,10,45,26,1,0,1,504,149,71,19,61,168,3,7,7,1,710,5,76,5,3,11
fontwi01,Wilmer Font,3,3,27,7,0,0,1,175,52,25,7,22,53,1,2,2,0,247,5,27,1,1,5
frareca01,Caleb Frare,2,2,15,3,0,0,1,87,27,13,4,11,28,1,1,1,0,123,3,14,1,1,2
freelky01,Kyle Freeland,13,9,49,27,0,0,1,540,172,71,19,65,152,3,3,7,1,765,6,75,7,6,19
freemsa01,Sam Freeman,3,3,41,4,0,0,1,167,50,25,6,25,56,1,3,2,0,238,5,27,1,2,6
friedma01,Max Fried,3,4,26,7,0,0,1,175,54,25,7,24,58,1,2,3,0,249,7,28,1,2,5
fryja01,Jace Fry,3,3,36,5,0,0,2,159,48,25,6,20,55,1,3,2,0,225,8,28,1,1,3
frypa01,Paul Fry,2,2,25,4,0,0,1,133,41,19,5,16,42,1,2,3,0,188,6,22,1,1,4
fulmeca01,Carson Fulmer,5,5,33,11,0,0,1,228,72,41,12,34,70,1,3,5,1,334,7,44,2,2,5
fulmemi01,Michael Fulmer,7,10,39,22,0,0,1,436,135,66,17,46,121,2,3,7,0,607,5,72,2,4,15
gagnodr01,Drew Gagnon,2,2,18,4,0,0,1,114,37,18,5,14,35,1,2,2,0,163,4,20,1,1,3
gallayo01,Yovani Gallardo,7,8,36,18,0,0,1,353,119,66,17,50,92,2,6,3,0,511,6,69,2,3,14
gallegi01,Giovanny Gallegos,1,2,14,3,0,0,1,84,26,13,4,10,27,1,1,1,0,118,4,14,1,1,2
gantjo01,John Gant,6,6,41,15,0,0,1,332,99,48,12,47,98,3,5,4,0,473,7,55,2,4,9
garcija01,Santiago Casilla,2,3,30,3,0,0,5,136,40,20,5,18,42,1,3,3,0,192,12,21,1,2,4
garcija02,Jaime Garcia,2,2,14,5,0,0,1,109,36,18,5,14,34,1,2,1,0,157,2,19,1,1,3
garcija04,Jarlin Garcia,4,4,43,7,0,0,1,219,67,36,11,27,61,2,3,3,1,309,8,38,2,2,6
garcilu03,Luis Garcia,3,3,40,4,0,0,1,164,52,26,6,20,52,2,4,2,0,234,8,27,1,2,5
garciyi01,Yimi Garcia,2,2,21,4,0,0,1,108,36,17,5,12,33,1,1,2,0,155,4,19,1,1,3
gardeni01,Nick Gardewine,2,1,15,3,0,0,1,86,28,13,4,11,27,1,1,1,0,123,3,15,1,1,2
garream01,Amir Garrett,3,4,37,7,0,0,1,193,61,34,11,26,63,2,2,3,0,276,5,36,1,2,6
gausmke01,Kevin Gausman,7,6,31,17,0,0,1,327,108,49,15,37,101,1,4,4,0,464,4,52,1,3,10
gavigsa01,Sam Gaviglio,5,8,42,18,0,0,2,361,124,62,17,41,108,2,5,5,1,522,7,66,3,4,7
gearrco01,Cory Gearrin,2,2,23,3,0,0,1,103,31,14,4,13,32,1,2,2,0,146,5,15,1,1,3
germado01,Domingo German,4,6,37,12,0,0,1,281,87,48,13,36,98,1,6,4,1,403,8,51,1,3,6
gibsoky01,Kyle Gibson,10,11,44,27,0,0,1,518,171,81,22,66,150,2,7,5,0,738,5,87,3,5,21
gileske01,Ken Giles,2,2,28,3,0,0,8,123,37,17,5,14,45,1,2,2,0,173,14,19,1,1,3
gilmase01,Sean Gilmartin,2,2,19,4,0,0,1,116,37,18,5,14,34,1,1,2,0,166,4,19,1,1,3
giolilu01,Lucas Giolito,9,10,47,24,0,0,2,464,144,86,23,67,125,2,9,10,0,672,6,91,2,4,12
givenmy01,Mychal Givens,4,4,49,4,0,0,3,214,61,30,7,26,73,2,3,4,0,297,13,32,1,2,5
glasnty01,Tyler Glasnow,4,7,35,14,0,0,1,287,92,50,15,40,95,2,5,4,1,414,6,55,2,2,7
gloveko01,Koda Glover,2,2,22,3,0,0,2,107,33,16,4,13,32,1,1,1,0,152,6,18,1,1,3
godleza01,Zack Godley,11,10,46,25,0,0,1,491,154,78,18,64,164,3,12,8,1,702,6,84,6,5,15
goedder01,Erik Goeddel,2,2,27,3,0,0,1,127,39,19,6,16,43,1,2,2,0,180,7,21,1,1,2
goharlu01,Luiz Gohara,2,3,19,5,0,0,1,129,41,21,5,15,41,1,2,1,0,183,4,22,1,1,3
gombeau01,Austin Gomber,5,4,34,10,0,0,1,231,76,36,9,29,72,2,3,4,1,333,6,39,2,2,7
gomezje01,Jeanmar Gomez,2,2,25,3,0,0,3,118,40,20,5,14,37,1,1,2,0,170,9,21,1,2,3
gomezro01,Roberto Gomez,2,2,15,3,0,0,1,90,31,15,4,10,28,1,1,1,0,130,3,16,1,1,2
gonsast01,Stephen Gonsalves,4,3,26,7,0,0,1,176,57,29,7,26,53,1,3,3,0,255,5,32,1,1,5
gonzagi01,Gio Gonzalez,6,4,26,14,0,0,1,274,79,37,10,34,86,2,4,4,0,383,4,39,3,2,7
gonzama02,Marco Gonzales,10,8,46,22,1,0,2,446,152,69,17,40,134,1,4,6,0,626,7,72,2,4,16
gonzame01,Merandy Gonzalez,3,2,19,4,0,0,1,125,42,20,6,15,39,1,2,2,0,179,4,21,1,1,3
gonzami03,Miguel Gonzalez,3,5,26,9,0,0,1,202,68,35,9,23,57,1,3,3,0,289,5,37,1,2,5
goodyni01,Nick Goody,2,2,23,3,0,0,1,110,34,16,5,13,38,1,2,2,0,156,5,18,1,1,3
gosseda01,Daniel Gossett,4,7,31,12,0,0,1,247,85,44,13,29,70,1,5,3,0,355,5,47,1,2,7
gotttr01,Trevor Gott,2,2,20,3,0,0,1,106,34,18,5,14,33,1,2,2,0,152,4,19,1,1,3
gracema02,Matt Grace,2,2,38,4,0,0,1,178,56,25,6,19,52,2,2,3,0,251,9,27,1,2,4
gravebr01,Brett Graves,2,2,21,4,0,0,1,127,42,21,5,15,38,1,2,2,0,182,7,22,1,1,4
graveke01,Kendall Graveman,5,5,28,13,0,0,1,263,91,44,12,29,69,1,3,3,0,375,4,47,1,2,9
grayjo02,Jon Gray,11,8,43,25,0,0,1,474,157,79,21,51,162,2,6,6,1,674,5,83,3,4,12
grayso01,Sonny Gray,8,9,39,19,0,0,1,369,122,62,16,49,114,1,8,6,1,535,6,66,2,4,8
greench03,Chad Green,5,3,41,5,0,0,1,210,59,26,8,21,79,1,3,2,0,286,5,28,1,2,4
greensh02,Shane Greene,4,4,46,4,0,0,10,189,59,30,8,23,62,2,2,3,0,269,21,32,1,2,5
gregelu01,Luke Gregerson,2,2,25,3,0,0,2,110,34,18,5,13,37,1,2,1,0,156,6,19,1,1,3
greinza01,Zack Greinke,13,9,44,27,0,0,1,541,162,71,24,46,175,2,6,4,0,737,5,76,4,3,11
grimmju01,Justin Grimm,2,2,21,3,0,0,1,98,30,16,5,12,32,1,2,1,0,138,5,17,1,1,2
gsellro01,Robert Gsellman,5,4,38,8,0,0,4,235,78,38,9,28,68,3,2,4,0,340,10,43,2,3,6
guduare01,Reymin Guduan,1,1,16,3,0,0,1,86,28,14,4,11,27,1,1,1,0,123,3,15,0,1,2
guerrja01,Javy Guerra,2,2,26,4,0,0,1,133,44,21,5,16,40,1,2,2,0,190,7,24,1,1,4
guerrju02,Junior Guerra,6,7,42,20,0,0,1,390,122,59,18,52,122,1,8,5,0,557,6,65,3,3,10
guerrta01,Tayron Guerrero,2,3,35,4,0,0,1,163,54,27,7,22,55,1,4,3,0,237,7,30,1,1,4
guerrta02,Taylor Guerrieri,2,2,15,3,0,0,1,91,28,14,4,11,28,1,2,2,0,129,4,15,1,1,2
guilmpr01,Preston Guilmet,2,2,14,3,0,0,1,86,28,14,4,11,27,1,1,1,0,123,3,15,1,1,2
haderjo01,Josh Hader,4,3,41,5,0,0,4,216,52,27,8,27,91,1,2,3,0,292,8,28,1,2,4
haleda02,David Hale,2,2,13,3,0,0,1,87,28,13,4,10,26,1,1,1,0,124,3,14,1,1,2
haleyju01,Justin Haley,2,2,15,3,0,0,1,92,30,15,4,11,27,1,1,1,0,132,4,16,1,1,3
hallma02,Matt Hall,2,2,14,3,0,0,1,89,30,15,4,11,27,1,2,1,0,128,3,17,1,1,2
hamelco01,Cole Hamels,7,5,31,16,1,0,1,332,98,45,13,39,99,1,4,7,1,461,4,49,1,2,11
hamilia01,Ian Hamilton,2,2,15,3,0,0,1,90,28,14,4,11,28,1,1,1,0,127,3,15,1,1,2
hammeja01,Jason Hammel,6,9,37,18,0,0,1,359,132,66,17,38,100,2,4,5,0,526,8,70,2,4,7
hancoju01,Justin Hancock,2,2,16,3,0,0,1,94,28,13,4,12,29,1,1,1,0,132,4,15,1,1,2
handbr01,Brad Hand,2,2,32,3,0,0,5,140,39,17,6,17,52,1,2,2,0,194,10,19,1,1,4
hanhoer01,Eric Hanhold,1,1,13,3,0,0,1,80,25,12,3,10,25,1,1,1,0,114,3,13,1,1,2
happja01,J. A. Happ,8,5,30,15,0,0,1,311,95,41,13,33,98,1,4,4,1,436,4,44,1,2,8
hardybl01,Blaine Hardy,4,4,42,10,0,0,2,257,83,39,11,28,75,2,3,3,0,363,10,42,1,4,7
harriwi02,Will Harris,3,3,41,4,0,0,2,170,51,23,6,17,58,1,3,2,0,235,8,24,1,1,4
hartdo01,Donnie Hart,2,2,26,3,0,0,1,117,40,18,5,15,34,1,1,2,0,169,5,19,1,1,3
harvema01,Matt Harvey,7,8,40,21,0,0,1,399,138,70,20,43,116,3,5,6,1,573,5,74,4,4,9
hatchch02,Chris Hatcher,3,3,28,4,0,0,1,134,44,21,6,17,42,1,2,2,0,194,7,23,1,1,3
hauscmi01,Mike Hauschild,3,3,22,5,0,0,1,142,46,23,7,17,44,1,2,3,0,203,5,25,1,2,4
heanean01,Andrew Heaney,8,9,46,23,1,0,2,459,147,73,24,46,151,1,7,6,0,646,7,79,3,4,13
hellije01,Jeremy Hellickson,6,6,34,17,0,0,1,330,100,51,15,32,90,1,4,6,1,458,5,56,2,3,10
hembrhe01,Heath Hembree,3,3,44,4,0,0,1,183,59,27,9,22,64,1,3,2,0,262,8,30,1,3,4
hendrky01,Kyle Hendricks,11,9,44,26,0,0,1,519,156,65,20,47,151,3,3,7,0,710,5,70,5,4,14
hendrli01,Liam Hendriks,3,3,37,6,0,0,1,163,52,25,7,19,55,1,3,2,0,232,7,27,1,2,4
hernada01,David Hernandez,4,3,40,4,0,0,1,174,52,24,7,19,56,1,3,3,1,242,7,26,1,1,4
hernael01,Elieser Hernandez,3,5,32,7,0,0,1,199,64,33,9,25,57,2,2,3,0,283,7,34,2,2,5
hernafe02,Felix Hernandez,8,10,41,22,0,0,1,431,140,74,22,53,124,1,9,9,0,619,5,82,3,3,14
herreke01,Kelvin Herrera,2,2,28,3,0,0,5,120,39,18,5,14,39,1,1,2,0,172,12,19,1,1,3
hessda01,David Hess,5,8,40,16,0,0,2,331,107,54,18,40,94,2,4,6,1,475,7,60,2,4,8
hicksjo03,Jordan Hicks,3,4,42,5,0,0,3,198,58,29,6,29,62,1,5,4,0,284,10,31,1,2,7
hildetr01,Trevor Hildenberger,4,4,45,4,0,0,3,197,63,32,9,22,63,4,2,3,0,280,11,34,2,2,5
hillri01,Rich Hill,10,7,40,21,0,0,1,403,112,55,18,45,146,2,3,7,1,557,5,58,3,2,7
hillti01,Tim Hill,2,3,35,4,0,0,1,144,46,22,6,17,45,1,2,2,0,204,6,25,1,1,4
hiranyo01,Yoshihisa Hirano,3,3,39,4,0,0,2,171,50,23,7,20,53,2,3,2,0,237,7,25,1,1,7
hoffmje02,Jeff Hoffman,2,3,18,6,0,0,1,138,47,25,6,18,41,1,2,2,0,200,4,27,1,1,4
holdejo02,Jonathan Holder,3,3,42,5,0,0,1,191,59,27,7,21,60,2,2,2,0,269,10,30,1,2,4
hollade01,Derek Holland,8,10,45,24,0,0,1,454,148,74,22,62,136,4,5,6,1,656,5,81,4,5,13
hollagr01,Greg Holland,2,2,27,3,0,0,7,122,34,17,5,16,42,1,2,2,0,170,12,18,1,1,4
holmecl01,Clay Holmes,3,3,24,6,0,0,1,155,50,26,6,23,48,1,3,3,0,225,6,28,1,2,5
hoovejj01,J. J. Hoover,2,2,18,3,0,0,1,89,30,15,4,12,29,1,1,1,0,130,4,16,0,1,2
housead01,Adrian Houser,2,2,16,3,0,0,1,97,30,15,4,12,30,1,1,2,0,138,4,16,1,1,3
howarsa01,Sam Howard,2,1,13,3,0,0,1,82,26,12,3,10,25,1,1,1,0,117,3,13,1,1,2
hoytja01,James Hoyt,1,1,17,3,0,0,1,89,28,14,4,10,31,1,2,1,0,127,4,15,0,1,2
huch02,Chih-Wei Hu,2,2,16,3,0,0,1,99,29,15,4,12,31,1,1,1,0,139,4,16,1,1,2
hudsoda01,Daniel Hudson,3,3,39,4,0,0,1,164,50,26,7,22,53,1,3,3,0,234,9,29,1,1,4
hudsoda02,Dakota Hudson,3,2,22,4,0,0,1,119,36,17,4,16,36,1,2,2,0,169,4,18,1,1,3
hugheja02,Jared Hughes,4,3,51,4,0,0,3,208,60,25,7,24,58,2,4,3,0,284,13,27,2,2,8
hugheph01,Phil Hughes,2,2,18,5,0,0,1,121,44,21,7,13,36,1,1,1,0,175,5,23,1,1,3
hunteto02,Tommy Hunter,4,4,44,4,0,0,2,186,58,26,7,19,57,1,2,2,0,260,8,28,1,1,5
hutchdr01,Drew Hutchison,4,4,32,9,0,0,2,212,71,37,10,27,63,1,3,3,0,307,7,39,2,3,5
iglesra01,Raisel Iglesias,3,4,44,4,0,0,13,206,58,25,8,24,72,1,2,2,0,285,27,27,1,2,4
infangr01,Greg Infante,2,2,21,3,0,0,1,104,32,16,4,13,32,1,1,2,0,147,5,17,1,2,3
jacksed01,Edwin Jackson,7,6,35,17,0,0,1,332,103,51,17,42,94,2,5,3,1,471,5,56,3,3,7
jackslu01,Luke Jackson,2,2,31,4,0,0,1,152,50,25,6,20,47,2,3,3,0,220,9,26,1,2,3
jamesjo02,Josh James,3,3,24,6,0,0,1,165,49,24,7,19,54,1,2,3,0,231,5,25,1,1,4
janseke01,Kenley Jansen,3,3,48,4,0,0,20,201,54,24,8,18,77,1,2,2,1,273,32,26,1,1,4
jeffrje01,Jeremy Jeffress,5,2,43,5,0,0,5,196,55,23,7,25,65,2,4,2,0,271,11,24,1,1,6
jennida01,Dan Jennings,3,3,45,4,0,0,1,177,57,24,6,23,50,1,3,2,0,251,8,27,2,2,6
jepseke01,Kevin Jepsen,2,2,19,3,0,0,1,98,31,16,5,13,29,1,1,1,0,140,4,17,1,1,3
jerezwi01,Williams Jerez,2,2,18,3,0,0,1,99,31,16,4,12,31,1,2,1,0,141,3,18,1,1,2
jewelja01,Jake Jewell,1,2,13,3,0,0,1,79,25,12,3,10,25,1,1,2,0,113,3,13,1,1,2
jimenjo02,Joe Jimenez,4,4,42,4,0,0,2,180,57,31,7,22,62,2,2,3,0,258,10,34,1,2,4
johnsbr02,Brian Johnson,5,4,37,11,0,0,1,268,89,41,13,32,81,1,2,2,0,385,8,44,1,1,6
johnsdj01,DJ Johnson,2,1,14,3,0,0,1,84,26,13,3,10,27,1,1,1,0,119,3,14,1,1,2
johnsji04,Jim Johnson,4,3,45,4,0,0,6,185,59,28,8,22,56,1,3,2,0,263,15,33,1,2,6
johnspi01,Pierce Johnson,3,3,27,4,0,0,1,142,44,23,6,19,44,1,2,2,0,201,5,25,1,2,4
jonesna01,Nate Jones,2,2,26,3,0,0,2,122,37,17,5,15,41,1,2,2,0,173,7,19,1,1,3
junisja01,Jakob Junis,10,9,46,24,0,0,2,481,159,76,25,46,147,2,7,11,0,684,6,83,4,6,10
juradar01,Ariel Jurado,5,5,32,10,0,0,1,235,79,40,10,27,62,2,2,2,0,336,6,42,1,2,7
kahnlto01,Tommy Kahnle,2,2,25,3,0,0,1,118,37,18,5,16,40,1,2,2,0,169,6,20,1,2,3
kelake01,Keone Kela,2,2,23,3,0,0,1,112,32,16,5,14,39,1,2,2,0,156,6,17,1,1,2
kellebr01,Brad Keller,7,6,44,15,0,0,2,347,109,46,10,41,94,2,6,3,0,486,7,49,1,3,12
kellesh01,Shawn Kelley,2,2,24,3,0,0,2,106,31,16,5,12,35,1,2,1,0,148,7,17,0,1,2
kellyca01,Casey Kelly,2,4,23,6,0,0,1,155,51,23,6,17,46,1,2,2,0,222,6,25,1,2,4
kellyjo05,Joe Kelly,4,3,45,4,0,0,1,190,57,28,6,27,62,1,3,3,0,270,8,30,1,3,5
kennebr02,Brett Kennedy,4,4,33,10,0,0,2,225,75,38,11,28,68,2,3,4,0,326,6,40,3,2,5
kenneia01,Ian Kennedy,6,9,37,21,0,0,1,398,127,66,22,47,120,2,4,5,0,566,4,71,2,4,9
kershcl01,Clayton Kershaw,11,6,40,23,1,0,1,472,132,51,18,35,161,1,7,3,1,632,5,56,3,3,11
keuchda01,Dallas Keuchel,11,9,44,26,1,0,1,528,168,74,19,55,147,1,7,4,0,739,5,79,2,5,18
kiekhde01,Dean Kiekhefer,1,1,14,3,0,0,1,78,25,13,3,9,24,1,1,1,0,111,3,13,1,1,2
kimbrcr01,Craig Kimbrel,4,3,45,4,0,0,19,188,46,23,7,24,80,1,4,3,0,256,28,24,1,1,3
kinghni01,Nick Kingham,6,6,36,13,0,0,2,278,90,46,15,33,87,3,4,5,1,402,7,51,3,3,6
kinlety01,Tyler Kinley,2,2,15,3,0,0,1,87,27,14,4,11,28,1,1,1,0,123,3,15,1,1,2
kintzbr01,Brandon Kintzler,2,2,24,3,0,0,2,108,36,17,4,12,31,1,1,2,0,154,7,18,1,1,3
kittran01,Andrew Kittredge,3,3,28,5,0,0,1,147,50,26,7,18,45,2,2,2,0,212,5,27,1,2,4
klubeco01,Corey Kluber,15,7,43,26,2,1,1,557,152,63,21,42,200,2,4,5,0,740,5,69,3,2,12
knebeco01,Corey Knebel,3,3,44,4,0,0,11,182,50,24,7,25,75,2,2,3,0,253,18,26,1,1,4
kochma01,Matt Koch,5,5,36,12,0,0,2,282,90,43,15,30,75,2,4,5,0,396,8,47,2,2,12
kolarad01,Adam Kolarek,2,2,25,4,0,0,1,129,42,20,5,14,37,1,2,2,0,182,5,21,1,1,4
kontoge01,George Kontos,2,1,15,3,0,0,1,81,24,11,3,9,25,1,1,1,0,113,4,12,1,1,2
kopecmi01,Michael Kopech,4,4,32,9,0,0,2,209,68,32,10,24,67,1,3,5,0,299,6,35,1,2,5
krehbjo01,Joey Krehbiel,1,1,13,3,0,0,1,80,25,12,3,10,25,1,1,1,0,114,3,13,1,1,2
krolia01,Ian Krol,2,1,20,3,0,0,1,93,30,14,4,11,30,1,1,2,0,133,4,16,0,1,3
kuhlch01,Chad Kuhl,7,7,37,19,0,0,1,359,119,57,15,47,110,3,6,5,0,515,5,61,5,4,11
lambjo02,John Lamb,3,4,28,9,0,0,1,195,65,33,10,24,61,1,2,2,0,281,5,36,2,2,5
lauerer01,Eric Lauer,7,7,43,18,0,0,2,358,122,56,16,46,110,2,4,6,1,521,7,62,3,3,9
lawde01,Derek Law,2,2,22,3,0,0,1,106,35,17,4,13,33,1,2,2,0,152,5,18,1,1,3
lawreca01,Casey Lawrence,2,2,20,3,0,0,1,121,42,21,5,15,37,1,2,2,0,175,5,22,1,1,4
leakemi01,Mike Leake,9,9,42,23,0,0,1,464,163,73,18,36,119,2,4,6,0,654,5,79,2,4,16
leblawa01,Wade LeBlanc,8,6,54,17,0,0,2,419,130,61,19,41,120,2,3,4,0,581,13,67,2,4,9
leclejo01,Jose Leclerc,3,3,41,4,0,0,4,178,44,23,5,27,67,1,3,3,0,248,12,26,2,1,4
leitema02,Mark Leiter,2,2,17,4,0,0,1,113,37,19,6,14,36,1,2,2,0,163,4,22,1,1,3
leonedo01,Dominic Leone,2,2,30,3,0,0,1,133,42,19,5,16,44,2,3,1,0,187,6,21,1,2,3
lestejo01,Jon Lester,13,7,43,26,0,0,1,498,155,67,22,56,152,2,4,5,0,693,5,75,4,4,13
lewicar01,Artie Lewicki,2,3,24,6,0,0,1,162,56,26,7,19,49,1,2,2,0,233,6,29,1,3,5
liberad01,Adam Liberatore,2,2,20,3,0,0,1,95,29,14,4,12,30,1,1,1,0,134,4,15,1,1,3
liriafr01,Francisco Liriano,6,9,46,19,0,0,2,373,117,59,16,56,111,1,7,5,0,536,7,69,1,4,13
litteza01,Zack Littell,2,3,21,5,0,0,1,136,44,22,6,17,41,1,2,3,0,196,4,24,1,1,4
livelbe01,Ben Lively,2,2,15,5,0,0,1,113,36,17,5,13,32,1,1,2,0,160,3,18,1,1,4
loaisjo01,Jonathan Loaisiga,3,3,25,7,0,0,1,162,52,26,7,20,54,1,2,2,0,231,5,28,1,1,5
lockean01,Walker Lockett,3,4,27,7,0,0,1,180,59,31,8,23,56,2,2,2,0,260,6,33,1,2,4
loganbo02,Boone Logan,2,2,23,3,0,0,1,96,30,15,4,13,33,1,1,2,0,137,4,16,1,1,3
lopezjo02,Jorge Lopez,4,5,33,10,0,0,2,236,78,40,10,27,70,1,4,3,0,336,7,42,1,2,6
lopezpa01,Pablo Lopez,5,5,36,12,0,0,2,278,87,42,12,32,83,4,4,5,0,392,7,45,2,3,7
lopezre01,Reynaldo Lopez,8,9,47,24,0,0,2,489,150,74,21,62,138,2,7,7,2,694,6,80,2,6,10
lopezyo01,Yoan Lopez,2,2,15,3,0,0,1,90,28,13,4,10,29,1,1,1,0,127,4,15,1,1,2
lorenmi01,Michael Lorenzen,5,3,45,5,0,0,2,231,72,33,8,29,67,2,4,4,0,328,9,35,2,2,7
loupaa01,Aaron Loup,2,2,22,3,0,0,1,97,31,15,4,12,32,1,2,2,0,140,4,16,1,1,3
lucasjo02,Josh Lucas,2,2,18,4,0,0,1,112,36,18,5,14,35,1,2,2,0,160,5,19,1,1,4
lucchjo01,Joey Lucchesi,8,8,44,20,0,0,2,382,121,58,19,44,131,2,5,5,0,539,7,62,3,4,11
lugose01,Seth Lugo,5,4,37,10,0,0,2,266,82,36,10,27,83,2,3,3,1,372,8,40,2,4,6
lylesjo01,Jordan Lyles,2,2,17,4,0,0,1,106,35,18,4,14,33,1,2,2,0,154,4,20,1,1,3
lynnla01,Lance Lynn,6,5,31,15,0,0,1,296,90,42,12,36,91,2,3,4,0,415,4,46,3,2,8
lyonsty01,Tyler Lyons,2,2,25,3,0,0,1,116,36,18,5,14,39,1,2,2,0,164,5,19,1,2,3
madsory01,Ryan Madson,2,2,18,3,0,0,2,91,28,13,3,10,30,1,1,1,0,127,6,14,1,1,2
maedake01,Kenta Maeda,9,7,39,18,0,0,2,355,108,52,15,38,125,3,4,5,1,497,5,56,2,3,7
magilma01,Matt Magill,3,3,29,4,0,0,1,160,51,24,8,20,51,1,2,2,0,228,6,25,1,1,4
mahlety01,Tyler Mahle,7,8,42,19,0,0,2,362,122,59,18,50,115,5,3,5,0,530,7,64,4,3,12
makitka01,Kazuhisa Makita,2,2,22,4,0,0,1,125,39,20,6,15,40,1,1,2,0,177,6,22,1,1,3
manaese01,Sean Manaea,11,9,42,24,0,0,1,474,149,70,20,46,131,2,7,8,0,663,5,75,3,3,12
mannbr01,Brandon Mann,2,2,14,3,0,0,1,86,27,13,4,10,26,1,1,2,0,122,4,14,1,1,3
mapledi01,Dillon Maples,2,1,15,3,0,0,1,86,27,14,4,11,29,1,2,2,0,123,3,15,1,1,2
marinjh01,Jhan Marinez,1,1,16,3,0,0,1,89,28,13,3,12,26,1,1,2,0,127,4,14,1,1,3
marquge01,German Marquez,12,9,48,28,0,0,1,538,173,81,24,56,185,4,7,8,0,761,6,87,3,5,13
marshev01,Evan Marshall,1,2,16,3,0,0,1,88,30,15,4,11,27,1,1,1,0,127,4,16,1,1,3
martica04,Carlos Martinez,8,7,36,18,0,0,2,374,110,49,12,49,122,3,5,7,0,530,6,55,4,3,14
martich02,Chris Martin,2,3,28,4,0,0,1,136,44,21,6,14,42,1,2,2,0,192,6,22,1,1,4
matonph01,Phil Maton,2,3,35,4,0,0,1,162,52,25,7,21,54,1,2,2,0,232,9,27,1,1,4
matzst01,Steven Matz,7,10,43,23,0,0,1,434,137,67,21,50,136,3,3,7,0,616,5,73,5,3,13
maurebr01,Brandon Maurer,2,3,30,3,0,0,2,128,45,23,6,18,41,1,2,2,0,190,9,25,1,2,3
mayermi01,Mike Mayers,3,2,31,4,0,0,1,155,53,26,7,18,48,1,3,2,0,223,8,28,1,2,4
maytr01,Trevor May,3,2,23,4,0,0,1,117,36,18,5,13,41,1,2,2,0,165,5,19,1,1,3
mayzati01,Tim Mayza,3,2,28,4,0,0,1,135,43,21,6,16,46,2,2,2,0,192,7,22,1,1,3
mazzoco01,Cory Mazzoni,2,2,15,3,0,0,1,90,29,14,4,11,28,1,1,1,0,129,4,16,1,1,2
mcallza01,Zach McAllister,2,2,19,3,0,0,1,98,31,15,4,12,32,1,2,1,0,138,5,15,1,1,3
mccarbr01,Brandon McCarthy,7,5,35,16,0,0,1,319,106,51,13,35,94,1,4,3,0,451,5,54,3,3,11
mccarke01,Kevin McCarthy,4,3,42,4,0,0,1,199,64,28,8,22,54,1,2,2,0,279,9,31,1,2,7
mccread01,Adam McCreery,1,1,12,3,0,0,1,77,25,12,3,9,25,1,1,1,0,110,3,13,0,1,2
mcculla02,Lance McCullers,9,6,40,21,0,0,1,403,120,59,13,51,143,1,10,7,1,566,5,64,2,3,13
mcfartj01,T. J. McFarland,3,4,38,4,0,0,1,199,64,28,7,22,51,3,2,2,0,280,13,31,1,2,9
mcgeeja01,Jake McGee,2,3,43,4,0,0,3,167,55,28,8,19,53,1,4,2,0,237,9,30,1,1,4
mcgowky01,Kyle McGowin,2,2,17,4,0,0,1,108,33,17,5,13,34,1,2,2,0,153,4,18,1,1,3
mcgraky01,Kyle McGrath,1,1,15,3,0,0,1,88,27,13,4,11,27,1,1,1,0,124,4,14,1,1,2
mcguide02,Deck McGuire,2,3,24,6,0,0,1,148,46,24,7,20,46,1,2,3,0,212,6,26,1,2,5
mchugco01,Collin McHugh,5,3,30,7,0,0,1,201,61,27,8,22,69,1,2,3,0,280,7,29,1,1,5
mcraeal01,Alex McRae,2,2,13,3,0,0,1,86,27,13,3,11,27,1,2,1,0,123,3,14,1,1,2
meansjo01,John Means,2,1,13,3,0,0,1,81,26,13,4,10,26,1,1,1,0,116,3,14,1,1,2
medlekr01,Kris Medlen,3,4,28,8,0,0,1,183,60,31,7,24,57,1,3,2,0,265,6,34,1,2,5
meisiry01,Ryan Meisinger,2,2,20,4,0,0,1,115,36,19,6,14,37,1,2,1,0,162,4,20,1,1,4
mejiaad01,Adalberto Mejia,4,4,28,11,0,0,1,226,74,34,9,29,67,2,3,4,1,325,5,36,1,2,6
melanma01,Mark Melancon,2,3,31,4,0,0,4,140,47,20,5,16,43,1,3,2,0,200,10,22,1,1,5
mellake01,Keury Mella,2,2,14,3,0,0,1,92,30,15,5,12,28,1,1,1,0,132,3,16,1,1,3
mendeyo01,Yohander Mendez,4,4,29,8,0,0,1,191,61,32,9,24,56,1,2,2,0,273,6,34,1,1,6
mengdda01,Daniel Mengden,7,7,37,16,1,1,1,349,108,54,16,35,93,1,6,4,0,488,5,59,3,3,8
meyerbe02,Ben Meyer,2,2,18,4,0,0,1,105,35,19,4,14,31,1,2,2,0,153,5,20,1,1,3
middlke01,Keynan Middleton,2,2,26,3,0,0,2,121,38,17,5,15,39,1,2,1,0,170,7,18,1,1,3
mikolmi01,Miles Mikolas,12,6,46,22,1,0,2,478,148,59,16,37,130,3,4,6,1,656,7,65,5,4,14
mileywa01,Wade Miley,6,7,36,19,0,0,1,344,115,55,13,48,99,2,3,5,0,500,5,60,3,3,11
millean01,Andrew Miller,3,3,32,3,0,0,2,143,40,19,5,17,54,1,2,3,0,199,5,20,1,1,3
milleju02,Justin Miller,4,2,32,4,0,0,1,152,47,23,7,18,51,1,2,2,0,215,7,25,1,2,3
millesh01,Shelby Miller,3,5,25,9,0,0,1,190,65,35,9,25,58,1,3,2,0,276,4,37,1,2,5
millsal02,Alec Mills,2,2,21,5,0,0,1,133,40,20,5,16,44,1,2,2,0,187,4,22,1,1,3
milneho01,Hoby Milner,1,1,17,3,0,0,1,89,28,13,4,11,27,1,1,2,0,127,3,14,1,1,2
milonto01,Tommy Milone,3,4,28,9,0,0,1,205,72,37,12,22,61,2,2,2,0,296,6,40,2,2,5
minayju01,Juan Minaya,3,3,36,4,0,0,3,158,48,23,6,23,54,1,4,3,0,226,9,25,1,1,4
minormi01,Mike Minor,10,8,57,18,0,0,3,435,128,63,19,43,134,2,5,6,1,598,10,67,2,4,12
minteaj01,A. J. Minter,3,3,39,4,0,0,5,175,54,25,6,20,60,1,3,2,0,246,13,26,1,1,4
miranar01,Ariel Miranda,4,4,27,11,0,0,1,235,71,38,13,30,70,1,3,3,0,331,4,41,1,3,5
mitchbr01,Bryan Mitchell,4,5,36,11,0,0,2,268,93,46,12,39,68,2,3,3,0,393,8,49,1,2,9
montafr01,Frankie Montas,6,5,39,11,0,0,1,276,94,44,12,34,81,1,5,4,0,398,8,49,2,3,9
montgjo01,Jordan Montgomery,5,4,31,14,0,0,1,271,83,40,12,32,84,1,4,2,0,381,5,43,1,2,8
montgmi01,Mike Montgomery,6,6,45,15,0,0,2,352,110,50,12,43,96,3,5,6,0,497,9,54,3,3,12
moorema02,Matt Moore,5,7,36,14,0,0,1,312,112,61,15,40,93,2,5,4,0,460,7,65,2,3,8
moralos01,Osmer Morales,1,1,12,3,0,0,1,76,24,12,3,9,24,1,1,1,0,108,3,13,0,1,2
morgaad01,Adam Morgan,2,3,35,5,0,0,1,165,55,27,8,20,54,2,2,2,0,236,6,29,1,2,4
morinmi01,Mike Morin,1,1,16,3,0,0,1,83,27,13,3,10,26,1,1,1,0,118,4,14,1,1,2
moronre01,Reyes Moronta,4,3,40,5,0,0,1,178,48,24,6,25,62,2,3,2,0,248,7,26,1,2,5
morriak01,Akeel Morris,2,2,17,3,0,0,1,99,32,15,4,13,30,1,1,1,0,142,5,16,1,1,3
morrobr01,Brandon Morrow,3,2,29,3,0,0,6,132,39,16,4,14,43,1,2,2,0,182,11,18,1,1,3
mortoch02,Charlie Morton,12,6,43,24,0,0,1,465,132,62,17,57,169,1,5,12,0,650,5,67,2,4,13
moyaga01,Gabriel Moya,3,2,30,6,0,0,1,154,48,24,7,18,47,1,2,2,0,219,6,26,1,2,4
moylape01,Peter Moylan,2,2,34,3,0,0,1,130,40,19,5,18,39,2,2,2,0,185,6,21,1,1,4
musgrha01,Harrison Musgrave,3,3,26,4,0,0,1,144,43,23,6,19,43,1,2,2,0,202,6,24,1,1,4
musgrjo01,Joe Musgrove,7,9,43,18,0,0,2,390,127,61,17,36,118,2,5,7,0,550,7,65,3,4,9
nealza01,Zach Neal,1,1,12,3,0,0,1,80,26,13,4,8,23,0,1,1,0,113,3,14,0,1,2
nerishe01,Hector Neris,3,3,41,3,0,0,7,168,51,24,8,20,64,1,3,3,0,238,18,26,1,1,4
neshepa01,Pat Neshek,3,2,26,3,0,0,2,115,35,16,4,12,35,1,1,1,0,160,5,17,1,1,3
neverdo01,Dovydas Neverauskas,2,2,24,4,0,0,1,125,40,22,7,15,39,1,2,2,0,178,7,23,1,1,4
newbeja01,Jake Newberry,2,2,17,3,0,0,1,97,30,15,4,13,30,1,1,1,0,138,4,16,1,1,2
newcose01,Sean Newcomb,9,9,46,24,0,0,2,461,139,69,18,70,151,3,5,5,0,661,6,73,4,4,12
nicasju01,Juan Nicasio,3,3,28,4,0,0,1,140,47,23,6,15,49,1,1,2,0,199,6,25,1,2,3
nixja02,Jacob Nix,5,6,35,12,0,0,2,252,84,45,12,29,71,1,5,5,0,362,7,47,1,3,7
nolaaa01,Aaron Nola,13,9,46,27,0,0,1,559,157,68,19,56,193,3,4,6,1,761,5,72,4,3,14
norribu01,Bud Norris,3,4,41,5,0,0,10,177,55,27,8,22,61,2,5,3,0,253,19,29,1,1,5
norrida01,Daniel Norris,4,6,30,12,0,0,1,253,86,43,11,32,81,2,3,3,0,368,5,46,2,3,6
norwoja01,James Norwood,2,2,16,3,0,0,1,93,30,14,4,11,29,1,1,1,0,133,4,16,1,1,2
novaiv01,Ivan Nova,9,9,42,24,1,0,1,473,162,72,23,39,124,3,7,6,1,666,5,79,4,3,15
nunovi01,Vidal Nuno,2,2,23,3,0,0,1,128,41,19,7,15,39,2,1,2,0,181,6,20,1,1,3
oakstr01,Trevor Oaks,3,3,23,6,0,0,1,151,50,24,6,18,47,1,2,2,0,216,5,26,1,2,4
obergsc01,Scott Oberg,4,2,43,4,0,0,1,180,57,26,6,20,57,1,3,3,0,253,8,28,1,2,6
odayda01,Darren O'Day,2,2,27,3,0,0,2,120,35,17,5,14,42,1,1,2,0,168,7,19,1,1,3
odorija01,Jake Odorizzi,8,9,43,26,0,0,1,469,141,73,23,61,147,3,3,6,0,665,5,81,3,5,10
ogandal01,Alexi Ogando,1,2,13,3,0,0,1,75,24,12,3,10,24,1,1,1,0,107,3,13,1,1,2
ogradch01,Chris O'Grady,2,2,16,4,0,0,1,95,30,15,4,12,30,1,1,1,0,136,3,16,1,1,2
ohse01,Seunghwan Oh,2,2,28,3,0,0,4,122,37,17,5,13,40,2,2,2,0,171,10,18,1,1,3
okertst01,Steven Okert,2,2,21,3,0,0,1,95,29,14,4,11,30,1,1,2,0,134,4,16,1,1,2
olsonty01,Tyler Olson,2,2,29,4,0,0,1,122,37,18,5,15,41,1,2,2,0,172,5,19,1,1,4
ortizlu02,Luis Ortiz,3,3,22,5,0,0,1,135,44,21,6,17,42,1,2,2,0,194,5,24,1,2,4
osichjo01,Josh Osich,2,2,24,3,0,0,1,105,35,18,5,15,33,1,2,2,0,153,5,20,1,1,3
osunaro01,Roberto Osuna,3,3,30,3,0,0,10,132,38,18,5,12,45,1,2,2,0,181,17,19,1,1,3
oswalco01,Corey Oswalt,4,4,34,11,0,0,1,251,82,43,13,29,72,2,4,4,0,358,7,46,2,2,6
oteroda01,Dan Otero,3,2,41,4,0,0,1,178,59,26,8,15,50,2,1,2,0,248,11,28,1,1,7
ottavad01,Adam Ottavino,4,4,51,4,0,0,3,204,55,28,8,30,77,2,5,4,0,286,11,30,1,3,5
paganem01,Emilio Pagan,3,3,38,4,0,0,1,184,55,28,9,19,61,1,2,3,0,257,10,29,1,2,4
pannoth01,Thomas Pannone,4,3,28,8,0,0,1,197,60,30,9,23,58,1,2,3,0,278,6,32,1,2,4
pareded01,Eduardo Paredes,2,2,20,3,0,0,1,112,37,18,5,13,34,1,1,2,0,161,5,20,1,1,3
pareded02,Edward Paredes,2,1,17,3,0,0,1,88,27,14,4,10,28,1,1,1,0,124,3,15,1,1,2
parkebl01,Blake Parker,3,3,46,4,0,0,6,192,56,26,9,21,66,1,4,3,0,265,17,27,1,2,4
parsowe01,Wes Parsons,2,2,13,3,0,0,1,83,26,13,4,10,26,1,1,1,0,119,3,14,1,1,2
paulida01,David Paulino,2,2,15,4,0,0,1,96,31,15,5,11,31,1,2,1,0,136,4,16,1,1,3
paxtoja01,James Paxton,10,7,42,24,1,0,1,459,136,63,18,44,171,2,9,3,0,630,5,67,2,4,11
pazosja01,James Pazos,4,3,41,4,0,0,1,167,53,24,7,20,54,1,3,4,0,238,6,27,1,2,5
peacobr01,Brad Peacock,5,3,36,8,0,0,2,213,61,29,9,26,81,1,4,3,0,297,9,30,1,1,4
pelhacd01,CD Pelham,2,2,15,3,0,0,1,89,29,14,4,11,28,1,1,1,0,127,3,15,1,1,2
penafe01,Felix Pena,5,5,43,14,0,0,2,318,100,50,15,37,101,2,6,5,0,451,11,53,2,3,8
peralfr01,Freddy Peralta,6,5,37,13,0,0,2,295,81,45,12,41,103,2,4,5,1,412,7,48,2,2,8
peralwa01,Wandy Peralta,3,3,41,4,0,0,1,163,54,26,6,23,48,1,2,2,0,238,7,29,1,2,5
peralwi01,Wily Peralta,3,3,23,5,0,0,3,143,48,25,7,20,44,1,2,2,0,207,9,26,1,2,4
perdolu02,Luis Perdomo,5,7,30,14,0,0,1,284,104,51,11,36,79,3,6,5,1,416,5,56,2,2,12
perezci01,Cionel Perez,2,2,16,3,0,0,1,95,29,14,4,12,30,1,1,1,0,134,4,16,1,1,3
perezma02,Martin Perez,6,7,32,17,0,0,1,332,123,59,15,41,79,2,3,4,1,485,5,65,2,4,15
perezol01,Oliver Perez,2,2,36,3,0,0,1,130,38,18,5,15,45,2,2,3,0,181,5,20,1,1,3
peterdi01,Dillon Peters,4,4,28,9,0,0,1,203,67,35,9,28,60,1,4,3,0,293,6,37,1,2,6
peterti01,Tim Peterson,2,2,21,4,0,0,1,117,37,19,6,13,37,1,1,2,0,166,5,20,1,1,3
petityu01,Yusmeiro Petit,5,3,48,4,0,0,2,238,69,31,10,21,74,3,2,2,0,324,10,34,1,3,5
petrija01,Jake Petricka,3,2,31,4,0,0,1,150,53,25,7,18,47,1,3,3,0,219,6,27,1,1,6
phillev01,Evan Phillips,2,2,17,4,0,0,1,106,34,18,5,14,34,1,2,2,0,153,3,20,1,1,3
pivetni01,Nick Pivetta,8,11,47,26,0,0,1,471,156,84,23,56,165,1,8,6,1,671,6,88,5,5,14
plutkad01,Adam Plutko,5,5,34,11,0,0,2,266,86,45,16,30,79,2,4,3,1,377,8,47,1,2,5
pomerdr01,Drew Pomeranz,6,5,32,14,0,0,1,281,93,45,13,39,90,1,4,3,0,406,5,48,1,3,10
ponceda01,Daniel Ponce de Leon,3,3,25,6,0,0,1,165,49,23,6,20,52,1,2,2,0,231,5,25,1,2,5
porceri01,Rick Porcello,13,9,43,27,1,0,1,525,171,81,25,46,164,1,4,10,0,740,5,90,2,5,12
poundbr01,Brooks Pounders,2,2,19,3,0,0,1,101,35,18,5,11,33,1,1,2,0,146,7,19,1,1,3
poynebo01,Bobby Poyner,2,2,20,4,0,0,1,110,35,16,5,12,35,1,1,2,0,155,4,17,1,1,3
pressry01,Ryan Pressly,2,2,29,3,0,0,1,128,38,18,5,14,42,1,3,2,0,177,5,19,1,1,3
priceda01,David Price,12,7,41,22,1,0,1,459,139,65,20,46,151,1,3,7,0,639,5,69,2,4,10
pruitau01,Austin Pruitt,4,4,28,5,0,0,2,204,70,34,8,21,56,1,2,3,0,290,8,37,1,2,5
quackke01,Kevin Quackenbush,2,2,19,3,0,0,1,96,31,17,5,13,29,1,1,1,0,138,4,18,1,1,2
quintjo01,Jose Quintana,11,9,42,24,0,0,1,465,143,67,20,53,147,3,5,6,0,650,5,71,4,3,12
raineta01,Tanner Rainey,2,2,15,3,0,0,1,87,28,16,4,12,27,1,1,1,0,125,3,17,1,1,2
ramirca01,Carlos Ramirez,2,1,15,3,0,0,1,90,26,13,4,11,27,1,1,1,0,125,3,14,1,1,3
ramirer02,Erasmo Ramirez,4,6,36,12,0,0,1,267,87,44,15,28,77,2,3,4,0,379,6,48,2,4,8
ramirjc01,J. C. Ramirez,5,5,30,10,0,0,1,233,75,36,11,28,65,1,3,3,0,330,5,39,1,2,8
ramirjo02,Jose Ramirez,2,2,22,3,0,0,1,103,31,16,4,14,33,1,1,2,0,148,4,18,1,1,3
ramirne01,Neil Ramirez,2,3,31,4,0,0,1,143,44,23,7,20,49,1,2,2,0,206,7,25,1,1,3
ramirno01,Noe Ramirez,4,4,43,5,0,0,1,203,62,32,10,25,70,2,3,4,0,287,8,34,1,1,5
ramirye01,Yefry Ramirez,4,6,34,11,0,0,1,252,80,44,12,35,79,2,4,4,0,363,7,46,2,3,6
ramosaj01,AJ Ramos,2,2,24,3,0,0,4,109,33,17,4,16,37,1,2,1,0,156,9,18,1,1,3
ramosed02,Edubray Ramos,3,3,39,4,0,0,1,158,48,22,6,20,53,2,3,2,0,223,9,24,1,1,4
ravinjo01,Josh Ravin,1,2,14,3,0,0,1,84,25,13,4,11,27,1,1,1,0,119,3,14,1,1,2
rayro02,Robbie Ray,9,6,39,22,0,0,1,417,119,60,19,62,166,3,6,5,0,589,5,64,2,2,10
reedad01,Addison Reed,3,3,39,4,0,0,1,166,52,24,8,17,52,2,2,2,0,233,8,26,1,2,4
reedco01,Cody Reed,3,4,29,8,0,0,1,191,62,31,9,25,61,2,3,3,0,276,6,34,2,2,6
reidfse01,Sean Reid-Foley,5,5,34,10,0,0,2,237,74,38,11,32,79,1,4,3,0,339,7,42,1,2,6
reiniza01,Zac Reininger,2,2,20,4,0,0,1,112,38,19,6,14,34,1,2,1,0,161,5,20,1,1,3
reyesal02,Alex Reyes,4,3,29,7,0,0,2,190,58,27,7,24,61,1,3,3,0,268,6,29,1,2,5
reyesje01,Jesus Reyes,2,2,14,3,0,0,1,85,26,13,4,10,26,1,1,1,0,120,3,14,1,1,2
rhameja01,Jacob Rhame,2,3,25,4,0,0,1,128,43,22,7,15,40,1,1,2,0,184,7,23,1,1,3
richacl01,Clayton Richard,7,10,41,23,1,0,1,467,163,81,19,55,123,3,6,7,1,670,5,87,4,4,20
richaga01,Garrett Richards,5,6,36,15,0,0,1,301,89,42,12,38,101,1,9,3,0,424,6,50,2,2,9
richatr01,Trevor Richards,6,8,43,19,0,0,2,376,119,59,15,49,124,4,7,5,1,537,7,63,4,4,9
riosya01,Yacksel Rios,3,2,27,4,0,0,1,136,45,23,6,17,44,1,2,2,0,196,7,25,1,1,4
riverfe01,Felipe Vazquez,4,3,49,4,0,0,14,204,59,25,6,24,74,1,3,3,0,286,26,28,1,1,4
roarkta01,Tanner Roark,10,11,42,25,0,0,1,495,158,76,20,54,144,3,5,8,0,697,5,82,4,4,16
roberda08,David Robertson,5,3,43,4,0,0,5,187,50,24,7,23,69,2,2,2,0,259,11,27,2,2,4
robleha01,Hansel Robles,3,3,32,3,0,0,1,146,44,22,6,20,48,1,2,2,0,208,7,23,1,2,4
rodnefe01,Fernando Rodney,2,2,27,3,0,0,6,118,36,18,4,17,39,1,3,2,0,168,11,20,1,1,3
rodonca01,Carlos Rodon,7,8,37,19,0,0,1,386,117,59,17,51,117,2,6,8,0,549,5,64,2,3,12
rodride01,Dereck Rodriguez,6,5,40,16,0,0,2,352,104,46,12,39,101,2,3,6,0,491,7,51,2,3,10
rodried05,Eduardo Rodriguez,9,7,40,21,0,0,1,407,126,62,18,49,141,2,3,5,0,578,5,64,1,4,7
rodrije01,Jefry Rodriguez,4,4,30,9,0,0,1,217,66,36,10,33,65,3,3,3,0,312,6,39,2,2,5
rodriri04,Ricardo Rodriguez,2,2,16,3,0,0,1,90,30,14,4,10,28,1,1,1,0,129,3,15,1,1,2
rodriri05,Richard Rodriguez,3,3,38,5,0,0,1,181,55,25,7,20,63,2,5,3,0,253,10,27,1,1,5
roech01,Chaz Roe,2,3,35,4,0,0,1,151,43,22,6,18,50,1,2,4,0,210,6,23,1,1,5
rogerjo01,Josh Rogers,4,4,31,8,0,0,2,202,66,33,9,25,62,1,3,3,0,289,6,36,1,2,5
rogerta01,Taylor Rogers,4,3,49,4,0,0,1,194,57,26,7,21,64,2,2,3,0,268,7,27,1,2,6
romansa01,Sal Romano,7,9,44,20,0,0,1,394,132,68,18,49,109,4,6,5,0,571,6,74,4,5,9
romeren01,Enny Romero,2,2,21,3,0,0,1,98,32,16,5,13,33,1,1,1,0,142,5,18,0,1,3
romerfe01,Fernando Romero,5,5,36,12,0,0,2,270,88,43,11,32,82,2,6,6,0,387,7,46,2,4,7
romose01,Sergio Romo,3,3,45,6,0,0,8,188,57,27,8,20,63,1,3,2,0,262,16,28,1,2,5
rondobr01,Bruce Rondon,3,3,27,3,0,0,1,124,41,23,5,19,44,1,3,2,0,182,5,25,1,1,3
rondohe01,Hector Rondon,3,3,44,4,0,0,6,180,56,26,7,20,62,1,2,2,0,252,14,28,1,1,5
rosarra01,Randy Rosario,3,2,30,4,0,0,1,149,48,23,6,19,43,1,2,2,0,213,6,25,1,1,5
rosscza01,Zac Rosscup,2,2,18,3,0,0,1,94,29,15,4,11,32,1,1,1,0,132,4,16,1,1,2
rossjo01,Joe Ross,4,4,27,11,0,0,1,230,78,36,11,25,69,2,3,3,0,328,5,39,3,2,6
rossty01,Tyson Ross,3,2,19,6,0,0,1,140,44,24,5,20,40,1,2,3,0,201,3,26,1,2,4
rowlech01,Chris Rowley,2,2,13,3,0,0,1,82,26,14,4,10,25,1,1,1,0,117,3,15,0,1,2
rucindr01,Drew Rucinski,3,2,24,4,0,0,1,129,41,20,5,16,39,2,2,2,0,184,5,22,1,1,3
ruizjo01,Jose Ruiz,2,1,14,3,0,0,1,84,26,13,4,10,27,1,2,1,0,119,3,14,1,1,2
rumbeni01,Nick Rumbelow,2,2,17,3,0,0,1,102,32,16,5,12,32,1,2,2,0,145,4,17,1,1,3
rusinch01,Chris Rusin,3,3,36,4,0,0,1,180,57,28,7,21,54,1,3,2,1,254,7,31,2,2,6
ryuhy01,Hyun-Jin Ryu,7,6,36,17,0,0,2,338,105,44,15,35,110,2,3,4,0,471,6,49,2,2,10
rzepcma01,Marc Rzepczynski,2,2,21,3,0,0,1,87,27,13,3,11,27,1,1,1,0,123,3,14,1,1,3
sabatcc01,CC Sabathia,10,7,40,24,0,0,1,440,140,63,19,51,131,1,4,8,0,627,5,69,2,2,11
sadleca02,Casey Sadler,1,1,13,3,0,0,1,82,26,13,3,10,26,1,1,1,0,117,3,14,1,1,2
sadzeco01,Connor Sadzeck,2,2,19,4,0,0,1,106,32,15,4,14,33,1,2,2,0,151,4,17,1,1,3
salasfe01,Fernando Salas,3,3,29,4,0,0,1,137,42,21,6,15,41,2,2,2,0,192,7,22,1,2,4
salech01,Chris Sale,11,6,39,23,1,0,1,480,126,54,17,40,202,1,4,10,0,645,4,58,2,4,9
samarje01,Jeff Samardzija,5,7,28,15,0,0,1,305,98,50,13,30,92,2,3,3,0,427,4,52,2,3,7
sampsad01,Adrian Sampson,3,4,28,8,0,0,1,195,62,30,10,22,58,1,3,3,1,275,6,33,1,2,6
sanchaa01,Aaron Sanchez,6,6,36,18,0,0,1,352,112,54,13,50,102,2,4,5,0,509,5,60,1,3,11
sanchan01,Anibal Sanchez,7,8,41,20,0,0,1,405,131,65,20,44,130,1,5,5,1,574,7,70,4,4,8
santaed01,Edgar Santana,3,3,41,4,0,0,1,181,56,26,7,19,55,2,2,3,0,254,7,27,1,1,5
santaer01,Ervin Santana,5,4,26,13,1,1,1,274,84,40,13,29,77,1,4,4,1,382,4,43,1,3,6
santihe01,Hector Santiago,5,5,36,10,0,0,2,262,85,44,14,39,80,2,2,4,1,381,12,47,1,2,6
santolu01,Luis Santos,2,2,20,4,0,0,1,118,38,19,6,14,38,1,2,2,0,168,5,20,1,1,3
saupowa01,Warwick Saupold,3,2,29,4,0,0,1,145,49,23,7,19,40,2,2,3,0,211,8,25,1,2,4
scahiro01,Rob Scahill,2,2,16,3,0,0,1,88,28,13,4,11,26,1,1,2,0,126,4,15,0,1,3
scherma01,Max Scherzer,14,7,43,27,1,0,1,561,138,62,22,51,231,3,4,9,1,748,5,66,4,3,10
schulja02,Jaime Schultz,2,2,22,4,0,0,1,126,37,20,6,17,41,1,2,2,0,177,5,22,1,1,3
scottro02,Robby Scott,2,2,21,3,0,0,1,95,29,15,5,12,30,1,2,2,0,136,5,16,1,1,2
scottta01,Tanner Scott,3,3,33,4,0,0,1,159,51,27,7,22,57,1,4,2,0,229,6,28,1,1,4
scribtr01,Troy Scribner,4,4,30,8,0,0,1,194,59,30,9,25,60,1,2,3,0,276,7,33,1,2,5
senzaan01,Antonio Senzatela,7,6,38,14,0,0,1,320,103,51,13,37,90,2,3,4,1,453,6,54,2,3,10
severlu01,Luis Severino,14,8,47,27,0,0,1,538,159,72,20,51,195,1,7,6,0,741,6,78,2,3,13
sewalpa01,Paul Sewald,2,5,37,4,0,0,1,179,58,31,8,22,59,2,2,2,0,257,8,33,2,2,5
shackke01,Kevin Shackelford,2,2,17,3,0,0,1,96,31,15,4,12,31,1,1,2,0,138,4,17,1,1,3
shafeju01,Justin Shafer,2,2,14,3,0,0,1,89,27,13,4,11,27,1,1,1,0,126,3,15,1,1,2
shawbr01,Bryan Shaw,3,4,45,4,0,0,1,178,59,28,7,23,57,2,4,2,0,255,9,32,1,2,7
sheffju01,Justus Sheffield,2,1,13,3,0,0,1,82,26,13,4,10,25,1,1,1,0,116,3,14,1,1,2
sherfji01,Jimmie Sherfy,2,2,19,3,0,0,1,103,30,14,4,13,33,1,1,2,0,145,4,15,1,1,2
sherrry01,Ryan Sherriff,2,2,15,3,0,0,1,88,28,13,4,10,27,1,1,1,0,125,3,14,1,1,2
shielja02,James Shields,7,12,45,26,0,0,1,505,162,88,29,66,139,2,8,7,1,727,6,96,2,4,10
shiplbr01,Braden Shipley,2,2,13,4,0,0,1,91,30,15,4,12,27,1,1,1,0,131,3,16,1,1,3
shoemma01,Matt Shoemaker,5,5,27,12,0,0,1,247,79,39,11,26,77,1,3,4,0,347,4,41,1,2,7
shrevch01,Chasen Shreve,2,2,24,3,0,0,1,111,34,17,5,15,37,1,2,1,0,158,6,18,1,1,2
simslu01,Lucas Sims,2,2,15,4,0,0,1,103,33,17,5,13,31,1,1,2,0,147,3,18,1,1,2
sippto01,Tony Sipp,2,2,37,3,0,0,1,141,43,21,6,17,46,1,2,2,0,199,7,22,1,2,4
skaggty01,Tyler Skaggs,7,9,41,21,0,0,1,396,131,61,16,45,128,1,4,6,1,563,6,65,1,4,13
skogler01,Eric Skoglund,4,6,37,14,0,0,2,286,93,50,13,33,82,1,4,5,0,408,6,53,1,2,8
slegeaa01,Aaron Slegers,3,3,23,6,0,0,1,154,49,25,7,18,45,1,2,2,0,219,5,27,1,1,4
smithbu03,Burch Smith,3,4,33,7,0,0,1,209,70,39,10,29,67,2,2,3,0,304,10,41,1,3,5
smithca02,Carson Smith,2,2,19,3,0,0,1,98,31,14,4,12,32,1,1,1,0,139,4,16,1,1,3
smithca03,Caleb Smith,6,6,39,15,0,0,2,303,92,49,13,40,102,2,3,4,0,430,8,51,2,3,6
smithdr01,Drew Smith,2,2,22,4,0,0,1,119,39,18,5,13,36,1,2,2,0,169,5,19,1,1,3
smithjo05,Joe Smith,3,2,34,4,0,0,1,146,43,21,6,15,47,1,2,2,0,202,7,23,1,1,4
smithmu01,Murphy Smith,1,1,13,3,0,0,1,79,25,12,3,9,24,1,1,1,0,113,3,13,0,1,2
smithwi04,Will Smith,3,3,33,4,0,0,5,154,44,21,5,18,55,2,2,2,0,214,11,23,1,2,3
smokejo01,Josh Smoker,2,2,19,3,0,0,1,94,30,15,4,13,32,1,1,1,0,136,3,16,1,1,2
snellbl01,Blake Snell,13,8,45,26,0,0,1,496,132,58,17,65,176,2,10,3,0,679,5,64,3,3,15
sneltdj01,D. J. Snelten,2,1,13,3,0,0,1,82,27,13,4,10,26,1,1,1,0,118,3,14,1,1,2
sobotch01,Chad Sobotka,2,2,17,3,0,0,1,98,29,14,4,13,33,1,2,1,0,138,4,15,1,1,2
socolmi01,Miguel Socolovich,1,2,15,3,0,0,1,87,28,15,4,10,27,1,1,1,0,124,4,16,0,1,2
solissa01,Sammy Solis,2,2,35,4,0,0,1,141,44,24,6,19,47,1,3,2,0,202,6,25,1,1,4
soriajo01,Joakim Soria,3,2,29,3,0,0,1,123,38,18,4,14,41,1,2,2,0,173,5,20,1,1,4
sorokmi01,Mike Soroka,5,4,33,10,0,0,2,228,74,34,9,26,70,1,4,3,0,324,7,38,2,2,6
sparkgl01,Glenn Sparkman,2,3,24,6,0,0,1,156,53,25,6,19,46,2,3,2,0,226,5,27,1,3,4
sprinje01,Jeffrey Springs,2,2,22,5,0,0,1,136,43,20,6,17,43,1,2,2,0,194,5,22,1,1,4
stammcr01,Craig Stammen,5,3,47,4,0,0,1,214,63,28,8,22,71,2,3,3,0,296,7,30,2,1,7
stanery01,Ryne Stanek,4,4,49,16,0,0,1,234,69,34,11,30,82,2,5,3,0,326,10,36,1,2,6
steckdr01,Drew Steckenrider,3,3,43,4,0,0,2,183,55,26,7,24,65,2,2,2,0,260,10,29,1,2,4
stephja01,Jackson Stephens,3,3,25,5,0,0,1,143,47,23,7,17,44,1,2,2,0,207,7,26,1,1,3
stephro01,Robert Stephenson,4,4,27,9,0,0,1,200,65,34,9,31,64,2,4,3,1,293,6,38,2,3,5
stewabr01,Brock Stewart,2,2,21,5,0,0,1,136,44,22,6,18,42,2,2,2,0,197,5,24,1,1,4
stewako01,Kohl Stewart,4,3,26,7,0,0,1,187,58,28,7,24,55,1,3,3,0,266,5,30,1,1,6
stockro01,Robert Stock,2,2,25,4,0,0,1,134,42,19,5,16,42,1,2,2,0,189,5,20,1,1,4
stouter01,Eric Stout,1,1,13,3,0,0,1,80,26,13,4,10,25,1,1,1,0,114,3,14,1,1,2
strahma01,Matt Strahm,4,4,36,6,0,0,1,191,54,26,8,25,65,2,3,3,0,267,6,28,1,1,5
straida01,Dan Straily,8,7,38,22,0,0,1,415,126,63,21,52,124,4,3,6,0,585,4,67,5,4,9
strasst01,Stephen Strasburg,11,6,38,21,0,0,1,425,122,55,16,44,158,3,4,6,0,587,5,60,2,4,9
stratch01,Chris Stratton,9,8,44,20,0,0,2,408,136,68,17,52,116,2,5,4,0,583,8,72,3,5,12
strichu01,Hunter Strickland,3,3,40,3,0,0,4,160,50,22,6,21,49,2,3,2,0,229,14,25,1,2,4
stripro01,Ross Stripling,7,7,47,14,0,0,2,346,111,47,15,32,115,3,4,3,0,482,9,49,2,2,9
stromma01,Marcus Stroman,7,8,35,20,0,0,1,396,134,61,14,43,111,1,4,4,1,560,4,67,2,3,16
stroppe01,Pedro Strop,4,3,45,4,0,0,4,180,49,23,6,22,59,2,4,3,0,249,10,24,1,1,6
stumpda01,Daniel Stumpf,2,3,38,4,0,0,1,145,48,23,6,18,45,1,2,2,0,207,7,25,1,2,4
suarean01,Andrew Suarez,7,10,45,21,0,0,2,426,139,68,19,45,124,2,5,4,0,595,7,73,4,5,16
suarera01,Ranger Suarez,3,3,28,7,0,0,1,182,59,28,8,22,56,2,2,2,1,259,6,32,1,2,6
suerowa01,Wander Suero,3,2,28,4,0,0,1,147,46,22,6,17,47,1,2,3,0,208,7,23,1,1,3
suterbr01,Brent Suter,7,6,40,17,0,0,1,345,113,52,16,32,100,2,3,4,0,484,6,56,3,2,7
swarzan01,Anthony Swarzak,2,2,25,3,0,0,2,121,38,19,6,15,41,1,2,2,0,171,6,20,1,1,3
syndeno01,Noah Syndergaard,10,6,40,21,1,0,1,426,134,53,12,40,145,2,5,5,0,593,5,58,3,3,10
taillja01,Jameson Taillon,11,9,45,26,1,0,1,510,166,71,18,50,158,3,5,6,0,714,5,74,5,3,14
tanakma01,Masahiro Tanaka,11,7,40,24,1,1,1,465,145,69,24,40,153,1,5,6,0,643,5,74,2,3,12
tarplst01,Stephen Tarpley,2,2,15,3,0,0,1,90,28,13,4,11,29,1,1,1,0,128,3,15,1,1,2
taylobe03,Ben Taylor,2,2,16,3,0,0,1,90,29,14,4,11,29,1,1,1,0,129,4,15,1,1,2
tazawju01,Junichi Tazawa,2,2,22,3,0,0,1,102,32,16,5,12,30,1,2,1,0,145,4,17,1,1,3
teherju01,Julio Teheran,9,10,43,26,0,0,1,503,143,75,24,65,150,3,5,8,1,703,5,80,4,4,11
teperry01,Ryan Tepera,4,3,47,4,0,0,3,194,56,28,8,24,64,2,4,4,0,270,11,30,1,2,6
thompja03,Jake Thompson,2,2,16,5,0,0,1,116,37,18,5,16,34,1,2,2,0,168,4,20,1,1,4
thornty01,Tyler Thornburg,2,2,22,3,0,0,2,110,34,17,5,14,36,1,2,2,0,156,6,18,1,1,3
tillmch01,Chris Tillman,4,6,29,13,0,0,1,246,88,50,13,35,67,1,6,4,0,364,4,52,1,2,8
tomlijo01,Josh Tomlin,5,5,29,12,0,0,1,248,90,44,16,18,66,1,3,3,0,353,8,47,1,2,6
torreca01,Carlos Torres,2,2,23,3,0,0,1,109,34,16,5,14,33,1,1,2,0,155,6,18,1,1,3
toussto01,Touki Toussaint,4,3,29,8,0,0,1,200,59,30,7,28,65,2,3,3,0,284,6,32,1,2,6
treinbl01,Blake Treinen,5,3,47,4,0,0,13,206,55,21,6,23,72,2,4,2,0,282,24,24,1,1,6
triggan01,Andrew Triggs,5,5,33,12,0,0,1,261,83,42,12,30,81,1,5,5,0,373,6,47,1,3,6
trivilo01,Lou Trivino,5,3,40,5,0,0,2,189,54,26,8,24,63,2,3,2,0,263,7,27,1,1,6
tropeni01,Nick Tropeano,6,6,35,14,0,0,1,294,91,46,16,38,90,2,4,4,0,414,6,49,1,3,8
tsengje01,Jen-Ho Tseng,4,3,30,8,0,0,2,189,60,30,9,22,61,1,3,3,0,269,6,33,1,2,5
tuivasa01,Sam Tuivailala,2,2,18,3,0,0,1,97,30,14,4,11,30,1,2,1,0,136,5,15,1,1,3
turnbsp01,Spencer Turnbull,3,4,27,7,0,0,1,180,57,29,7,21,57,1,3,2,1,255,6,31,1,2,5
turneja01,Jacob Turner,4,4,32,7,0,0,1,194,65,33,10,25,57,1,3,3,0,281,8,37,1,2,5
underdu01,Duane Underwood,4,4,30,8,0,0,2,190,59,29,8,23,60,1,3,3,0,269,6,31,1,2,5
urenajo01,Jose Urena,10,10,47,25,0,0,1,495,151,75,21,56,130,6,4,11,1,694,6,79,4,4,15
uriasju01,Julio Urias,2,2,13,4,0,0,1,91,29,14,3,11,29,1,1,1,0,129,3,15,1,1,3
valdefr01,Framber Valdez,4,3,28,8,0,0,1,200,58,27,8,28,63,1,4,4,0,282,5,30,1,1,7
valdejo03,Jose Valdez,2,2,16,3,0,0,1,88,28,15,5,11,28,1,1,1,0,125,4,16,0,1,2
vargaja01,Jason Vargas,9,8,37,20,0,0,1,364,121,61,18,41,106,2,3,5,0,518,5,63,3,3,11
vasquan02,Andrew Vasquez,2,2,15,3,0,0,1,84,26,13,3,10,27,1,1,2,0,120,3,14,1,1,2
vastoje01,Jerry Vasto,2,2,14,3,0,0,1,81,25,12,4,10,26,1,1,1,0,115,3,13,1,1,2
velasvi01,Vince Velasquez,8,10,43,24,0,0,1,423,135,71,19,55,145,2,6,6,0,603,6,76,5,4,10
velazhe01,Hector Velazquez,5,3,37,8,0,0,1,226,76,31,9,25,62,1,3,4,0,322,10,34,1,2,8
vendipa01,Pat Venditte,2,2,17,3,0,0,1,95,29,14,4,11,29,1,1,2,0,133,4,15,1,1,3
ventejo01,Jonny Venters,3,2,20,3,0,0,1,104,32,16,4,13,32,1,2,2,0,147,4,17,1,1,3
verhadr01,Drew VerHagen,3,3,33,5,0,0,1,172,55,29,8,20,52,1,4,2,0,243,6,30,1,2,5
verlaju01,Justin Verlander,12,7,43,24,1,0,1,500,131,56,22,40,197,1,5,6,1,667,5,60,2,4,7
vieirth01,Thyago Vieira,2,2,18,4,0,0,1,104,33,17,5,13,32,1,3,2,0,149,5,18,1,1,2
vinceni01,Nick Vincent,3,3,45,4,0,0,1,178,55,26,7,18,56,3,1,2,0,250,7,28,2,2,4
vizcaar01,Arodys Vizcaino,3,3,35,4,0,0,7,150,44,20,6,19,50,1,3,2,0,211,16,22,1,1,4
volstch01,Chris Volstad,2,4,26,5,0,0,1,153,53,26,8,17,43,1,2,3,0,219,5,28,1,2,5
vothau01,Austin Voth,3,3,23,6,0,0,1,148,46,24,7,18,46,1,2,2,0,210,5,25,1,2,4
wachami01,Michael Wacha,8,6,35,19,0,0,1,358,115,54,14,43,109,2,4,3,0,508,5,59,3,4,10
wahlbo01,Bobby Wahl,2,2,15,3,0,0,1,86,28,14,4,11,28,1,1,1,0,124,3,15,1,1,2
wainwad01,Adam Wainwright,6,5,28,14,0,0,1,270,93,45,11,32,79,2,2,4,0,389,4,48,3,3,9
waldema01,Marcus Walden,2,2,15,3,0,0,1,96,30,15,4,11,30,1,2,1,0,136,4,16,1,1,3
walketa01,Taijuan Walker,5,5,27,13,0,0,1,250,79,36,11,30,77,2,3,4,0,357,4,41,2,3,6
warread01,Adam Warren,3,2,25,3,0,0,1,124,36,17,5,14,38,1,2,2,0,173,5,19,1,1,3
watsoto01,Tony Watson,3,4,43,4,0,0,2,177,52,23,6,18,58,2,1,2,0,245,8,25,2,2,5
weavelu01,Luke Weaver,8,9,43,20,0,0,1,392,133,65,17,48,126,2,4,4,0,567,7,71,5,3,10
webbty01,Tyler Webb,2,2,18,3,0,0,1,99,32,14,4,12,31,1,1,2,0,140,4,16,1,1,3
weberry01,Ryan Weber,1,2,13,3,0,0,1,84,27,13,4,9,25,1,1,1,0,119,3,14,1,1,2
webstal01,Allen Webster,2,1,13,3,0,0,1,80,25,12,3,9,25,1,1,2,0,113,3,13,0,1,2
weissza01,Zack Weiss,1,1,12,3,0,0,1,76,24,12,4,9,24,1,1,1,0,108,3,13,0,1,2
wendejb01,J. B. Wendelken,2,2,17,3,0,0,1,102,31,15,4,12,32,1,2,1,0,143,4,16,1,1,3
whalero01,Robert Whalen,1,2,13,3,0,0,1,85,26,13,4,10,26,1,1,2,0,120,3,14,1,1,2
wheelza01,Zach Wheeler,9,8,45,24,0,0,2,479,145,69,18,55,154,2,4,7,1,671,6,73,4,4,14
whitlch01,Chase Whitley,2,1,16,3,0,0,1,93,29,14,4,11,28,1,1,1,0,132,4,16,1,1,2
wickro01,Rowan Wick,2,2,15,3,0,0,1,89,29,14,4,10,28,1,1,1,0,126,3,15,1,1,2
wieckbr01,Brad Wieck,2,2,14,3,0,0,1,86,26,13,4,10,28,1,1,1,0,121,3,14,1,1,2
wilkeaa01,Aaron Wilkerson,2,2,19,5,0,0,1,126,40,21,6,15,40,1,2,2,0,179,5,22,1,1,3
williau01,Austen Williams,2,2,15,3,0,0,1,91,28,14,5,11,28,1,1,1,0,129,4,15,1,1,2
willita01,Taylor Williams,2,3,34,4,0,0,1,157,50,24,6,20,51,2,3,2,0,225,7,26,2,2,4
willitr01,Trevor Williams,11,9,47,25,0,0,1,487,149,67,17,55,133,3,4,6,0,682,6,73,5,4,13
wilsoal01,Alex Wilson,3,3,44,4,0,0,1,183,57,26,7,19,51,2,3,2,0,255,8,29,1,2,5
wilsobr02,Bryse Wilson,3,2,20,5,0,0,1,126,40,20,5,16,39,1,2,2,0,179,5,21,1,1,4
wilsoju10,Justin Wilson,3,3,41,4,0,0,1,161,49,24,6,24,57,1,3,2,0,231,8,26,1,1,5
wingetr01,Trey Wingenter,2,2,20,4,0,0,1,106,32,16,5,14,35,1,2,2,0,150,4,17,1,1,2
winklda01,Dan Winkler,3,2,39,4,0,0,2,170,50,24,6,20,58,1,2,3,0,238,7,27,1,1,4
wislema01,Matt Wisler,2,2,16,4,0,0,1,106,35,18,5,12,31,1,1,1,0,152,3,19,1,1,2
wittgni01,Nick Wittgren,3,2,30,3,0,0,1,139,44,20,5,16,44,2,2,2,0,198,5,22,1,2,3
woodal02,Alex Wood,10,6,43,22,0,0,1,437,132,58,15,43,137,4,4,7,1,608,5,64,3,4,12
woodbl01,Blake Wood,2,2,19,3,0,0,1,96,30,14,4,12,31,1,2,1,0,136,4,15,1,1,3
woodhu01,Hunter Wood,3,3,30,7,0,0,1,169,54,25,7,21,54,1,2,2,0,240,6,27,1,2,4
woodrbr01,Brandon Woodruff,3,3,25,7,0,0,1,177,55,27,7,21,56,1,2,3,0,249,5,29,1,1,4
workmbr01,Brandon Workman,3,2,31,4,0,0,1,148,45,21,7,17,46,1,2,2,0,207,6,23,1,2,4
wrighky01,Kyle Wright,2,2,14,3,0,0,1,87,27,13,4,11,27,1,1,1,0,123,3,14,1,1,2
wrighmi01,Mike Wright,3,3,35,6,0,0,1,213,74,38,10,27,65,1,3,5,0,312,9,41,1,3,6
wrighst01,Steven Wright,4,3,23,7,0,0,1,180,56,26,8,23,52,1,2,3,0,255,4,29,1,1,6
yacabji01,Jimmy Yacabonis,3,3,31,8,0,0,1,205,65,33,10,27,60,2,4,4,0,293,7,35,1,2,6
yarbrry01,Ryan Yarbrough,9,5,38,8,0,0,1,314,99,47,13,37,95,3,3,5,0,446,6,51,1,2,8
yateski01,Kirby Yates,4,4,45,4,0,0,4,185,52,25,8,21,72,1,2,3,0,256,13,26,1,2,4
zagurmi01,Mike Zagurski,1,2,12,3,0,0,1,75,24,13,3,9,24,1,1,1,0,107,3,13,0,1,2
zamorda01,Daniel Zamora,2,2,17,3,0,0,1,90,28,13,4,11,30,1,1,1,0,127,4,15,1,1,2
zastrro01,Rob Zastryzny,2,1,14,3,0,0,1,88,28,14,4,11,27,1,1,2,0,126,3,15,0,1,2
zieglbr01,Brad Ziegler,2,2,27,3,0,0,2,118,39,18,4,14,33,2,1,2,0,168,6,19,1,1,4
zimmejo02,Jordan Zimmermann,8,9,40,22,0,0,1,420,151,75,24,39,113,1,3,5,0,602,5,81,2,5,10
